,Nation,Total,Einreisen,WiederaufnahmenAufenthalt,Geburten,,Asylgewährungen,KantonaleRegelungen,Weggang nach Asylbzw. Dublinentscheid,Total.1,"Kontrollierte, selbständige Ausreisen",Rückführungen Heimatstaat,Rückführungen Drittstaat,RückführungenDublinstaat,Unkontrollierte Abreisen,Andere Abgänge ,.1,.2,.3,.4,Datum,file_name
0,Ägypten,33.0,24.0,9.0,0.0,22.0,15.0,7.0,14.0,22.0,4.0,1.0,0.0,0.0,6.0,11.0,,,,,2020-12-01,7-30-Bew-Aufenthalte-Asyl-J-d-2019-12.xlsx
1,Algerien,1136.0,982.0,150.0,4.0,590.0,4.0,5.0,363.0,1231.0,30.0,11.0,1.0,133.0,889.0,167.0,,,,,2020-12-01,7-30-Bew-Aufenthalte-Asyl-J-d-2019-12.xlsx
2,Angola,101.0,70.0,21.0,10.0,49.0,3.0,41.0,50.0,63.0,4.0,0.0,0.0,20.0,16.0,23.0,,,,,2020-12-01,7-30-Bew-Aufenthalte-Asyl-J-d-2019-12.xlsx
3,Äquatorialguinea,1.0,1.0,0.0,0.0,0.0,0.0,0.0,0.0,1.0,0.0,0.0,0.0,0.0,0.0,1.0,,,,,2020-12-01,7-30-Bew-Aufenthalte-Asyl-J-d-2019-12.xlsx
4,Äthiopien,177.0,49.0,67.0,61.0,121.0,61.0,68.0,149.0,176.0,14.0,4.0,2.0,3.0,50.0,103.0,,,,,2020-12-01,7-30-Bew-Aufenthalte-Asyl-J-d-2019-12.xlsx
5,Benin,9.0,6.0,1.0,2.0,4.0,0.0,4.0,7.0,4.0,0.0,0.0,0.0,0.0,3.0,1.0,,,,,2020-12-01,7-30-Bew-Aufenthalte-Asyl-J-d-2019-12.xlsx
6,Burkina Faso,21.0,6.0,15.0,0.0,3.0,1.0,1.0,13.0,13.0,1.0,0.0,0.0,0.0,7.0,5.0,,,,,2020-12-01,7-30-Bew-Aufenthalte-Asyl-J-d-2019-12.xlsx
7,Burundi,34.0,33.0,0.0,1.0,4.0,36.0,4.0,1.0,5.0,1.0,0.0,0.0,1.0,0.0,3.0,,,,,2020-12-01,7-30-Bew-Aufenthalte-Asyl-J-d-2019-12.xlsx
8,Côte d'Ivoire,41.0,28.0,9.0,4.0,14.0,6.0,7.0,23.0,26.0,2.0,0.0,0.0,2.0,12.0,10.0,,,,,2020-12-01,7-30-Bew-Aufenthalte-Asyl-J-d-2019-12.xlsx
9,Dschibuti,2.0,1.0,1.0,0.0,5.0,1.0,0.0,2.0,6.0,0.0,0.0,0.0,1.0,4.0,1.0,,,,,2020-12-01,7-30-Bew-Aufenthalte-Asyl-J-d-2019-12.xlsx
10,Eritrea,1837.0,583.0,156.0,1098.0,254.0,1351.0,703.0,311.0,424.0,22.0,0.0,6.0,2.0,225.0,169.0,,,,,2020-12-01,7-30-Bew-Aufenthalte-Asyl-J-d-2019-12.xlsx
11,Gabun,1.0,1.0,0.0,0.0,4.0,0.0,0.0,3.0,2.0,0.0,0.0,0.0,1.0,0.0,1.0,,,,,2020-12-01,7-30-Bew-Aufenthalte-Asyl-J-d-2019-12.xlsx
12,Gambia,41.0,37.0,4.0,0.0,37.0,1.0,3.0,29.0,59.0,5.0,1.0,0.0,7.0,29.0,17.0,,,,,2020-12-01,7-30-Bew-Aufenthalte-Asyl-J-d-2019-12.xlsx
13,Ghana,23.0,12.0,7.0,4.0,17.0,0.0,3.0,15.0,29.0,6.0,0.0,0.0,3.0,4.0,16.0,,,,,2020-12-01,7-30-Bew-Aufenthalte-Asyl-J-d-2019-12.xlsx
14,Guinea,91.0,74.0,15.0,2.0,70.0,3.0,9.0,59.0,109.0,9.0,3.0,3.0,10.0,59.0,25.0,,,,,2020-12-01,7-30-Bew-Aufenthalte-Asyl-J-d-2019-12.xlsx
15,Guinea-Bissau,8.0,6.0,2.0,0.0,5.0,0.0,1.0,1.0,10.0,1.0,0.0,0.0,1.0,6.0,2.0,,,,,2020-12-01,7-30-Bew-Aufenthalte-Asyl-J-d-2019-12.xlsx
16,Kamerun,57.0,41.0,12.0,4.0,20.0,6.0,16.0,16.0,39.0,4.0,1.0,0.0,0.0,14.0,20.0,,,,,2020-12-01,7-30-Bew-Aufenthalte-Asyl-J-d-2019-12.xlsx
17,Kapverden,1.0,0.0,0.0,1.0,0.0,0.0,0.0,0.0,1.0,0.0,0.0,0.0,0.0,0.0,1.0,,,,,2020-12-01,7-30-Bew-Aufenthalte-Asyl-J-d-2019-12.xlsx
18,Kenia,4.0,2.0,0.0,2.0,2.0,0.0,2.0,2.0,4.0,1.0,0.0,0.0,0.0,2.0,1.0,,,,,2020-12-01,7-30-Bew-Aufenthalte-Asyl-J-d-2019-12.xlsx
19,Kongo,4.0,4.0,0.0,0.0,3.0,1.0,1.0,2.0,3.0,0.0,0.0,0.0,0.0,3.0,0.0,,,,,2020-12-01,7-30-Bew-Aufenthalte-Asyl-J-d-2019-12.xlsx
20,Kongo DR,130.0,73.0,28.0,29.0,42.0,9.0,69.0,55.0,44.0,8.0,0.0,1.0,3.0,16.0,16.0,,,,,2020-12-01,7-30-Bew-Aufenthalte-Asyl-J-d-2019-12.xlsx
21,Liberia,1.0,1.0,0.0,0.0,5.0,0.0,4.0,1.0,6.0,0.0,0.0,0.0,1.0,2.0,3.0,,,,,2020-12-01,7-30-Bew-Aufenthalte-Asyl-J-d-2019-12.xlsx
22,Libyen,151.0,133.0,14.0,4.0,35.0,4.0,18.0,32.0,127.0,6.0,0.0,1.0,12.0,89.0,19.0,,,,,2020-12-01,7-30-Bew-Aufenthalte-Asyl-J-d-2019-12.xlsx
23,Madagaskar,1.0,0.0,0.0,1.0,0.0,1.0,0.0,0.0,0.0,0.0,0.0,0.0,0.0,0.0,0.0,,,,,2020-12-01,7-30-Bew-Aufenthalte-Asyl-J-d-2019-12.xlsx
24,Malawi,0.0,0.0,0.0,0.0,0.0,1.0,0.0,0.0,0.0,0.0,0.0,0.0,0.0,0.0,0.0,,,,,2020-12-01,7-30-Bew-Aufenthalte-Asyl-J-d-2019-12.xlsx
25,Mali,10.0,9.0,1.0,0.0,11.0,2.0,3.0,6.0,22.0,2.0,0.0,0.0,3.0,9.0,8.0,,,,,2020-12-01,7-30-Bew-Aufenthalte-Asyl-J-d-2019-12.xlsx
26,Marokko,451.0,394.0,54.0,3.0,189.0,3.0,7.0,156.0,434.0,4.0,1.0,1.0,49.0,318.0,61.0,,,,,2020-12-01,7-30-Bew-Aufenthalte-Asyl-J-d-2019-12.xlsx
27,Mauretanien,3.0,3.0,0.0,0.0,3.0,0.0,2.0,4.0,6.0,0.0,0.0,0.0,1.0,5.0,0.0,,,,,2020-12-01,7-30-Bew-Aufenthalte-Asyl-J-d-2019-12.xlsx
28,Mosambik,0.0,0.0,0.0,0.0,0.0,1.0,0.0,0.0,0.0,0.0,0.0,0.0,0.0,0.0,0.0,,,,,2020-12-01,7-30-Bew-Aufenthalte-Asyl-J-d-2019-12.xlsx
29,Niger,2.0,2.0,0.0,0.0,1.0,0.0,0.0,1.0,5.0,0.0,0.0,0.0,0.0,3.0,2.0,,,,,2020-12-01,7-30-Bew-Aufenthalte-Asyl-J-d-2019-12.xlsx
30,Nigeria,184.0,165.0,12.0,7.0,122.0,2.0,10.0,83.0,225.0,22.0,4.0,6.0,33.0,115.0,45.0,,,,,2020-12-01,7-30-Bew-Aufenthalte-Asyl-J-d-2019-12.xlsx
31,Ruanda,3.0,1.0,1.0,1.0,2.0,0.0,3.0,3.0,1.0,0.0,0.0,0.0,0.0,0.0,1.0,,,,,2020-12-01,7-30-Bew-Aufenthalte-Asyl-J-d-2019-12.xlsx
32,Senegal,25.0,20.0,2.0,3.0,14.0,0.0,2.0,17.0,25.0,3.0,0.0,0.0,2.0,8.0,12.0,,,,,2020-12-01,7-30-Bew-Aufenthalte-Asyl-J-d-2019-12.xlsx
33,Sierra Leone,10.0,8.0,2.0,0.0,6.0,0.0,1.0,3.0,9.0,0.0,0.0,0.0,1.0,5.0,3.0,,,,,2020-12-01,7-30-Bew-Aufenthalte-Asyl-J-d-2019-12.xlsx
34,Somalia,336.0,182.0,45.0,109.0,90.0,117.0,342.0,110.0,211.0,20.0,0.0,3.0,9.0,116.0,63.0,,,,,2020-12-01,7-30-Bew-Aufenthalte-Asyl-J-d-2019-12.xlsx
35,Südafrika,0.0,0.0,0.0,0.0,0.0,0.0,1.0,0.0,0.0,0.0,0.0,0.0,0.0,0.0,0.0,,,,,2020-12-01,7-30-Bew-Aufenthalte-Asyl-J-d-2019-12.xlsx
36,Sudan,49.0,37.0,7.0,5.0,19.0,11.0,17.0,22.0,33.0,6.0,0.0,1.0,5.0,11.0,10.0,,,,,2020-12-01,7-30-Bew-Aufenthalte-Asyl-J-d-2019-12.xlsx
37,Südsudan,3.0,2.0,1.0,0.0,0.0,0.0,2.0,1.0,2.0,0.0,0.0,0.0,0.0,2.0,0.0,,,,,2020-12-01,7-30-Bew-Aufenthalte-Asyl-J-d-2019-12.xlsx
38,Tansania,0.0,0.0,0.0,0.0,1.0,0.0,2.0,1.0,2.0,1.0,0.0,0.0,0.0,0.0,1.0,,,,,2020-12-01,7-30-Bew-Aufenthalte-Asyl-J-d-2019-12.xlsx
39,Togo,17.0,8.0,3.0,6.0,7.0,4.0,6.0,11.0,13.0,0.0,0.0,0.0,0.0,5.0,8.0,,,,,2020-12-01,7-30-Bew-Aufenthalte-Asyl-J-d-2019-12.xlsx
40,Tschad,5.0,4.0,1.0,0.0,2.0,1.0,1.0,1.0,6.0,0.0,0.0,0.0,1.0,3.0,2.0,,,,,2020-12-01,7-30-Bew-Aufenthalte-Asyl-J-d-2019-12.xlsx
41,Tunesien,172.0,151.0,19.0,2.0,80.0,1.0,4.0,53.0,196.0,9.0,15.0,0.0,11.0,131.0,30.0,,,,,2020-12-01,7-30-Bew-Aufenthalte-Asyl-J-d-2019-12.xlsx
42,Uganda,20.0,8.0,9.0,3.0,5.0,3.0,1.0,8.0,7.0,0.0,0.0,0.0,0.0,1.0,6.0,,,,,2020-12-01,7-30-Bew-Aufenthalte-Asyl-J-d-2019-12.xlsx
43,Westsahara,9.0,8.0,1.0,0.0,4.0,0.0,0.0,5.0,7.0,0.0,0.0,0.0,1.0,5.0,1.0,,,,,2020-12-01,7-30-Bew-Aufenthalte-Asyl-J-d-2019-12.xlsx
44,Zentralafr. Republik,5.0,2.0,3.0,0.0,4.0,2.0,1.0,2.0,6.0,0.0,0.0,0.0,0.0,1.0,5.0,,,,,2020-12-01,7-30-Bew-Aufenthalte-Asyl-J-d-2019-12.xlsx
45,Zimbabwe,3.0,3.0,0.0,0.0,3.0,0.0,0.0,2.0,1.0,1.0,0.0,0.0,0.0,0.0,0.0,,,,,2020-12-01,7-30-Bew-Aufenthalte-Asyl-J-d-2019-12.xlsx
46,Total Afrika,5212.0,3174.0,672.0,1366.0,1869.0,1651.0,1371.0,1637.0,3615.0,186.0,41.0,25.0,316.0,2174.0,873.0,,,,,2020-12-01,7-30-Bew-Aufenthalte-Asyl-J-d-2019-12.xlsx
47,Argentinien,1.0,1.0,0.0,0.0,0.0,0.0,0.0,0.0,1.0,0.0,0.0,0.0,0.0,0.0,1.0,,,,,2020-12-01,7-30-Bew-Aufenthalte-Asyl-J-d-2019-12.xlsx
48,Brasilien,10.0,8.0,0.0,2.0,6.0,0.0,1.0,3.0,7.0,3.0,1.0,0.0,0.0,1.0,2.0,,,,,2020-12-01,7-30-Bew-Aufenthalte-Asyl-J-d-2019-12.xlsx
49,Chile,0.0,0.0,0.0,0.0,4.0,0.0,0.0,1.0,7.0,1.0,1.0,0.0,0.0,1.0,4.0,,,,,2020-12-01,7-30-Bew-Aufenthalte-Asyl-J-d-2019-12.xlsx
50,Dominikanische Republik,1.0,0.0,1.0,0.0,0.0,0.0,0.0,1.0,0.0,0.0,0.0,0.0,0.0,0.0,0.0,,,,,2020-12-01,7-30-Bew-Aufenthalte-Asyl-J-d-2019-12.xlsx
51,Ecuador,1.0,1.0,0.0,0.0,0.0,0.0,0.0,0.0,1.0,0.0,0.0,0.0,0.0,1.0,0.0,,,,,2020-12-01,7-30-Bew-Aufenthalte-Asyl-J-d-2019-12.xlsx
52,El Salvador,22.0,14.0,8.0,0.0,15.0,0.0,0.0,25.0,12.0,3.0,0.0,0.0,0.0,0.0,9.0,,,,,2020-12-01,7-30-Bew-Aufenthalte-Asyl-J-d-2019-12.xlsx
53,Guyana (Republik),1.0,1.0,0.0,0.0,0.0,0.0,0.0,0.0,0.0,0.0,0.0,0.0,0.0,0.0,0.0,,,,,2020-12-01,7-30-Bew-Aufenthalte-Asyl-J-d-2019-12.xlsx
54,Haiti,3.0,3.0,0.0,0.0,3.0,0.0,0.0,2.0,4.0,2.0,0.0,0.0,1.0,0.0,1.0,,,,,2020-12-01,7-30-Bew-Aufenthalte-Asyl-J-d-2019-12.xlsx
55,Honduras,1.0,1.0,0.0,0.0,0.0,0.0,0.0,2.0,0.0,0.0,0.0,0.0,0.0,0.0,0.0,,,,,2020-12-01,7-30-Bew-Aufenthalte-Asyl-J-d-2019-12.xlsx
56,Jamaika,7.0,5.0,2.0,0.0,3.0,4.0,0.0,3.0,6.0,0.0,0.0,1.0,0.0,3.0,2.0,,,,,2020-12-01,7-30-Bew-Aufenthalte-Asyl-J-d-2019-12.xlsx
57,Kanada,2.0,1.0,0.0,1.0,9.0,0.0,0.0,2.0,13.0,5.0,0.0,0.0,0.0,5.0,3.0,,,,,2020-12-01,7-30-Bew-Aufenthalte-Asyl-J-d-2019-12.xlsx
58,Kolumbien,71.0,58.0,12.0,1.0,41.0,23.0,0.0,45.0,47.0,16.0,1.0,0.0,0.0,18.0,12.0,,,,,2020-12-01,7-30-Bew-Aufenthalte-Asyl-J-d-2019-12.xlsx
59,Kuba,6.0,6.0,0.0,0.0,2.0,1.0,1.0,1.0,3.0,0.0,0.0,0.0,0.0,1.0,2.0,,,,,2020-12-01,7-30-Bew-Aufenthalte-Asyl-J-d-2019-12.xlsx
60,Mexiko,1.0,1.0,0.0,0.0,3.0,1.0,0.0,2.0,2.0,0.0,1.0,0.0,0.0,1.0,0.0,,,,,2020-12-01,7-30-Bew-Aufenthalte-Asyl-J-d-2019-12.xlsx
61,Nicaragua,3.0,3.0,0.0,0.0,1.0,1.0,0.0,1.0,1.0,0.0,0.0,0.0,0.0,0.0,1.0,,,,,2020-12-01,7-30-Bew-Aufenthalte-Asyl-J-d-2019-12.xlsx
62,Peru,0.0,0.0,0.0,0.0,0.0,0.0,1.0,0.0,1.0,0.0,0.0,0.0,0.0,0.0,1.0,,,,,2020-12-01,7-30-Bew-Aufenthalte-Asyl-J-d-2019-12.xlsx
63,USA,3.0,3.0,0.0,0.0,0.0,0.0,0.0,0.0,4.0,1.0,0.0,0.0,0.0,3.0,0.0,,,,,2020-12-01,7-30-Bew-Aufenthalte-Asyl-J-d-2019-12.xlsx
64,Venezuela,21.0,16.0,5.0,0.0,14.0,7.0,6.0,17.0,15.0,2.0,0.0,0.0,0.0,8.0,5.0,,,,,2020-12-01,7-30-Bew-Aufenthalte-Asyl-J-d-2019-12.xlsx
65,Total Amerika,154.0,122.0,28.0,4.0,101.0,37.0,9.0,105.0,124.0,33.0,4.0,1.0,1.0,42.0,43.0,,,,,2020-12-01,7-30-Bew-Aufenthalte-Asyl-J-d-2019-12.xlsx
66,Afghanistan,1805.0,1489.0,146.0,170.0,208.0,341.0,611.0,265.0,400.0,25.0,0.0,15.0,36.0,160.0,164.0,,,,,2020-12-01,7-30-Bew-Aufenthalte-Asyl-J-d-2019-12.xlsx
67,Armenien,46.0,18.0,22.0,6.0,42.0,0.0,17.0,49.0,51.0,12.0,1.0,0.0,4.0,4.0,30.0,,,,,2020-12-01,7-30-Bew-Aufenthalte-Asyl-J-d-2019-12.xlsx
68,Aserbaidschan,15.0,9.0,4.0,2.0,5.0,63.0,1.0,10.0,11.0,4.0,0.0,0.0,1.0,0.0,6.0,,,,,2020-12-01,7-30-Bew-Aufenthalte-Asyl-J-d-2019-12.xlsx
69,Bahrain,1.0,1.0,0.0,0.0,0.0,0.0,3.0,0.0,0.0,0.0,0.0,0.0,0.0,0.0,0.0,,,,,2020-12-01,7-30-Bew-Aufenthalte-Asyl-J-d-2019-12.xlsx
70,Bangladesh,5.0,4.0,1.0,0.0,4.0,0.0,1.0,6.0,9.0,2.0,0.0,0.0,1.0,2.0,4.0,,,,,2020-12-01,7-30-Bew-Aufenthalte-Asyl-J-d-2019-12.xlsx
71,Bhutan,4.0,0.0,4.0,0.0,4.0,0.0,0.0,4.0,4.0,0.0,0.0,0.0,0.0,0.0,4.0,,,,,2020-12-01,7-30-Bew-Aufenthalte-Asyl-J-d-2019-12.xlsx
72,China (Volksrepublik),162.0,37.0,38.0,87.0,47.0,42.0,339.0,57.0,86.0,5.0,0.0,0.0,1.0,28.0,52.0,,,,,2020-12-01,7-30-Bew-Aufenthalte-Asyl-J-d-2019-12.xlsx
73,Georgien,315.0,231.0,73.0,11.0,298.0,0.0,7.0,241.0,471.0,172.0,36.0,1.0,26.0,127.0,109.0,,,,,2020-12-01,7-30-Bew-Aufenthalte-Asyl-J-d-2019-12.xlsx
74,Indien,12.0,10.0,1.0,1.0,4.0,0.0,1.0,9.0,15.0,2.0,0.0,0.0,1.0,6.0,6.0,,,,,2020-12-01,7-30-Bew-Aufenthalte-Asyl-J-d-2019-12.xlsx
75,Indonesien,0.0,0.0,0.0,0.0,0.0,0.0,0.0,1.0,0.0,0.0,0.0,0.0,0.0,0.0,0.0,,,,,2020-12-01,7-30-Bew-Aufenthalte-Asyl-J-d-2019-12.xlsx
76,Irak,411.0,230.0,124.0,57.0,290.0,101.0,150.0,280.0,363.0,43.0,8.0,5.0,26.0,141.0,140.0,,,,,2020-12-01,7-30-Bew-Aufenthalte-Asyl-J-d-2019-12.xlsx
77,Iran,380.0,223.0,115.0,42.0,226.0,206.0,65.0,258.0,251.0,13.0,1.0,4.0,10.0,59.0,164.0,,,,,2020-12-01,7-30-Bew-Aufenthalte-Asyl-J-d-2019-12.xlsx
78,Israel,5.0,5.0,0.0,0.0,3.0,0.0,0.0,3.0,1.0,0.0,0.0,0.0,0.0,1.0,0.0,,,,,2020-12-01,7-30-Bew-Aufenthalte-Asyl-J-d-2019-12.xlsx
79,Japan,0.0,0.0,0.0,0.0,1.0,0.0,0.0,1.0,1.0,1.0,0.0,0.0,0.0,0.0,0.0,,,,,2020-12-01,7-30-Bew-Aufenthalte-Asyl-J-d-2019-12.xlsx
80,Jemen,18.0,10.0,1.0,7.0,0.0,18.0,13.0,1.0,3.0,1.0,0.0,0.0,0.0,1.0,1.0,,,,,2020-12-01,7-30-Bew-Aufenthalte-Asyl-J-d-2019-12.xlsx
81,Jordanien,6.0,3.0,2.0,1.0,1.0,0.0,3.0,3.0,2.0,1.0,0.0,0.0,0.0,0.0,1.0,,,,,2020-12-01,7-30-Bew-Aufenthalte-Asyl-J-d-2019-12.xlsx
82,Kambodscha,3.0,1.0,0.0,2.0,0.0,1.0,2.0,0.0,0.0,0.0,0.0,0.0,0.0,0.0,0.0,,,,,2020-12-01,7-30-Bew-Aufenthalte-Asyl-J-d-2019-12.xlsx
83,Kasachstan,12.0,6.0,5.0,1.0,1.0,0.0,3.0,3.0,5.0,0.0,0.0,0.0,0.0,0.0,5.0,,,,,2020-12-01,7-30-Bew-Aufenthalte-Asyl-J-d-2019-12.xlsx
84,Kirgisistan,2.0,1.0,1.0,0.0,1.0,0.0,0.0,2.0,1.0,0.0,0.0,1.0,0.0,0.0,0.0,,,,,2020-12-01,7-30-Bew-Aufenthalte-Asyl-J-d-2019-12.xlsx
85,Korea (Süd),3.0,3.0,0.0,0.0,2.0,0.0,0.0,0.0,8.0,1.0,0.0,0.0,0.0,2.0,5.0,,,,,2020-12-01,7-30-Bew-Aufenthalte-Asyl-J-d-2019-12.xlsx
86,Kuwait,0.0,0.0,0.0,0.0,0.0,0.0,5.0,0.0,0.0,0.0,0.0,0.0,0.0,0.0,0.0,,,,,2020-12-01,7-30-Bew-Aufenthalte-Asyl-J-d-2019-12.xlsx
87,Libanon,28.0,13.0,13.0,2.0,9.0,1.0,4.0,9.0,19.0,2.0,1.0,0.0,2.0,11.0,3.0,,,,,2020-12-01,7-30-Bew-Aufenthalte-Asyl-J-d-2019-12.xlsx
88,Malaysia,1.0,1.0,0.0,0.0,1.0,0.0,0.0,0.0,2.0,1.0,0.0,0.0,0.0,0.0,1.0,,,,,2020-12-01,7-30-Bew-Aufenthalte-Asyl-J-d-2019-12.xlsx
89,Mongolei,34.0,19.0,13.0,2.0,12.0,2.0,4.0,16.0,25.0,3.0,0.0,0.0,0.0,6.0,16.0,,,,,2020-12-01,7-30-Bew-Aufenthalte-Asyl-J-d-2019-12.xlsx
90,Myanmar,9.0,8.0,0.0,1.0,5.0,3.0,3.0,4.0,5.0,0.0,0.0,0.0,4.0,0.0,1.0,,,,,2020-12-01,7-30-Bew-Aufenthalte-Asyl-J-d-2019-12.xlsx
91,Nepal,8.0,3.0,3.0,2.0,6.0,2.0,2.0,6.0,8.0,2.0,1.0,0.0,0.0,2.0,3.0,,,,,2020-12-01,7-30-Bew-Aufenthalte-Asyl-J-d-2019-12.xlsx
92,Pakistan,91.0,58.0,28.0,5.0,57.0,26.0,19.0,74.0,86.0,6.0,3.0,1.0,4.0,43.0,29.0,,,,,2020-12-01,7-30-Bew-Aufenthalte-Asyl-J-d-2019-12.xlsx
93,Philippinen,2.0,1.0,0.0,1.0,0.0,1.0,0.0,0.0,0.0,0.0,0.0,0.0,0.0,0.0,0.0,,,,,2020-12-01,7-30-Bew-Aufenthalte-Asyl-J-d-2019-12.xlsx
94,Saudi-Arabien,3.0,3.0,0.0,0.0,2.0,5.0,2.0,1.0,3.0,0.0,0.0,0.0,1.0,0.0,2.0,,,,,2020-12-01,7-30-Bew-Aufenthalte-Asyl-J-d-2019-12.xlsx
95,Sri Lanka,640.0,247.0,279.0,114.0,421.0,312.0,186.0,600.0,327.0,6.0,6.0,1.0,12.0,120.0,182.0,,,,,2020-12-01,7-30-Bew-Aufenthalte-Asyl-J-d-2019-12.xlsx
96,Syrien,1308.0,861.0,66.0,381.0,45.0,1230.0,788.0,66.0,186.0,37.0,0.0,2.0,5.0,82.0,60.0,,,,,2020-12-01,7-30-Bew-Aufenthalte-Asyl-J-d-2019-12.xlsx
97,Tadschikistan,4.0,3.0,0.0,1.0,0.0,1.0,0.0,0.0,0.0,0.0,0.0,0.0,0.0,0.0,0.0,,,,,2020-12-01,7-30-Bew-Aufenthalte-Asyl-J-d-2019-12.xlsx
98,Taiwan,1.0,1.0,0.0,0.0,0.0,0.0,0.0,0.0,0.0,0.0,0.0,0.0,0.0,0.0,0.0,,,,,2020-12-01,7-30-Bew-Aufenthalte-Asyl-J-d-2019-12.xlsx
99,Thailand,1.0,1.0,0.0,0.0,0.0,0.0,0.0,0.0,0.0,0.0,0.0,0.0,0.0,0.0,0.0,,,,,2020-12-01,7-30-Bew-Aufenthalte-Asyl-J-d-2019-12.xlsx
100,Turkmenistan,1.0,1.0,0.0,0.0,0.0,0.0,0.0,0.0,0.0,0.0,0.0,0.0,0.0,0.0,0.0,,,,,2020-12-01,7-30-Bew-Aufenthalte-Asyl-J-d-2019-12.xlsx
101,Usbekistan,4.0,0.0,4.0,0.0,0.0,0.0,0.0,4.0,5.0,0.0,0.0,0.0,0.0,1.0,4.0,,,,,2020-12-01,7-30-Bew-Aufenthalte-Asyl-J-d-2019-12.xlsx
102,Vietnam,5.0,4.0,1.0,0.0,8.0,0.0,2.0,5.0,8.0,0.0,0.0,0.0,3.0,2.0,3.0,,,,,2020-12-01,7-30-Bew-Aufenthalte-Asyl-J-d-2019-12.xlsx
103,Total Asien,5345.0,3505.0,944.0,896.0,1703.0,2355.0,2231.0,1978.0,2356.0,339.0,57.0,30.0,137.0,798.0,995.0,,,,,2020-12-01,7-30-Bew-Aufenthalte-Asyl-J-d-2019-12.xlsx
104,Albanien,82.0,48.0,33.0,1.0,66.0,0.0,3.0,71.0,104.0,34.0,16.0,0.0,3.0,32.0,19.0,,,,,2020-12-01,7-30-Bew-Aufenthalte-Asyl-J-d-2019-12.xlsx
105,Belarus,41.0,34.0,7.0,0.0,35.0,1.0,0.0,16.0,49.0,13.0,4.0,0.0,3.0,13.0,16.0,,,,,2020-12-01,7-30-Bew-Aufenthalte-Asyl-J-d-2019-12.xlsx
106,Belgien,2.0,1.0,1.0,0.0,0.0,0.0,0.0,1.0,2.0,0.0,0.0,0.0,0.0,2.0,0.0,,,,,2020-12-01,7-30-Bew-Aufenthalte-Asyl-J-d-2019-12.xlsx
107,Bosnien u. Herzegowina,33.0,18.0,7.0,8.0,11.0,6.0,24.0,16.0,33.0,5.0,1.0,0.0,0.0,16.0,11.0,,,,,2020-12-01,7-30-Bew-Aufenthalte-Asyl-J-d-2019-12.xlsx
108,Bulgarien,1.0,1.0,0.0,0.0,0.0,0.0,0.0,0.0,2.0,0.0,0.0,0.0,0.0,2.0,0.0,,,,,2020-12-01,7-30-Bew-Aufenthalte-Asyl-J-d-2019-12.xlsx
109,Deutschland,4.0,4.0,0.0,0.0,1.0,0.0,1.0,1.0,3.0,1.0,0.0,0.0,0.0,1.0,1.0,,,,,2020-12-01,7-30-Bew-Aufenthalte-Asyl-J-d-2019-12.xlsx
110,Estland,0.0,0.0,0.0,0.0,2.0,0.0,0.0,0.0,2.0,0.0,1.0,0.0,0.0,0.0,1.0,,,,,2020-12-01,7-30-Bew-Aufenthalte-Asyl-J-d-2019-12.xlsx
111,Frankreich,8.0,8.0,0.0,0.0,3.0,0.0,0.0,3.0,4.0,1.0,0.0,0.0,0.0,0.0,3.0,,,,,2020-12-01,7-30-Bew-Aufenthalte-Asyl-J-d-2019-12.xlsx
112,Grossbritannien,4.0,3.0,0.0,1.0,2.0,0.0,0.0,3.0,3.0,1.0,0.0,0.0,0.0,1.0,1.0,,,,,2020-12-01,7-30-Bew-Aufenthalte-Asyl-J-d-2019-12.xlsx
113,Irland,1.0,1.0,0.0,0.0,0.0,0.0,0.0,0.0,0.0,0.0,0.0,0.0,0.0,0.0,0.0,,,,,2020-12-01,7-30-Bew-Aufenthalte-Asyl-J-d-2019-12.xlsx
114,Italien,7.0,6.0,0.0,1.0,2.0,0.0,1.0,4.0,5.0,0.0,0.0,0.0,0.0,4.0,1.0,,,,,2020-12-01,7-30-Bew-Aufenthalte-Asyl-J-d-2019-12.xlsx
115,Kosovo,113.0,60.0,25.0,28.0,49.0,3.0,57.0,68.0,75.0,15.0,4.0,0.0,4.0,23.0,29.0,,,,,2020-12-01,7-30-Bew-Aufenthalte-Asyl-J-d-2019-12.xlsx
116,Kroatien,3.0,2.0,1.0,0.0,2.0,0.0,0.0,3.0,4.0,3.0,0.0,0.0,0.0,0.0,1.0,,,,,2020-12-01,7-30-Bew-Aufenthalte-Asyl-J-d-2019-12.xlsx
117,Lettland,1.0,1.0,0.0,0.0,0.0,0.0,0.0,0.0,1.0,0.0,0.0,0.0,0.0,0.0,1.0,,,,,2020-12-01,7-30-Bew-Aufenthalte-Asyl-J-d-2019-12.xlsx
118,Litauen,1.0,1.0,0.0,0.0,1.0,0.0,0.0,1.0,2.0,0.0,1.0,0.0,0.0,0.0,1.0,,,,,2020-12-01,7-30-Bew-Aufenthalte-Asyl-J-d-2019-12.xlsx
119,Nordmazedonien,31.0,28.0,0.0,3.0,17.0,0.0,5.0,29.0,20.0,13.0,0.0,0.0,2.0,2.0,3.0,,,,,2020-12-01,7-30-Bew-Aufenthalte-Asyl-J-d-2019-12.xlsx
120,Moldova,39.0,39.0,0.0,0.0,51.0,0.0,1.0,74.0,63.0,35.0,5.0,0.0,11.0,7.0,5.0,,,,,2020-12-01,7-30-Bew-Aufenthalte-Asyl-J-d-2019-12.xlsx
121,Montenegro,1.0,0.0,0.0,1.0,3.0,0.0,3.0,3.0,4.0,0.0,0.0,0.0,3.0,1.0,0.0,,,,,2020-12-01,7-30-Bew-Aufenthalte-Asyl-J-d-2019-12.xlsx
122,Niederlande,2.0,1.0,1.0,0.0,1.0,0.0,1.0,1.0,3.0,1.0,0.0,0.0,0.0,0.0,2.0,,,,,2020-12-01,7-30-Bew-Aufenthalte-Asyl-J-d-2019-12.xlsx
123,Österreich,1.0,1.0,0.0,0.0,0.0,0.0,0.0,0.0,5.0,0.0,0.0,0.0,0.0,5.0,0.0,,,,,2020-12-01,7-30-Bew-Aufenthalte-Asyl-J-d-2019-12.xlsx
124,Polen,2.0,0.0,2.0,0.0,0.0,0.0,0.0,0.0,2.0,0.0,0.0,0.0,0.0,2.0,0.0,,,,,2020-12-01,7-30-Bew-Aufenthalte-Asyl-J-d-2019-12.xlsx
125,Rumänien,4.0,4.0,0.0,0.0,1.0,0.0,2.0,0.0,6.0,0.0,0.0,0.0,0.0,6.0,0.0,,,,,2020-12-01,7-30-Bew-Aufenthalte-Asyl-J-d-2019-12.xlsx
126,Russland,94.0,57.0,28.0,9.0,75.0,51.0,18.0,86.0,79.0,15.0,0.0,9.0,9.0,12.0,34.0,,,,,2020-12-01,7-30-Bew-Aufenthalte-Asyl-J-d-2019-12.xlsx
127,Schweden,0.0,0.0,0.0,0.0,0.0,0.0,1.0,0.0,0.0,0.0,0.0,0.0,0.0,0.0,0.0,,,,,2020-12-01,7-30-Bew-Aufenthalte-Asyl-J-d-2019-12.xlsx
128,Serbien,67.0,55.0,7.0,5.0,48.0,1.0,74.0,48.0,96.0,23.0,10.0,1.0,1.0,29.0,32.0,,,,,2020-12-01,7-30-Bew-Aufenthalte-Asyl-J-d-2019-12.xlsx
129,Slowakische Republik,4.0,3.0,1.0,0.0,2.0,0.0,0.0,1.0,3.0,0.0,0.0,0.0,0.0,1.0,2.0,,,,,2020-12-01,7-30-Bew-Aufenthalte-Asyl-J-d-2019-12.xlsx
130,Slowenien,1.0,1.0,0.0,0.0,0.0,0.0,0.0,0.0,1.0,0.0,0.0,0.0,0.0,1.0,0.0,,,,,2020-12-01,7-30-Bew-Aufenthalte-Asyl-J-d-2019-12.xlsx
131,Spanien,1.0,1.0,0.0,0.0,2.0,0.0,0.0,2.0,3.0,1.0,0.0,0.0,0.0,2.0,0.0,,,,,2020-12-01,7-30-Bew-Aufenthalte-Asyl-J-d-2019-12.xlsx
132,Tschechische Republik,5.0,5.0,0.0,0.0,4.0,0.0,0.0,0.0,9.0,4.0,0.0,0.0,0.0,0.0,5.0,,,,,2020-12-01,7-30-Bew-Aufenthalte-Asyl-J-d-2019-12.xlsx
133,Türkei,1297.0,1086.0,141.0,70.0,140.0,1511.0,84.0,224.0,186.0,19.0,9.0,3.0,13.0,69.0,73.0,,,,,2020-12-01,7-30-Bew-Aufenthalte-Asyl-J-d-2019-12.xlsx
134,Ukraine,43.0,27.0,15.0,1.0,34.0,3.0,1.0,33.0,60.0,18.0,7.0,0.0,3.0,11.0,21.0,,,,,2020-12-01,7-30-Bew-Aufenthalte-Asyl-J-d-2019-12.xlsx
135,Ungarn,1.0,1.0,0.0,0.0,0.0,0.0,0.0,0.0,0.0,0.0,0.0,0.0,0.0,0.0,0.0,,,,,2020-12-01,7-30-Bew-Aufenthalte-Asyl-J-d-2019-12.xlsx
136,Total Europa,1894.0,1497.0,269.0,128.0,552.0,1576.0,276.0,688.0,829.0,202.0,58.0,13.0,52.0,242.0,262.0,,,,,2020-12-01,7-30-Bew-Aufenthalte-Asyl-J-d-2019-12.xlsx
137,Staatenlos,5.0,2.0,0.0,3.0,0.0,2.0,21.0,0.0,0.0,0.0,0.0,0.0,0.0,0.0,0.0,,,,,2020-12-01,7-30-Bew-Aufenthalte-Asyl-J-d-2019-12.xlsx
138,Ohne Nationalität,70.0,58.0,8.0,4.0,16.0,35.0,45.0,20.0,31.0,0.0,0.0,0.0,3.0,22.0,6.0,,,,,2020-12-01,7-30-Bew-Aufenthalte-Asyl-J-d-2019-12.xlsx
139,Staat unbekannt,111.0,40.0,37.0,34.0,77.0,36.0,44.0,84.0,115.0,2.0,1.0,2.0,4.0,62.0,44.0,,,,,2020-12-01,7-30-Bew-Aufenthalte-Asyl-J-d-2019-12.xlsx
140,Total Herkunft unbek.,186.0,100.0,45.0,41.0,93.0,73.0,110.0,104.0,146.0,2.0,1.0,2.0,7.0,84.0,50.0,,,,,2020-12-01,7-30-Bew-Aufenthalte-Asyl-J-d-2019-12.xlsx
141,Ägypten,46.0,39.0,7.0,0.0,33.0,2.0,0.0,26.0,43.0,5.0,0.0,0.0,7.0,14.0,17.0,,,,,2019-12-01,7-30-Bew-Aufenthalte-Asyl-J-d-2019-12.xlsx
142,Algerien,917.0,825.0,92.0,0.0,657.0,4.0,6.0,405.0,1183.0,112.0,35.0,2.0,139.0,682.0,213.0,,,,,2019-12-01,7-30-Bew-Aufenthalte-Asyl-J-d-2019-12.xlsx
143,Angola,77.0,48.0,14.0,15.0,56.0,0.0,60.0,38.0,66.0,3.0,4.0,1.0,20.0,13.0,25.0,,,,,2019-12-01,7-30-Bew-Aufenthalte-Asyl-J-d-2019-12.xlsx
144,Äquatorialguinea,2.0,2.0,0.0,0.0,1.0,0.0,0.0,0.0,2.0,0.0,1.0,0.0,0.0,0.0,1.0,,,,,2019-12-01,7-30-Bew-Aufenthalte-Asyl-J-d-2019-12.xlsx
145,Äthiopien,233.0,74.0,75.0,84.0,175.0,47.0,113.0,188.0,199.0,32.0,3.0,0.0,14.0,69.0,81.0,,,,,2019-12-01,7-30-Bew-Aufenthalte-Asyl-J-d-2019-12.xlsx
146,Benin,8.0,5.0,2.0,1.0,8.0,1.0,6.0,7.0,8.0,0.0,1.0,0.0,1.0,4.0,2.0,,,,,2019-12-01,7-30-Bew-Aufenthalte-Asyl-J-d-2019-12.xlsx
147,Burkina Faso,8.0,4.0,2.0,2.0,15.0,0.0,3.0,10.0,16.0,1.0,1.0,0.0,2.0,7.0,5.0,,,,,2019-12-01,7-30-Bew-Aufenthalte-Asyl-J-d-2019-12.xlsx
148,Burundi,31.0,27.0,2.0,2.0,1.0,22.0,1.0,2.0,7.0,1.0,0.0,0.0,0.0,3.0,3.0,,,,,2019-12-01,7-30-Bew-Aufenthalte-Asyl-J-d-2019-12.xlsx
149,Côte d'Ivoire,47.0,30.0,9.0,8.0,31.0,3.0,7.0,19.0,43.0,2.0,1.0,0.0,7.0,22.0,11.0,,,,,2019-12-01,7-30-Bew-Aufenthalte-Asyl-J-d-2019-12.xlsx
150,Dschibuti,3.0,3.0,0.0,0.0,1.0,1.0,0.0,3.0,2.0,0.0,0.0,0.0,1.0,1.0,0.0,,,,,2019-12-01,7-30-Bew-Aufenthalte-Asyl-J-d-2019-12.xlsx
151,Eritrea,2768.0,1273.0,231.0,1264.0,488.0,2527.0,634.0,689.0,592.0,56.0,1.0,3.0,8.0,357.0,167.0,,,,,2019-12-01,7-30-Bew-Aufenthalte-Asyl-J-d-2019-12.xlsx
152,Gabun,4.0,3.0,1.0,0.0,0.0,0.0,0.0,0.0,1.0,0.0,0.0,0.0,0.0,1.0,0.0,,,,,2019-12-01,7-30-Bew-Aufenthalte-Asyl-J-d-2019-12.xlsx
153,Gambia,128.0,116.0,9.0,3.0,88.0,2.0,3.0,55.0,161.0,32.0,0.0,2.0,25.0,55.0,47.0,,,,,2019-12-01,7-30-Bew-Aufenthalte-Asyl-J-d-2019-12.xlsx
154,Ghana,37.0,29.0,5.0,3.0,26.0,1.0,1.0,12.0,36.0,5.0,1.0,1.0,2.0,18.0,9.0,,,,,2019-12-01,7-30-Bew-Aufenthalte-Asyl-J-d-2019-12.xlsx
155,Guinea,146.0,127.0,18.0,1.0,145.0,2.0,4.0,101.0,214.0,16.0,21.0,0.0,41.0,94.0,42.0,,,,,2019-12-01,7-30-Bew-Aufenthalte-Asyl-J-d-2019-12.xlsx
156,Guinea-Bissau,21.0,19.0,2.0,0.0,20.0,0.0,4.0,11.0,43.0,9.0,2.0,0.0,4.0,19.0,9.0,,,,,2019-12-01,7-30-Bew-Aufenthalte-Asyl-J-d-2019-12.xlsx
157,Kamerun,61.0,44.0,9.0,8.0,34.0,3.0,21.0,23.0,42.0,1.0,4.0,0.0,10.0,18.0,9.0,,,,,2019-12-01,7-30-Bew-Aufenthalte-Asyl-J-d-2019-12.xlsx
158,Kenia,9.0,6.0,1.0,2.0,5.0,0.0,1.0,4.0,3.0,1.0,0.0,0.0,2.0,0.0,0.0,,,,,2019-12-01,7-30-Bew-Aufenthalte-Asyl-J-d-2019-12.xlsx
159,Komoren,0.0,0.0,0.0,0.0,0.0,0.0,0.0,0.0,1.0,0.0,0.0,0.0,0.0,1.0,0.0,,,,,2019-12-01,7-30-Bew-Aufenthalte-Asyl-J-d-2019-12.xlsx
160,Kongo,3.0,2.0,0.0,1.0,2.0,0.0,6.0,0.0,0.0,0.0,0.0,0.0,0.0,0.0,0.0,,,,,2019-12-01,7-30-Bew-Aufenthalte-Asyl-J-d-2019-12.xlsx
161,Kongo DR,103.0,56.0,23.0,24.0,40.0,13.0,88.0,43.0,62.0,3.0,6.0,0.0,6.0,24.0,23.0,,,,,2019-12-01,7-30-Bew-Aufenthalte-Asyl-J-d-2019-12.xlsx
162,Liberia,11.0,9.0,2.0,0.0,8.0,0.0,5.0,6.0,8.0,0.0,0.0,0.0,2.0,3.0,3.0,,,,,2019-12-01,7-30-Bew-Aufenthalte-Asyl-J-d-2019-12.xlsx
163,Libyen,135.0,115.0,12.0,8.0,74.0,6.0,10.0,44.0,132.0,6.0,0.0,1.0,26.0,71.0,28.0,,,,,2019-12-01,7-30-Bew-Aufenthalte-Asyl-J-d-2019-12.xlsx
164,Malawi,0.0,0.0,0.0,0.0,0.0,0.0,0.0,0.0,1.0,0.0,0.0,0.0,0.0,1.0,0.0,,,,,2019-12-01,7-30-Bew-Aufenthalte-Asyl-J-d-2019-12.xlsx
165,Mali,29.0,26.0,3.0,0.0,34.0,0.0,2.0,13.0,43.0,8.0,0.0,0.0,7.0,15.0,13.0,,,,,2019-12-01,7-30-Bew-Aufenthalte-Asyl-J-d-2019-12.xlsx
166,Marokko,374.0,343.0,28.0,3.0,271.0,3.0,6.0,180.0,504.0,10.0,23.0,3.0,96.0,304.0,68.0,,,,,2019-12-01,7-30-Bew-Aufenthalte-Asyl-J-d-2019-12.xlsx
167,Mauretanien,6.0,6.0,0.0,0.0,7.0,0.0,1.0,1.0,8.0,0.0,0.0,0.0,0.0,6.0,2.0,,,,,2019-12-01,7-30-Bew-Aufenthalte-Asyl-J-d-2019-12.xlsx
168,Mauritius,1.0,1.0,0.0,0.0,2.0,0.0,0.0,1.0,1.0,0.0,0.0,0.0,0.0,1.0,0.0,,,,,2019-12-01,7-30-Bew-Aufenthalte-Asyl-J-d-2019-12.xlsx
169,Mosambik,1.0,1.0,0.0,0.0,0.0,0.0,0.0,0.0,0.0,0.0,0.0,0.0,0.0,0.0,0.0,,,,,2019-12-01,7-30-Bew-Aufenthalte-Asyl-J-d-2019-12.xlsx
170,Niger,8.0,8.0,0.0,0.0,8.0,0.0,3.0,4.0,11.0,1.0,1.0,0.0,2.0,5.0,2.0,,,,,2019-12-01,7-30-Bew-Aufenthalte-Asyl-J-d-2019-12.xlsx
171,Nigeria,395.0,335.0,47.0,13.0,220.0,1.0,18.0,137.0,440.0,42.0,20.0,4.0,90.0,184.0,100.0,,,,,2019-12-01,7-30-Bew-Aufenthalte-Asyl-J-d-2019-12.xlsx
172,Ruanda,4.0,3.0,1.0,0.0,4.0,1.0,2.0,3.0,4.0,0.0,0.0,0.0,1.0,3.0,0.0,,,,,2019-12-01,7-30-Bew-Aufenthalte-Asyl-J-d-2019-12.xlsx
173,Sambia,0.0,0.0,0.0,0.0,1.0,0.0,0.0,0.0,0.0,0.0,0.0,0.0,0.0,0.0,0.0,,,,,2019-12-01,7-30-Bew-Aufenthalte-Asyl-J-d-2019-12.xlsx
174,Senegal,42.0,35.0,3.0,4.0,38.0,1.0,3.0,13.0,65.0,12.0,7.0,1.0,8.0,18.0,19.0,,,,,2019-12-01,7-30-Bew-Aufenthalte-Asyl-J-d-2019-12.xlsx
175,Sierra Leone,13.0,11.0,1.0,1.0,9.0,0.0,2.0,6.0,13.0,0.0,0.0,0.0,3.0,7.0,3.0,,,,,2019-12-01,7-30-Bew-Aufenthalte-Asyl-J-d-2019-12.xlsx
176,Somalia,498.0,259.0,63.0,176.0,105.0,139.0,309.0,75.0,276.0,33.0,1.0,0.0,14.0,152.0,76.0,,,,,2019-12-01,7-30-Bew-Aufenthalte-Asyl-J-d-2019-12.xlsx
177,Südafrika,1.0,1.0,0.0,0.0,4.0,0.0,3.0,2.0,6.0,1.0,0.0,0.0,2.0,3.0,0.0,,,,,2019-12-01,7-30-Bew-Aufenthalte-Asyl-J-d-2019-12.xlsx
178,Sudan,44.0,30.0,4.0,10.0,29.0,23.0,7.0,21.0,41.0,14.0,3.0,0.0,5.0,9.0,10.0,,,,,2019-12-01,7-30-Bew-Aufenthalte-Asyl-J-d-2019-12.xlsx
179,Südsudan,5.0,3.0,0.0,2.0,3.0,0.0,0.0,1.0,3.0,0.0,0.0,0.0,0.0,1.0,2.0,,,,,2019-12-01,7-30-Bew-Aufenthalte-Asyl-J-d-2019-12.xlsx
180,Tansania,4.0,3.0,0.0,1.0,7.0,0.0,4.0,1.0,9.0,4.0,0.0,0.0,1.0,0.0,4.0,,,,,2019-12-01,7-30-Bew-Aufenthalte-Asyl-J-d-2019-12.xlsx
181,Togo,33.0,12.0,11.0,10.0,13.0,4.0,21.0,20.0,17.0,0.0,0.0,0.0,2.0,7.0,8.0,,,,,2019-12-01,7-30-Bew-Aufenthalte-Asyl-J-d-2019-12.xlsx
182,Tschad,14.0,10.0,3.0,1.0,6.0,0.0,4.0,7.0,8.0,1.0,0.0,0.0,1.0,4.0,2.0,,,,,2019-12-01,7-30-Bew-Aufenthalte-Asyl-J-d-2019-12.xlsx
183,Tunesien,165.0,148.0,15.0,2.0,111.0,0.0,2.0,79.0,224.0,17.0,29.0,1.0,29.0,110.0,38.0,,,,,2019-12-01,7-30-Bew-Aufenthalte-Asyl-J-d-2019-12.xlsx
184,Uganda,21.0,14.0,7.0,0.0,4.0,2.0,1.0,7.0,9.0,1.0,0.0,0.0,1.0,2.0,5.0,,,,,2019-12-01,7-30-Bew-Aufenthalte-Asyl-J-d-2019-12.xlsx
185,Westsahara,7.0,7.0,0.0,0.0,2.0,0.0,0.0,3.0,2.0,0.0,0.0,0.0,0.0,1.0,1.0,,,,,2019-12-01,7-30-Bew-Aufenthalte-Asyl-J-d-2019-12.xlsx
186,Zentralafr. Republik,5.0,5.0,0.0,0.0,3.0,1.0,1.0,4.0,5.0,0.0,0.0,1.0,0.0,3.0,1.0,,,,,2019-12-01,7-30-Bew-Aufenthalte-Asyl-J-d-2019-12.xlsx
187,Zimbabwe,7.0,5.0,1.0,1.0,4.0,0.0,1.0,3.0,3.0,0.0,0.0,0.0,1.0,0.0,2.0,,,,,2019-12-01,7-30-Bew-Aufenthalte-Asyl-J-d-2019-12.xlsx
188,Total Afrika,6475.0,4122.0,703.0,1650.0,2793.0,2809.0,1363.0,2267.0,4557.0,429.0,165.0,20.0,580.0,2312.0,1051.0,,,,,2019-12-01,7-30-Bew-Aufenthalte-Asyl-J-d-2019-12.xlsx
189,Brasilien,3.0,2.0,1.0,0.0,3.0,0.0,6.0,2.0,4.0,1.0,1.0,0.0,0.0,0.0,2.0,,,,,2019-12-01,7-30-Bew-Aufenthalte-Asyl-J-d-2019-12.xlsx
190,Chile,3.0,3.0,0.0,0.0,0.0,0.0,0.0,0.0,0.0,0.0,0.0,0.0,0.0,0.0,0.0,,,,,2019-12-01,7-30-Bew-Aufenthalte-Asyl-J-d-2019-12.xlsx
191,Costa Rica,1.0,1.0,0.0,0.0,0.0,0.0,0.0,0.0,1.0,0.0,0.0,0.0,0.0,0.0,1.0,,,,,2019-12-01,7-30-Bew-Aufenthalte-Asyl-J-d-2019-12.xlsx
192,Dominikanische Republik,1.0,1.0,0.0,0.0,0.0,0.0,0.0,1.0,0.0,0.0,0.0,0.0,0.0,0.0,0.0,,,,,2019-12-01,7-30-Bew-Aufenthalte-Asyl-J-d-2019-12.xlsx
193,Ecuador,2.0,2.0,0.0,0.0,2.0,0.0,3.0,2.0,2.0,0.0,0.0,0.0,2.0,0.0,0.0,,,,,2019-12-01,7-30-Bew-Aufenthalte-Asyl-J-d-2019-12.xlsx
194,El Salvador,10.0,10.0,0.0,0.0,7.0,0.0,0.0,6.0,16.0,3.0,1.0,0.0,0.0,8.0,4.0,,,,,2019-12-01,7-30-Bew-Aufenthalte-Asyl-J-d-2019-12.xlsx
195,Guatemala,0.0,0.0,0.0,0.0,1.0,0.0,0.0,1.0,1.0,1.0,0.0,0.0,0.0,0.0,0.0,,,,,2019-12-01,7-30-Bew-Aufenthalte-Asyl-J-d-2019-12.xlsx
196,Haiti,4.0,3.0,1.0,0.0,1.0,0.0,0.0,3.0,3.0,1.0,0.0,0.0,0.0,2.0,0.0,,,,,2019-12-01,7-30-Bew-Aufenthalte-Asyl-J-d-2019-12.xlsx
197,Honduras,5.0,5.0,0.0,0.0,0.0,0.0,0.0,1.0,0.0,0.0,0.0,0.0,0.0,0.0,0.0,,,,,2019-12-01,7-30-Bew-Aufenthalte-Asyl-J-d-2019-12.xlsx
198,Jamaika,6.0,6.0,0.0,0.0,1.0,2.0,0.0,0.0,2.0,0.0,0.0,0.0,0.0,0.0,2.0,,,,,2019-12-01,7-30-Bew-Aufenthalte-Asyl-J-d-2019-12.xlsx
199,Kanada,3.0,3.0,0.0,0.0,0.0,0.0,0.0,0.0,0.0,0.0,0.0,0.0,0.0,0.0,0.0,,,,,2019-12-01,7-30-Bew-Aufenthalte-Asyl-J-d-2019-12.xlsx
200,Kolumbien,131.0,116.0,10.0,5.0,64.0,14.0,2.0,56.0,70.0,28.0,8.0,0.0,0.0,12.0,22.0,,,,,2019-12-01,7-30-Bew-Aufenthalte-Asyl-J-d-2019-12.xlsx
201,Kuba,8.0,7.0,1.0,0.0,7.0,0.0,0.0,1.0,8.0,2.0,0.0,0.0,2.0,1.0,3.0,,,,,2019-12-01,7-30-Bew-Aufenthalte-Asyl-J-d-2019-12.xlsx
202,Mexiko,8.0,5.0,3.0,0.0,3.0,0.0,0.0,4.0,4.0,1.0,0.0,0.0,0.0,1.0,2.0,,,,,2019-12-01,7-30-Bew-Aufenthalte-Asyl-J-d-2019-12.xlsx
203,Nicaragua,16.0,11.0,4.0,1.0,13.0,1.0,0.0,2.0,16.0,8.0,0.0,0.0,0.0,2.0,6.0,,,,,2019-12-01,7-30-Bew-Aufenthalte-Asyl-J-d-2019-12.xlsx
204,Peru,1.0,1.0,0.0,0.0,6.0,0.0,2.0,3.0,7.0,3.0,1.0,0.0,1.0,0.0,2.0,,,,,2019-12-01,7-30-Bew-Aufenthalte-Asyl-J-d-2019-12.xlsx
205,Uruguay,0.0,0.0,0.0,0.0,0.0,0.0,0.0,1.0,0.0,0.0,0.0,0.0,0.0,0.0,0.0,,,,,2019-12-01,7-30-Bew-Aufenthalte-Asyl-J-d-2019-12.xlsx
206,USA,11.0,11.0,0.0,0.0,10.0,0.0,0.0,7.0,19.0,7.0,1.0,0.0,0.0,5.0,6.0,,,,,2019-12-01,7-30-Bew-Aufenthalte-Asyl-J-d-2019-12.xlsx
207,Venezuela,43.0,43.0,0.0,0.0,24.0,7.0,1.0,17.0,23.0,14.0,1.0,0.0,1.0,4.0,3.0,,,,,2019-12-01,7-30-Bew-Aufenthalte-Asyl-J-d-2019-12.xlsx
208,Total Amerika,256.0,230.0,20.0,6.0,142.0,24.0,14.0,107.0,176.0,69.0,13.0,0.0,6.0,35.0,53.0,,,,,2019-12-01,7-30-Bew-Aufenthalte-Asyl-J-d-2019-12.xlsx
209,Afghanistan,1504.0,1239.0,118.0,147.0,283.0,373.0,515.0,291.0,420.0,14.0,5.0,8.0,70.0,179.0,144.0,,,,,2019-12-01,7-30-Bew-Aufenthalte-Asyl-J-d-2019-12.xlsx
210,Armenien,49.0,38.0,10.0,1.0,38.0,3.0,22.0,26.0,67.0,23.0,5.0,0.0,1.0,20.0,18.0,,,,,2019-12-01,7-30-Bew-Aufenthalte-Asyl-J-d-2019-12.xlsx
211,Aserbaidschan,97.0,85.0,5.0,7.0,44.0,12.0,1.0,35.0,66.0,13.0,0.0,0.0,0.0,25.0,28.0,,,,,2019-12-01,7-30-Bew-Aufenthalte-Asyl-J-d-2019-12.xlsx
212,Bahrain,1.0,1.0,0.0,0.0,0.0,0.0,0.0,0.0,1.0,0.0,0.0,0.0,0.0,1.0,0.0,,,,,2019-12-01,7-30-Bew-Aufenthalte-Asyl-J-d-2019-12.xlsx
213,Bangladesh,13.0,12.0,1.0,0.0,6.0,0.0,6.0,5.0,22.0,4.0,0.0,0.0,0.0,13.0,5.0,,,,,2019-12-01,7-30-Bew-Aufenthalte-Asyl-J-d-2019-12.xlsx
214,Bhutan,0.0,0.0,0.0,0.0,2.0,0.0,0.0,2.0,0.0,0.0,0.0,0.0,0.0,0.0,0.0,,,,,2019-12-01,7-30-Bew-Aufenthalte-Asyl-J-d-2019-12.xlsx
215,Brunei,1.0,0.0,0.0,1.0,0.0,1.0,0.0,0.0,0.0,0.0,0.0,0.0,0.0,0.0,0.0,,,,,2019-12-01,7-30-Bew-Aufenthalte-Asyl-J-d-2019-12.xlsx
216,China (Volksrepublik),275.0,132.0,44.0,99.0,70.0,57.0,344.0,81.0,94.0,6.0,3.0,0.0,4.0,36.0,45.0,,,,,2019-12-01,7-30-Bew-Aufenthalte-Asyl-J-d-2019-12.xlsx
217,Georgien,660.0,586.0,63.0,11.0,569.0,1.0,3.0,454.0,744.0,267.0,93.0,0.0,45.0,176.0,163.0,,,,,2019-12-01,7-30-Bew-Aufenthalte-Asyl-J-d-2019-12.xlsx
218,Indien,23.0,20.0,2.0,1.0,19.0,1.0,5.0,10.0,16.0,4.0,1.0,0.0,3.0,7.0,1.0,,,,,2019-12-01,7-30-Bew-Aufenthalte-Asyl-J-d-2019-12.xlsx
219,Irak,659.0,467.0,115.0,77.0,277.0,98.0,170.0,340.0,357.0,61.0,5.0,12.0,32.0,143.0,104.0,,,,,2019-12-01,7-30-Bew-Aufenthalte-Asyl-J-d-2019-12.xlsx
220,Iran,590.0,446.0,81.0,63.0,290.0,107.0,77.0,243.0,244.0,26.0,2.0,4.0,40.0,56.0,116.0,,,,,2019-12-01,7-30-Bew-Aufenthalte-Asyl-J-d-2019-12.xlsx
221,Israel,1.0,1.0,0.0,0.0,2.0,1.0,0.0,1.0,2.0,0.0,1.0,0.0,0.0,0.0,1.0,,,,,2019-12-01,7-30-Bew-Aufenthalte-Asyl-J-d-2019-12.xlsx
222,Japan,1.0,1.0,0.0,0.0,1.0,0.0,0.0,0.0,1.0,1.0,0.0,0.0,0.0,0.0,0.0,,,,,2019-12-01,7-30-Bew-Aufenthalte-Asyl-J-d-2019-12.xlsx
223,Jemen,19.0,18.0,1.0,0.0,5.0,13.0,9.0,7.0,11.0,1.0,0.0,0.0,3.0,7.0,0.0,,,,,2019-12-01,7-30-Bew-Aufenthalte-Asyl-J-d-2019-12.xlsx
224,Jordanien,6.0,1.0,1.0,4.0,6.0,2.0,6.0,4.0,7.0,2.0,0.0,0.0,1.0,1.0,3.0,,,,,2019-12-01,7-30-Bew-Aufenthalte-Asyl-J-d-2019-12.xlsx
225,Kasachstan,13.0,11.0,0.0,2.0,6.0,1.0,0.0,7.0,10.0,0.0,0.0,0.0,1.0,0.0,9.0,,,,,2019-12-01,7-30-Bew-Aufenthalte-Asyl-J-d-2019-12.xlsx
226,Kirgisistan,4.0,1.0,3.0,0.0,4.0,0.0,0.0,7.0,1.0,1.0,0.0,0.0,0.0,0.0,0.0,,,,,2019-12-01,7-30-Bew-Aufenthalte-Asyl-J-d-2019-12.xlsx
227,Korea (Süd),0.0,0.0,0.0,0.0,3.0,0.0,0.0,1.0,0.0,0.0,0.0,0.0,0.0,0.0,0.0,,,,,2019-12-01,7-30-Bew-Aufenthalte-Asyl-J-d-2019-12.xlsx
228,Kuwait,0.0,0.0,0.0,0.0,0.0,0.0,1.0,0.0,0.0,0.0,0.0,0.0,0.0,0.0,0.0,,,,,2019-12-01,7-30-Bew-Aufenthalte-Asyl-J-d-2019-12.xlsx
229,Libanon,21.0,18.0,1.0,2.0,10.0,3.0,3.0,10.0,16.0,2.0,2.0,0.0,1.0,9.0,2.0,,,,,2019-12-01,7-30-Bew-Aufenthalte-Asyl-J-d-2019-12.xlsx
230,Malaysia,0.0,0.0,0.0,0.0,0.0,0.0,0.0,0.0,1.0,0.0,0.0,0.0,0.0,1.0,0.0,,,,,2019-12-01,7-30-Bew-Aufenthalte-Asyl-J-d-2019-12.xlsx
231,Mongolei,46.0,20.0,18.0,8.0,27.0,0.0,6.0,23.0,47.0,8.0,1.0,0.0,4.0,7.0,27.0,,,,,2019-12-01,7-30-Bew-Aufenthalte-Asyl-J-d-2019-12.xlsx
232,Myanmar,0.0,0.0,0.0,0.0,1.0,0.0,2.0,0.0,2.0,1.0,0.0,0.0,0.0,0.0,1.0,,,,,2019-12-01,7-30-Bew-Aufenthalte-Asyl-J-d-2019-12.xlsx
233,Nepal,8.0,4.0,0.0,4.0,6.0,0.0,1.0,6.0,20.0,2.0,9.0,0.0,0.0,4.0,5.0,,,,,2019-12-01,7-30-Bew-Aufenthalte-Asyl-J-d-2019-12.xlsx
234,Pakistan,108.0,93.0,11.0,4.0,71.0,6.0,7.0,88.0,99.0,5.0,3.0,1.0,16.0,61.0,13.0,,,,,2019-12-01,7-30-Bew-Aufenthalte-Asyl-J-d-2019-12.xlsx
235,Philippinen,0.0,0.0,0.0,0.0,0.0,0.0,1.0,0.0,0.0,0.0,0.0,0.0,0.0,0.0,0.0,,,,,2019-12-01,7-30-Bew-Aufenthalte-Asyl-J-d-2019-12.xlsx
236,Saudi-Arabien,5.0,4.0,0.0,1.0,2.0,0.0,0.0,0.0,5.0,1.0,0.0,0.0,0.0,3.0,1.0,,,,,2019-12-01,7-30-Bew-Aufenthalte-Asyl-J-d-2019-12.xlsx
237,Sri Lanka,901.0,379.0,398.0,124.0,493.0,282.0,188.0,649.0,526.0,39.0,30.0,0.0,27.0,246.0,184.0,,,,,2019-12-01,7-30-Bew-Aufenthalte-Asyl-J-d-2019-12.xlsx
238,Syrien,2007.0,1499.0,48.0,460.0,61.0,1598.0,538.0,49.0,207.0,42.0,0.0,9.0,6.0,89.0,61.0,,,,,2019-12-01,7-30-Bew-Aufenthalte-Asyl-J-d-2019-12.xlsx
239,Tadschikistan,8.0,8.0,0.0,0.0,1.0,3.0,0.0,8.0,6.0,0.0,0.0,0.0,1.0,5.0,0.0,,,,,2019-12-01,7-30-Bew-Aufenthalte-Asyl-J-d-2019-12.xlsx
240,Taiwan,0.0,0.0,0.0,0.0,1.0,0.0,0.0,0.0,1.0,0.0,1.0,0.0,0.0,0.0,0.0,,,,,2019-12-01,7-30-Bew-Aufenthalte-Asyl-J-d-2019-12.xlsx
241,Usbekistan,2.0,2.0,0.0,0.0,1.0,0.0,0.0,1.0,1.0,0.0,0.0,0.0,1.0,0.0,0.0,,,,,2019-12-01,7-30-Bew-Aufenthalte-Asyl-J-d-2019-12.xlsx
242,Vietnam,7.0,6.0,0.0,1.0,0.0,0.0,2.0,0.0,5.0,0.0,0.0,0.0,0.0,5.0,0.0,,,,,2019-12-01,7-30-Bew-Aufenthalte-Asyl-J-d-2019-12.xlsx
243,Total Asien,7029.0,5092.0,920.0,1017.0,2299.0,2562.0,1907.0,2348.0,2999.0,523.0,161.0,34.0,256.0,1094.0,931.0,,,,,2019-12-01,7-30-Bew-Aufenthalte-Asyl-J-d-2019-12.xlsx
244,Albanien,161.0,129.0,27.0,5.0,105.0,0.0,5.0,101.0,120.0,50.0,17.0,0.0,2.0,20.0,31.0,,,,,2019-12-01,7-30-Bew-Aufenthalte-Asyl-J-d-2019-12.xlsx
245,Belarus,39.0,30.0,8.0,1.0,33.0,0.0,1.0,21.0,54.0,16.0,1.0,1.0,6.0,11.0,19.0,,,,,2019-12-01,7-30-Bew-Aufenthalte-Asyl-J-d-2019-12.xlsx
246,Bosnien u. Herzegowina,43.0,35.0,5.0,3.0,26.0,0.0,47.0,22.0,41.0,20.0,5.0,0.0,0.0,3.0,13.0,,,,,2019-12-01,7-30-Bew-Aufenthalte-Asyl-J-d-2019-12.xlsx
247,Bulgarien,4.0,3.0,1.0,0.0,1.0,1.0,3.0,2.0,3.0,0.0,0.0,0.0,0.0,0.0,3.0,,,,,2019-12-01,7-30-Bew-Aufenthalte-Asyl-J-d-2019-12.xlsx
248,Deutschland,7.0,5.0,1.0,1.0,3.0,0.0,0.0,3.0,7.0,2.0,0.0,0.0,0.0,0.0,5.0,,,,,2019-12-01,7-30-Bew-Aufenthalte-Asyl-J-d-2019-12.xlsx
249,Frankreich,2.0,1.0,0.0,1.0,1.0,0.0,0.0,1.0,0.0,0.0,0.0,0.0,0.0,0.0,0.0,,,,,2019-12-01,7-30-Bew-Aufenthalte-Asyl-J-d-2019-12.xlsx
250,Griechenland,1.0,1.0,0.0,0.0,0.0,0.0,0.0,0.0,1.0,0.0,0.0,0.0,0.0,1.0,0.0,,,,,2019-12-01,7-30-Bew-Aufenthalte-Asyl-J-d-2019-12.xlsx
251,Grossbritannien,2.0,0.0,0.0,2.0,0.0,0.0,4.0,0.0,3.0,0.0,1.0,0.0,0.0,0.0,2.0,,,,,2019-12-01,7-30-Bew-Aufenthalte-Asyl-J-d-2019-12.xlsx
252,Italien,8.0,8.0,0.0,0.0,5.0,0.0,0.0,4.0,7.0,3.0,1.0,0.0,0.0,1.0,2.0,,,,,2019-12-01,7-30-Bew-Aufenthalte-Asyl-J-d-2019-12.xlsx
253,Kosovo,124.0,96.0,15.0,13.0,96.0,4.0,119.0,59.0,166.0,57.0,12.0,0.0,7.0,21.0,69.0,,,,,2019-12-01,7-30-Bew-Aufenthalte-Asyl-J-d-2019-12.xlsx
254,Kroatien,2.0,2.0,0.0,0.0,1.0,0.0,4.0,0.0,3.0,0.0,1.0,0.0,0.0,1.0,1.0,,,,,2019-12-01,7-30-Bew-Aufenthalte-Asyl-J-d-2019-12.xlsx
255,Nordmazedonien,56.0,28.0,27.0,1.0,51.0,2.0,15.0,50.0,65.0,33.0,5.0,0.0,4.0,4.0,19.0,,,,,2019-12-01,7-30-Bew-Aufenthalte-Asyl-J-d-2019-12.xlsx
256,Moldova,57.0,56.0,1.0,0.0,26.0,0.0,0.0,8.0,23.0,6.0,0.0,0.0,0.0,4.0,13.0,,,,,2019-12-01,7-30-Bew-Aufenthalte-Asyl-J-d-2019-12.xlsx
257,Montenegro,7.0,5.0,0.0,2.0,2.0,0.0,6.0,2.0,4.0,1.0,1.0,0.0,0.0,0.0,2.0,,,,,2019-12-01,7-30-Bew-Aufenthalte-Asyl-J-d-2019-12.xlsx
258,Niederlande,1.0,1.0,0.0,0.0,1.0,0.0,0.0,0.0,0.0,0.0,0.0,0.0,0.0,0.0,0.0,,,,,2019-12-01,7-30-Bew-Aufenthalte-Asyl-J-d-2019-12.xlsx
259,Österreich,3.0,3.0,0.0,0.0,0.0,0.0,0.0,3.0,0.0,0.0,0.0,0.0,0.0,0.0,0.0,,,,,2019-12-01,7-30-Bew-Aufenthalte-Asyl-J-d-2019-12.xlsx
260,Polen,5.0,4.0,1.0,0.0,2.0,0.0,0.0,4.0,2.0,1.0,0.0,0.0,0.0,1.0,0.0,,,,,2019-12-01,7-30-Bew-Aufenthalte-Asyl-J-d-2019-12.xlsx
261,Portugal,0.0,0.0,0.0,0.0,0.0,0.0,1.0,0.0,1.0,0.0,1.0,0.0,0.0,0.0,0.0,,,,,2019-12-01,7-30-Bew-Aufenthalte-Asyl-J-d-2019-12.xlsx
262,Rumänien,10.0,10.0,0.0,0.0,8.0,0.0,0.0,7.0,9.0,4.0,1.0,0.0,0.0,2.0,2.0,,,,,2019-12-01,7-30-Bew-Aufenthalte-Asyl-J-d-2019-12.xlsx
263,Russland,177.0,126.0,44.0,7.0,87.0,21.0,37.0,83.0,143.0,18.0,1.0,2.0,31.0,36.0,55.0,,,,,2019-12-01,7-30-Bew-Aufenthalte-Asyl-J-d-2019-12.xlsx
264,Schweden,1.0,1.0,0.0,0.0,0.0,0.0,0.0,0.0,1.0,0.0,0.0,0.0,0.0,0.0,1.0,,,,,2019-12-01,7-30-Bew-Aufenthalte-Asyl-J-d-2019-12.xlsx
265,Serbien,186.0,130.0,42.0,14.0,90.0,0.0,87.0,67.0,156.0,48.0,5.0,0.0,3.0,42.0,58.0,,,,,2019-12-01,7-30-Bew-Aufenthalte-Asyl-J-d-2019-12.xlsx
266,Slowakische Republik,3.0,3.0,0.0,0.0,3.0,0.0,0.0,2.0,5.0,0.0,0.0,0.0,0.0,0.0,5.0,,,,,2019-12-01,7-30-Bew-Aufenthalte-Asyl-J-d-2019-12.xlsx
267,Slowenien,2.0,2.0,0.0,0.0,1.0,0.0,0.0,0.0,1.0,1.0,0.0,0.0,0.0,0.0,0.0,,,,,2019-12-01,7-30-Bew-Aufenthalte-Asyl-J-d-2019-12.xlsx
268,Spanien,8.0,8.0,0.0,0.0,7.0,0.0,0.0,1.0,13.0,5.0,0.0,0.0,0.0,1.0,7.0,,,,,2019-12-01,7-30-Bew-Aufenthalte-Asyl-J-d-2019-12.xlsx
269,Tschechische Republik,2.0,2.0,0.0,0.0,1.0,0.0,0.0,1.0,2.0,0.0,1.0,0.0,0.0,1.0,0.0,,,,,2019-12-01,7-30-Bew-Aufenthalte-Asyl-J-d-2019-12.xlsx
270,Türkei,1334.0,1158.0,86.0,90.0,165.0,612.0,116.0,156.0,222.0,48.0,10.0,0.0,31.0,49.0,84.0,,,,,2019-12-01,7-30-Bew-Aufenthalte-Asyl-J-d-2019-12.xlsx
271,Ukraine,64.0,50.0,11.0,3.0,67.0,1.0,0.0,64.0,88.0,31.0,15.0,3.0,2.0,8.0,29.0,,,,,2019-12-01,7-30-Bew-Aufenthalte-Asyl-J-d-2019-12.xlsx
272,Ungarn,5.0,5.0,0.0,0.0,4.0,0.0,0.0,0.0,9.0,4.0,0.0,0.0,0.0,1.0,4.0,,,,,2019-12-01,7-30-Bew-Aufenthalte-Asyl-J-d-2019-12.xlsx
273,Total Europa,2314.0,1902.0,269.0,143.0,786.0,641.0,445.0,661.0,1149.0,348.0,78.0,6.0,86.0,207.0,424.0,,,,,2019-12-01,7-30-Bew-Aufenthalte-Asyl-J-d-2019-12.xlsx
274,Australien,1.0,1.0,0.0,0.0,4.0,0.0,0.0,1.0,4.0,0.0,0.0,0.0,0.0,0.0,4.0,,,,,2019-12-01,7-30-Bew-Aufenthalte-Asyl-J-d-2019-12.xlsx
275,Neuseeland,1.0,1.0,0.0,0.0,1.0,0.0,0.0,0.0,2.0,1.0,0.0,0.0,0.0,0.0,1.0,,,,,2019-12-01,7-30-Bew-Aufenthalte-Asyl-J-d-2019-12.xlsx
276,Total Ozeanien,2.0,2.0,0.0,0.0,5.0,0.0,0.0,1.0,6.0,1.0,0.0,0.0,0.0,0.0,5.0,,,,,2019-12-01,7-30-Bew-Aufenthalte-Asyl-J-d-2019-12.xlsx
277,Staatenlos,17.0,15.0,1.0,1.0,3.0,4.0,6.0,4.0,4.0,2.0,0.0,1.0,0.0,0.0,1.0,,,,,2019-12-01,7-30-Bew-Aufenthalte-Asyl-J-d-2019-12.xlsx
278,Ohne Nationalität,117.0,98.0,10.0,9.0,33.0,46.0,49.0,25.0,57.0,7.0,0.0,2.0,8.0,19.0,21.0,,,,,2019-12-01,7-30-Bew-Aufenthalte-Asyl-J-d-2019-12.xlsx
279,Staat unbekannt,127.0,36.0,54.0,37.0,72.0,38.0,48.0,76.0,114.0,5.0,2.0,2.0,10.0,57.0,38.0,,,,,2019-12-01,7-30-Bew-Aufenthalte-Asyl-J-d-2019-12.xlsx
280,Total Herkunft unbek.,261.0,149.0,65.0,47.0,108.0,88.0,103.0,105.0,175.0,14.0,2.0,5.0,18.0,76.0,60.0,,,,,2019-12-01,7-30-Bew-Aufenthalte-Asyl-J-d-2019-12.xlsx
