,Nation,Total,Einreisen,WiederaufnahmenAufenthalt,Geburten,,Asylgewährungen,KantonaleRegelungen,Weggang nach Asylbzw. Dublinentscheid,Total.1,"Kontrollierte, selbständige Ausreisen",Rückführungen Heimatstaat,Rückführungen Drittstaat,RückführungenDublinstaat,Unkontrollierte Abreisen,Andere Abgänge ,Datum,file_name,name_of_sem_statistics,name_of_sem_code,flow_or_stock,yearly_or_monthly
1,Ägypten,33.0,24.0,9.0,0.0,22.0,15.0,7.0,14.0,22.0,4.0,1.0,0.0,0.0,6.0,11.0,2020-12-01,7-30-Bew-Aufenthalte-Asyl-J-d-2019-12.xlsx,7-30-Bew-Aufenthalte-Asyl-J,7-30,flow,yearly
2,Algerien,1136.0,982.0,150.0,4.0,590.0,4.0,5.0,363.0,1231.0,30.0,11.0,1.0,133.0,889.0,167.0,2020-12-01,7-30-Bew-Aufenthalte-Asyl-J-d-2019-12.xlsx,7-30-Bew-Aufenthalte-Asyl-J,7-30,flow,yearly
3,Angola,101.0,70.0,21.0,10.0,49.0,3.0,41.0,50.0,63.0,4.0,0.0,0.0,20.0,16.0,23.0,2020-12-01,7-30-Bew-Aufenthalte-Asyl-J-d-2019-12.xlsx,7-30-Bew-Aufenthalte-Asyl-J,7-30,flow,yearly
4,Äquatorialguinea,1.0,1.0,0.0,0.0,0.0,0.0,0.0,0.0,1.0,0.0,0.0,0.0,0.0,0.0,1.0,2020-12-01,7-30-Bew-Aufenthalte-Asyl-J-d-2019-12.xlsx,7-30-Bew-Aufenthalte-Asyl-J,7-30,flow,yearly
5,Äthiopien,177.0,49.0,67.0,61.0,121.0,61.0,68.0,149.0,176.0,14.0,4.0,2.0,3.0,50.0,103.0,2020-12-01,7-30-Bew-Aufenthalte-Asyl-J-d-2019-12.xlsx,7-30-Bew-Aufenthalte-Asyl-J,7-30,flow,yearly
6,Benin,9.0,6.0,1.0,2.0,4.0,0.0,4.0,7.0,4.0,0.0,0.0,0.0,0.0,3.0,1.0,2020-12-01,7-30-Bew-Aufenthalte-Asyl-J-d-2019-12.xlsx,7-30-Bew-Aufenthalte-Asyl-J,7-30,flow,yearly
7,Burkina Faso,21.0,6.0,15.0,0.0,3.0,1.0,1.0,13.0,13.0,1.0,0.0,0.0,0.0,7.0,5.0,2020-12-01,7-30-Bew-Aufenthalte-Asyl-J-d-2019-12.xlsx,7-30-Bew-Aufenthalte-Asyl-J,7-30,flow,yearly
8,Burundi,34.0,33.0,0.0,1.0,4.0,36.0,4.0,1.0,5.0,1.0,0.0,0.0,1.0,0.0,3.0,2020-12-01,7-30-Bew-Aufenthalte-Asyl-J-d-2019-12.xlsx,7-30-Bew-Aufenthalte-Asyl-J,7-30,flow,yearly
9,Côte d'Ivoire,41.0,28.0,9.0,4.0,14.0,6.0,7.0,23.0,26.0,2.0,0.0,0.0,2.0,12.0,10.0,2020-12-01,7-30-Bew-Aufenthalte-Asyl-J-d-2019-12.xlsx,7-30-Bew-Aufenthalte-Asyl-J,7-30,flow,yearly
10,Dschibuti,2.0,1.0,1.0,0.0,5.0,1.0,0.0,2.0,6.0,0.0,0.0,0.0,1.0,4.0,1.0,2020-12-01,7-30-Bew-Aufenthalte-Asyl-J-d-2019-12.xlsx,7-30-Bew-Aufenthalte-Asyl-J,7-30,flow,yearly
11,Eritrea,1837.0,583.0,156.0,1098.0,254.0,1351.0,703.0,311.0,424.0,22.0,0.0,6.0,2.0,225.0,169.0,2020-12-01,7-30-Bew-Aufenthalte-Asyl-J-d-2019-12.xlsx,7-30-Bew-Aufenthalte-Asyl-J,7-30,flow,yearly
12,Gabun,1.0,1.0,0.0,0.0,4.0,0.0,0.0,3.0,2.0,0.0,0.0,0.0,1.0,0.0,1.0,2020-12-01,7-30-Bew-Aufenthalte-Asyl-J-d-2019-12.xlsx,7-30-Bew-Aufenthalte-Asyl-J,7-30,flow,yearly
13,Gambia,41.0,37.0,4.0,0.0,37.0,1.0,3.0,29.0,59.0,5.0,1.0,0.0,7.0,29.0,17.0,2020-12-01,7-30-Bew-Aufenthalte-Asyl-J-d-2019-12.xlsx,7-30-Bew-Aufenthalte-Asyl-J,7-30,flow,yearly
14,Ghana,23.0,12.0,7.0,4.0,17.0,0.0,3.0,15.0,29.0,6.0,0.0,0.0,3.0,4.0,16.0,2020-12-01,7-30-Bew-Aufenthalte-Asyl-J-d-2019-12.xlsx,7-30-Bew-Aufenthalte-Asyl-J,7-30,flow,yearly
15,Guinea,91.0,74.0,15.0,2.0,70.0,3.0,9.0,59.0,109.0,9.0,3.0,3.0,10.0,59.0,25.0,2020-12-01,7-30-Bew-Aufenthalte-Asyl-J-d-2019-12.xlsx,7-30-Bew-Aufenthalte-Asyl-J,7-30,flow,yearly
16,Guinea-Bissau,8.0,6.0,2.0,0.0,5.0,0.0,1.0,1.0,10.0,1.0,0.0,0.0,1.0,6.0,2.0,2020-12-01,7-30-Bew-Aufenthalte-Asyl-J-d-2019-12.xlsx,7-30-Bew-Aufenthalte-Asyl-J,7-30,flow,yearly
17,Kamerun,57.0,41.0,12.0,4.0,20.0,6.0,16.0,16.0,39.0,4.0,1.0,0.0,0.0,14.0,20.0,2020-12-01,7-30-Bew-Aufenthalte-Asyl-J-d-2019-12.xlsx,7-30-Bew-Aufenthalte-Asyl-J,7-30,flow,yearly
18,Kapverden,1.0,0.0,0.0,1.0,0.0,0.0,0.0,0.0,1.0,0.0,0.0,0.0,0.0,0.0,1.0,2020-12-01,7-30-Bew-Aufenthalte-Asyl-J-d-2019-12.xlsx,7-30-Bew-Aufenthalte-Asyl-J,7-30,flow,yearly
19,Kenia,4.0,2.0,0.0,2.0,2.0,0.0,2.0,2.0,4.0,1.0,0.0,0.0,0.0,2.0,1.0,2020-12-01,7-30-Bew-Aufenthalte-Asyl-J-d-2019-12.xlsx,7-30-Bew-Aufenthalte-Asyl-J,7-30,flow,yearly
20,Kongo,4.0,4.0,0.0,0.0,3.0,1.0,1.0,2.0,3.0,0.0,0.0,0.0,0.0,3.0,0.0,2020-12-01,7-30-Bew-Aufenthalte-Asyl-J-d-2019-12.xlsx,7-30-Bew-Aufenthalte-Asyl-J,7-30,flow,yearly
21,Kongo DR,130.0,73.0,28.0,29.0,42.0,9.0,69.0,55.0,44.0,8.0,0.0,1.0,3.0,16.0,16.0,2020-12-01,7-30-Bew-Aufenthalte-Asyl-J-d-2019-12.xlsx,7-30-Bew-Aufenthalte-Asyl-J,7-30,flow,yearly
22,Liberia,1.0,1.0,0.0,0.0,5.0,0.0,4.0,1.0,6.0,0.0,0.0,0.0,1.0,2.0,3.0,2020-12-01,7-30-Bew-Aufenthalte-Asyl-J-d-2019-12.xlsx,7-30-Bew-Aufenthalte-Asyl-J,7-30,flow,yearly
23,Libyen,151.0,133.0,14.0,4.0,35.0,4.0,18.0,32.0,127.0,6.0,0.0,1.0,12.0,89.0,19.0,2020-12-01,7-30-Bew-Aufenthalte-Asyl-J-d-2019-12.xlsx,7-30-Bew-Aufenthalte-Asyl-J,7-30,flow,yearly
24,Madagaskar,1.0,0.0,0.0,1.0,0.0,1.0,0.0,0.0,0.0,0.0,0.0,0.0,0.0,0.0,0.0,2020-12-01,7-30-Bew-Aufenthalte-Asyl-J-d-2019-12.xlsx,7-30-Bew-Aufenthalte-Asyl-J,7-30,flow,yearly
25,Malawi,0.0,0.0,0.0,0.0,0.0,1.0,0.0,0.0,0.0,0.0,0.0,0.0,0.0,0.0,0.0,2020-12-01,7-30-Bew-Aufenthalte-Asyl-J-d-2019-12.xlsx,7-30-Bew-Aufenthalte-Asyl-J,7-30,flow,yearly
26,Mali,10.0,9.0,1.0,0.0,11.0,2.0,3.0,6.0,22.0,2.0,0.0,0.0,3.0,9.0,8.0,2020-12-01,7-30-Bew-Aufenthalte-Asyl-J-d-2019-12.xlsx,7-30-Bew-Aufenthalte-Asyl-J,7-30,flow,yearly
27,Marokko,451.0,394.0,54.0,3.0,189.0,3.0,7.0,156.0,434.0,4.0,1.0,1.0,49.0,318.0,61.0,2020-12-01,7-30-Bew-Aufenthalte-Asyl-J-d-2019-12.xlsx,7-30-Bew-Aufenthalte-Asyl-J,7-30,flow,yearly
28,Mauretanien,3.0,3.0,0.0,0.0,3.0,0.0,2.0,4.0,6.0,0.0,0.0,0.0,1.0,5.0,0.0,2020-12-01,7-30-Bew-Aufenthalte-Asyl-J-d-2019-12.xlsx,7-30-Bew-Aufenthalte-Asyl-J,7-30,flow,yearly
29,Mosambik,0.0,0.0,0.0,0.0,0.0,1.0,0.0,0.0,0.0,0.0,0.0,0.0,0.0,0.0,0.0,2020-12-01,7-30-Bew-Aufenthalte-Asyl-J-d-2019-12.xlsx,7-30-Bew-Aufenthalte-Asyl-J,7-30,flow,yearly
30,Niger,2.0,2.0,0.0,0.0,1.0,0.0,0.0,1.0,5.0,0.0,0.0,0.0,0.0,3.0,2.0,2020-12-01,7-30-Bew-Aufenthalte-Asyl-J-d-2019-12.xlsx,7-30-Bew-Aufenthalte-Asyl-J,7-30,flow,yearly
31,Nigeria,184.0,165.0,12.0,7.0,122.0,2.0,10.0,83.0,225.0,22.0,4.0,6.0,33.0,115.0,45.0,2020-12-01,7-30-Bew-Aufenthalte-Asyl-J-d-2019-12.xlsx,7-30-Bew-Aufenthalte-Asyl-J,7-30,flow,yearly
32,Ruanda,3.0,1.0,1.0,1.0,2.0,0.0,3.0,3.0,1.0,0.0,0.0,0.0,0.0,0.0,1.0,2020-12-01,7-30-Bew-Aufenthalte-Asyl-J-d-2019-12.xlsx,7-30-Bew-Aufenthalte-Asyl-J,7-30,flow,yearly
33,Senegal,25.0,20.0,2.0,3.0,14.0,0.0,2.0,17.0,25.0,3.0,0.0,0.0,2.0,8.0,12.0,2020-12-01,7-30-Bew-Aufenthalte-Asyl-J-d-2019-12.xlsx,7-30-Bew-Aufenthalte-Asyl-J,7-30,flow,yearly
34,Sierra Leone,10.0,8.0,2.0,0.0,6.0,0.0,1.0,3.0,9.0,0.0,0.0,0.0,1.0,5.0,3.0,2020-12-01,7-30-Bew-Aufenthalte-Asyl-J-d-2019-12.xlsx,7-30-Bew-Aufenthalte-Asyl-J,7-30,flow,yearly
35,Somalia,336.0,182.0,45.0,109.0,90.0,117.0,342.0,110.0,211.0,20.0,0.0,3.0,9.0,116.0,63.0,2020-12-01,7-30-Bew-Aufenthalte-Asyl-J-d-2019-12.xlsx,7-30-Bew-Aufenthalte-Asyl-J,7-30,flow,yearly
36,Südafrika,0.0,0.0,0.0,0.0,0.0,0.0,1.0,0.0,0.0,0.0,0.0,0.0,0.0,0.0,0.0,2020-12-01,7-30-Bew-Aufenthalte-Asyl-J-d-2019-12.xlsx,7-30-Bew-Aufenthalte-Asyl-J,7-30,flow,yearly
37,Sudan,49.0,37.0,7.0,5.0,19.0,11.0,17.0,22.0,33.0,6.0,0.0,1.0,5.0,11.0,10.0,2020-12-01,7-30-Bew-Aufenthalte-Asyl-J-d-2019-12.xlsx,7-30-Bew-Aufenthalte-Asyl-J,7-30,flow,yearly
38,Südsudan,3.0,2.0,1.0,0.0,0.0,0.0,2.0,1.0,2.0,0.0,0.0,0.0,0.0,2.0,0.0,2020-12-01,7-30-Bew-Aufenthalte-Asyl-J-d-2019-12.xlsx,7-30-Bew-Aufenthalte-Asyl-J,7-30,flow,yearly
39,Tansania,0.0,0.0,0.0,0.0,1.0,0.0,2.0,1.0,2.0,1.0,0.0,0.0,0.0,0.0,1.0,2020-12-01,7-30-Bew-Aufenthalte-Asyl-J-d-2019-12.xlsx,7-30-Bew-Aufenthalte-Asyl-J,7-30,flow,yearly
40,Togo,17.0,8.0,3.0,6.0,7.0,4.0,6.0,11.0,13.0,0.0,0.0,0.0,0.0,5.0,8.0,2020-12-01,7-30-Bew-Aufenthalte-Asyl-J-d-2019-12.xlsx,7-30-Bew-Aufenthalte-Asyl-J,7-30,flow,yearly
41,Tschad,5.0,4.0,1.0,0.0,2.0,1.0,1.0,1.0,6.0,0.0,0.0,0.0,1.0,3.0,2.0,2020-12-01,7-30-Bew-Aufenthalte-Asyl-J-d-2019-12.xlsx,7-30-Bew-Aufenthalte-Asyl-J,7-30,flow,yearly
42,Tunesien,172.0,151.0,19.0,2.0,80.0,1.0,4.0,53.0,196.0,9.0,15.0,0.0,11.0,131.0,30.0,2020-12-01,7-30-Bew-Aufenthalte-Asyl-J-d-2019-12.xlsx,7-30-Bew-Aufenthalte-Asyl-J,7-30,flow,yearly
43,Uganda,20.0,8.0,9.0,3.0,5.0,3.0,1.0,8.0,7.0,0.0,0.0,0.0,0.0,1.0,6.0,2020-12-01,7-30-Bew-Aufenthalte-Asyl-J-d-2019-12.xlsx,7-30-Bew-Aufenthalte-Asyl-J,7-30,flow,yearly
44,Westsahara,9.0,8.0,1.0,0.0,4.0,0.0,0.0,5.0,7.0,0.0,0.0,0.0,1.0,5.0,1.0,2020-12-01,7-30-Bew-Aufenthalte-Asyl-J-d-2019-12.xlsx,7-30-Bew-Aufenthalte-Asyl-J,7-30,flow,yearly
45,Zentralafr. Republik,5.0,2.0,3.0,0.0,4.0,2.0,1.0,2.0,6.0,0.0,0.0,0.0,0.0,1.0,5.0,2020-12-01,7-30-Bew-Aufenthalte-Asyl-J-d-2019-12.xlsx,7-30-Bew-Aufenthalte-Asyl-J,7-30,flow,yearly
46,Zimbabwe,3.0,3.0,0.0,0.0,3.0,0.0,0.0,2.0,1.0,1.0,0.0,0.0,0.0,0.0,0.0,2020-12-01,7-30-Bew-Aufenthalte-Asyl-J-d-2019-12.xlsx,7-30-Bew-Aufenthalte-Asyl-J,7-30,flow,yearly
47,Total Afrika,5212.0,3174.0,672.0,1366.0,1869.0,1651.0,1371.0,1637.0,3615.0,186.0,41.0,25.0,316.0,2174.0,873.0,2020-12-01,7-30-Bew-Aufenthalte-Asyl-J-d-2019-12.xlsx,7-30-Bew-Aufenthalte-Asyl-J,7-30,flow,yearly
49,Argentinien,1.0,1.0,0.0,0.0,0.0,0.0,0.0,0.0,1.0,0.0,0.0,0.0,0.0,0.0,1.0,2020-12-01,7-30-Bew-Aufenthalte-Asyl-J-d-2019-12.xlsx,7-30-Bew-Aufenthalte-Asyl-J,7-30,flow,yearly
50,Brasilien,10.0,8.0,0.0,2.0,6.0,0.0,1.0,3.0,7.0,3.0,1.0,0.0,0.0,1.0,2.0,2020-12-01,7-30-Bew-Aufenthalte-Asyl-J-d-2019-12.xlsx,7-30-Bew-Aufenthalte-Asyl-J,7-30,flow,yearly
51,Chile,0.0,0.0,0.0,0.0,4.0,0.0,0.0,1.0,7.0,1.0,1.0,0.0,0.0,1.0,4.0,2020-12-01,7-30-Bew-Aufenthalte-Asyl-J-d-2019-12.xlsx,7-30-Bew-Aufenthalte-Asyl-J,7-30,flow,yearly
52,Dominikanische Republik,1.0,0.0,1.0,0.0,0.0,0.0,0.0,1.0,0.0,0.0,0.0,0.0,0.0,0.0,0.0,2020-12-01,7-30-Bew-Aufenthalte-Asyl-J-d-2019-12.xlsx,7-30-Bew-Aufenthalte-Asyl-J,7-30,flow,yearly
53,Ecuador,1.0,1.0,0.0,0.0,0.0,0.0,0.0,0.0,1.0,0.0,0.0,0.0,0.0,1.0,0.0,2020-12-01,7-30-Bew-Aufenthalte-Asyl-J-d-2019-12.xlsx,7-30-Bew-Aufenthalte-Asyl-J,7-30,flow,yearly
54,El Salvador,22.0,14.0,8.0,0.0,15.0,0.0,0.0,25.0,12.0,3.0,0.0,0.0,0.0,0.0,9.0,2020-12-01,7-30-Bew-Aufenthalte-Asyl-J-d-2019-12.xlsx,7-30-Bew-Aufenthalte-Asyl-J,7-30,flow,yearly
55,Guyana (Republik),1.0,1.0,0.0,0.0,0.0,0.0,0.0,0.0,0.0,0.0,0.0,0.0,0.0,0.0,0.0,2020-12-01,7-30-Bew-Aufenthalte-Asyl-J-d-2019-12.xlsx,7-30-Bew-Aufenthalte-Asyl-J,7-30,flow,yearly
56,Haiti,3.0,3.0,0.0,0.0,3.0,0.0,0.0,2.0,4.0,2.0,0.0,0.0,1.0,0.0,1.0,2020-12-01,7-30-Bew-Aufenthalte-Asyl-J-d-2019-12.xlsx,7-30-Bew-Aufenthalte-Asyl-J,7-30,flow,yearly
57,Honduras,1.0,1.0,0.0,0.0,0.0,0.0,0.0,2.0,0.0,0.0,0.0,0.0,0.0,0.0,0.0,2020-12-01,7-30-Bew-Aufenthalte-Asyl-J-d-2019-12.xlsx,7-30-Bew-Aufenthalte-Asyl-J,7-30,flow,yearly
58,Jamaika,7.0,5.0,2.0,0.0,3.0,4.0,0.0,3.0,6.0,0.0,0.0,1.0,0.0,3.0,2.0,2020-12-01,7-30-Bew-Aufenthalte-Asyl-J-d-2019-12.xlsx,7-30-Bew-Aufenthalte-Asyl-J,7-30,flow,yearly
59,Kanada,2.0,1.0,0.0,1.0,9.0,0.0,0.0,2.0,13.0,5.0,0.0,0.0,0.0,5.0,3.0,2020-12-01,7-30-Bew-Aufenthalte-Asyl-J-d-2019-12.xlsx,7-30-Bew-Aufenthalte-Asyl-J,7-30,flow,yearly
60,Kolumbien,71.0,58.0,12.0,1.0,41.0,23.0,0.0,45.0,47.0,16.0,1.0,0.0,0.0,18.0,12.0,2020-12-01,7-30-Bew-Aufenthalte-Asyl-J-d-2019-12.xlsx,7-30-Bew-Aufenthalte-Asyl-J,7-30,flow,yearly
61,Kuba,6.0,6.0,0.0,0.0,2.0,1.0,1.0,1.0,3.0,0.0,0.0,0.0,0.0,1.0,2.0,2020-12-01,7-30-Bew-Aufenthalte-Asyl-J-d-2019-12.xlsx,7-30-Bew-Aufenthalte-Asyl-J,7-30,flow,yearly
62,Mexiko,1.0,1.0,0.0,0.0,3.0,1.0,0.0,2.0,2.0,0.0,1.0,0.0,0.0,1.0,0.0,2020-12-01,7-30-Bew-Aufenthalte-Asyl-J-d-2019-12.xlsx,7-30-Bew-Aufenthalte-Asyl-J,7-30,flow,yearly
63,Nicaragua,3.0,3.0,0.0,0.0,1.0,1.0,0.0,1.0,1.0,0.0,0.0,0.0,0.0,0.0,1.0,2020-12-01,7-30-Bew-Aufenthalte-Asyl-J-d-2019-12.xlsx,7-30-Bew-Aufenthalte-Asyl-J,7-30,flow,yearly
64,Peru,0.0,0.0,0.0,0.0,0.0,0.0,1.0,0.0,1.0,0.0,0.0,0.0,0.0,0.0,1.0,2020-12-01,7-30-Bew-Aufenthalte-Asyl-J-d-2019-12.xlsx,7-30-Bew-Aufenthalte-Asyl-J,7-30,flow,yearly
65,USA,3.0,3.0,0.0,0.0,0.0,0.0,0.0,0.0,4.0,1.0,0.0,0.0,0.0,3.0,0.0,2020-12-01,7-30-Bew-Aufenthalte-Asyl-J-d-2019-12.xlsx,7-30-Bew-Aufenthalte-Asyl-J,7-30,flow,yearly
66,Venezuela,21.0,16.0,5.0,0.0,14.0,7.0,6.0,17.0,15.0,2.0,0.0,0.0,0.0,8.0,5.0,2020-12-01,7-30-Bew-Aufenthalte-Asyl-J-d-2019-12.xlsx,7-30-Bew-Aufenthalte-Asyl-J,7-30,flow,yearly
67,Total Amerika,154.0,122.0,28.0,4.0,101.0,37.0,9.0,105.0,124.0,33.0,4.0,1.0,1.0,42.0,43.0,2020-12-01,7-30-Bew-Aufenthalte-Asyl-J-d-2019-12.xlsx,7-30-Bew-Aufenthalte-Asyl-J,7-30,flow,yearly
69,Afghanistan,1805.0,1489.0,146.0,170.0,208.0,341.0,611.0,265.0,400.0,25.0,0.0,15.0,36.0,160.0,164.0,2020-12-01,7-30-Bew-Aufenthalte-Asyl-J-d-2019-12.xlsx,7-30-Bew-Aufenthalte-Asyl-J,7-30,flow,yearly
70,Armenien,46.0,18.0,22.0,6.0,42.0,0.0,17.0,49.0,51.0,12.0,1.0,0.0,4.0,4.0,30.0,2020-12-01,7-30-Bew-Aufenthalte-Asyl-J-d-2019-12.xlsx,7-30-Bew-Aufenthalte-Asyl-J,7-30,flow,yearly
71,Aserbaidschan,15.0,9.0,4.0,2.0,5.0,63.0,1.0,10.0,11.0,4.0,0.0,0.0,1.0,0.0,6.0,2020-12-01,7-30-Bew-Aufenthalte-Asyl-J-d-2019-12.xlsx,7-30-Bew-Aufenthalte-Asyl-J,7-30,flow,yearly
72,Bahrain,1.0,1.0,0.0,0.0,0.0,0.0,3.0,0.0,0.0,0.0,0.0,0.0,0.0,0.0,0.0,2020-12-01,7-30-Bew-Aufenthalte-Asyl-J-d-2019-12.xlsx,7-30-Bew-Aufenthalte-Asyl-J,7-30,flow,yearly
73,Bangladesh,5.0,4.0,1.0,0.0,4.0,0.0,1.0,6.0,9.0,2.0,0.0,0.0,1.0,2.0,4.0,2020-12-01,7-30-Bew-Aufenthalte-Asyl-J-d-2019-12.xlsx,7-30-Bew-Aufenthalte-Asyl-J,7-30,flow,yearly
74,Bhutan,4.0,0.0,4.0,0.0,4.0,0.0,0.0,4.0,4.0,0.0,0.0,0.0,0.0,0.0,4.0,2020-12-01,7-30-Bew-Aufenthalte-Asyl-J-d-2019-12.xlsx,7-30-Bew-Aufenthalte-Asyl-J,7-30,flow,yearly
75,China (Volksrepublik),162.0,37.0,38.0,87.0,47.0,42.0,339.0,57.0,86.0,5.0,0.0,0.0,1.0,28.0,52.0,2020-12-01,7-30-Bew-Aufenthalte-Asyl-J-d-2019-12.xlsx,7-30-Bew-Aufenthalte-Asyl-J,7-30,flow,yearly
76,Georgien,315.0,231.0,73.0,11.0,298.0,0.0,7.0,241.0,471.0,172.0,36.0,1.0,26.0,127.0,109.0,2020-12-01,7-30-Bew-Aufenthalte-Asyl-J-d-2019-12.xlsx,7-30-Bew-Aufenthalte-Asyl-J,7-30,flow,yearly
77,Indien,12.0,10.0,1.0,1.0,4.0,0.0,1.0,9.0,15.0,2.0,0.0,0.0,1.0,6.0,6.0,2020-12-01,7-30-Bew-Aufenthalte-Asyl-J-d-2019-12.xlsx,7-30-Bew-Aufenthalte-Asyl-J,7-30,flow,yearly
78,Indonesien,0.0,0.0,0.0,0.0,0.0,0.0,0.0,1.0,0.0,0.0,0.0,0.0,0.0,0.0,0.0,2020-12-01,7-30-Bew-Aufenthalte-Asyl-J-d-2019-12.xlsx,7-30-Bew-Aufenthalte-Asyl-J,7-30,flow,yearly
79,Irak,411.0,230.0,124.0,57.0,290.0,101.0,150.0,280.0,363.0,43.0,8.0,5.0,26.0,141.0,140.0,2020-12-01,7-30-Bew-Aufenthalte-Asyl-J-d-2019-12.xlsx,7-30-Bew-Aufenthalte-Asyl-J,7-30,flow,yearly
80,Iran,380.0,223.0,115.0,42.0,226.0,206.0,65.0,258.0,251.0,13.0,1.0,4.0,10.0,59.0,164.0,2020-12-01,7-30-Bew-Aufenthalte-Asyl-J-d-2019-12.xlsx,7-30-Bew-Aufenthalte-Asyl-J,7-30,flow,yearly
81,Israel,5.0,5.0,0.0,0.0,3.0,0.0,0.0,3.0,1.0,0.0,0.0,0.0,0.0,1.0,0.0,2020-12-01,7-30-Bew-Aufenthalte-Asyl-J-d-2019-12.xlsx,7-30-Bew-Aufenthalte-Asyl-J,7-30,flow,yearly
82,Japan,0.0,0.0,0.0,0.0,1.0,0.0,0.0,1.0,1.0,1.0,0.0,0.0,0.0,0.0,0.0,2020-12-01,7-30-Bew-Aufenthalte-Asyl-J-d-2019-12.xlsx,7-30-Bew-Aufenthalte-Asyl-J,7-30,flow,yearly
83,Jemen,18.0,10.0,1.0,7.0,0.0,18.0,13.0,1.0,3.0,1.0,0.0,0.0,0.0,1.0,1.0,2020-12-01,7-30-Bew-Aufenthalte-Asyl-J-d-2019-12.xlsx,7-30-Bew-Aufenthalte-Asyl-J,7-30,flow,yearly
84,Jordanien,6.0,3.0,2.0,1.0,1.0,0.0,3.0,3.0,2.0,1.0,0.0,0.0,0.0,0.0,1.0,2020-12-01,7-30-Bew-Aufenthalte-Asyl-J-d-2019-12.xlsx,7-30-Bew-Aufenthalte-Asyl-J,7-30,flow,yearly
85,Kambodscha,3.0,1.0,0.0,2.0,0.0,1.0,2.0,0.0,0.0,0.0,0.0,0.0,0.0,0.0,0.0,2020-12-01,7-30-Bew-Aufenthalte-Asyl-J-d-2019-12.xlsx,7-30-Bew-Aufenthalte-Asyl-J,7-30,flow,yearly
86,Kasachstan,12.0,6.0,5.0,1.0,1.0,0.0,3.0,3.0,5.0,0.0,0.0,0.0,0.0,0.0,5.0,2020-12-01,7-30-Bew-Aufenthalte-Asyl-J-d-2019-12.xlsx,7-30-Bew-Aufenthalte-Asyl-J,7-30,flow,yearly
87,Kirgisistan,2.0,1.0,1.0,0.0,1.0,0.0,0.0,2.0,1.0,0.0,0.0,1.0,0.0,0.0,0.0,2020-12-01,7-30-Bew-Aufenthalte-Asyl-J-d-2019-12.xlsx,7-30-Bew-Aufenthalte-Asyl-J,7-30,flow,yearly
88,Korea (Süd),3.0,3.0,0.0,0.0,2.0,0.0,0.0,0.0,8.0,1.0,0.0,0.0,0.0,2.0,5.0,2020-12-01,7-30-Bew-Aufenthalte-Asyl-J-d-2019-12.xlsx,7-30-Bew-Aufenthalte-Asyl-J,7-30,flow,yearly
89,Kuwait,0.0,0.0,0.0,0.0,0.0,0.0,5.0,0.0,0.0,0.0,0.0,0.0,0.0,0.0,0.0,2020-12-01,7-30-Bew-Aufenthalte-Asyl-J-d-2019-12.xlsx,7-30-Bew-Aufenthalte-Asyl-J,7-30,flow,yearly
90,Libanon,28.0,13.0,13.0,2.0,9.0,1.0,4.0,9.0,19.0,2.0,1.0,0.0,2.0,11.0,3.0,2020-12-01,7-30-Bew-Aufenthalte-Asyl-J-d-2019-12.xlsx,7-30-Bew-Aufenthalte-Asyl-J,7-30,flow,yearly
91,Malaysia,1.0,1.0,0.0,0.0,1.0,0.0,0.0,0.0,2.0,1.0,0.0,0.0,0.0,0.0,1.0,2020-12-01,7-30-Bew-Aufenthalte-Asyl-J-d-2019-12.xlsx,7-30-Bew-Aufenthalte-Asyl-J,7-30,flow,yearly
92,Mongolei,34.0,19.0,13.0,2.0,12.0,2.0,4.0,16.0,25.0,3.0,0.0,0.0,0.0,6.0,16.0,2020-12-01,7-30-Bew-Aufenthalte-Asyl-J-d-2019-12.xlsx,7-30-Bew-Aufenthalte-Asyl-J,7-30,flow,yearly
93,Myanmar,9.0,8.0,0.0,1.0,5.0,3.0,3.0,4.0,5.0,0.0,0.0,0.0,4.0,0.0,1.0,2020-12-01,7-30-Bew-Aufenthalte-Asyl-J-d-2019-12.xlsx,7-30-Bew-Aufenthalte-Asyl-J,7-30,flow,yearly
94,Nepal,8.0,3.0,3.0,2.0,6.0,2.0,2.0,6.0,8.0,2.0,1.0,0.0,0.0,2.0,3.0,2020-12-01,7-30-Bew-Aufenthalte-Asyl-J-d-2019-12.xlsx,7-30-Bew-Aufenthalte-Asyl-J,7-30,flow,yearly
95,Pakistan,91.0,58.0,28.0,5.0,57.0,26.0,19.0,74.0,86.0,6.0,3.0,1.0,4.0,43.0,29.0,2020-12-01,7-30-Bew-Aufenthalte-Asyl-J-d-2019-12.xlsx,7-30-Bew-Aufenthalte-Asyl-J,7-30,flow,yearly
96,Philippinen,2.0,1.0,0.0,1.0,0.0,1.0,0.0,0.0,0.0,0.0,0.0,0.0,0.0,0.0,0.0,2020-12-01,7-30-Bew-Aufenthalte-Asyl-J-d-2019-12.xlsx,7-30-Bew-Aufenthalte-Asyl-J,7-30,flow,yearly
97,Saudi-Arabien,3.0,3.0,0.0,0.0,2.0,5.0,2.0,1.0,3.0,0.0,0.0,0.0,1.0,0.0,2.0,2020-12-01,7-30-Bew-Aufenthalte-Asyl-J-d-2019-12.xlsx,7-30-Bew-Aufenthalte-Asyl-J,7-30,flow,yearly
98,Sri Lanka,640.0,247.0,279.0,114.0,421.0,312.0,186.0,600.0,327.0,6.0,6.0,1.0,12.0,120.0,182.0,2020-12-01,7-30-Bew-Aufenthalte-Asyl-J-d-2019-12.xlsx,7-30-Bew-Aufenthalte-Asyl-J,7-30,flow,yearly
99,Syrien,1308.0,861.0,66.0,381.0,45.0,1230.0,788.0,66.0,186.0,37.0,0.0,2.0,5.0,82.0,60.0,2020-12-01,7-30-Bew-Aufenthalte-Asyl-J-d-2019-12.xlsx,7-30-Bew-Aufenthalte-Asyl-J,7-30,flow,yearly
100,Tadschikistan,4.0,3.0,0.0,1.0,0.0,1.0,0.0,0.0,0.0,0.0,0.0,0.0,0.0,0.0,0.0,2020-12-01,7-30-Bew-Aufenthalte-Asyl-J-d-2019-12.xlsx,7-30-Bew-Aufenthalte-Asyl-J,7-30,flow,yearly
101,Taiwan,1.0,1.0,0.0,0.0,0.0,0.0,0.0,0.0,0.0,0.0,0.0,0.0,0.0,0.0,0.0,2020-12-01,7-30-Bew-Aufenthalte-Asyl-J-d-2019-12.xlsx,7-30-Bew-Aufenthalte-Asyl-J,7-30,flow,yearly
102,Thailand,1.0,1.0,0.0,0.0,0.0,0.0,0.0,0.0,0.0,0.0,0.0,0.0,0.0,0.0,0.0,2020-12-01,7-30-Bew-Aufenthalte-Asyl-J-d-2019-12.xlsx,7-30-Bew-Aufenthalte-Asyl-J,7-30,flow,yearly
103,Turkmenistan,1.0,1.0,0.0,0.0,0.0,0.0,0.0,0.0,0.0,0.0,0.0,0.0,0.0,0.0,0.0,2020-12-01,7-30-Bew-Aufenthalte-Asyl-J-d-2019-12.xlsx,7-30-Bew-Aufenthalte-Asyl-J,7-30,flow,yearly
104,Usbekistan,4.0,0.0,4.0,0.0,0.0,0.0,0.0,4.0,5.0,0.0,0.0,0.0,0.0,1.0,4.0,2020-12-01,7-30-Bew-Aufenthalte-Asyl-J-d-2019-12.xlsx,7-30-Bew-Aufenthalte-Asyl-J,7-30,flow,yearly
105,Vietnam,5.0,4.0,1.0,0.0,8.0,0.0,2.0,5.0,8.0,0.0,0.0,0.0,3.0,2.0,3.0,2020-12-01,7-30-Bew-Aufenthalte-Asyl-J-d-2019-12.xlsx,7-30-Bew-Aufenthalte-Asyl-J,7-30,flow,yearly
106,Total Asien,5345.0,3505.0,944.0,896.0,1703.0,2355.0,2231.0,1978.0,2356.0,339.0,57.0,30.0,137.0,798.0,995.0,2020-12-01,7-30-Bew-Aufenthalte-Asyl-J-d-2019-12.xlsx,7-30-Bew-Aufenthalte-Asyl-J,7-30,flow,yearly
108,Albanien,82.0,48.0,33.0,1.0,66.0,0.0,3.0,71.0,104.0,34.0,16.0,0.0,3.0,32.0,19.0,2020-12-01,7-30-Bew-Aufenthalte-Asyl-J-d-2019-12.xlsx,7-30-Bew-Aufenthalte-Asyl-J,7-30,flow,yearly
109,Belarus,41.0,34.0,7.0,0.0,35.0,1.0,0.0,16.0,49.0,13.0,4.0,0.0,3.0,13.0,16.0,2020-12-01,7-30-Bew-Aufenthalte-Asyl-J-d-2019-12.xlsx,7-30-Bew-Aufenthalte-Asyl-J,7-30,flow,yearly
110,Belgien,2.0,1.0,1.0,0.0,0.0,0.0,0.0,1.0,2.0,0.0,0.0,0.0,0.0,2.0,0.0,2020-12-01,7-30-Bew-Aufenthalte-Asyl-J-d-2019-12.xlsx,7-30-Bew-Aufenthalte-Asyl-J,7-30,flow,yearly
111,Bosnien u. Herzegowina,33.0,18.0,7.0,8.0,11.0,6.0,24.0,16.0,33.0,5.0,1.0,0.0,0.0,16.0,11.0,2020-12-01,7-30-Bew-Aufenthalte-Asyl-J-d-2019-12.xlsx,7-30-Bew-Aufenthalte-Asyl-J,7-30,flow,yearly
112,Bulgarien,1.0,1.0,0.0,0.0,0.0,0.0,0.0,0.0,2.0,0.0,0.0,0.0,0.0,2.0,0.0,2020-12-01,7-30-Bew-Aufenthalte-Asyl-J-d-2019-12.xlsx,7-30-Bew-Aufenthalte-Asyl-J,7-30,flow,yearly
113,Deutschland,4.0,4.0,0.0,0.0,1.0,0.0,1.0,1.0,3.0,1.0,0.0,0.0,0.0,1.0,1.0,2020-12-01,7-30-Bew-Aufenthalte-Asyl-J-d-2019-12.xlsx,7-30-Bew-Aufenthalte-Asyl-J,7-30,flow,yearly
114,Estland,0.0,0.0,0.0,0.0,2.0,0.0,0.0,0.0,2.0,0.0,1.0,0.0,0.0,0.0,1.0,2020-12-01,7-30-Bew-Aufenthalte-Asyl-J-d-2019-12.xlsx,7-30-Bew-Aufenthalte-Asyl-J,7-30,flow,yearly
115,Frankreich,8.0,8.0,0.0,0.0,3.0,0.0,0.0,3.0,4.0,1.0,0.0,0.0,0.0,0.0,3.0,2020-12-01,7-30-Bew-Aufenthalte-Asyl-J-d-2019-12.xlsx,7-30-Bew-Aufenthalte-Asyl-J,7-30,flow,yearly
116,Grossbritannien,4.0,3.0,0.0,1.0,2.0,0.0,0.0,3.0,3.0,1.0,0.0,0.0,0.0,1.0,1.0,2020-12-01,7-30-Bew-Aufenthalte-Asyl-J-d-2019-12.xlsx,7-30-Bew-Aufenthalte-Asyl-J,7-30,flow,yearly
117,Irland,1.0,1.0,0.0,0.0,0.0,0.0,0.0,0.0,0.0,0.0,0.0,0.0,0.0,0.0,0.0,2020-12-01,7-30-Bew-Aufenthalte-Asyl-J-d-2019-12.xlsx,7-30-Bew-Aufenthalte-Asyl-J,7-30,flow,yearly
118,Italien,7.0,6.0,0.0,1.0,2.0,0.0,1.0,4.0,5.0,0.0,0.0,0.0,0.0,4.0,1.0,2020-12-01,7-30-Bew-Aufenthalte-Asyl-J-d-2019-12.xlsx,7-30-Bew-Aufenthalte-Asyl-J,7-30,flow,yearly
119,Kosovo,113.0,60.0,25.0,28.0,49.0,3.0,57.0,68.0,75.0,15.0,4.0,0.0,4.0,23.0,29.0,2020-12-01,7-30-Bew-Aufenthalte-Asyl-J-d-2019-12.xlsx,7-30-Bew-Aufenthalte-Asyl-J,7-30,flow,yearly
120,Kroatien,3.0,2.0,1.0,0.0,2.0,0.0,0.0,3.0,4.0,3.0,0.0,0.0,0.0,0.0,1.0,2020-12-01,7-30-Bew-Aufenthalte-Asyl-J-d-2019-12.xlsx,7-30-Bew-Aufenthalte-Asyl-J,7-30,flow,yearly
121,Lettland,1.0,1.0,0.0,0.0,0.0,0.0,0.0,0.0,1.0,0.0,0.0,0.0,0.0,0.0,1.0,2020-12-01,7-30-Bew-Aufenthalte-Asyl-J-d-2019-12.xlsx,7-30-Bew-Aufenthalte-Asyl-J,7-30,flow,yearly
122,Litauen,1.0,1.0,0.0,0.0,1.0,0.0,0.0,1.0,2.0,0.0,1.0,0.0,0.0,0.0,1.0,2020-12-01,7-30-Bew-Aufenthalte-Asyl-J-d-2019-12.xlsx,7-30-Bew-Aufenthalte-Asyl-J,7-30,flow,yearly
123,Nordmazedonien,31.0,28.0,0.0,3.0,17.0,0.0,5.0,29.0,20.0,13.0,0.0,0.0,2.0,2.0,3.0,2020-12-01,7-30-Bew-Aufenthalte-Asyl-J-d-2019-12.xlsx,7-30-Bew-Aufenthalte-Asyl-J,7-30,flow,yearly
124,Moldova,39.0,39.0,0.0,0.0,51.0,0.0,1.0,74.0,63.0,35.0,5.0,0.0,11.0,7.0,5.0,2020-12-01,7-30-Bew-Aufenthalte-Asyl-J-d-2019-12.xlsx,7-30-Bew-Aufenthalte-Asyl-J,7-30,flow,yearly
125,Montenegro,1.0,0.0,0.0,1.0,3.0,0.0,3.0,3.0,4.0,0.0,0.0,0.0,3.0,1.0,0.0,2020-12-01,7-30-Bew-Aufenthalte-Asyl-J-d-2019-12.xlsx,7-30-Bew-Aufenthalte-Asyl-J,7-30,flow,yearly
126,Niederlande,2.0,1.0,1.0,0.0,1.0,0.0,1.0,1.0,3.0,1.0,0.0,0.0,0.0,0.0,2.0,2020-12-01,7-30-Bew-Aufenthalte-Asyl-J-d-2019-12.xlsx,7-30-Bew-Aufenthalte-Asyl-J,7-30,flow,yearly
127,Österreich,1.0,1.0,0.0,0.0,0.0,0.0,0.0,0.0,5.0,0.0,0.0,0.0,0.0,5.0,0.0,2020-12-01,7-30-Bew-Aufenthalte-Asyl-J-d-2019-12.xlsx,7-30-Bew-Aufenthalte-Asyl-J,7-30,flow,yearly
128,Polen,2.0,0.0,2.0,0.0,0.0,0.0,0.0,0.0,2.0,0.0,0.0,0.0,0.0,2.0,0.0,2020-12-01,7-30-Bew-Aufenthalte-Asyl-J-d-2019-12.xlsx,7-30-Bew-Aufenthalte-Asyl-J,7-30,flow,yearly
129,Rumänien,4.0,4.0,0.0,0.0,1.0,0.0,2.0,0.0,6.0,0.0,0.0,0.0,0.0,6.0,0.0,2020-12-01,7-30-Bew-Aufenthalte-Asyl-J-d-2019-12.xlsx,7-30-Bew-Aufenthalte-Asyl-J,7-30,flow,yearly
130,Russland,94.0,57.0,28.0,9.0,75.0,51.0,18.0,86.0,79.0,15.0,0.0,9.0,9.0,12.0,34.0,2020-12-01,7-30-Bew-Aufenthalte-Asyl-J-d-2019-12.xlsx,7-30-Bew-Aufenthalte-Asyl-J,7-30,flow,yearly
131,Schweden,0.0,0.0,0.0,0.0,0.0,0.0,1.0,0.0,0.0,0.0,0.0,0.0,0.0,0.0,0.0,2020-12-01,7-30-Bew-Aufenthalte-Asyl-J-d-2019-12.xlsx,7-30-Bew-Aufenthalte-Asyl-J,7-30,flow,yearly
132,Serbien,67.0,55.0,7.0,5.0,48.0,1.0,74.0,48.0,96.0,23.0,10.0,1.0,1.0,29.0,32.0,2020-12-01,7-30-Bew-Aufenthalte-Asyl-J-d-2019-12.xlsx,7-30-Bew-Aufenthalte-Asyl-J,7-30,flow,yearly
133,Slowakische Republik,4.0,3.0,1.0,0.0,2.0,0.0,0.0,1.0,3.0,0.0,0.0,0.0,0.0,1.0,2.0,2020-12-01,7-30-Bew-Aufenthalte-Asyl-J-d-2019-12.xlsx,7-30-Bew-Aufenthalte-Asyl-J,7-30,flow,yearly
134,Slowenien,1.0,1.0,0.0,0.0,0.0,0.0,0.0,0.0,1.0,0.0,0.0,0.0,0.0,1.0,0.0,2020-12-01,7-30-Bew-Aufenthalte-Asyl-J-d-2019-12.xlsx,7-30-Bew-Aufenthalte-Asyl-J,7-30,flow,yearly
135,Spanien,1.0,1.0,0.0,0.0,2.0,0.0,0.0,2.0,3.0,1.0,0.0,0.0,0.0,2.0,0.0,2020-12-01,7-30-Bew-Aufenthalte-Asyl-J-d-2019-12.xlsx,7-30-Bew-Aufenthalte-Asyl-J,7-30,flow,yearly
136,Tschechische Republik,5.0,5.0,0.0,0.0,4.0,0.0,0.0,0.0,9.0,4.0,0.0,0.0,0.0,0.0,5.0,2020-12-01,7-30-Bew-Aufenthalte-Asyl-J-d-2019-12.xlsx,7-30-Bew-Aufenthalte-Asyl-J,7-30,flow,yearly
137,Türkei,1297.0,1086.0,141.0,70.0,140.0,1511.0,84.0,224.0,186.0,19.0,9.0,3.0,13.0,69.0,73.0,2020-12-01,7-30-Bew-Aufenthalte-Asyl-J-d-2019-12.xlsx,7-30-Bew-Aufenthalte-Asyl-J,7-30,flow,yearly
138,Ukraine,43.0,27.0,15.0,1.0,34.0,3.0,1.0,33.0,60.0,18.0,7.0,0.0,3.0,11.0,21.0,2020-12-01,7-30-Bew-Aufenthalte-Asyl-J-d-2019-12.xlsx,7-30-Bew-Aufenthalte-Asyl-J,7-30,flow,yearly
139,Ungarn,1.0,1.0,0.0,0.0,0.0,0.0,0.0,0.0,0.0,0.0,0.0,0.0,0.0,0.0,0.0,2020-12-01,7-30-Bew-Aufenthalte-Asyl-J-d-2019-12.xlsx,7-30-Bew-Aufenthalte-Asyl-J,7-30,flow,yearly
140,Total Europa,1894.0,1497.0,269.0,128.0,552.0,1576.0,276.0,688.0,829.0,202.0,58.0,13.0,52.0,242.0,262.0,2020-12-01,7-30-Bew-Aufenthalte-Asyl-J-d-2019-12.xlsx,7-30-Bew-Aufenthalte-Asyl-J,7-30,flow,yearly
142,Staatenlos,5.0,2.0,0.0,3.0,0.0,2.0,21.0,0.0,0.0,0.0,0.0,0.0,0.0,0.0,0.0,2020-12-01,7-30-Bew-Aufenthalte-Asyl-J-d-2019-12.xlsx,7-30-Bew-Aufenthalte-Asyl-J,7-30,flow,yearly
143,Ohne Nationalität,70.0,58.0,8.0,4.0,16.0,35.0,45.0,20.0,31.0,0.0,0.0,0.0,3.0,22.0,6.0,2020-12-01,7-30-Bew-Aufenthalte-Asyl-J-d-2019-12.xlsx,7-30-Bew-Aufenthalte-Asyl-J,7-30,flow,yearly
144,Staat unbekannt,111.0,40.0,37.0,34.0,77.0,36.0,44.0,84.0,115.0,2.0,1.0,2.0,4.0,62.0,44.0,2020-12-01,7-30-Bew-Aufenthalte-Asyl-J-d-2019-12.xlsx,7-30-Bew-Aufenthalte-Asyl-J,7-30,flow,yearly
145,Total Herkunft unbek.,186.0,100.0,45.0,41.0,93.0,73.0,110.0,104.0,146.0,2.0,1.0,2.0,7.0,84.0,50.0,2020-12-01,7-30-Bew-Aufenthalte-Asyl-J-d-2019-12.xlsx,7-30-Bew-Aufenthalte-Asyl-J,7-30,flow,yearly
1,Ägypten,46.0,39.0,7.0,0.0,33.0,2.0,0.0,26.0,43.0,5.0,0.0,0.0,7.0,14.0,17.0,2019-12-01,7-30-Bew-Aufenthalte-Asyl-J-d-2019-12.xlsx,7-30-Bew-Aufenthalte-Asyl-J,7-30,flow,yearly
2,Algerien,917.0,825.0,92.0,0.0,657.0,4.0,6.0,405.0,1183.0,112.0,35.0,2.0,139.0,682.0,213.0,2019-12-01,7-30-Bew-Aufenthalte-Asyl-J-d-2019-12.xlsx,7-30-Bew-Aufenthalte-Asyl-J,7-30,flow,yearly
3,Angola,77.0,48.0,14.0,15.0,56.0,0.0,60.0,38.0,66.0,3.0,4.0,1.0,20.0,13.0,25.0,2019-12-01,7-30-Bew-Aufenthalte-Asyl-J-d-2019-12.xlsx,7-30-Bew-Aufenthalte-Asyl-J,7-30,flow,yearly
4,Äquatorialguinea,2.0,2.0,0.0,0.0,1.0,0.0,0.0,0.0,2.0,0.0,1.0,0.0,0.0,0.0,1.0,2019-12-01,7-30-Bew-Aufenthalte-Asyl-J-d-2019-12.xlsx,7-30-Bew-Aufenthalte-Asyl-J,7-30,flow,yearly
5,Äthiopien,233.0,74.0,75.0,84.0,175.0,47.0,113.0,188.0,199.0,32.0,3.0,0.0,14.0,69.0,81.0,2019-12-01,7-30-Bew-Aufenthalte-Asyl-J-d-2019-12.xlsx,7-30-Bew-Aufenthalte-Asyl-J,7-30,flow,yearly
6,Benin,8.0,5.0,2.0,1.0,8.0,1.0,6.0,7.0,8.0,0.0,1.0,0.0,1.0,4.0,2.0,2019-12-01,7-30-Bew-Aufenthalte-Asyl-J-d-2019-12.xlsx,7-30-Bew-Aufenthalte-Asyl-J,7-30,flow,yearly
7,Burkina Faso,8.0,4.0,2.0,2.0,15.0,0.0,3.0,10.0,16.0,1.0,1.0,0.0,2.0,7.0,5.0,2019-12-01,7-30-Bew-Aufenthalte-Asyl-J-d-2019-12.xlsx,7-30-Bew-Aufenthalte-Asyl-J,7-30,flow,yearly
8,Burundi,31.0,27.0,2.0,2.0,1.0,22.0,1.0,2.0,7.0,1.0,0.0,0.0,0.0,3.0,3.0,2019-12-01,7-30-Bew-Aufenthalte-Asyl-J-d-2019-12.xlsx,7-30-Bew-Aufenthalte-Asyl-J,7-30,flow,yearly
9,Côte d'Ivoire,47.0,30.0,9.0,8.0,31.0,3.0,7.0,19.0,43.0,2.0,1.0,0.0,7.0,22.0,11.0,2019-12-01,7-30-Bew-Aufenthalte-Asyl-J-d-2019-12.xlsx,7-30-Bew-Aufenthalte-Asyl-J,7-30,flow,yearly
10,Dschibuti,3.0,3.0,0.0,0.0,1.0,1.0,0.0,3.0,2.0,0.0,0.0,0.0,1.0,1.0,0.0,2019-12-01,7-30-Bew-Aufenthalte-Asyl-J-d-2019-12.xlsx,7-30-Bew-Aufenthalte-Asyl-J,7-30,flow,yearly
11,Eritrea,2768.0,1273.0,231.0,1264.0,488.0,2527.0,634.0,689.0,592.0,56.0,1.0,3.0,8.0,357.0,167.0,2019-12-01,7-30-Bew-Aufenthalte-Asyl-J-d-2019-12.xlsx,7-30-Bew-Aufenthalte-Asyl-J,7-30,flow,yearly
12,Gabun,4.0,3.0,1.0,0.0,0.0,0.0,0.0,0.0,1.0,0.0,0.0,0.0,0.0,1.0,0.0,2019-12-01,7-30-Bew-Aufenthalte-Asyl-J-d-2019-12.xlsx,7-30-Bew-Aufenthalte-Asyl-J,7-30,flow,yearly
13,Gambia,128.0,116.0,9.0,3.0,88.0,2.0,3.0,55.0,161.0,32.0,0.0,2.0,25.0,55.0,47.0,2019-12-01,7-30-Bew-Aufenthalte-Asyl-J-d-2019-12.xlsx,7-30-Bew-Aufenthalte-Asyl-J,7-30,flow,yearly
14,Ghana,37.0,29.0,5.0,3.0,26.0,1.0,1.0,12.0,36.0,5.0,1.0,1.0,2.0,18.0,9.0,2019-12-01,7-30-Bew-Aufenthalte-Asyl-J-d-2019-12.xlsx,7-30-Bew-Aufenthalte-Asyl-J,7-30,flow,yearly
15,Guinea,146.0,127.0,18.0,1.0,145.0,2.0,4.0,101.0,214.0,16.0,21.0,0.0,41.0,94.0,42.0,2019-12-01,7-30-Bew-Aufenthalte-Asyl-J-d-2019-12.xlsx,7-30-Bew-Aufenthalte-Asyl-J,7-30,flow,yearly
16,Guinea-Bissau,21.0,19.0,2.0,0.0,20.0,0.0,4.0,11.0,43.0,9.0,2.0,0.0,4.0,19.0,9.0,2019-12-01,7-30-Bew-Aufenthalte-Asyl-J-d-2019-12.xlsx,7-30-Bew-Aufenthalte-Asyl-J,7-30,flow,yearly
17,Kamerun,61.0,44.0,9.0,8.0,34.0,3.0,21.0,23.0,42.0,1.0,4.0,0.0,10.0,18.0,9.0,2019-12-01,7-30-Bew-Aufenthalte-Asyl-J-d-2019-12.xlsx,7-30-Bew-Aufenthalte-Asyl-J,7-30,flow,yearly
18,Kenia,9.0,6.0,1.0,2.0,5.0,0.0,1.0,4.0,3.0,1.0,0.0,0.0,2.0,0.0,0.0,2019-12-01,7-30-Bew-Aufenthalte-Asyl-J-d-2019-12.xlsx,7-30-Bew-Aufenthalte-Asyl-J,7-30,flow,yearly
19,Komoren,0.0,0.0,0.0,0.0,0.0,0.0,0.0,0.0,1.0,0.0,0.0,0.0,0.0,1.0,0.0,2019-12-01,7-30-Bew-Aufenthalte-Asyl-J-d-2019-12.xlsx,7-30-Bew-Aufenthalte-Asyl-J,7-30,flow,yearly
20,Kongo,3.0,2.0,0.0,1.0,2.0,0.0,6.0,0.0,0.0,0.0,0.0,0.0,0.0,0.0,0.0,2019-12-01,7-30-Bew-Aufenthalte-Asyl-J-d-2019-12.xlsx,7-30-Bew-Aufenthalte-Asyl-J,7-30,flow,yearly
21,Kongo DR,103.0,56.0,23.0,24.0,40.0,13.0,88.0,43.0,62.0,3.0,6.0,0.0,6.0,24.0,23.0,2019-12-01,7-30-Bew-Aufenthalte-Asyl-J-d-2019-12.xlsx,7-30-Bew-Aufenthalte-Asyl-J,7-30,flow,yearly
22,Liberia,11.0,9.0,2.0,0.0,8.0,0.0,5.0,6.0,8.0,0.0,0.0,0.0,2.0,3.0,3.0,2019-12-01,7-30-Bew-Aufenthalte-Asyl-J-d-2019-12.xlsx,7-30-Bew-Aufenthalte-Asyl-J,7-30,flow,yearly
23,Libyen,135.0,115.0,12.0,8.0,74.0,6.0,10.0,44.0,132.0,6.0,0.0,1.0,26.0,71.0,28.0,2019-12-01,7-30-Bew-Aufenthalte-Asyl-J-d-2019-12.xlsx,7-30-Bew-Aufenthalte-Asyl-J,7-30,flow,yearly
24,Malawi,0.0,0.0,0.0,0.0,0.0,0.0,0.0,0.0,1.0,0.0,0.0,0.0,0.0,1.0,0.0,2019-12-01,7-30-Bew-Aufenthalte-Asyl-J-d-2019-12.xlsx,7-30-Bew-Aufenthalte-Asyl-J,7-30,flow,yearly
25,Mali,29.0,26.0,3.0,0.0,34.0,0.0,2.0,13.0,43.0,8.0,0.0,0.0,7.0,15.0,13.0,2019-12-01,7-30-Bew-Aufenthalte-Asyl-J-d-2019-12.xlsx,7-30-Bew-Aufenthalte-Asyl-J,7-30,flow,yearly
26,Marokko,374.0,343.0,28.0,3.0,271.0,3.0,6.0,180.0,504.0,10.0,23.0,3.0,96.0,304.0,68.0,2019-12-01,7-30-Bew-Aufenthalte-Asyl-J-d-2019-12.xlsx,7-30-Bew-Aufenthalte-Asyl-J,7-30,flow,yearly
27,Mauretanien,6.0,6.0,0.0,0.0,7.0,0.0,1.0,1.0,8.0,0.0,0.0,0.0,0.0,6.0,2.0,2019-12-01,7-30-Bew-Aufenthalte-Asyl-J-d-2019-12.xlsx,7-30-Bew-Aufenthalte-Asyl-J,7-30,flow,yearly
28,Mauritius,1.0,1.0,0.0,0.0,2.0,0.0,0.0,1.0,1.0,0.0,0.0,0.0,0.0,1.0,0.0,2019-12-01,7-30-Bew-Aufenthalte-Asyl-J-d-2019-12.xlsx,7-30-Bew-Aufenthalte-Asyl-J,7-30,flow,yearly
29,Mosambik,1.0,1.0,0.0,0.0,0.0,0.0,0.0,0.0,0.0,0.0,0.0,0.0,0.0,0.0,0.0,2019-12-01,7-30-Bew-Aufenthalte-Asyl-J-d-2019-12.xlsx,7-30-Bew-Aufenthalte-Asyl-J,7-30,flow,yearly
30,Niger,8.0,8.0,0.0,0.0,8.0,0.0,3.0,4.0,11.0,1.0,1.0,0.0,2.0,5.0,2.0,2019-12-01,7-30-Bew-Aufenthalte-Asyl-J-d-2019-12.xlsx,7-30-Bew-Aufenthalte-Asyl-J,7-30,flow,yearly
31,Nigeria,395.0,335.0,47.0,13.0,220.0,1.0,18.0,137.0,440.0,42.0,20.0,4.0,90.0,184.0,100.0,2019-12-01,7-30-Bew-Aufenthalte-Asyl-J-d-2019-12.xlsx,7-30-Bew-Aufenthalte-Asyl-J,7-30,flow,yearly
32,Ruanda,4.0,3.0,1.0,0.0,4.0,1.0,2.0,3.0,4.0,0.0,0.0,0.0,1.0,3.0,0.0,2019-12-01,7-30-Bew-Aufenthalte-Asyl-J-d-2019-12.xlsx,7-30-Bew-Aufenthalte-Asyl-J,7-30,flow,yearly
33,Sambia,0.0,0.0,0.0,0.0,1.0,0.0,0.0,0.0,0.0,0.0,0.0,0.0,0.0,0.0,0.0,2019-12-01,7-30-Bew-Aufenthalte-Asyl-J-d-2019-12.xlsx,7-30-Bew-Aufenthalte-Asyl-J,7-30,flow,yearly
34,Senegal,42.0,35.0,3.0,4.0,38.0,1.0,3.0,13.0,65.0,12.0,7.0,1.0,8.0,18.0,19.0,2019-12-01,7-30-Bew-Aufenthalte-Asyl-J-d-2019-12.xlsx,7-30-Bew-Aufenthalte-Asyl-J,7-30,flow,yearly
35,Sierra Leone,13.0,11.0,1.0,1.0,9.0,0.0,2.0,6.0,13.0,0.0,0.0,0.0,3.0,7.0,3.0,2019-12-01,7-30-Bew-Aufenthalte-Asyl-J-d-2019-12.xlsx,7-30-Bew-Aufenthalte-Asyl-J,7-30,flow,yearly
36,Somalia,498.0,259.0,63.0,176.0,105.0,139.0,309.0,75.0,276.0,33.0,1.0,0.0,14.0,152.0,76.0,2019-12-01,7-30-Bew-Aufenthalte-Asyl-J-d-2019-12.xlsx,7-30-Bew-Aufenthalte-Asyl-J,7-30,flow,yearly
37,Südafrika,1.0,1.0,0.0,0.0,4.0,0.0,3.0,2.0,6.0,1.0,0.0,0.0,2.0,3.0,0.0,2019-12-01,7-30-Bew-Aufenthalte-Asyl-J-d-2019-12.xlsx,7-30-Bew-Aufenthalte-Asyl-J,7-30,flow,yearly
38,Sudan,44.0,30.0,4.0,10.0,29.0,23.0,7.0,21.0,41.0,14.0,3.0,0.0,5.0,9.0,10.0,2019-12-01,7-30-Bew-Aufenthalte-Asyl-J-d-2019-12.xlsx,7-30-Bew-Aufenthalte-Asyl-J,7-30,flow,yearly
39,Südsudan,5.0,3.0,0.0,2.0,3.0,0.0,0.0,1.0,3.0,0.0,0.0,0.0,0.0,1.0,2.0,2019-12-01,7-30-Bew-Aufenthalte-Asyl-J-d-2019-12.xlsx,7-30-Bew-Aufenthalte-Asyl-J,7-30,flow,yearly
40,Tansania,4.0,3.0,0.0,1.0,7.0,0.0,4.0,1.0,9.0,4.0,0.0,0.0,1.0,0.0,4.0,2019-12-01,7-30-Bew-Aufenthalte-Asyl-J-d-2019-12.xlsx,7-30-Bew-Aufenthalte-Asyl-J,7-30,flow,yearly
41,Togo,33.0,12.0,11.0,10.0,13.0,4.0,21.0,20.0,17.0,0.0,0.0,0.0,2.0,7.0,8.0,2019-12-01,7-30-Bew-Aufenthalte-Asyl-J-d-2019-12.xlsx,7-30-Bew-Aufenthalte-Asyl-J,7-30,flow,yearly
42,Tschad,14.0,10.0,3.0,1.0,6.0,0.0,4.0,7.0,8.0,1.0,0.0,0.0,1.0,4.0,2.0,2019-12-01,7-30-Bew-Aufenthalte-Asyl-J-d-2019-12.xlsx,7-30-Bew-Aufenthalte-Asyl-J,7-30,flow,yearly
43,Tunesien,165.0,148.0,15.0,2.0,111.0,0.0,2.0,79.0,224.0,17.0,29.0,1.0,29.0,110.0,38.0,2019-12-01,7-30-Bew-Aufenthalte-Asyl-J-d-2019-12.xlsx,7-30-Bew-Aufenthalte-Asyl-J,7-30,flow,yearly
44,Uganda,21.0,14.0,7.0,0.0,4.0,2.0,1.0,7.0,9.0,1.0,0.0,0.0,1.0,2.0,5.0,2019-12-01,7-30-Bew-Aufenthalte-Asyl-J-d-2019-12.xlsx,7-30-Bew-Aufenthalte-Asyl-J,7-30,flow,yearly
45,Westsahara,7.0,7.0,0.0,0.0,2.0,0.0,0.0,3.0,2.0,0.0,0.0,0.0,0.0,1.0,1.0,2019-12-01,7-30-Bew-Aufenthalte-Asyl-J-d-2019-12.xlsx,7-30-Bew-Aufenthalte-Asyl-J,7-30,flow,yearly
46,Zentralafr. Republik,5.0,5.0,0.0,0.0,3.0,1.0,1.0,4.0,5.0,0.0,0.0,1.0,0.0,3.0,1.0,2019-12-01,7-30-Bew-Aufenthalte-Asyl-J-d-2019-12.xlsx,7-30-Bew-Aufenthalte-Asyl-J,7-30,flow,yearly
47,Zimbabwe,7.0,5.0,1.0,1.0,4.0,0.0,1.0,3.0,3.0,0.0,0.0,0.0,1.0,0.0,2.0,2019-12-01,7-30-Bew-Aufenthalte-Asyl-J-d-2019-12.xlsx,7-30-Bew-Aufenthalte-Asyl-J,7-30,flow,yearly
48,Total Afrika,6475.0,4122.0,703.0,1650.0,2793.0,2809.0,1363.0,2267.0,4557.0,429.0,165.0,20.0,580.0,2312.0,1051.0,2019-12-01,7-30-Bew-Aufenthalte-Asyl-J-d-2019-12.xlsx,7-30-Bew-Aufenthalte-Asyl-J,7-30,flow,yearly
50,Brasilien,3.0,2.0,1.0,0.0,3.0,0.0,6.0,2.0,4.0,1.0,1.0,0.0,0.0,0.0,2.0,2019-12-01,7-30-Bew-Aufenthalte-Asyl-J-d-2019-12.xlsx,7-30-Bew-Aufenthalte-Asyl-J,7-30,flow,yearly
51,Chile,3.0,3.0,0.0,0.0,0.0,0.0,0.0,0.0,0.0,0.0,0.0,0.0,0.0,0.0,0.0,2019-12-01,7-30-Bew-Aufenthalte-Asyl-J-d-2019-12.xlsx,7-30-Bew-Aufenthalte-Asyl-J,7-30,flow,yearly
52,Costa Rica,1.0,1.0,0.0,0.0,0.0,0.0,0.0,0.0,1.0,0.0,0.0,0.0,0.0,0.0,1.0,2019-12-01,7-30-Bew-Aufenthalte-Asyl-J-d-2019-12.xlsx,7-30-Bew-Aufenthalte-Asyl-J,7-30,flow,yearly
53,Dominikanische Republik,1.0,1.0,0.0,0.0,0.0,0.0,0.0,1.0,0.0,0.0,0.0,0.0,0.0,0.0,0.0,2019-12-01,7-30-Bew-Aufenthalte-Asyl-J-d-2019-12.xlsx,7-30-Bew-Aufenthalte-Asyl-J,7-30,flow,yearly
54,Ecuador,2.0,2.0,0.0,0.0,2.0,0.0,3.0,2.0,2.0,0.0,0.0,0.0,2.0,0.0,0.0,2019-12-01,7-30-Bew-Aufenthalte-Asyl-J-d-2019-12.xlsx,7-30-Bew-Aufenthalte-Asyl-J,7-30,flow,yearly
55,El Salvador,10.0,10.0,0.0,0.0,7.0,0.0,0.0,6.0,16.0,3.0,1.0,0.0,0.0,8.0,4.0,2019-12-01,7-30-Bew-Aufenthalte-Asyl-J-d-2019-12.xlsx,7-30-Bew-Aufenthalte-Asyl-J,7-30,flow,yearly
56,Guatemala,0.0,0.0,0.0,0.0,1.0,0.0,0.0,1.0,1.0,1.0,0.0,0.0,0.0,0.0,0.0,2019-12-01,7-30-Bew-Aufenthalte-Asyl-J-d-2019-12.xlsx,7-30-Bew-Aufenthalte-Asyl-J,7-30,flow,yearly
57,Haiti,4.0,3.0,1.0,0.0,1.0,0.0,0.0,3.0,3.0,1.0,0.0,0.0,0.0,2.0,0.0,2019-12-01,7-30-Bew-Aufenthalte-Asyl-J-d-2019-12.xlsx,7-30-Bew-Aufenthalte-Asyl-J,7-30,flow,yearly
58,Honduras,5.0,5.0,0.0,0.0,0.0,0.0,0.0,1.0,0.0,0.0,0.0,0.0,0.0,0.0,0.0,2019-12-01,7-30-Bew-Aufenthalte-Asyl-J-d-2019-12.xlsx,7-30-Bew-Aufenthalte-Asyl-J,7-30,flow,yearly
59,Jamaika,6.0,6.0,0.0,0.0,1.0,2.0,0.0,0.0,2.0,0.0,0.0,0.0,0.0,0.0,2.0,2019-12-01,7-30-Bew-Aufenthalte-Asyl-J-d-2019-12.xlsx,7-30-Bew-Aufenthalte-Asyl-J,7-30,flow,yearly
60,Kanada,3.0,3.0,0.0,0.0,0.0,0.0,0.0,0.0,0.0,0.0,0.0,0.0,0.0,0.0,0.0,2019-12-01,7-30-Bew-Aufenthalte-Asyl-J-d-2019-12.xlsx,7-30-Bew-Aufenthalte-Asyl-J,7-30,flow,yearly
61,Kolumbien,131.0,116.0,10.0,5.0,64.0,14.0,2.0,56.0,70.0,28.0,8.0,0.0,0.0,12.0,22.0,2019-12-01,7-30-Bew-Aufenthalte-Asyl-J-d-2019-12.xlsx,7-30-Bew-Aufenthalte-Asyl-J,7-30,flow,yearly
62,Kuba,8.0,7.0,1.0,0.0,7.0,0.0,0.0,1.0,8.0,2.0,0.0,0.0,2.0,1.0,3.0,2019-12-01,7-30-Bew-Aufenthalte-Asyl-J-d-2019-12.xlsx,7-30-Bew-Aufenthalte-Asyl-J,7-30,flow,yearly
63,Mexiko,8.0,5.0,3.0,0.0,3.0,0.0,0.0,4.0,4.0,1.0,0.0,0.0,0.0,1.0,2.0,2019-12-01,7-30-Bew-Aufenthalte-Asyl-J-d-2019-12.xlsx,7-30-Bew-Aufenthalte-Asyl-J,7-30,flow,yearly
64,Nicaragua,16.0,11.0,4.0,1.0,13.0,1.0,0.0,2.0,16.0,8.0,0.0,0.0,0.0,2.0,6.0,2019-12-01,7-30-Bew-Aufenthalte-Asyl-J-d-2019-12.xlsx,7-30-Bew-Aufenthalte-Asyl-J,7-30,flow,yearly
65,Peru,1.0,1.0,0.0,0.0,6.0,0.0,2.0,3.0,7.0,3.0,1.0,0.0,1.0,0.0,2.0,2019-12-01,7-30-Bew-Aufenthalte-Asyl-J-d-2019-12.xlsx,7-30-Bew-Aufenthalte-Asyl-J,7-30,flow,yearly
66,Uruguay,0.0,0.0,0.0,0.0,0.0,0.0,0.0,1.0,0.0,0.0,0.0,0.0,0.0,0.0,0.0,2019-12-01,7-30-Bew-Aufenthalte-Asyl-J-d-2019-12.xlsx,7-30-Bew-Aufenthalte-Asyl-J,7-30,flow,yearly
67,USA,11.0,11.0,0.0,0.0,10.0,0.0,0.0,7.0,19.0,7.0,1.0,0.0,0.0,5.0,6.0,2019-12-01,7-30-Bew-Aufenthalte-Asyl-J-d-2019-12.xlsx,7-30-Bew-Aufenthalte-Asyl-J,7-30,flow,yearly
68,Venezuela,43.0,43.0,0.0,0.0,24.0,7.0,1.0,17.0,23.0,14.0,1.0,0.0,1.0,4.0,3.0,2019-12-01,7-30-Bew-Aufenthalte-Asyl-J-d-2019-12.xlsx,7-30-Bew-Aufenthalte-Asyl-J,7-30,flow,yearly
69,Total Amerika,256.0,230.0,20.0,6.0,142.0,24.0,14.0,107.0,176.0,69.0,13.0,0.0,6.0,35.0,53.0,2019-12-01,7-30-Bew-Aufenthalte-Asyl-J-d-2019-12.xlsx,7-30-Bew-Aufenthalte-Asyl-J,7-30,flow,yearly
71,Afghanistan,1504.0,1239.0,118.0,147.0,283.0,373.0,515.0,291.0,420.0,14.0,5.0,8.0,70.0,179.0,144.0,2019-12-01,7-30-Bew-Aufenthalte-Asyl-J-d-2019-12.xlsx,7-30-Bew-Aufenthalte-Asyl-J,7-30,flow,yearly
72,Armenien,49.0,38.0,10.0,1.0,38.0,3.0,22.0,26.0,67.0,23.0,5.0,0.0,1.0,20.0,18.0,2019-12-01,7-30-Bew-Aufenthalte-Asyl-J-d-2019-12.xlsx,7-30-Bew-Aufenthalte-Asyl-J,7-30,flow,yearly
73,Aserbaidschan,97.0,85.0,5.0,7.0,44.0,12.0,1.0,35.0,66.0,13.0,0.0,0.0,0.0,25.0,28.0,2019-12-01,7-30-Bew-Aufenthalte-Asyl-J-d-2019-12.xlsx,7-30-Bew-Aufenthalte-Asyl-J,7-30,flow,yearly
74,Bahrain,1.0,1.0,0.0,0.0,0.0,0.0,0.0,0.0,1.0,0.0,0.0,0.0,0.0,1.0,0.0,2019-12-01,7-30-Bew-Aufenthalte-Asyl-J-d-2019-12.xlsx,7-30-Bew-Aufenthalte-Asyl-J,7-30,flow,yearly
75,Bangladesh,13.0,12.0,1.0,0.0,6.0,0.0,6.0,5.0,22.0,4.0,0.0,0.0,0.0,13.0,5.0,2019-12-01,7-30-Bew-Aufenthalte-Asyl-J-d-2019-12.xlsx,7-30-Bew-Aufenthalte-Asyl-J,7-30,flow,yearly
76,Bhutan,0.0,0.0,0.0,0.0,2.0,0.0,0.0,2.0,0.0,0.0,0.0,0.0,0.0,0.0,0.0,2019-12-01,7-30-Bew-Aufenthalte-Asyl-J-d-2019-12.xlsx,7-30-Bew-Aufenthalte-Asyl-J,7-30,flow,yearly
77,Brunei,1.0,0.0,0.0,1.0,0.0,1.0,0.0,0.0,0.0,0.0,0.0,0.0,0.0,0.0,0.0,2019-12-01,7-30-Bew-Aufenthalte-Asyl-J-d-2019-12.xlsx,7-30-Bew-Aufenthalte-Asyl-J,7-30,flow,yearly
78,China (Volksrepublik),275.0,132.0,44.0,99.0,70.0,57.0,344.0,81.0,94.0,6.0,3.0,0.0,4.0,36.0,45.0,2019-12-01,7-30-Bew-Aufenthalte-Asyl-J-d-2019-12.xlsx,7-30-Bew-Aufenthalte-Asyl-J,7-30,flow,yearly
79,Georgien,660.0,586.0,63.0,11.0,569.0,1.0,3.0,454.0,744.0,267.0,93.0,0.0,45.0,176.0,163.0,2019-12-01,7-30-Bew-Aufenthalte-Asyl-J-d-2019-12.xlsx,7-30-Bew-Aufenthalte-Asyl-J,7-30,flow,yearly
80,Indien,23.0,20.0,2.0,1.0,19.0,1.0,5.0,10.0,16.0,4.0,1.0,0.0,3.0,7.0,1.0,2019-12-01,7-30-Bew-Aufenthalte-Asyl-J-d-2019-12.xlsx,7-30-Bew-Aufenthalte-Asyl-J,7-30,flow,yearly
81,Irak,659.0,467.0,115.0,77.0,277.0,98.0,170.0,340.0,357.0,61.0,5.0,12.0,32.0,143.0,104.0,2019-12-01,7-30-Bew-Aufenthalte-Asyl-J-d-2019-12.xlsx,7-30-Bew-Aufenthalte-Asyl-J,7-30,flow,yearly
82,Iran,590.0,446.0,81.0,63.0,290.0,107.0,77.0,243.0,244.0,26.0,2.0,4.0,40.0,56.0,116.0,2019-12-01,7-30-Bew-Aufenthalte-Asyl-J-d-2019-12.xlsx,7-30-Bew-Aufenthalte-Asyl-J,7-30,flow,yearly
83,Israel,1.0,1.0,0.0,0.0,2.0,1.0,0.0,1.0,2.0,0.0,1.0,0.0,0.0,0.0,1.0,2019-12-01,7-30-Bew-Aufenthalte-Asyl-J-d-2019-12.xlsx,7-30-Bew-Aufenthalte-Asyl-J,7-30,flow,yearly
84,Japan,1.0,1.0,0.0,0.0,1.0,0.0,0.0,0.0,1.0,1.0,0.0,0.0,0.0,0.0,0.0,2019-12-01,7-30-Bew-Aufenthalte-Asyl-J-d-2019-12.xlsx,7-30-Bew-Aufenthalte-Asyl-J,7-30,flow,yearly
85,Jemen,19.0,18.0,1.0,0.0,5.0,13.0,9.0,7.0,11.0,1.0,0.0,0.0,3.0,7.0,0.0,2019-12-01,7-30-Bew-Aufenthalte-Asyl-J-d-2019-12.xlsx,7-30-Bew-Aufenthalte-Asyl-J,7-30,flow,yearly
86,Jordanien,6.0,1.0,1.0,4.0,6.0,2.0,6.0,4.0,7.0,2.0,0.0,0.0,1.0,1.0,3.0,2019-12-01,7-30-Bew-Aufenthalte-Asyl-J-d-2019-12.xlsx,7-30-Bew-Aufenthalte-Asyl-J,7-30,flow,yearly
87,Kasachstan,13.0,11.0,0.0,2.0,6.0,1.0,0.0,7.0,10.0,0.0,0.0,0.0,1.0,0.0,9.0,2019-12-01,7-30-Bew-Aufenthalte-Asyl-J-d-2019-12.xlsx,7-30-Bew-Aufenthalte-Asyl-J,7-30,flow,yearly
88,Kirgisistan,4.0,1.0,3.0,0.0,4.0,0.0,0.0,7.0,1.0,1.0,0.0,0.0,0.0,0.0,0.0,2019-12-01,7-30-Bew-Aufenthalte-Asyl-J-d-2019-12.xlsx,7-30-Bew-Aufenthalte-Asyl-J,7-30,flow,yearly
89,Korea (Süd),0.0,0.0,0.0,0.0,3.0,0.0,0.0,1.0,0.0,0.0,0.0,0.0,0.0,0.0,0.0,2019-12-01,7-30-Bew-Aufenthalte-Asyl-J-d-2019-12.xlsx,7-30-Bew-Aufenthalte-Asyl-J,7-30,flow,yearly
90,Kuwait,0.0,0.0,0.0,0.0,0.0,0.0,1.0,0.0,0.0,0.0,0.0,0.0,0.0,0.0,0.0,2019-12-01,7-30-Bew-Aufenthalte-Asyl-J-d-2019-12.xlsx,7-30-Bew-Aufenthalte-Asyl-J,7-30,flow,yearly
91,Libanon,21.0,18.0,1.0,2.0,10.0,3.0,3.0,10.0,16.0,2.0,2.0,0.0,1.0,9.0,2.0,2019-12-01,7-30-Bew-Aufenthalte-Asyl-J-d-2019-12.xlsx,7-30-Bew-Aufenthalte-Asyl-J,7-30,flow,yearly
92,Malaysia,0.0,0.0,0.0,0.0,0.0,0.0,0.0,0.0,1.0,0.0,0.0,0.0,0.0,1.0,0.0,2019-12-01,7-30-Bew-Aufenthalte-Asyl-J-d-2019-12.xlsx,7-30-Bew-Aufenthalte-Asyl-J,7-30,flow,yearly
93,Mongolei,46.0,20.0,18.0,8.0,27.0,0.0,6.0,23.0,47.0,8.0,1.0,0.0,4.0,7.0,27.0,2019-12-01,7-30-Bew-Aufenthalte-Asyl-J-d-2019-12.xlsx,7-30-Bew-Aufenthalte-Asyl-J,7-30,flow,yearly
94,Myanmar,0.0,0.0,0.0,0.0,1.0,0.0,2.0,0.0,2.0,1.0,0.0,0.0,0.0,0.0,1.0,2019-12-01,7-30-Bew-Aufenthalte-Asyl-J-d-2019-12.xlsx,7-30-Bew-Aufenthalte-Asyl-J,7-30,flow,yearly
95,Nepal,8.0,4.0,0.0,4.0,6.0,0.0,1.0,6.0,20.0,2.0,9.0,0.0,0.0,4.0,5.0,2019-12-01,7-30-Bew-Aufenthalte-Asyl-J-d-2019-12.xlsx,7-30-Bew-Aufenthalte-Asyl-J,7-30,flow,yearly
96,Pakistan,108.0,93.0,11.0,4.0,71.0,6.0,7.0,88.0,99.0,5.0,3.0,1.0,16.0,61.0,13.0,2019-12-01,7-30-Bew-Aufenthalte-Asyl-J-d-2019-12.xlsx,7-30-Bew-Aufenthalte-Asyl-J,7-30,flow,yearly
97,Philippinen,0.0,0.0,0.0,0.0,0.0,0.0,1.0,0.0,0.0,0.0,0.0,0.0,0.0,0.0,0.0,2019-12-01,7-30-Bew-Aufenthalte-Asyl-J-d-2019-12.xlsx,7-30-Bew-Aufenthalte-Asyl-J,7-30,flow,yearly
98,Saudi-Arabien,5.0,4.0,0.0,1.0,2.0,0.0,0.0,0.0,5.0,1.0,0.0,0.0,0.0,3.0,1.0,2019-12-01,7-30-Bew-Aufenthalte-Asyl-J-d-2019-12.xlsx,7-30-Bew-Aufenthalte-Asyl-J,7-30,flow,yearly
99,Sri Lanka,901.0,379.0,398.0,124.0,493.0,282.0,188.0,649.0,526.0,39.0,30.0,0.0,27.0,246.0,184.0,2019-12-01,7-30-Bew-Aufenthalte-Asyl-J-d-2019-12.xlsx,7-30-Bew-Aufenthalte-Asyl-J,7-30,flow,yearly
100,Syrien,2007.0,1499.0,48.0,460.0,61.0,1598.0,538.0,49.0,207.0,42.0,0.0,9.0,6.0,89.0,61.0,2019-12-01,7-30-Bew-Aufenthalte-Asyl-J-d-2019-12.xlsx,7-30-Bew-Aufenthalte-Asyl-J,7-30,flow,yearly
101,Tadschikistan,8.0,8.0,0.0,0.0,1.0,3.0,0.0,8.0,6.0,0.0,0.0,0.0,1.0,5.0,0.0,2019-12-01,7-30-Bew-Aufenthalte-Asyl-J-d-2019-12.xlsx,7-30-Bew-Aufenthalte-Asyl-J,7-30,flow,yearly
102,Taiwan,0.0,0.0,0.0,0.0,1.0,0.0,0.0,0.0,1.0,0.0,1.0,0.0,0.0,0.0,0.0,2019-12-01,7-30-Bew-Aufenthalte-Asyl-J-d-2019-12.xlsx,7-30-Bew-Aufenthalte-Asyl-J,7-30,flow,yearly
103,Usbekistan,2.0,2.0,0.0,0.0,1.0,0.0,0.0,1.0,1.0,0.0,0.0,0.0,1.0,0.0,0.0,2019-12-01,7-30-Bew-Aufenthalte-Asyl-J-d-2019-12.xlsx,7-30-Bew-Aufenthalte-Asyl-J,7-30,flow,yearly
104,Vietnam,7.0,6.0,0.0,1.0,0.0,0.0,2.0,0.0,5.0,0.0,0.0,0.0,0.0,5.0,0.0,2019-12-01,7-30-Bew-Aufenthalte-Asyl-J-d-2019-12.xlsx,7-30-Bew-Aufenthalte-Asyl-J,7-30,flow,yearly
105,Total Asien,7029.0,5092.0,920.0,1017.0,2299.0,2562.0,1907.0,2348.0,2999.0,523.0,161.0,34.0,256.0,1094.0,931.0,2019-12-01,7-30-Bew-Aufenthalte-Asyl-J-d-2019-12.xlsx,7-30-Bew-Aufenthalte-Asyl-J,7-30,flow,yearly
107,Albanien,161.0,129.0,27.0,5.0,105.0,0.0,5.0,101.0,120.0,50.0,17.0,0.0,2.0,20.0,31.0,2019-12-01,7-30-Bew-Aufenthalte-Asyl-J-d-2019-12.xlsx,7-30-Bew-Aufenthalte-Asyl-J,7-30,flow,yearly
108,Belarus,39.0,30.0,8.0,1.0,33.0,0.0,1.0,21.0,54.0,16.0,1.0,1.0,6.0,11.0,19.0,2019-12-01,7-30-Bew-Aufenthalte-Asyl-J-d-2019-12.xlsx,7-30-Bew-Aufenthalte-Asyl-J,7-30,flow,yearly
109,Bosnien u. Herzegowina,43.0,35.0,5.0,3.0,26.0,0.0,47.0,22.0,41.0,20.0,5.0,0.0,0.0,3.0,13.0,2019-12-01,7-30-Bew-Aufenthalte-Asyl-J-d-2019-12.xlsx,7-30-Bew-Aufenthalte-Asyl-J,7-30,flow,yearly
110,Bulgarien,4.0,3.0,1.0,0.0,1.0,1.0,3.0,2.0,3.0,0.0,0.0,0.0,0.0,0.0,3.0,2019-12-01,7-30-Bew-Aufenthalte-Asyl-J-d-2019-12.xlsx,7-30-Bew-Aufenthalte-Asyl-J,7-30,flow,yearly
111,Deutschland,7.0,5.0,1.0,1.0,3.0,0.0,0.0,3.0,7.0,2.0,0.0,0.0,0.0,0.0,5.0,2019-12-01,7-30-Bew-Aufenthalte-Asyl-J-d-2019-12.xlsx,7-30-Bew-Aufenthalte-Asyl-J,7-30,flow,yearly
112,Frankreich,2.0,1.0,0.0,1.0,1.0,0.0,0.0,1.0,0.0,0.0,0.0,0.0,0.0,0.0,0.0,2019-12-01,7-30-Bew-Aufenthalte-Asyl-J-d-2019-12.xlsx,7-30-Bew-Aufenthalte-Asyl-J,7-30,flow,yearly
113,Griechenland,1.0,1.0,0.0,0.0,0.0,0.0,0.0,0.0,1.0,0.0,0.0,0.0,0.0,1.0,0.0,2019-12-01,7-30-Bew-Aufenthalte-Asyl-J-d-2019-12.xlsx,7-30-Bew-Aufenthalte-Asyl-J,7-30,flow,yearly
114,Grossbritannien,2.0,0.0,0.0,2.0,0.0,0.0,4.0,0.0,3.0,0.0,1.0,0.0,0.0,0.0,2.0,2019-12-01,7-30-Bew-Aufenthalte-Asyl-J-d-2019-12.xlsx,7-30-Bew-Aufenthalte-Asyl-J,7-30,flow,yearly
115,Italien,8.0,8.0,0.0,0.0,5.0,0.0,0.0,4.0,7.0,3.0,1.0,0.0,0.0,1.0,2.0,2019-12-01,7-30-Bew-Aufenthalte-Asyl-J-d-2019-12.xlsx,7-30-Bew-Aufenthalte-Asyl-J,7-30,flow,yearly
116,Kosovo,124.0,96.0,15.0,13.0,96.0,4.0,119.0,59.0,166.0,57.0,12.0,0.0,7.0,21.0,69.0,2019-12-01,7-30-Bew-Aufenthalte-Asyl-J-d-2019-12.xlsx,7-30-Bew-Aufenthalte-Asyl-J,7-30,flow,yearly
117,Kroatien,2.0,2.0,0.0,0.0,1.0,0.0,4.0,0.0,3.0,0.0,1.0,0.0,0.0,1.0,1.0,2019-12-01,7-30-Bew-Aufenthalte-Asyl-J-d-2019-12.xlsx,7-30-Bew-Aufenthalte-Asyl-J,7-30,flow,yearly
118,Nordmazedonien,56.0,28.0,27.0,1.0,51.0,2.0,15.0,50.0,65.0,33.0,5.0,0.0,4.0,4.0,19.0,2019-12-01,7-30-Bew-Aufenthalte-Asyl-J-d-2019-12.xlsx,7-30-Bew-Aufenthalte-Asyl-J,7-30,flow,yearly
119,Moldova,57.0,56.0,1.0,0.0,26.0,0.0,0.0,8.0,23.0,6.0,0.0,0.0,0.0,4.0,13.0,2019-12-01,7-30-Bew-Aufenthalte-Asyl-J-d-2019-12.xlsx,7-30-Bew-Aufenthalte-Asyl-J,7-30,flow,yearly
120,Montenegro,7.0,5.0,0.0,2.0,2.0,0.0,6.0,2.0,4.0,1.0,1.0,0.0,0.0,0.0,2.0,2019-12-01,7-30-Bew-Aufenthalte-Asyl-J-d-2019-12.xlsx,7-30-Bew-Aufenthalte-Asyl-J,7-30,flow,yearly
121,Niederlande,1.0,1.0,0.0,0.0,1.0,0.0,0.0,0.0,0.0,0.0,0.0,0.0,0.0,0.0,0.0,2019-12-01,7-30-Bew-Aufenthalte-Asyl-J-d-2019-12.xlsx,7-30-Bew-Aufenthalte-Asyl-J,7-30,flow,yearly
122,Österreich,3.0,3.0,0.0,0.0,0.0,0.0,0.0,3.0,0.0,0.0,0.0,0.0,0.0,0.0,0.0,2019-12-01,7-30-Bew-Aufenthalte-Asyl-J-d-2019-12.xlsx,7-30-Bew-Aufenthalte-Asyl-J,7-30,flow,yearly
123,Polen,5.0,4.0,1.0,0.0,2.0,0.0,0.0,4.0,2.0,1.0,0.0,0.0,0.0,1.0,0.0,2019-12-01,7-30-Bew-Aufenthalte-Asyl-J-d-2019-12.xlsx,7-30-Bew-Aufenthalte-Asyl-J,7-30,flow,yearly
124,Portugal,0.0,0.0,0.0,0.0,0.0,0.0,1.0,0.0,1.0,0.0,1.0,0.0,0.0,0.0,0.0,2019-12-01,7-30-Bew-Aufenthalte-Asyl-J-d-2019-12.xlsx,7-30-Bew-Aufenthalte-Asyl-J,7-30,flow,yearly
125,Rumänien,10.0,10.0,0.0,0.0,8.0,0.0,0.0,7.0,9.0,4.0,1.0,0.0,0.0,2.0,2.0,2019-12-01,7-30-Bew-Aufenthalte-Asyl-J-d-2019-12.xlsx,7-30-Bew-Aufenthalte-Asyl-J,7-30,flow,yearly
126,Russland,177.0,126.0,44.0,7.0,87.0,21.0,37.0,83.0,143.0,18.0,1.0,2.0,31.0,36.0,55.0,2019-12-01,7-30-Bew-Aufenthalte-Asyl-J-d-2019-12.xlsx,7-30-Bew-Aufenthalte-Asyl-J,7-30,flow,yearly
127,Schweden,1.0,1.0,0.0,0.0,0.0,0.0,0.0,0.0,1.0,0.0,0.0,0.0,0.0,0.0,1.0,2019-12-01,7-30-Bew-Aufenthalte-Asyl-J-d-2019-12.xlsx,7-30-Bew-Aufenthalte-Asyl-J,7-30,flow,yearly
128,Serbien,186.0,130.0,42.0,14.0,90.0,0.0,87.0,67.0,156.0,48.0,5.0,0.0,3.0,42.0,58.0,2019-12-01,7-30-Bew-Aufenthalte-Asyl-J-d-2019-12.xlsx,7-30-Bew-Aufenthalte-Asyl-J,7-30,flow,yearly
129,Slowakische Republik,3.0,3.0,0.0,0.0,3.0,0.0,0.0,2.0,5.0,0.0,0.0,0.0,0.0,0.0,5.0,2019-12-01,7-30-Bew-Aufenthalte-Asyl-J-d-2019-12.xlsx,7-30-Bew-Aufenthalte-Asyl-J,7-30,flow,yearly
130,Slowenien,2.0,2.0,0.0,0.0,1.0,0.0,0.0,0.0,1.0,1.0,0.0,0.0,0.0,0.0,0.0,2019-12-01,7-30-Bew-Aufenthalte-Asyl-J-d-2019-12.xlsx,7-30-Bew-Aufenthalte-Asyl-J,7-30,flow,yearly
131,Spanien,8.0,8.0,0.0,0.0,7.0,0.0,0.0,1.0,13.0,5.0,0.0,0.0,0.0,1.0,7.0,2019-12-01,7-30-Bew-Aufenthalte-Asyl-J-d-2019-12.xlsx,7-30-Bew-Aufenthalte-Asyl-J,7-30,flow,yearly
132,Tschechische Republik,2.0,2.0,0.0,0.0,1.0,0.0,0.0,1.0,2.0,0.0,1.0,0.0,0.0,1.0,0.0,2019-12-01,7-30-Bew-Aufenthalte-Asyl-J-d-2019-12.xlsx,7-30-Bew-Aufenthalte-Asyl-J,7-30,flow,yearly
133,Türkei,1334.0,1158.0,86.0,90.0,165.0,612.0,116.0,156.0,222.0,48.0,10.0,0.0,31.0,49.0,84.0,2019-12-01,7-30-Bew-Aufenthalte-Asyl-J-d-2019-12.xlsx,7-30-Bew-Aufenthalte-Asyl-J,7-30,flow,yearly
134,Ukraine,64.0,50.0,11.0,3.0,67.0,1.0,0.0,64.0,88.0,31.0,15.0,3.0,2.0,8.0,29.0,2019-12-01,7-30-Bew-Aufenthalte-Asyl-J-d-2019-12.xlsx,7-30-Bew-Aufenthalte-Asyl-J,7-30,flow,yearly
135,Ungarn,5.0,5.0,0.0,0.0,4.0,0.0,0.0,0.0,9.0,4.0,0.0,0.0,0.0,1.0,4.0,2019-12-01,7-30-Bew-Aufenthalte-Asyl-J-d-2019-12.xlsx,7-30-Bew-Aufenthalte-Asyl-J,7-30,flow,yearly
136,Total Europa,2314.0,1902.0,269.0,143.0,786.0,641.0,445.0,661.0,1149.0,348.0,78.0,6.0,86.0,207.0,424.0,2019-12-01,7-30-Bew-Aufenthalte-Asyl-J-d-2019-12.xlsx,7-30-Bew-Aufenthalte-Asyl-J,7-30,flow,yearly
138,Australien,1.0,1.0,0.0,0.0,4.0,0.0,0.0,1.0,4.0,0.0,0.0,0.0,0.0,0.0,4.0,2019-12-01,7-30-Bew-Aufenthalte-Asyl-J-d-2019-12.xlsx,7-30-Bew-Aufenthalte-Asyl-J,7-30,flow,yearly
139,Neuseeland,1.0,1.0,0.0,0.0,1.0,0.0,0.0,0.0,2.0,1.0,0.0,0.0,0.0,0.0,1.0,2019-12-01,7-30-Bew-Aufenthalte-Asyl-J-d-2019-12.xlsx,7-30-Bew-Aufenthalte-Asyl-J,7-30,flow,yearly
140,Total Ozeanien,2.0,2.0,0.0,0.0,5.0,0.0,0.0,1.0,6.0,1.0,0.0,0.0,0.0,0.0,5.0,2019-12-01,7-30-Bew-Aufenthalte-Asyl-J-d-2019-12.xlsx,7-30-Bew-Aufenthalte-Asyl-J,7-30,flow,yearly
142,Staatenlos,17.0,15.0,1.0,1.0,3.0,4.0,6.0,4.0,4.0,2.0,0.0,1.0,0.0,0.0,1.0,2019-12-01,7-30-Bew-Aufenthalte-Asyl-J-d-2019-12.xlsx,7-30-Bew-Aufenthalte-Asyl-J,7-30,flow,yearly
143,Ohne Nationalität,117.0,98.0,10.0,9.0,33.0,46.0,49.0,25.0,57.0,7.0,0.0,2.0,8.0,19.0,21.0,2019-12-01,7-30-Bew-Aufenthalte-Asyl-J-d-2019-12.xlsx,7-30-Bew-Aufenthalte-Asyl-J,7-30,flow,yearly
144,Staat unbekannt,127.0,36.0,54.0,37.0,72.0,38.0,48.0,76.0,114.0,5.0,2.0,2.0,10.0,57.0,38.0,2019-12-01,7-30-Bew-Aufenthalte-Asyl-J-d-2019-12.xlsx,7-30-Bew-Aufenthalte-Asyl-J,7-30,flow,yearly
145,Total Herkunft unbek.,261.0,149.0,65.0,47.0,108.0,88.0,103.0,105.0,175.0,14.0,2.0,5.0,18.0,76.0,60.0,2019-12-01,7-30-Bew-Aufenthalte-Asyl-J-d-2019-12.xlsx,7-30-Bew-Aufenthalte-Asyl-J,7-30,flow,yearly
