,index,Äquatorialguinea,1,1.1,nation,0.1,0.2,0.3,0.4,0.5,1.2,0.6,0.7,0.8,0.9,0.10,1.3,Unnamed: 16,Unnamed: 17,Unnamed: 18,Unnamed: 19,datum,2,3,4,5,6,7,8,9,10,11,12,13,14,15,16,17,18,19
0,1,,46.0,,Ägypten,,,,,,,,,,,,,,,,,2019-12-01,39.0,7.0,0.0,33.0,2.0,0.0,26.0,43.0,5.0,0.0,0.0,7.0,14.0,17.0,,,,
1,2,,917.0,,Algerien,,,,,,,,,,,,,,,,,2019-12-01,825.0,92.0,0.0,657.0,4.0,6.0,405.0,1183.0,112.0,35.0,2.0,139.0,682.0,213.0,,,,
2,3,,77.0,,Angola,,,,,,,,,,,,,,,,,2019-12-01,48.0,14.0,15.0,56.0,0.0,60.0,38.0,66.0,3.0,4.0,1.0,20.0,13.0,25.0,,,,
3,4,,2.0,,Äquatorialguinea,,,,,,,,,,,,,,,,,2019-12-01,2.0,0.0,0.0,1.0,0.0,0.0,0.0,2.0,0.0,1.0,0.0,0.0,0.0,1.0,,,,
4,5,,233.0,,Äthiopien,,,,,,,,,,,,,,,,,2019-12-01,74.0,75.0,84.0,175.0,47.0,113.0,188.0,199.0,32.0,3.0,0.0,14.0,69.0,81.0,,,,
5,6,,8.0,,Benin,,,,,,,,,,,,,,,,,2019-12-01,5.0,2.0,1.0,8.0,1.0,6.0,7.0,8.0,0.0,1.0,0.0,1.0,4.0,2.0,,,,
6,7,,8.0,,Burkina Faso,,,,,,,,,,,,,,,,,2019-12-01,4.0,2.0,2.0,15.0,0.0,3.0,10.0,16.0,1.0,1.0,0.0,2.0,7.0,5.0,,,,
7,8,,31.0,,Burundi,,,,,,,,,,,,,,,,,2019-12-01,27.0,2.0,2.0,1.0,22.0,1.0,2.0,7.0,1.0,0.0,0.0,0.0,3.0,3.0,,,,
8,9,,47.0,,Côte d'Ivoire,,,,,,,,,,,,,,,,,2019-12-01,30.0,9.0,8.0,31.0,3.0,7.0,19.0,43.0,2.0,1.0,0.0,7.0,22.0,11.0,,,,
9,10,,3.0,,Dschibuti,,,,,,,,,,,,,,,,,2019-12-01,3.0,0.0,0.0,1.0,1.0,0.0,3.0,2.0,0.0,0.0,0.0,1.0,1.0,0.0,,,,
10,11,,2768.0,,Eritrea,,,,,,,,,,,,,,,,,2019-12-01,1273.0,231.0,1264.0,488.0,2527.0,634.0,689.0,592.0,56.0,1.0,3.0,8.0,357.0,167.0,,,,
11,12,,4.0,,Gabun,,,,,,,,,,,,,,,,,2019-12-01,3.0,1.0,0.0,0.0,0.0,0.0,0.0,1.0,0.0,0.0,0.0,0.0,1.0,0.0,,,,
12,13,,128.0,,Gambia,,,,,,,,,,,,,,,,,2019-12-01,116.0,9.0,3.0,88.0,2.0,3.0,55.0,161.0,32.0,0.0,2.0,25.0,55.0,47.0,,,,
13,14,,37.0,,Ghana,,,,,,,,,,,,,,,,,2019-12-01,29.0,5.0,3.0,26.0,1.0,1.0,12.0,36.0,5.0,1.0,1.0,2.0,18.0,9.0,,,,
14,15,,146.0,,Guinea,,,,,,,,,,,,,,,,,2019-12-01,127.0,18.0,1.0,145.0,2.0,4.0,101.0,214.0,16.0,21.0,0.0,41.0,94.0,42.0,,,,
15,16,,21.0,,Guinea-Bissau,,,,,,,,,,,,,,,,,2019-12-01,19.0,2.0,0.0,20.0,0.0,4.0,11.0,43.0,9.0,2.0,0.0,4.0,19.0,9.0,,,,
16,17,,61.0,,Kamerun,,,,,,,,,,,,,,,,,2019-12-01,44.0,9.0,8.0,34.0,3.0,21.0,23.0,42.0,1.0,4.0,0.0,10.0,18.0,9.0,,,,
17,18,,9.0,,Kenia,,,,,,,,,,,,,,,,,2019-12-01,6.0,1.0,2.0,5.0,0.0,1.0,4.0,3.0,1.0,0.0,0.0,2.0,0.0,0.0,,,,
18,19,,0.0,,Komoren,,,,,,,,,,,,,,,,,2019-12-01,0.0,0.0,0.0,0.0,0.0,0.0,0.0,1.0,0.0,0.0,0.0,0.0,1.0,0.0,,,,
19,20,,3.0,,Kongo,,,,,,,,,,,,,,,,,2019-12-01,2.0,0.0,1.0,2.0,0.0,6.0,0.0,0.0,0.0,0.0,0.0,0.0,0.0,0.0,,,,
20,21,,103.0,,Kongo DR,,,,,,,,,,,,,,,,,2019-12-01,56.0,23.0,24.0,40.0,13.0,88.0,43.0,62.0,3.0,6.0,0.0,6.0,24.0,23.0,,,,
21,22,,11.0,,Liberia,,,,,,,,,,,,,,,,,2019-12-01,9.0,2.0,0.0,8.0,0.0,5.0,6.0,8.0,0.0,0.0,0.0,2.0,3.0,3.0,,,,
22,23,,135.0,,Libyen,,,,,,,,,,,,,,,,,2019-12-01,115.0,12.0,8.0,74.0,6.0,10.0,44.0,132.0,6.0,0.0,1.0,26.0,71.0,28.0,,,,
23,24,,0.0,,Malawi,,,,,,,,,,,,,,,,,2019-12-01,0.0,0.0,0.0,0.0,0.0,0.0,0.0,1.0,0.0,0.0,0.0,0.0,1.0,0.0,,,,
24,25,,29.0,,Mali,,,,,,,,,,,,,,,,,2019-12-01,26.0,3.0,0.0,34.0,0.0,2.0,13.0,43.0,8.0,0.0,0.0,7.0,15.0,13.0,,,,
25,26,,374.0,,Marokko,,,,,,,,,,,,,,,,,2019-12-01,343.0,28.0,3.0,271.0,3.0,6.0,180.0,504.0,10.0,23.0,3.0,96.0,304.0,68.0,,,,
26,27,,6.0,,Mauretanien,,,,,,,,,,,,,,,,,2019-12-01,6.0,0.0,0.0,7.0,0.0,1.0,1.0,8.0,0.0,0.0,0.0,0.0,6.0,2.0,,,,
27,28,,1.0,,Mauritius,,,,,,,,,,,,,,,,,2019-12-01,1.0,0.0,0.0,2.0,0.0,0.0,1.0,1.0,0.0,0.0,0.0,0.0,1.0,0.0,,,,
28,29,,1.0,,Mosambik,,,,,,,,,,,,,,,,,2019-12-01,1.0,0.0,0.0,0.0,0.0,0.0,0.0,0.0,0.0,0.0,0.0,0.0,0.0,0.0,,,,
29,30,,8.0,,Niger,,,,,,,,,,,,,,,,,2019-12-01,8.0,0.0,0.0,8.0,0.0,3.0,4.0,11.0,1.0,1.0,0.0,2.0,5.0,2.0,,,,
30,31,,395.0,,Nigeria,,,,,,,,,,,,,,,,,2019-12-01,335.0,47.0,13.0,220.0,1.0,18.0,137.0,440.0,42.0,20.0,4.0,90.0,184.0,100.0,,,,
31,32,,4.0,,Ruanda,,,,,,,,,,,,,,,,,2019-12-01,3.0,1.0,0.0,4.0,1.0,2.0,3.0,4.0,0.0,0.0,0.0,1.0,3.0,0.0,,,,
32,33,,0.0,,Sambia,,,,,,,,,,,,,,,,,2019-12-01,0.0,0.0,0.0,1.0,0.0,0.0,0.0,0.0,0.0,0.0,0.0,0.0,0.0,0.0,,,,
33,34,,42.0,,Senegal,,,,,,,,,,,,,,,,,2019-12-01,35.0,3.0,4.0,38.0,1.0,3.0,13.0,65.0,12.0,7.0,1.0,8.0,18.0,19.0,,,,
34,35,,13.0,,Sierra Leone,,,,,,,,,,,,,,,,,2019-12-01,11.0,1.0,1.0,9.0,0.0,2.0,6.0,13.0,0.0,0.0,0.0,3.0,7.0,3.0,,,,
35,36,,498.0,,Somalia,,,,,,,,,,,,,,,,,2019-12-01,259.0,63.0,176.0,105.0,139.0,309.0,75.0,276.0,33.0,1.0,0.0,14.0,152.0,76.0,,,,
36,37,,1.0,,Südafrika,,,,,,,,,,,,,,,,,2019-12-01,1.0,0.0,0.0,4.0,0.0,3.0,2.0,6.0,1.0,0.0,0.0,2.0,3.0,0.0,,,,
37,38,,44.0,,Sudan,,,,,,,,,,,,,,,,,2019-12-01,30.0,4.0,10.0,29.0,23.0,7.0,21.0,41.0,14.0,3.0,0.0,5.0,9.0,10.0,,,,
38,39,,5.0,,Südsudan,,,,,,,,,,,,,,,,,2019-12-01,3.0,0.0,2.0,3.0,0.0,0.0,1.0,3.0,0.0,0.0,0.0,0.0,1.0,2.0,,,,
39,40,,4.0,,Tansania,,,,,,,,,,,,,,,,,2019-12-01,3.0,0.0,1.0,7.0,0.0,4.0,1.0,9.0,4.0,0.0,0.0,1.0,0.0,4.0,,,,
40,41,,33.0,,Togo,,,,,,,,,,,,,,,,,2019-12-01,12.0,11.0,10.0,13.0,4.0,21.0,20.0,17.0,0.0,0.0,0.0,2.0,7.0,8.0,,,,
41,42,,14.0,,Tschad,,,,,,,,,,,,,,,,,2019-12-01,10.0,3.0,1.0,6.0,0.0,4.0,7.0,8.0,1.0,0.0,0.0,1.0,4.0,2.0,,,,
42,43,,165.0,,Tunesien,,,,,,,,,,,,,,,,,2019-12-01,148.0,15.0,2.0,111.0,0.0,2.0,79.0,224.0,17.0,29.0,1.0,29.0,110.0,38.0,,,,
43,44,,21.0,,Uganda,,,,,,,,,,,,,,,,,2019-12-01,14.0,7.0,0.0,4.0,2.0,1.0,7.0,9.0,1.0,0.0,0.0,1.0,2.0,5.0,,,,
44,45,,7.0,,Westsahara,,,,,,,,,,,,,,,,,2019-12-01,7.0,0.0,0.0,2.0,0.0,0.0,3.0,2.0,0.0,0.0,0.0,0.0,1.0,1.0,,,,
45,46,,5.0,,Zentralafr. Republik,,,,,,,,,,,,,,,,,2019-12-01,5.0,0.0,0.0,3.0,1.0,1.0,4.0,5.0,0.0,0.0,1.0,0.0,3.0,1.0,,,,
46,47,,7.0,,Zimbabwe,,,,,,,,,,,,,,,,,2019-12-01,5.0,1.0,1.0,4.0,0.0,1.0,3.0,3.0,0.0,0.0,0.0,1.0,0.0,2.0,,,,
47,50,,3.0,,Brasilien,,,,,,,,,,,,,,,,,2019-12-01,2.0,1.0,0.0,3.0,0.0,6.0,2.0,4.0,1.0,1.0,0.0,0.0,0.0,2.0,,,,
48,51,,3.0,,Chile,,,,,,,,,,,,,,,,,2019-12-01,3.0,0.0,0.0,0.0,0.0,0.0,0.0,0.0,0.0,0.0,0.0,0.0,0.0,0.0,,,,
49,52,,1.0,,Costa Rica,,,,,,,,,,,,,,,,,2019-12-01,1.0,0.0,0.0,0.0,0.0,0.0,0.0,1.0,0.0,0.0,0.0,0.0,0.0,1.0,,,,
50,53,,1.0,,Dominikanische Republik,,,,,,,,,,,,,,,,,2019-12-01,1.0,0.0,0.0,0.0,0.0,0.0,1.0,0.0,0.0,0.0,0.0,0.0,0.0,0.0,,,,
51,54,,2.0,,Ecuador,,,,,,,,,,,,,,,,,2019-12-01,2.0,0.0,0.0,2.0,0.0,3.0,2.0,2.0,0.0,0.0,0.0,2.0,0.0,0.0,,,,
52,55,,10.0,,El Salvador,,,,,,,,,,,,,,,,,2019-12-01,10.0,0.0,0.0,7.0,0.0,0.0,6.0,16.0,3.0,1.0,0.0,0.0,8.0,4.0,,,,
53,56,,0.0,,Guatemala,,,,,,,,,,,,,,,,,2019-12-01,0.0,0.0,0.0,1.0,0.0,0.0,1.0,1.0,1.0,0.0,0.0,0.0,0.0,0.0,,,,
54,57,,4.0,,Haiti,,,,,,,,,,,,,,,,,2019-12-01,3.0,1.0,0.0,1.0,0.0,0.0,3.0,3.0,1.0,0.0,0.0,0.0,2.0,0.0,,,,
55,58,,5.0,,Honduras,,,,,,,,,,,,,,,,,2019-12-01,5.0,0.0,0.0,0.0,0.0,0.0,1.0,0.0,0.0,0.0,0.0,0.0,0.0,0.0,,,,
56,59,,6.0,,Jamaika,,,,,,,,,,,,,,,,,2019-12-01,6.0,0.0,0.0,1.0,2.0,0.0,0.0,2.0,0.0,0.0,0.0,0.0,0.0,2.0,,,,
57,60,,3.0,,Kanada,,,,,,,,,,,,,,,,,2019-12-01,3.0,0.0,0.0,0.0,0.0,0.0,0.0,0.0,0.0,0.0,0.0,0.0,0.0,0.0,,,,
58,61,,131.0,,Kolumbien,,,,,,,,,,,,,,,,,2019-12-01,116.0,10.0,5.0,64.0,14.0,2.0,56.0,70.0,28.0,8.0,0.0,0.0,12.0,22.0,,,,
59,62,,8.0,,Kuba,,,,,,,,,,,,,,,,,2019-12-01,7.0,1.0,0.0,7.0,0.0,0.0,1.0,8.0,2.0,0.0,0.0,2.0,1.0,3.0,,,,
60,63,,8.0,,Mexiko,,,,,,,,,,,,,,,,,2019-12-01,5.0,3.0,0.0,3.0,0.0,0.0,4.0,4.0,1.0,0.0,0.0,0.0,1.0,2.0,,,,
61,64,,16.0,,Nicaragua,,,,,,,,,,,,,,,,,2019-12-01,11.0,4.0,1.0,13.0,1.0,0.0,2.0,16.0,8.0,0.0,0.0,0.0,2.0,6.0,,,,
62,65,,1.0,,Peru,,,,,,,,,,,,,,,,,2019-12-01,1.0,0.0,0.0,6.0,0.0,2.0,3.0,7.0,3.0,1.0,0.0,1.0,0.0,2.0,,,,
63,66,,0.0,,Uruguay,,,,,,,,,,,,,,,,,2019-12-01,0.0,0.0,0.0,0.0,0.0,0.0,1.0,0.0,0.0,0.0,0.0,0.0,0.0,0.0,,,,
64,67,,11.0,,USA,,,,,,,,,,,,,,,,,2019-12-01,11.0,0.0,0.0,10.0,0.0,0.0,7.0,19.0,7.0,1.0,0.0,0.0,5.0,6.0,,,,
65,68,,43.0,,Venezuela,,,,,,,,,,,,,,,,,2019-12-01,43.0,0.0,0.0,24.0,7.0,1.0,17.0,23.0,14.0,1.0,0.0,1.0,4.0,3.0,,,,
66,71,,1504.0,,Afghanistan,,,,,,,,,,,,,,,,,2019-12-01,1239.0,118.0,147.0,283.0,373.0,515.0,291.0,420.0,14.0,5.0,8.0,70.0,179.0,144.0,,,,
67,72,,49.0,,Armenien,,,,,,,,,,,,,,,,,2019-12-01,38.0,10.0,1.0,38.0,3.0,22.0,26.0,67.0,23.0,5.0,0.0,1.0,20.0,18.0,,,,
68,73,,97.0,,Aserbaidschan,,,,,,,,,,,,,,,,,2019-12-01,85.0,5.0,7.0,44.0,12.0,1.0,35.0,66.0,13.0,0.0,0.0,0.0,25.0,28.0,,,,
69,74,,1.0,,Bahrain,,,,,,,,,,,,,,,,,2019-12-01,1.0,0.0,0.0,0.0,0.0,0.0,0.0,1.0,0.0,0.0,0.0,0.0,1.0,0.0,,,,
70,75,,13.0,,Bangladesh,,,,,,,,,,,,,,,,,2019-12-01,12.0,1.0,0.0,6.0,0.0,6.0,5.0,22.0,4.0,0.0,0.0,0.0,13.0,5.0,,,,
71,76,,0.0,,Bhutan,,,,,,,,,,,,,,,,,2019-12-01,0.0,0.0,0.0,2.0,0.0,0.0,2.0,0.0,0.0,0.0,0.0,0.0,0.0,0.0,,,,
72,77,,1.0,,Brunei,,,,,,,,,,,,,,,,,2019-12-01,0.0,0.0,1.0,0.0,1.0,0.0,0.0,0.0,0.0,0.0,0.0,0.0,0.0,0.0,,,,
73,78,,275.0,,China (Volksrepublik),,,,,,,,,,,,,,,,,2019-12-01,132.0,44.0,99.0,70.0,57.0,344.0,81.0,94.0,6.0,3.0,0.0,4.0,36.0,45.0,,,,
74,79,,660.0,,Georgien,,,,,,,,,,,,,,,,,2019-12-01,586.0,63.0,11.0,569.0,1.0,3.0,454.0,744.0,267.0,93.0,0.0,45.0,176.0,163.0,,,,
75,80,,23.0,,Indien,,,,,,,,,,,,,,,,,2019-12-01,20.0,2.0,1.0,19.0,1.0,5.0,10.0,16.0,4.0,1.0,0.0,3.0,7.0,1.0,,,,
76,81,,659.0,,Irak,,,,,,,,,,,,,,,,,2019-12-01,467.0,115.0,77.0,277.0,98.0,170.0,340.0,357.0,61.0,5.0,12.0,32.0,143.0,104.0,,,,
77,82,,590.0,,Iran,,,,,,,,,,,,,,,,,2019-12-01,446.0,81.0,63.0,290.0,107.0,77.0,243.0,244.0,26.0,2.0,4.0,40.0,56.0,116.0,,,,
78,83,,1.0,,Israel,,,,,,,,,,,,,,,,,2019-12-01,1.0,0.0,0.0,2.0,1.0,0.0,1.0,2.0,0.0,1.0,0.0,0.0,0.0,1.0,,,,
79,84,,1.0,,Japan,,,,,,,,,,,,,,,,,2019-12-01,1.0,0.0,0.0,1.0,0.0,0.0,0.0,1.0,1.0,0.0,0.0,0.0,0.0,0.0,,,,
80,85,,19.0,,Jemen,,,,,,,,,,,,,,,,,2019-12-01,18.0,1.0,0.0,5.0,13.0,9.0,7.0,11.0,1.0,0.0,0.0,3.0,7.0,0.0,,,,
81,86,,6.0,,Jordanien,,,,,,,,,,,,,,,,,2019-12-01,1.0,1.0,4.0,6.0,2.0,6.0,4.0,7.0,2.0,0.0,0.0,1.0,1.0,3.0,,,,
82,87,,13.0,,Kasachstan,,,,,,,,,,,,,,,,,2019-12-01,11.0,0.0,2.0,6.0,1.0,0.0,7.0,10.0,0.0,0.0,0.0,1.0,0.0,9.0,,,,
83,88,,4.0,,Kirgisistan,,,,,,,,,,,,,,,,,2019-12-01,1.0,3.0,0.0,4.0,0.0,0.0,7.0,1.0,1.0,0.0,0.0,0.0,0.0,0.0,,,,
84,89,,0.0,,Korea (Süd),,,,,,,,,,,,,,,,,2019-12-01,0.0,0.0,0.0,3.0,0.0,0.0,1.0,0.0,0.0,0.0,0.0,0.0,0.0,0.0,,,,
85,90,,0.0,,Kuwait,,,,,,,,,,,,,,,,,2019-12-01,0.0,0.0,0.0,0.0,0.0,1.0,0.0,0.0,0.0,0.0,0.0,0.0,0.0,0.0,,,,
86,91,,21.0,,Libanon,,,,,,,,,,,,,,,,,2019-12-01,18.0,1.0,2.0,10.0,3.0,3.0,10.0,16.0,2.0,2.0,0.0,1.0,9.0,2.0,,,,
87,92,,0.0,,Malaysia,,,,,,,,,,,,,,,,,2019-12-01,0.0,0.0,0.0,0.0,0.0,0.0,0.0,1.0,0.0,0.0,0.0,0.0,1.0,0.0,,,,
88,93,,46.0,,Mongolei,,,,,,,,,,,,,,,,,2019-12-01,20.0,18.0,8.0,27.0,0.0,6.0,23.0,47.0,8.0,1.0,0.0,4.0,7.0,27.0,,,,
89,94,,0.0,,Myanmar,,,,,,,,,,,,,,,,,2019-12-01,0.0,0.0,0.0,1.0,0.0,2.0,0.0,2.0,1.0,0.0,0.0,0.0,0.0,1.0,,,,
90,95,,8.0,,Nepal,,,,,,,,,,,,,,,,,2019-12-01,4.0,0.0,4.0,6.0,0.0,1.0,6.0,20.0,2.0,9.0,0.0,0.0,4.0,5.0,,,,
91,96,,108.0,,Pakistan,,,,,,,,,,,,,,,,,2019-12-01,93.0,11.0,4.0,71.0,6.0,7.0,88.0,99.0,5.0,3.0,1.0,16.0,61.0,13.0,,,,
92,97,,0.0,,Philippinen,,,,,,,,,,,,,,,,,2019-12-01,0.0,0.0,0.0,0.0,0.0,1.0,0.0,0.0,0.0,0.0,0.0,0.0,0.0,0.0,,,,
93,98,,5.0,,Saudi-Arabien,,,,,,,,,,,,,,,,,2019-12-01,4.0,0.0,1.0,2.0,0.0,0.0,0.0,5.0,1.0,0.0,0.0,0.0,3.0,1.0,,,,
94,99,,901.0,,Sri Lanka,,,,,,,,,,,,,,,,,2019-12-01,379.0,398.0,124.0,493.0,282.0,188.0,649.0,526.0,39.0,30.0,0.0,27.0,246.0,184.0,,,,
95,100,,2007.0,,Syrien,,,,,,,,,,,,,,,,,2019-12-01,1499.0,48.0,460.0,61.0,1598.0,538.0,49.0,207.0,42.0,0.0,9.0,6.0,89.0,61.0,,,,
96,101,,8.0,,Tadschikistan,,,,,,,,,,,,,,,,,2019-12-01,8.0,0.0,0.0,1.0,3.0,0.0,8.0,6.0,0.0,0.0,0.0,1.0,5.0,0.0,,,,
97,102,,0.0,,Taiwan,,,,,,,,,,,,,,,,,2019-12-01,0.0,0.0,0.0,1.0,0.0,0.0,0.0,1.0,0.0,1.0,0.0,0.0,0.0,0.0,,,,
98,103,,2.0,,Usbekistan,,,,,,,,,,,,,,,,,2019-12-01,2.0,0.0,0.0,1.0,0.0,0.0,1.0,1.0,0.0,0.0,0.0,1.0,0.0,0.0,,,,
99,104,,7.0,,Vietnam,,,,,,,,,,,,,,,,,2019-12-01,6.0,0.0,1.0,0.0,0.0,2.0,0.0,5.0,0.0,0.0,0.0,0.0,5.0,0.0,,,,
100,107,,161.0,,Albanien,,,,,,,,,,,,,,,,,2019-12-01,129.0,27.0,5.0,105.0,0.0,5.0,101.0,120.0,50.0,17.0,0.0,2.0,20.0,31.0,,,,
101,108,,39.0,,Belarus,,,,,,,,,,,,,,,,,2019-12-01,30.0,8.0,1.0,33.0,0.0,1.0,21.0,54.0,16.0,1.0,1.0,6.0,11.0,19.0,,,,
102,109,,43.0,,Bosnien u. Herzegowina,,,,,,,,,,,,,,,,,2019-12-01,35.0,5.0,3.0,26.0,0.0,47.0,22.0,41.0,20.0,5.0,0.0,0.0,3.0,13.0,,,,
103,110,,4.0,,Bulgarien,,,,,,,,,,,,,,,,,2019-12-01,3.0,1.0,0.0,1.0,1.0,3.0,2.0,3.0,0.0,0.0,0.0,0.0,0.0,3.0,,,,
104,111,,7.0,,Deutschland,,,,,,,,,,,,,,,,,2019-12-01,5.0,1.0,1.0,3.0,0.0,0.0,3.0,7.0,2.0,0.0,0.0,0.0,0.0,5.0,,,,
105,112,,2.0,,Frankreich,,,,,,,,,,,,,,,,,2019-12-01,1.0,0.0,1.0,1.0,0.0,0.0,1.0,0.0,0.0,0.0,0.0,0.0,0.0,0.0,,,,
106,113,,1.0,,Griechenland,,,,,,,,,,,,,,,,,2019-12-01,1.0,0.0,0.0,0.0,0.0,0.0,0.0,1.0,0.0,0.0,0.0,0.0,1.0,0.0,,,,
107,114,,2.0,,Grossbritannien,,,,,,,,,,,,,,,,,2019-12-01,0.0,0.0,2.0,0.0,0.0,4.0,0.0,3.0,0.0,1.0,0.0,0.0,0.0,2.0,,,,
108,115,,8.0,,Italien,,,,,,,,,,,,,,,,,2019-12-01,8.0,0.0,0.0,5.0,0.0,0.0,4.0,7.0,3.0,1.0,0.0,0.0,1.0,2.0,,,,
109,116,,124.0,,Kosovo,,,,,,,,,,,,,,,,,2019-12-01,96.0,15.0,13.0,96.0,4.0,119.0,59.0,166.0,57.0,12.0,0.0,7.0,21.0,69.0,,,,
110,117,,2.0,,Kroatien,,,,,,,,,,,,,,,,,2019-12-01,2.0,0.0,0.0,1.0,0.0,4.0,0.0,3.0,0.0,1.0,0.0,0.0,1.0,1.0,,,,
111,118,,56.0,,Nordmazedonien,,,,,,,,,,,,,,,,,2019-12-01,28.0,27.0,1.0,51.0,2.0,15.0,50.0,65.0,33.0,5.0,0.0,4.0,4.0,19.0,,,,
112,119,,57.0,,Moldova,,,,,,,,,,,,,,,,,2019-12-01,56.0,1.0,0.0,26.0,0.0,0.0,8.0,23.0,6.0,0.0,0.0,0.0,4.0,13.0,,,,
113,120,,7.0,,Montenegro,,,,,,,,,,,,,,,,,2019-12-01,5.0,0.0,2.0,2.0,0.0,6.0,2.0,4.0,1.0,1.0,0.0,0.0,0.0,2.0,,,,
114,121,,1.0,,Niederlande,,,,,,,,,,,,,,,,,2019-12-01,1.0,0.0,0.0,1.0,0.0,0.0,0.0,0.0,0.0,0.0,0.0,0.0,0.0,0.0,,,,
115,122,,3.0,,Österreich,,,,,,,,,,,,,,,,,2019-12-01,3.0,0.0,0.0,0.0,0.0,0.0,3.0,0.0,0.0,0.0,0.0,0.0,0.0,0.0,,,,
116,123,,5.0,,Polen,,,,,,,,,,,,,,,,,2019-12-01,4.0,1.0,0.0,2.0,0.0,0.0,4.0,2.0,1.0,0.0,0.0,0.0,1.0,0.0,,,,
117,124,,0.0,,Portugal,,,,,,,,,,,,,,,,,2019-12-01,0.0,0.0,0.0,0.0,0.0,1.0,0.0,1.0,0.0,1.0,0.0,0.0,0.0,0.0,,,,
118,125,,10.0,,Rumänien,,,,,,,,,,,,,,,,,2019-12-01,10.0,0.0,0.0,8.0,0.0,0.0,7.0,9.0,4.0,1.0,0.0,0.0,2.0,2.0,,,,
119,126,,177.0,,Russland,,,,,,,,,,,,,,,,,2019-12-01,126.0,44.0,7.0,87.0,21.0,37.0,83.0,143.0,18.0,1.0,2.0,31.0,36.0,55.0,,,,
120,127,,1.0,,Schweden,,,,,,,,,,,,,,,,,2019-12-01,1.0,0.0,0.0,0.0,0.0,0.0,0.0,1.0,0.0,0.0,0.0,0.0,0.0,1.0,,,,
121,128,,186.0,,Serbien,,,,,,,,,,,,,,,,,2019-12-01,130.0,42.0,14.0,90.0,0.0,87.0,67.0,156.0,48.0,5.0,0.0,3.0,42.0,58.0,,,,
122,129,,3.0,,Slowakische Republik,,,,,,,,,,,,,,,,,2019-12-01,3.0,0.0,0.0,3.0,0.0,0.0,2.0,5.0,0.0,0.0,0.0,0.0,0.0,5.0,,,,
123,130,,2.0,,Slowenien,,,,,,,,,,,,,,,,,2019-12-01,2.0,0.0,0.0,1.0,0.0,0.0,0.0,1.0,1.0,0.0,0.0,0.0,0.0,0.0,,,,
124,131,,8.0,,Spanien,,,,,,,,,,,,,,,,,2019-12-01,8.0,0.0,0.0,7.0,0.0,0.0,1.0,13.0,5.0,0.0,0.0,0.0,1.0,7.0,,,,
125,132,,2.0,,Tschechische Republik,,,,,,,,,,,,,,,,,2019-12-01,2.0,0.0,0.0,1.0,0.0,0.0,1.0,2.0,0.0,1.0,0.0,0.0,1.0,0.0,,,,
126,133,,1334.0,,Türkei,,,,,,,,,,,,,,,,,2019-12-01,1158.0,86.0,90.0,165.0,612.0,116.0,156.0,222.0,48.0,10.0,0.0,31.0,49.0,84.0,,,,
127,134,,64.0,,Ukraine,,,,,,,,,,,,,,,,,2019-12-01,50.0,11.0,3.0,67.0,1.0,0.0,64.0,88.0,31.0,15.0,3.0,2.0,8.0,29.0,,,,
128,135,,5.0,,Ungarn,,,,,,,,,,,,,,,,,2019-12-01,5.0,0.0,0.0,4.0,0.0,0.0,0.0,9.0,4.0,0.0,0.0,0.0,1.0,4.0,,,,
129,138,,1.0,,Australien,,,,,,,,,,,,,,,,,2019-12-01,1.0,0.0,0.0,4.0,0.0,0.0,1.0,4.0,0.0,0.0,0.0,0.0,0.0,4.0,,,,
130,139,,1.0,,Neuseeland,,,,,,,,,,,,,,,,,2019-12-01,1.0,0.0,0.0,1.0,0.0,0.0,0.0,2.0,1.0,0.0,0.0,0.0,0.0,1.0,,,,
131,142,,17.0,,Staatenlos,,,,,,,,,,,,,,,,,2019-12-01,15.0,1.0,1.0,3.0,4.0,6.0,4.0,4.0,2.0,0.0,1.0,0.0,0.0,1.0,,,,
132,143,,117.0,,Ohne Nationalität,,,,,,,,,,,,,,,,,2019-12-01,98.0,10.0,9.0,33.0,46.0,49.0,25.0,57.0,7.0,0.0,2.0,8.0,19.0,21.0,,,,
133,144,,127.0,,Staat unbekannt,,,,,,,,,,,,,,,,,2019-12-01,36.0,54.0,37.0,72.0,38.0,48.0,76.0,114.0,5.0,2.0,2.0,10.0,57.0,38.0,,,,
