,Nation,Total,Beginn,WiederaufnahmenAufenthalt,Total ,"Kontrollierte, selbständige Ausreisen",Rückführungen Heimatstaat,Rückführungen Drittstaat,RückführungenDublinstaat,Unkontrollierte Abreisen,Andere Abgänge ,,.1,.2,.3,Datum,file_name
0,Ägypten,4.0,4.0,0.0,6.0,0.0,0.0,0.0,4.0,2.0,0.0,,,,,2019-12-01,7-31-Bew-Aufenthalte-AIG-J-d-2020-12.xlsx
1,Algerien,179.0,127.0,52.0,166.0,3.0,13.0,9.0,58.0,56.0,27.0,,,,,2019-12-01,7-31-Bew-Aufenthalte-AIG-J-d-2020-12.xlsx
2,Angola,3.0,3.0,0.0,3.0,0.0,1.0,0.0,1.0,0.0,1.0,,,,,2019-12-01,7-31-Bew-Aufenthalte-AIG-J-d-2020-12.xlsx
3,Äquatorialguinea,1.0,1.0,0.0,2.0,0.0,0.0,0.0,0.0,1.0,1.0,,,,,2019-12-01,7-31-Bew-Aufenthalte-AIG-J-d-2020-12.xlsx
4,Äthiopien,10.0,6.0,4.0,10.0,1.0,0.0,0.0,5.0,2.0,2.0,,,,,2019-12-01,7-31-Bew-Aufenthalte-AIG-J-d-2020-12.xlsx
5,Benin,3.0,3.0,0.0,1.0,0.0,0.0,0.0,0.0,0.0,1.0,,,,,2019-12-01,7-31-Bew-Aufenthalte-AIG-J-d-2020-12.xlsx
6,Burkina Faso,2.0,2.0,0.0,1.0,0.0,1.0,0.0,0.0,0.0,0.0,,,,,2019-12-01,7-31-Bew-Aufenthalte-AIG-J-d-2020-12.xlsx
7,Burundi,1.0,1.0,0.0,0.0,0.0,0.0,0.0,0.0,0.0,0.0,,,,,2019-12-01,7-31-Bew-Aufenthalte-AIG-J-d-2020-12.xlsx
8,Côte d'Ivoire,9.0,8.0,1.0,9.0,0.0,0.0,2.0,3.0,3.0,1.0,,,,,2019-12-01,7-31-Bew-Aufenthalte-AIG-J-d-2020-12.xlsx
9,Dschibuti,1.0,1.0,0.0,0.0,0.0,0.0,0.0,0.0,0.0,0.0,,,,,2019-12-01,7-31-Bew-Aufenthalte-AIG-J-d-2020-12.xlsx
10,Eritrea,9.0,9.0,0.0,5.0,1.0,0.0,0.0,4.0,0.0,0.0,,,,,2019-12-01,7-31-Bew-Aufenthalte-AIG-J-d-2020-12.xlsx
11,Gabun,4.0,4.0,0.0,1.0,0.0,0.0,0.0,0.0,0.0,1.0,,,,,2019-12-01,7-31-Bew-Aufenthalte-AIG-J-d-2020-12.xlsx
12,Gambia,85.0,79.0,6.0,77.0,1.0,5.0,7.0,56.0,4.0,4.0,,,,,2019-12-01,7-31-Bew-Aufenthalte-AIG-J-d-2020-12.xlsx
13,Ghana,11.0,11.0,0.0,10.0,0.0,0.0,2.0,7.0,0.0,1.0,,,,,2019-12-01,7-31-Bew-Aufenthalte-AIG-J-d-2020-12.xlsx
14,Guinea,93.0,84.0,9.0,88.0,0.0,23.0,11.0,36.0,8.0,10.0,,,,,2019-12-01,7-31-Bew-Aufenthalte-AIG-J-d-2020-12.xlsx
15,Guinea-Bissau,22.0,20.0,2.0,21.0,0.0,7.0,4.0,5.0,0.0,5.0,,,,,2019-12-01,7-31-Bew-Aufenthalte-AIG-J-d-2020-12.xlsx
16,Kamerun,15.0,12.0,3.0,19.0,1.0,4.0,0.0,4.0,6.0,4.0,,,,,2019-12-01,7-31-Bew-Aufenthalte-AIG-J-d-2020-12.xlsx
17,Kapverden,2.0,2.0,0.0,4.0,2.0,0.0,0.0,0.0,2.0,0.0,,,,,2019-12-01,7-31-Bew-Aufenthalte-AIG-J-d-2020-12.xlsx
18,Kenia,3.0,3.0,0.0,5.0,1.0,0.0,0.0,1.0,2.0,1.0,,,,,2019-12-01,7-31-Bew-Aufenthalte-AIG-J-d-2020-12.xlsx
19,Kongo DR,4.0,3.0,1.0,9.0,0.0,1.0,0.0,0.0,5.0,3.0,,,,,2019-12-01,7-31-Bew-Aufenthalte-AIG-J-d-2020-12.xlsx
20,Liberia,1.0,1.0,0.0,1.0,0.0,0.0,0.0,0.0,1.0,0.0,,,,,2019-12-01,7-31-Bew-Aufenthalte-AIG-J-d-2020-12.xlsx
21,Libyen,18.0,15.0,3.0,16.0,2.0,0.0,0.0,8.0,4.0,2.0,,,,,2019-12-01,7-31-Bew-Aufenthalte-AIG-J-d-2020-12.xlsx
22,Mali,17.0,17.0,0.0,16.0,1.0,0.0,2.0,13.0,0.0,0.0,,,,,2019-12-01,7-31-Bew-Aufenthalte-AIG-J-d-2020-12.xlsx
23,Marokko,87.0,72.0,15.0,82.0,5.0,10.0,4.0,33.0,25.0,5.0,,,,,2019-12-01,7-31-Bew-Aufenthalte-AIG-J-d-2020-12.xlsx
24,Mauretanien,3.0,3.0,0.0,3.0,0.0,0.0,2.0,1.0,0.0,0.0,,,,,2019-12-01,7-31-Bew-Aufenthalte-AIG-J-d-2020-12.xlsx
25,Mauritius,2.0,2.0,0.0,3.0,2.0,1.0,0.0,0.0,0.0,0.0,,,,,2019-12-01,7-31-Bew-Aufenthalte-AIG-J-d-2020-12.xlsx
26,Niger,1.0,1.0,0.0,1.0,0.0,0.0,0.0,1.0,0.0,0.0,,,,,2019-12-01,7-31-Bew-Aufenthalte-AIG-J-d-2020-12.xlsx
27,Nigeria,240.0,225.0,15.0,235.0,0.0,46.0,42.0,123.0,0.0,24.0,,,,,2019-12-01,7-31-Bew-Aufenthalte-AIG-J-d-2020-12.xlsx
28,Senegal,30.0,25.0,5.0,28.0,3.0,4.0,2.0,13.0,2.0,4.0,,,,,2019-12-01,7-31-Bew-Aufenthalte-AIG-J-d-2020-12.xlsx
29,Sierra Leone,6.0,4.0,2.0,3.0,0.0,0.0,0.0,2.0,1.0,0.0,,,,,2019-12-01,7-31-Bew-Aufenthalte-AIG-J-d-2020-12.xlsx
30,Somalia,19.0,15.0,4.0,16.0,0.0,0.0,0.0,10.0,3.0,3.0,,,,,2019-12-01,7-31-Bew-Aufenthalte-AIG-J-d-2020-12.xlsx
31,Südafrika,4.0,4.0,0.0,4.0,0.0,1.0,0.0,3.0,0.0,0.0,,,,,2019-12-01,7-31-Bew-Aufenthalte-AIG-J-d-2020-12.xlsx
32,Sudan,6.0,5.0,1.0,7.0,0.0,3.0,0.0,2.0,1.0,1.0,,,,,2019-12-01,7-31-Bew-Aufenthalte-AIG-J-d-2020-12.xlsx
33,Südsudan,1.0,0.0,1.0,1.0,0.0,0.0,0.0,0.0,0.0,1.0,,,,,2019-12-01,7-31-Bew-Aufenthalte-AIG-J-d-2020-12.xlsx
34,Tansania,2.0,2.0,0.0,2.0,0.0,1.0,1.0,0.0,0.0,0.0,,,,,2019-12-01,7-31-Bew-Aufenthalte-AIG-J-d-2020-12.xlsx
35,Togo,1.0,1.0,0.0,1.0,0.0,0.0,0.0,1.0,0.0,0.0,,,,,2019-12-01,7-31-Bew-Aufenthalte-AIG-J-d-2020-12.xlsx
36,Tschad,2.0,1.0,1.0,1.0,0.0,0.0,0.0,0.0,1.0,0.0,,,,,2019-12-01,7-31-Bew-Aufenthalte-AIG-J-d-2020-12.xlsx
37,Tunesien,64.0,50.0,14.0,61.0,2.0,21.0,0.0,14.0,15.0,9.0,,,,,2019-12-01,7-31-Bew-Aufenthalte-AIG-J-d-2020-12.xlsx
38,Uganda,1.0,0.0,1.0,0.0,0.0,0.0,0.0,0.0,0.0,0.0,,,,,2019-12-01,7-31-Bew-Aufenthalte-AIG-J-d-2020-12.xlsx
39,Westsahara,1.0,1.0,0.0,0.0,0.0,0.0,0.0,0.0,0.0,0.0,,,,,2019-12-01,7-31-Bew-Aufenthalte-AIG-J-d-2020-12.xlsx
40,Zimbabwe,2.0,2.0,0.0,0.0,0.0,0.0,0.0,0.0,0.0,0.0,,,,,2019-12-01,7-31-Bew-Aufenthalte-AIG-J-d-2020-12.xlsx
41,Total Afrika,969.0,829.0,140.0,918.0,25.0,142.0,88.0,408.0,144.0,111.0,,,,,2019-12-01,7-31-Bew-Aufenthalte-AIG-J-d-2020-12.xlsx
42,Argentinien,8.0,8.0,0.0,8.0,3.0,3.0,0.0,0.0,0.0,2.0,,,,,2019-12-01,7-31-Bew-Aufenthalte-AIG-J-d-2020-12.xlsx
43,Bolivien,7.0,6.0,1.0,7.0,4.0,2.0,0.0,0.0,0.0,1.0,,,,,2019-12-01,7-31-Bew-Aufenthalte-AIG-J-d-2020-12.xlsx
44,Brasilien,112.0,106.0,6.0,110.0,33.0,61.0,1.0,0.0,2.0,13.0,,,,,2019-12-01,7-31-Bew-Aufenthalte-AIG-J-d-2020-12.xlsx
45,Chile,15.0,15.0,0.0,13.0,6.0,6.0,1.0,0.0,0.0,0.0,,,,,2019-12-01,7-31-Bew-Aufenthalte-AIG-J-d-2020-12.xlsx
46,Costa Rica,1.0,1.0,0.0,1.0,0.0,1.0,0.0,0.0,0.0,0.0,,,,,2019-12-01,7-31-Bew-Aufenthalte-AIG-J-d-2020-12.xlsx
47,Dominikanische Republik,46.0,42.0,4.0,47.0,4.0,20.0,14.0,1.0,4.0,4.0,,,,,2019-12-01,7-31-Bew-Aufenthalte-AIG-J-d-2020-12.xlsx
48,Ecuador,5.0,5.0,0.0,5.0,3.0,1.0,1.0,0.0,0.0,0.0,,,,,2019-12-01,7-31-Bew-Aufenthalte-AIG-J-d-2020-12.xlsx
49,El Salvador,1.0,1.0,0.0,1.0,0.0,1.0,0.0,0.0,0.0,0.0,,,,,2019-12-01,7-31-Bew-Aufenthalte-AIG-J-d-2020-12.xlsx
50,Haiti,3.0,2.0,1.0,3.0,0.0,2.0,0.0,0.0,0.0,1.0,,,,,2019-12-01,7-31-Bew-Aufenthalte-AIG-J-d-2020-12.xlsx
51,Honduras,4.0,3.0,1.0,3.0,3.0,0.0,0.0,0.0,0.0,0.0,,,,,2019-12-01,7-31-Bew-Aufenthalte-AIG-J-d-2020-12.xlsx
52,Jamaika,3.0,3.0,0.0,2.0,0.0,0.0,0.0,0.0,0.0,2.0,,,,,2019-12-01,7-31-Bew-Aufenthalte-AIG-J-d-2020-12.xlsx
53,Kanada,1.0,1.0,0.0,1.0,0.0,1.0,0.0,0.0,0.0,0.0,,,,,2019-12-01,7-31-Bew-Aufenthalte-AIG-J-d-2020-12.xlsx
54,Kolumbien,53.0,49.0,4.0,53.0,16.0,24.0,1.0,0.0,0.0,12.0,,,,,2019-12-01,7-31-Bew-Aufenthalte-AIG-J-d-2020-12.xlsx
55,Kuba,6.0,6.0,0.0,4.0,2.0,0.0,1.0,0.0,0.0,1.0,,,,,2019-12-01,7-31-Bew-Aufenthalte-AIG-J-d-2020-12.xlsx
56,Mexiko,7.0,7.0,0.0,7.0,2.0,5.0,0.0,0.0,0.0,0.0,,,,,2019-12-01,7-31-Bew-Aufenthalte-AIG-J-d-2020-12.xlsx
57,Nicaragua,3.0,3.0,0.0,3.0,1.0,1.0,0.0,0.0,0.0,1.0,,,,,2019-12-01,7-31-Bew-Aufenthalte-AIG-J-d-2020-12.xlsx
58,Paraguay,7.0,5.0,2.0,7.0,4.0,3.0,0.0,0.0,0.0,0.0,,,,,2019-12-01,7-31-Bew-Aufenthalte-AIG-J-d-2020-12.xlsx
59,Peru,18.0,17.0,1.0,18.0,6.0,9.0,1.0,0.0,0.0,2.0,,,,,2019-12-01,7-31-Bew-Aufenthalte-AIG-J-d-2020-12.xlsx
60,Uruguay,3.0,3.0,0.0,2.0,1.0,1.0,0.0,0.0,0.0,0.0,,,,,2019-12-01,7-31-Bew-Aufenthalte-AIG-J-d-2020-12.xlsx
61,USA,11.0,9.0,2.0,11.0,0.0,8.0,0.0,0.0,0.0,3.0,,,,,2019-12-01,7-31-Bew-Aufenthalte-AIG-J-d-2020-12.xlsx
62,Venezuela,9.0,8.0,1.0,9.0,1.0,3.0,1.0,0.0,0.0,4.0,,,,,2019-12-01,7-31-Bew-Aufenthalte-AIG-J-d-2020-12.xlsx
63,Total Amerika,323.0,300.0,23.0,315.0,89.0,152.0,21.0,1.0,6.0,46.0,,,,,2019-12-01,7-31-Bew-Aufenthalte-AIG-J-d-2020-12.xlsx
64,Afghanistan,16.0,12.0,4.0,16.0,0.0,1.0,1.0,10.0,0.0,4.0,,,,,2019-12-01,7-31-Bew-Aufenthalte-AIG-J-d-2020-12.xlsx
65,Armenien,3.0,3.0,0.0,4.0,1.0,0.0,0.0,2.0,1.0,0.0,,,,,2019-12-01,7-31-Bew-Aufenthalte-AIG-J-d-2020-12.xlsx
66,Aserbaidschan,1.0,1.0,0.0,1.0,0.0,0.0,0.0,0.0,0.0,1.0,,,,,2019-12-01,7-31-Bew-Aufenthalte-AIG-J-d-2020-12.xlsx
67,Bangladesh,5.0,4.0,1.0,5.0,1.0,1.0,0.0,1.0,0.0,2.0,,,,,2019-12-01,7-31-Bew-Aufenthalte-AIG-J-d-2020-12.xlsx
68,China (Volksrepublik),19.0,16.0,3.0,13.0,0.0,5.0,5.0,0.0,1.0,2.0,,,,,2019-12-01,7-31-Bew-Aufenthalte-AIG-J-d-2020-12.xlsx
69,Georgien,103.0,96.0,7.0,101.0,0.0,70.0,1.0,12.0,3.0,15.0,,,,,2019-12-01,7-31-Bew-Aufenthalte-AIG-J-d-2020-12.xlsx
70,Indien,10.0,10.0,0.0,11.0,1.0,5.0,0.0,4.0,0.0,1.0,,,,,2019-12-01,7-31-Bew-Aufenthalte-AIG-J-d-2020-12.xlsx
71,Irak,24.0,23.0,1.0,28.0,7.0,0.0,0.0,8.0,9.0,4.0,,,,,2019-12-01,7-31-Bew-Aufenthalte-AIG-J-d-2020-12.xlsx
72,Iran,8.0,8.0,0.0,7.0,2.0,1.0,0.0,4.0,0.0,0.0,,,,,2019-12-01,7-31-Bew-Aufenthalte-AIG-J-d-2020-12.xlsx
73,Israel,8.0,8.0,0.0,7.0,0.0,6.0,0.0,1.0,0.0,0.0,,,,,2019-12-01,7-31-Bew-Aufenthalte-AIG-J-d-2020-12.xlsx
74,Jordanien,4.0,4.0,0.0,5.0,2.0,2.0,0.0,0.0,0.0,1.0,,,,,2019-12-01,7-31-Bew-Aufenthalte-AIG-J-d-2020-12.xlsx
75,Kambodscha,1.0,1.0,0.0,1.0,0.0,0.0,0.0,0.0,1.0,0.0,,,,,2019-12-01,7-31-Bew-Aufenthalte-AIG-J-d-2020-12.xlsx
76,Kasachstan,2.0,2.0,0.0,2.0,0.0,2.0,0.0,0.0,0.0,0.0,,,,,2019-12-01,7-31-Bew-Aufenthalte-AIG-J-d-2020-12.xlsx
77,Korea (Süd),2.0,2.0,0.0,2.0,0.0,2.0,0.0,0.0,0.0,0.0,,,,,2019-12-01,7-31-Bew-Aufenthalte-AIG-J-d-2020-12.xlsx
78,Libanon,10.0,9.0,1.0,11.0,1.0,2.0,0.0,4.0,3.0,1.0,,,,,2019-12-01,7-31-Bew-Aufenthalte-AIG-J-d-2020-12.xlsx
79,Malaysia,1.0,1.0,0.0,1.0,1.0,0.0,0.0,0.0,0.0,0.0,,,,,2019-12-01,7-31-Bew-Aufenthalte-AIG-J-d-2020-12.xlsx
80,Mongolei,8.0,8.0,0.0,9.0,6.0,0.0,0.0,2.0,0.0,1.0,,,,,2019-12-01,7-31-Bew-Aufenthalte-AIG-J-d-2020-12.xlsx
81,Nepal,1.0,1.0,0.0,0.0,0.0,0.0,0.0,0.0,0.0,0.0,,,,,2019-12-01,7-31-Bew-Aufenthalte-AIG-J-d-2020-12.xlsx
82,Pakistan,14.0,10.0,4.0,13.0,0.0,1.0,1.0,6.0,0.0,5.0,,,,,2019-12-01,7-31-Bew-Aufenthalte-AIG-J-d-2020-12.xlsx
83,Philippinen,10.0,10.0,0.0,10.0,8.0,2.0,0.0,0.0,0.0,0.0,,,,,2019-12-01,7-31-Bew-Aufenthalte-AIG-J-d-2020-12.xlsx
84,Sri Lanka,22.0,19.0,3.0,20.0,1.0,3.0,1.0,7.0,1.0,7.0,,,,,2019-12-01,7-31-Bew-Aufenthalte-AIG-J-d-2020-12.xlsx
85,Syrien,9.0,9.0,0.0,6.0,0.0,0.0,2.0,1.0,0.0,3.0,,,,,2019-12-01,7-31-Bew-Aufenthalte-AIG-J-d-2020-12.xlsx
86,Thailand,9.0,8.0,1.0,10.0,3.0,6.0,0.0,0.0,1.0,0.0,,,,,2019-12-01,7-31-Bew-Aufenthalte-AIG-J-d-2020-12.xlsx
87,Usbekistan,2.0,2.0,0.0,2.0,2.0,0.0,0.0,0.0,0.0,0.0,,,,,2019-12-01,7-31-Bew-Aufenthalte-AIG-J-d-2020-12.xlsx
88,Vietnam,4.0,4.0,0.0,5.0,3.0,1.0,0.0,0.0,0.0,1.0,,,,,2019-12-01,7-31-Bew-Aufenthalte-AIG-J-d-2020-12.xlsx
89,Total Asien,296.0,271.0,25.0,290.0,39.0,110.0,11.0,62.0,20.0,48.0,,,,,2019-12-01,7-31-Bew-Aufenthalte-AIG-J-d-2020-12.xlsx
90,Albanien,624.0,610.0,14.0,612.0,1.0,542.0,2.0,4.0,2.0,61.0,,,,,2019-12-01,7-31-Bew-Aufenthalte-AIG-J-d-2020-12.xlsx
91,Belarus,12.0,11.0,1.0,11.0,0.0,2.0,0.0,5.0,0.0,4.0,,,,,2019-12-01,7-31-Bew-Aufenthalte-AIG-J-d-2020-12.xlsx
92,Belgien,6.0,5.0,1.0,5.0,0.0,1.0,0.0,0.0,0.0,4.0,,,,,2019-12-01,7-31-Bew-Aufenthalte-AIG-J-d-2020-12.xlsx
93,Bosnien u. Herzegowina,49.0,46.0,3.0,46.0,1.0,41.0,0.0,0.0,0.0,4.0,,,,,2019-12-01,7-31-Bew-Aufenthalte-AIG-J-d-2020-12.xlsx
94,Bulgarien,30.0,30.0,0.0,30.0,3.0,24.0,0.0,0.0,0.0,3.0,,,,,2019-12-01,7-31-Bew-Aufenthalte-AIG-J-d-2020-12.xlsx
95,Deutschland,8.0,8.0,0.0,8.0,3.0,4.0,0.0,0.0,0.0,1.0,,,,,2019-12-01,7-31-Bew-Aufenthalte-AIG-J-d-2020-12.xlsx
96,Estland,3.0,3.0,0.0,3.0,0.0,2.0,0.0,0.0,0.0,1.0,,,,,2019-12-01,7-31-Bew-Aufenthalte-AIG-J-d-2020-12.xlsx
97,Frankreich,9.0,9.0,0.0,9.0,0.0,8.0,0.0,0.0,1.0,0.0,,,,,2019-12-01,7-31-Bew-Aufenthalte-AIG-J-d-2020-12.xlsx
98,Griechenland,4.0,3.0,1.0,4.0,1.0,3.0,0.0,0.0,0.0,0.0,,,,,2019-12-01,7-31-Bew-Aufenthalte-AIG-J-d-2020-12.xlsx
99,Grossbritannien,7.0,6.0,1.0,8.0,0.0,6.0,0.0,0.0,0.0,2.0,,,,,2019-12-01,7-31-Bew-Aufenthalte-AIG-J-d-2020-12.xlsx
100,Italien,31.0,30.0,1.0,29.0,0.0,25.0,1.0,0.0,0.0,3.0,,,,,2019-12-01,7-31-Bew-Aufenthalte-AIG-J-d-2020-12.xlsx
101,Kosovo,256.0,246.0,10.0,267.0,3.0,227.0,0.0,7.0,3.0,27.0,,,,,2019-12-01,7-31-Bew-Aufenthalte-AIG-J-d-2020-12.xlsx
102,Kroatien,25.0,24.0,1.0,24.0,0.0,21.0,0.0,0.0,0.0,3.0,,,,,2019-12-01,7-31-Bew-Aufenthalte-AIG-J-d-2020-12.xlsx
103,Lettland,5.0,5.0,0.0,6.0,1.0,4.0,1.0,0.0,0.0,0.0,,,,,2019-12-01,7-31-Bew-Aufenthalte-AIG-J-d-2020-12.xlsx
104,Litauen,30.0,23.0,7.0,29.0,0.0,20.0,0.0,0.0,0.0,9.0,,,,,2019-12-01,7-31-Bew-Aufenthalte-AIG-J-d-2020-12.xlsx
105,Nordmazedonien,126.0,119.0,7.0,133.0,13.0,101.0,0.0,2.0,3.0,14.0,,,,,2019-12-01,7-31-Bew-Aufenthalte-AIG-J-d-2020-12.xlsx
106,Moldova,24.0,21.0,3.0,27.0,1.0,20.0,1.0,1.0,2.0,2.0,,,,,2019-12-01,7-31-Bew-Aufenthalte-AIG-J-d-2020-12.xlsx
107,Montenegro,12.0,12.0,0.0,14.0,2.0,9.0,1.0,0.0,0.0,2.0,,,,,2019-12-01,7-31-Bew-Aufenthalte-AIG-J-d-2020-12.xlsx
108,Niederlande,19.0,15.0,4.0,19.0,2.0,12.0,1.0,0.0,0.0,4.0,,,,,2019-12-01,7-31-Bew-Aufenthalte-AIG-J-d-2020-12.xlsx
109,Österreich,4.0,3.0,1.0,4.0,0.0,3.0,0.0,0.0,0.0,1.0,,,,,2019-12-01,7-31-Bew-Aufenthalte-AIG-J-d-2020-12.xlsx
110,Polen,45.0,39.0,6.0,45.0,0.0,36.0,0.0,0.0,0.0,9.0,,,,,2019-12-01,7-31-Bew-Aufenthalte-AIG-J-d-2020-12.xlsx
111,Portugal,103.0,92.0,11.0,107.0,4.0,81.0,2.0,0.0,1.0,19.0,,,,,2019-12-01,7-31-Bew-Aufenthalte-AIG-J-d-2020-12.xlsx
112,Rumänien,338.0,322.0,16.0,329.0,8.0,271.0,3.0,0.0,1.0,46.0,,,,,2019-12-01,7-31-Bew-Aufenthalte-AIG-J-d-2020-12.xlsx
113,Russland,20.0,19.0,1.0,17.0,0.0,10.0,2.0,3.0,0.0,2.0,,,,,2019-12-01,7-31-Bew-Aufenthalte-AIG-J-d-2020-12.xlsx
114,Schweden,1.0,1.0,0.0,1.0,0.0,1.0,0.0,0.0,0.0,0.0,,,,,2019-12-01,7-31-Bew-Aufenthalte-AIG-J-d-2020-12.xlsx
115,Serbien,321.0,315.0,6.0,289.0,4.0,262.0,2.0,4.0,2.0,15.0,,,,,2019-12-01,7-31-Bew-Aufenthalte-AIG-J-d-2020-12.xlsx
116,Slowakische Republik,11.0,11.0,0.0,11.0,0.0,9.0,0.0,0.0,2.0,0.0,,,,,2019-12-01,7-31-Bew-Aufenthalte-AIG-J-d-2020-12.xlsx
117,Slowenien,3.0,3.0,0.0,3.0,0.0,3.0,0.0,0.0,0.0,0.0,,,,,2019-12-01,7-31-Bew-Aufenthalte-AIG-J-d-2020-12.xlsx
118,Spanien,66.0,63.0,3.0,66.0,10.0,50.0,0.0,0.0,0.0,6.0,,,,,2019-12-01,7-31-Bew-Aufenthalte-AIG-J-d-2020-12.xlsx
119,Tschechische Republik,7.0,7.0,0.0,7.0,0.0,5.0,0.0,0.0,0.0,2.0,,,,,2019-12-01,7-31-Bew-Aufenthalte-AIG-J-d-2020-12.xlsx
120,Tschechoslowakei,1.0,1.0,0.0,1.0,0.0,1.0,0.0,0.0,0.0,0.0,,,,,2019-12-01,7-31-Bew-Aufenthalte-AIG-J-d-2020-12.xlsx
121,Türkei,53.0,51.0,2.0,49.0,3.0,35.0,0.0,2.0,0.0,9.0,,,,,2019-12-01,7-31-Bew-Aufenthalte-AIG-J-d-2020-12.xlsx
122,Ukraine,22.0,21.0,1.0,23.0,0.0,17.0,0.0,2.0,0.0,4.0,,,,,2019-12-01,7-31-Bew-Aufenthalte-AIG-J-d-2020-12.xlsx
123,Ungarn,27.0,25.0,2.0,26.0,3.0,16.0,0.0,0.0,0.0,7.0,,,,,2019-12-01,7-31-Bew-Aufenthalte-AIG-J-d-2020-12.xlsx
124,Total Europa,2302.0,2199.0,103.0,2262.0,63.0,1872.0,16.0,30.0,17.0,264.0,,,,,2019-12-01,7-31-Bew-Aufenthalte-AIG-J-d-2020-12.xlsx
125,Australien,2.0,2.0,0.0,2.0,1.0,0.0,0.0,0.0,0.0,1.0,,,,,2019-12-01,7-31-Bew-Aufenthalte-AIG-J-d-2020-12.xlsx
126,Total Ozeanien,2.0,2.0,0.0,2.0,1.0,0.0,0.0,0.0,0.0,1.0,,,,,2019-12-01,7-31-Bew-Aufenthalte-AIG-J-d-2020-12.xlsx
127,Staatenlos,2.0,1.0,1.0,1.0,0.0,0.0,0.0,0.0,0.0,1.0,,,,,2019-12-01,7-31-Bew-Aufenthalte-AIG-J-d-2020-12.xlsx
128,Ohne Nationalität,8.0,6.0,2.0,11.0,0.0,0.0,2.0,2.0,6.0,1.0,,,,,2019-12-01,7-31-Bew-Aufenthalte-AIG-J-d-2020-12.xlsx
129,Staat unbekannt,26.0,21.0,5.0,24.0,0.0,4.0,10.0,4.0,5.0,1.0,,,,,2019-12-01,7-31-Bew-Aufenthalte-AIG-J-d-2020-12.xlsx
130,Total Herkunft unbek.,36.0,28.0,8.0,36.0,0.0,4.0,12.0,6.0,11.0,3.0,,,,,2019-12-01,7-31-Bew-Aufenthalte-AIG-J-d-2020-12.xlsx
131,Ägypten,6.0,4.0,2.0,7.0,0.0,2.0,0.0,1.0,2.0,2.0,,,,,2020-12-01,7-31-Bew-Aufenthalte-AIG-J-d-2020-12.xlsx
132,Algerien,129.0,82.0,47.0,166.0,1.0,7.0,3.0,29.0,101.0,25.0,,,,,2020-12-01,7-31-Bew-Aufenthalte-AIG-J-d-2020-12.xlsx
133,Angola,6.0,6.0,0.0,4.0,1.0,0.0,0.0,2.0,1.0,0.0,,,,,2020-12-01,7-31-Bew-Aufenthalte-AIG-J-d-2020-12.xlsx
134,Äquatorialguinea,1.0,1.0,0.0,1.0,0.0,0.0,1.0,0.0,0.0,0.0,,,,,2020-12-01,7-31-Bew-Aufenthalte-AIG-J-d-2020-12.xlsx
135,Äthiopien,8.0,6.0,2.0,7.0,0.0,0.0,0.0,1.0,0.0,6.0,,,,,2020-12-01,7-31-Bew-Aufenthalte-AIG-J-d-2020-12.xlsx
136,Benin,2.0,2.0,0.0,2.0,0.0,0.0,0.0,0.0,2.0,0.0,,,,,2020-12-01,7-31-Bew-Aufenthalte-AIG-J-d-2020-12.xlsx
137,Burkina Faso,4.0,4.0,0.0,3.0,3.0,0.0,0.0,0.0,0.0,0.0,,,,,2020-12-01,7-31-Bew-Aufenthalte-AIG-J-d-2020-12.xlsx
138,Burundi,0.0,0.0,0.0,1.0,0.0,0.0,0.0,0.0,1.0,0.0,,,,,2020-12-01,7-31-Bew-Aufenthalte-AIG-J-d-2020-12.xlsx
139,Côte d'Ivoire,11.0,10.0,1.0,11.0,1.0,2.0,0.0,4.0,2.0,2.0,,,,,2020-12-01,7-31-Bew-Aufenthalte-AIG-J-d-2020-12.xlsx
140,Eritrea,4.0,4.0,0.0,5.0,1.0,0.0,1.0,2.0,1.0,0.0,,,,,2020-12-01,7-31-Bew-Aufenthalte-AIG-J-d-2020-12.xlsx
141,Gabun,0.0,0.0,0.0,1.0,0.0,0.0,0.0,1.0,0.0,0.0,,,,,2020-12-01,7-31-Bew-Aufenthalte-AIG-J-d-2020-12.xlsx
142,Gambia,48.0,42.0,6.0,50.0,1.0,6.0,6.0,24.0,2.0,11.0,,,,,2020-12-01,7-31-Bew-Aufenthalte-AIG-J-d-2020-12.xlsx
143,Ghana,4.0,4.0,0.0,4.0,0.0,1.0,1.0,2.0,0.0,0.0,,,,,2020-12-01,7-31-Bew-Aufenthalte-AIG-J-d-2020-12.xlsx
144,Guinea,49.0,40.0,9.0,46.0,1.0,8.0,11.0,10.0,7.0,9.0,,,,,2020-12-01,7-31-Bew-Aufenthalte-AIG-J-d-2020-12.xlsx
145,Guinea-Bissau,13.0,12.0,1.0,13.0,1.0,6.0,3.0,1.0,0.0,2.0,,,,,2020-12-01,7-31-Bew-Aufenthalte-AIG-J-d-2020-12.xlsx
146,Kamerun,8.0,7.0,1.0,7.0,0.0,3.0,0.0,1.0,0.0,3.0,,,,,2020-12-01,7-31-Bew-Aufenthalte-AIG-J-d-2020-12.xlsx
147,Kapverden,0.0,0.0,0.0,2.0,0.0,0.0,0.0,0.0,2.0,0.0,,,,,2020-12-01,7-31-Bew-Aufenthalte-AIG-J-d-2020-12.xlsx
148,Kenia,4.0,3.0,1.0,4.0,1.0,2.0,0.0,0.0,0.0,1.0,,,,,2020-12-01,7-31-Bew-Aufenthalte-AIG-J-d-2020-12.xlsx
149,Kongo,1.0,1.0,0.0,1.0,0.0,0.0,0.0,0.0,0.0,1.0,,,,,2020-12-01,7-31-Bew-Aufenthalte-AIG-J-d-2020-12.xlsx
150,Kongo DR,8.0,6.0,2.0,6.0,1.0,1.0,0.0,0.0,2.0,2.0,,,,,2020-12-01,7-31-Bew-Aufenthalte-AIG-J-d-2020-12.xlsx
151,Liberia,3.0,3.0,0.0,2.0,0.0,0.0,0.0,1.0,1.0,0.0,,,,,2020-12-01,7-31-Bew-Aufenthalte-AIG-J-d-2020-12.xlsx
152,Libyen,27.0,21.0,6.0,15.0,0.0,0.0,1.0,3.0,6.0,5.0,,,,,2020-12-01,7-31-Bew-Aufenthalte-AIG-J-d-2020-12.xlsx
153,Malawi,1.0,1.0,0.0,0.0,0.0,0.0,0.0,0.0,0.0,0.0,,,,,2020-12-01,7-31-Bew-Aufenthalte-AIG-J-d-2020-12.xlsx
154,Mali,6.0,5.0,1.0,5.0,0.0,1.0,0.0,2.0,1.0,1.0,,,,,2020-12-01,7-31-Bew-Aufenthalte-AIG-J-d-2020-12.xlsx
155,Marokko,84.0,63.0,21.0,71.0,3.0,2.0,4.0,24.0,21.0,17.0,,,,,2020-12-01,7-31-Bew-Aufenthalte-AIG-J-d-2020-12.xlsx
156,Mauretanien,2.0,2.0,0.0,1.0,0.0,0.0,1.0,0.0,0.0,0.0,,,,,2020-12-01,7-31-Bew-Aufenthalte-AIG-J-d-2020-12.xlsx
157,Mauritius,3.0,2.0,1.0,2.0,2.0,0.0,0.0,0.0,0.0,0.0,,,,,2020-12-01,7-31-Bew-Aufenthalte-AIG-J-d-2020-12.xlsx
158,Mosambik,1.0,1.0,0.0,1.0,0.0,0.0,0.0,0.0,0.0,1.0,,,,,2020-12-01,7-31-Bew-Aufenthalte-AIG-J-d-2020-12.xlsx
159,Niger,3.0,3.0,0.0,2.0,0.0,0.0,0.0,1.0,0.0,1.0,,,,,2020-12-01,7-31-Bew-Aufenthalte-AIG-J-d-2020-12.xlsx
160,Nigeria,122.0,99.0,23.0,120.0,1.0,16.0,33.0,26.0,6.0,38.0,,,,,2020-12-01,7-31-Bew-Aufenthalte-AIG-J-d-2020-12.xlsx
161,Ruanda,1.0,1.0,0.0,1.0,0.0,0.0,0.0,1.0,0.0,0.0,,,,,2020-12-01,7-31-Bew-Aufenthalte-AIG-J-d-2020-12.xlsx
162,Sambia,0.0,0.0,0.0,1.0,0.0,0.0,0.0,0.0,1.0,0.0,,,,,2020-12-01,7-31-Bew-Aufenthalte-AIG-J-d-2020-12.xlsx
163,Senegal,17.0,15.0,2.0,16.0,0.0,3.0,4.0,3.0,3.0,3.0,,,,,2020-12-01,7-31-Bew-Aufenthalte-AIG-J-d-2020-12.xlsx
164,Sierra Leone,3.0,3.0,0.0,5.0,0.0,0.0,2.0,1.0,2.0,0.0,,,,,2020-12-01,7-31-Bew-Aufenthalte-AIG-J-d-2020-12.xlsx
165,Somalia,19.0,17.0,2.0,16.0,1.0,0.0,0.0,11.0,2.0,2.0,,,,,2020-12-01,7-31-Bew-Aufenthalte-AIG-J-d-2020-12.xlsx
166,Sudan,5.0,4.0,1.0,3.0,0.0,0.0,0.0,2.0,0.0,1.0,,,,,2020-12-01,7-31-Bew-Aufenthalte-AIG-J-d-2020-12.xlsx
167,Südsudan,2.0,2.0,0.0,0.0,0.0,0.0,0.0,0.0,0.0,0.0,,,,,2020-12-01,7-31-Bew-Aufenthalte-AIG-J-d-2020-12.xlsx
168,Togo,3.0,3.0,0.0,2.0,2.0,0.0,0.0,0.0,0.0,0.0,,,,,2020-12-01,7-31-Bew-Aufenthalte-AIG-J-d-2020-12.xlsx
169,Tschad,3.0,2.0,1.0,2.0,0.0,0.0,0.0,0.0,0.0,2.0,,,,,2020-12-01,7-31-Bew-Aufenthalte-AIG-J-d-2020-12.xlsx
170,Tunesien,57.0,43.0,14.0,59.0,3.0,18.0,1.0,8.0,18.0,11.0,,,,,2020-12-01,7-31-Bew-Aufenthalte-AIG-J-d-2020-12.xlsx
171,Uganda,2.0,2.0,0.0,1.0,1.0,0.0,0.0,0.0,0.0,0.0,,,,,2020-12-01,7-31-Bew-Aufenthalte-AIG-J-d-2020-12.xlsx
172,Total Afrika,670.0,526.0,144.0,666.0,25.0,78.0,72.0,161.0,184.0,146.0,,,,,2020-12-01,7-31-Bew-Aufenthalte-AIG-J-d-2020-12.xlsx
173,Argentinien,5.0,4.0,1.0,5.0,2.0,0.0,0.0,0.0,0.0,3.0,,,,,2020-12-01,7-31-Bew-Aufenthalte-AIG-J-d-2020-12.xlsx
174,Bolivien,5.0,4.0,1.0,6.0,1.0,1.0,0.0,0.0,0.0,4.0,,,,,2020-12-01,7-31-Bew-Aufenthalte-AIG-J-d-2020-12.xlsx
175,Brasilien,87.0,82.0,5.0,84.0,41.0,24.0,1.0,0.0,1.0,17.0,,,,,2020-12-01,7-31-Bew-Aufenthalte-AIG-J-d-2020-12.xlsx
176,Chile,15.0,13.0,2.0,18.0,3.0,9.0,1.0,0.0,0.0,5.0,,,,,2020-12-01,7-31-Bew-Aufenthalte-AIG-J-d-2020-12.xlsx
177,Dominikanische Republik,25.0,21.0,4.0,23.0,0.0,11.0,5.0,0.0,0.0,7.0,,,,,2020-12-01,7-31-Bew-Aufenthalte-AIG-J-d-2020-12.xlsx
178,Ecuador,6.0,6.0,0.0,5.0,2.0,1.0,1.0,0.0,0.0,1.0,,,,,2020-12-01,7-31-Bew-Aufenthalte-AIG-J-d-2020-12.xlsx
179,Honduras,2.0,2.0,0.0,3.0,0.0,0.0,0.0,0.0,1.0,2.0,,,,,2020-12-01,7-31-Bew-Aufenthalte-AIG-J-d-2020-12.xlsx
180,Jamaika,0.0,0.0,0.0,4.0,1.0,1.0,0.0,0.0,0.0,2.0,,,,,2020-12-01,7-31-Bew-Aufenthalte-AIG-J-d-2020-12.xlsx
181,Kanada,3.0,3.0,0.0,3.0,2.0,0.0,0.0,0.0,0.0,1.0,,,,,2020-12-01,7-31-Bew-Aufenthalte-AIG-J-d-2020-12.xlsx
182,Kolumbien,38.0,35.0,3.0,38.0,16.0,13.0,2.0,0.0,1.0,6.0,,,,,2020-12-01,7-31-Bew-Aufenthalte-AIG-J-d-2020-12.xlsx
183,Kuba,2.0,1.0,1.0,3.0,0.0,0.0,0.0,0.0,3.0,0.0,,,,,2020-12-01,7-31-Bew-Aufenthalte-AIG-J-d-2020-12.xlsx
184,Mexiko,5.0,4.0,1.0,5.0,0.0,2.0,0.0,0.0,0.0,3.0,,,,,2020-12-01,7-31-Bew-Aufenthalte-AIG-J-d-2020-12.xlsx
185,Paraguay,4.0,4.0,0.0,4.0,3.0,0.0,0.0,0.0,0.0,1.0,,,,,2020-12-01,7-31-Bew-Aufenthalte-AIG-J-d-2020-12.xlsx
186,Peru,8.0,8.0,0.0,6.0,2.0,2.0,1.0,0.0,0.0,1.0,,,,,2020-12-01,7-31-Bew-Aufenthalte-AIG-J-d-2020-12.xlsx
187,Uruguay,0.0,0.0,0.0,1.0,0.0,1.0,0.0,0.0,0.0,0.0,,,,,2020-12-01,7-31-Bew-Aufenthalte-AIG-J-d-2020-12.xlsx
188,USA,9.0,8.0,1.0,8.0,0.0,6.0,0.0,1.0,0.0,1.0,,,,,2020-12-01,7-31-Bew-Aufenthalte-AIG-J-d-2020-12.xlsx
189,Venezuela,10.0,8.0,2.0,8.0,3.0,2.0,0.0,0.0,1.0,2.0,,,,,2020-12-01,7-31-Bew-Aufenthalte-AIG-J-d-2020-12.xlsx
190,Total Amerika,224.0,203.0,21.0,224.0,76.0,73.0,11.0,1.0,7.0,56.0,,,,,2020-12-01,7-31-Bew-Aufenthalte-AIG-J-d-2020-12.xlsx
191,Afghanistan,10.0,10.0,0.0,9.0,1.0,0.0,1.0,7.0,0.0,0.0,,,,,2020-12-01,7-31-Bew-Aufenthalte-AIG-J-d-2020-12.xlsx
192,Armenien,1.0,1.0,0.0,1.0,0.0,0.0,0.0,0.0,0.0,1.0,,,,,2020-12-01,7-31-Bew-Aufenthalte-AIG-J-d-2020-12.xlsx
193,Aserbaidschan,1.0,1.0,0.0,2.0,0.0,0.0,0.0,2.0,0.0,0.0,,,,,2020-12-01,7-31-Bew-Aufenthalte-AIG-J-d-2020-12.xlsx
194,Bangladesh,4.0,4.0,0.0,3.0,0.0,0.0,0.0,3.0,0.0,0.0,,,,,2020-12-01,7-31-Bew-Aufenthalte-AIG-J-d-2020-12.xlsx
195,China (Volksrepublik),15.0,14.0,1.0,18.0,3.0,6.0,2.0,0.0,2.0,5.0,,,,,2020-12-01,7-31-Bew-Aufenthalte-AIG-J-d-2020-12.xlsx
196,Georgien,51.0,41.0,10.0,47.0,3.0,23.0,1.0,3.0,1.0,16.0,,,,,2020-12-01,7-31-Bew-Aufenthalte-AIG-J-d-2020-12.xlsx
197,Indien,13.0,10.0,3.0,12.0,3.0,2.0,0.0,2.0,0.0,5.0,,,,,2020-12-01,7-31-Bew-Aufenthalte-AIG-J-d-2020-12.xlsx
198,Irak,39.0,24.0,15.0,38.0,15.0,0.0,0.0,3.0,3.0,17.0,,,,,2020-12-01,7-31-Bew-Aufenthalte-AIG-J-d-2020-12.xlsx
199,Iran,1.0,1.0,0.0,2.0,0.0,0.0,0.0,0.0,0.0,2.0,,,,,2020-12-01,7-31-Bew-Aufenthalte-AIG-J-d-2020-12.xlsx
200,Israel,4.0,3.0,1.0,4.0,0.0,3.0,0.0,0.0,0.0,1.0,,,,,2020-12-01,7-31-Bew-Aufenthalte-AIG-J-d-2020-12.xlsx
201,Jordanien,1.0,1.0,0.0,2.0,0.0,1.0,0.0,1.0,0.0,0.0,,,,,2020-12-01,7-31-Bew-Aufenthalte-AIG-J-d-2020-12.xlsx
202,Kambodscha,1.0,0.0,1.0,1.0,0.0,0.0,0.0,0.0,0.0,1.0,,,,,2020-12-01,7-31-Bew-Aufenthalte-AIG-J-d-2020-12.xlsx
203,Kasachstan,2.0,2.0,0.0,2.0,0.0,1.0,0.0,0.0,0.0,1.0,,,,,2020-12-01,7-31-Bew-Aufenthalte-AIG-J-d-2020-12.xlsx
204,Malaysia,1.0,1.0,0.0,1.0,1.0,0.0,0.0,0.0,0.0,0.0,,,,,2020-12-01,7-31-Bew-Aufenthalte-AIG-J-d-2020-12.xlsx
205,Mongolei,6.0,5.0,1.0,6.0,4.0,0.0,0.0,1.0,1.0,0.0,,,,,2020-12-01,7-31-Bew-Aufenthalte-AIG-J-d-2020-12.xlsx
206,Nepal,0.0,0.0,0.0,1.0,0.0,1.0,0.0,0.0,0.0,0.0,,,,,2020-12-01,7-31-Bew-Aufenthalte-AIG-J-d-2020-12.xlsx
207,Oman,1.0,1.0,0.0,1.0,0.0,1.0,0.0,0.0,0.0,0.0,,,,,2020-12-01,7-31-Bew-Aufenthalte-AIG-J-d-2020-12.xlsx
208,Pakistan,10.0,8.0,2.0,11.0,1.0,1.0,1.0,3.0,0.0,5.0,,,,,2020-12-01,7-31-Bew-Aufenthalte-AIG-J-d-2020-12.xlsx
209,Philippinen,6.0,6.0,0.0,6.0,5.0,1.0,0.0,0.0,0.0,0.0,,,,,2020-12-01,7-31-Bew-Aufenthalte-AIG-J-d-2020-12.xlsx
210,Sri Lanka,14.0,12.0,2.0,11.0,0.0,2.0,0.0,0.0,0.0,9.0,,,,,2020-12-01,7-31-Bew-Aufenthalte-AIG-J-d-2020-12.xlsx
211,Syrien,6.0,6.0,0.0,6.0,0.0,0.0,0.0,0.0,1.0,5.0,,,,,2020-12-01,7-31-Bew-Aufenthalte-AIG-J-d-2020-12.xlsx
212,Thailand,9.0,7.0,2.0,8.0,0.0,5.0,0.0,0.0,0.0,3.0,,,,,2020-12-01,7-31-Bew-Aufenthalte-AIG-J-d-2020-12.xlsx
213,Vietnam,1.0,1.0,0.0,1.0,0.0,1.0,0.0,0.0,0.0,0.0,,,,,2020-12-01,7-31-Bew-Aufenthalte-AIG-J-d-2020-12.xlsx
214,Total Asien,197.0,159.0,38.0,193.0,36.0,48.0,5.0,25.0,8.0,71.0,,,,,2020-12-01,7-31-Bew-Aufenthalte-AIG-J-d-2020-12.xlsx
215,Albanien,440.0,411.0,29.0,443.0,32.0,298.0,1.0,4.0,1.0,107.0,,,,,2020-12-01,7-31-Bew-Aufenthalte-AIG-J-d-2020-12.xlsx
216,Belarus,9.0,8.0,1.0,9.0,0.0,4.0,0.0,0.0,1.0,4.0,,,,,2020-12-01,7-31-Bew-Aufenthalte-AIG-J-d-2020-12.xlsx
217,Belgien,7.0,6.0,1.0,7.0,0.0,4.0,0.0,0.0,0.0,3.0,,,,,2020-12-01,7-31-Bew-Aufenthalte-AIG-J-d-2020-12.xlsx
218,Bosnien u. Herzegowina,24.0,23.0,1.0,25.0,0.0,18.0,0.0,0.0,0.0,7.0,,,,,2020-12-01,7-31-Bew-Aufenthalte-AIG-J-d-2020-12.xlsx
219,Bulgarien,21.0,20.0,1.0,17.0,2.0,11.0,0.0,0.0,1.0,3.0,,,,,2020-12-01,7-31-Bew-Aufenthalte-AIG-J-d-2020-12.xlsx
220,Deutschland,2.0,2.0,0.0,1.0,0.0,1.0,0.0,0.0,0.0,0.0,,,,,2020-12-01,7-31-Bew-Aufenthalte-AIG-J-d-2020-12.xlsx
221,Estland,2.0,2.0,0.0,2.0,0.0,1.0,0.0,0.0,0.0,1.0,,,,,2020-12-01,7-31-Bew-Aufenthalte-AIG-J-d-2020-12.xlsx
222,Frankreich,10.0,10.0,0.0,8.0,0.0,5.0,0.0,0.0,0.0,3.0,,,,,2020-12-01,7-31-Bew-Aufenthalte-AIG-J-d-2020-12.xlsx
223,Griechenland,6.0,5.0,1.0,6.0,1.0,2.0,0.0,0.0,0.0,3.0,,,,,2020-12-01,7-31-Bew-Aufenthalte-AIG-J-d-2020-12.xlsx
224,Grossbritannien,5.0,5.0,0.0,5.0,1.0,4.0,0.0,0.0,0.0,0.0,,,,,2020-12-01,7-31-Bew-Aufenthalte-AIG-J-d-2020-12.xlsx
225,Irland,1.0,1.0,0.0,1.0,1.0,0.0,0.0,0.0,0.0,0.0,,,,,2020-12-01,7-31-Bew-Aufenthalte-AIG-J-d-2020-12.xlsx
226,Italien,27.0,23.0,4.0,30.0,2.0,15.0,0.0,0.0,1.0,12.0,,,,,2020-12-01,7-31-Bew-Aufenthalte-AIG-J-d-2020-12.xlsx
227,Kosovo,155.0,141.0,14.0,176.0,4.0,126.0,2.0,4.0,6.0,34.0,,,,,2020-12-01,7-31-Bew-Aufenthalte-AIG-J-d-2020-12.xlsx
228,Kroatien,16.0,13.0,3.0,18.0,0.0,13.0,0.0,0.0,0.0,5.0,,,,,2020-12-01,7-31-Bew-Aufenthalte-AIG-J-d-2020-12.xlsx
229,Lettland,4.0,3.0,1.0,4.0,0.0,2.0,0.0,0.0,0.0,2.0,,,,,2020-12-01,7-31-Bew-Aufenthalte-AIG-J-d-2020-12.xlsx
230,Litauen,14.0,12.0,2.0,15.0,0.0,11.0,0.0,0.0,0.0,4.0,,,,,2020-12-01,7-31-Bew-Aufenthalte-AIG-J-d-2020-12.xlsx
231,Nordmazedonien,78.0,72.0,6.0,73.0,0.0,61.0,0.0,0.0,1.0,11.0,,,,,2020-12-01,7-31-Bew-Aufenthalte-AIG-J-d-2020-12.xlsx
232,Moldova,17.0,14.0,3.0,16.0,2.0,8.0,0.0,0.0,1.0,5.0,,,,,2020-12-01,7-31-Bew-Aufenthalte-AIG-J-d-2020-12.xlsx
233,Montenegro,2.0,2.0,0.0,2.0,1.0,1.0,0.0,0.0,0.0,0.0,,,,,2020-12-01,7-31-Bew-Aufenthalte-AIG-J-d-2020-12.xlsx
234,Niederlande,6.0,6.0,0.0,6.0,0.0,5.0,1.0,0.0,0.0,0.0,,,,,2020-12-01,7-31-Bew-Aufenthalte-AIG-J-d-2020-12.xlsx
235,Österreich,1.0,1.0,0.0,1.0,0.0,1.0,0.0,0.0,0.0,0.0,,,,,2020-12-01,7-31-Bew-Aufenthalte-AIG-J-d-2020-12.xlsx
236,Polen,30.0,26.0,4.0,31.0,1.0,20.0,0.0,0.0,0.0,10.0,,,,,2020-12-01,7-31-Bew-Aufenthalte-AIG-J-d-2020-12.xlsx
237,Portugal,76.0,66.0,10.0,78.0,10.0,54.0,0.0,0.0,0.0,14.0,,,,,2020-12-01,7-31-Bew-Aufenthalte-AIG-J-d-2020-12.xlsx
238,Rumänien,281.0,252.0,29.0,285.0,73.0,132.0,1.0,0.0,0.0,79.0,,,,,2020-12-01,7-31-Bew-Aufenthalte-AIG-J-d-2020-12.xlsx
239,Russland,7.0,7.0,0.0,8.0,0.0,5.0,0.0,0.0,2.0,1.0,,,,,2020-12-01,7-31-Bew-Aufenthalte-AIG-J-d-2020-12.xlsx
240,Serbien,190.0,177.0,13.0,185.0,3.0,121.0,1.0,1.0,6.0,53.0,,,,,2020-12-01,7-31-Bew-Aufenthalte-AIG-J-d-2020-12.xlsx
241,Slowakische Republik,16.0,13.0,3.0,16.0,2.0,4.0,0.0,0.0,0.0,10.0,,,,,2020-12-01,7-31-Bew-Aufenthalte-AIG-J-d-2020-12.xlsx
242,Slowenien,1.0,1.0,0.0,1.0,0.0,1.0,0.0,0.0,0.0,0.0,,,,,2020-12-01,7-31-Bew-Aufenthalte-AIG-J-d-2020-12.xlsx
243,Spanien,26.0,26.0,0.0,27.0,7.0,15.0,1.0,0.0,0.0,4.0,,,,,2020-12-01,7-31-Bew-Aufenthalte-AIG-J-d-2020-12.xlsx
244,Tschechische Republik,6.0,6.0,0.0,6.0,0.0,6.0,0.0,0.0,0.0,0.0,,,,,2020-12-01,7-31-Bew-Aufenthalte-AIG-J-d-2020-12.xlsx
245,Türkei,44.0,36.0,8.0,45.0,6.0,24.0,2.0,0.0,4.0,9.0,,,,,2020-12-01,7-31-Bew-Aufenthalte-AIG-J-d-2020-12.xlsx
246,Ukraine,12.0,12.0,0.0,12.0,0.0,7.0,0.0,1.0,0.0,4.0,,,,,2020-12-01,7-31-Bew-Aufenthalte-AIG-J-d-2020-12.xlsx
247,Ungarn,14.0,10.0,4.0,14.0,2.0,4.0,1.0,0.0,0.0,7.0,,,,,2020-12-01,7-31-Bew-Aufenthalte-AIG-J-d-2020-12.xlsx
248,Total Europa,1550.0,1412.0,138.0,1573.0,150.0,984.0,10.0,10.0,24.0,395.0,,,,,2020-12-01,7-31-Bew-Aufenthalte-AIG-J-d-2020-12.xlsx
249,Australien,1.0,0.0,1.0,1.0,0.0,1.0,0.0,0.0,0.0,0.0,,,,,2020-12-01,7-31-Bew-Aufenthalte-AIG-J-d-2020-12.xlsx
250,Total Ozeanien,1.0,0.0,1.0,1.0,0.0,1.0,0.0,0.0,0.0,0.0,,,,,2020-12-01,7-31-Bew-Aufenthalte-AIG-J-d-2020-12.xlsx
251,Staatenlos,1.0,1.0,0.0,1.0,0.0,0.0,1.0,0.0,0.0,0.0,,,,,2020-12-01,7-31-Bew-Aufenthalte-AIG-J-d-2020-12.xlsx
252,Ohne Nationalität,7.0,5.0,2.0,8.0,0.0,0.0,0.0,2.0,6.0,0.0,,,,,2020-12-01,7-31-Bew-Aufenthalte-AIG-J-d-2020-12.xlsx
253,Staat unbekannt,10.0,7.0,3.0,13.0,1.0,1.0,2.0,3.0,5.0,1.0,,,,,2020-12-01,7-31-Bew-Aufenthalte-AIG-J-d-2020-12.xlsx
254,Total Herkunft unbek.,18.0,13.0,5.0,22.0,1.0,1.0,3.0,5.0,11.0,1.0,,,,,2020-12-01,7-31-Bew-Aufenthalte-AIG-J-d-2020-12.xlsx
