,Nation,Total,Beginn,WiederaufnahmenAufenthalt,Total ,"Kontrollierte, selbständige Ausreisen",Rückführungen Heimatstaat,Rückführungen Drittstaat,RückführungenDublinstaat,Unkontrollierte Abreisen,Andere Abgänge ,Datum,file_name,name_of_sem_statistics,flow_or_stock
0,Ägypten,4.0,4.0,0.0,6.0,0.0,0.0,0.0,4.0,2.0,0.0,2019-12-01,7-31-Bew-Aufenthalte-AIG-J-d-2020-12.xlsx,7-31,flow
1,Algerien,179.0,127.0,52.0,166.0,3.0,13.0,9.0,58.0,56.0,27.0,2019-12-01,7-31-Bew-Aufenthalte-AIG-J-d-2020-12.xlsx,7-31,flow
2,Angola,3.0,3.0,0.0,3.0,0.0,1.0,0.0,1.0,0.0,1.0,2019-12-01,7-31-Bew-Aufenthalte-AIG-J-d-2020-12.xlsx,7-31,flow
3,Äquatorialguinea,1.0,1.0,0.0,2.0,0.0,0.0,0.0,0.0,1.0,1.0,2019-12-01,7-31-Bew-Aufenthalte-AIG-J-d-2020-12.xlsx,7-31,flow
4,Äthiopien,10.0,6.0,4.0,10.0,1.0,0.0,0.0,5.0,2.0,2.0,2019-12-01,7-31-Bew-Aufenthalte-AIG-J-d-2020-12.xlsx,7-31,flow
5,Benin,3.0,3.0,0.0,1.0,0.0,0.0,0.0,0.0,0.0,1.0,2019-12-01,7-31-Bew-Aufenthalte-AIG-J-d-2020-12.xlsx,7-31,flow
6,Burkina Faso,2.0,2.0,0.0,1.0,0.0,1.0,0.0,0.0,0.0,0.0,2019-12-01,7-31-Bew-Aufenthalte-AIG-J-d-2020-12.xlsx,7-31,flow
7,Burundi,1.0,1.0,0.0,0.0,0.0,0.0,0.0,0.0,0.0,0.0,2019-12-01,7-31-Bew-Aufenthalte-AIG-J-d-2020-12.xlsx,7-31,flow
8,Côte d'Ivoire,9.0,8.0,1.0,9.0,0.0,0.0,2.0,3.0,3.0,1.0,2019-12-01,7-31-Bew-Aufenthalte-AIG-J-d-2020-12.xlsx,7-31,flow
9,Dschibuti,1.0,1.0,0.0,0.0,0.0,0.0,0.0,0.0,0.0,0.0,2019-12-01,7-31-Bew-Aufenthalte-AIG-J-d-2020-12.xlsx,7-31,flow
10,Eritrea,9.0,9.0,0.0,5.0,1.0,0.0,0.0,4.0,0.0,0.0,2019-12-01,7-31-Bew-Aufenthalte-AIG-J-d-2020-12.xlsx,7-31,flow
11,Gabun,4.0,4.0,0.0,1.0,0.0,0.0,0.0,0.0,0.0,1.0,2019-12-01,7-31-Bew-Aufenthalte-AIG-J-d-2020-12.xlsx,7-31,flow
12,Gambia,85.0,79.0,6.0,77.0,1.0,5.0,7.0,56.0,4.0,4.0,2019-12-01,7-31-Bew-Aufenthalte-AIG-J-d-2020-12.xlsx,7-31,flow
13,Ghana,11.0,11.0,0.0,10.0,0.0,0.0,2.0,7.0,0.0,1.0,2019-12-01,7-31-Bew-Aufenthalte-AIG-J-d-2020-12.xlsx,7-31,flow
14,Guinea,93.0,84.0,9.0,88.0,0.0,23.0,11.0,36.0,8.0,10.0,2019-12-01,7-31-Bew-Aufenthalte-AIG-J-d-2020-12.xlsx,7-31,flow
15,Guinea-Bissau,22.0,20.0,2.0,21.0,0.0,7.0,4.0,5.0,0.0,5.0,2019-12-01,7-31-Bew-Aufenthalte-AIG-J-d-2020-12.xlsx,7-31,flow
16,Kamerun,15.0,12.0,3.0,19.0,1.0,4.0,0.0,4.0,6.0,4.0,2019-12-01,7-31-Bew-Aufenthalte-AIG-J-d-2020-12.xlsx,7-31,flow
17,Kapverden,2.0,2.0,0.0,4.0,2.0,0.0,0.0,0.0,2.0,0.0,2019-12-01,7-31-Bew-Aufenthalte-AIG-J-d-2020-12.xlsx,7-31,flow
18,Kenia,3.0,3.0,0.0,5.0,1.0,0.0,0.0,1.0,2.0,1.0,2019-12-01,7-31-Bew-Aufenthalte-AIG-J-d-2020-12.xlsx,7-31,flow
19,Kongo DR,4.0,3.0,1.0,9.0,0.0,1.0,0.0,0.0,5.0,3.0,2019-12-01,7-31-Bew-Aufenthalte-AIG-J-d-2020-12.xlsx,7-31,flow
20,Liberia,1.0,1.0,0.0,1.0,0.0,0.0,0.0,0.0,1.0,0.0,2019-12-01,7-31-Bew-Aufenthalte-AIG-J-d-2020-12.xlsx,7-31,flow
21,Libyen,18.0,15.0,3.0,16.0,2.0,0.0,0.0,8.0,4.0,2.0,2019-12-01,7-31-Bew-Aufenthalte-AIG-J-d-2020-12.xlsx,7-31,flow
22,Mali,17.0,17.0,0.0,16.0,1.0,0.0,2.0,13.0,0.0,0.0,2019-12-01,7-31-Bew-Aufenthalte-AIG-J-d-2020-12.xlsx,7-31,flow
23,Marokko,87.0,72.0,15.0,82.0,5.0,10.0,4.0,33.0,25.0,5.0,2019-12-01,7-31-Bew-Aufenthalte-AIG-J-d-2020-12.xlsx,7-31,flow
24,Mauretanien,3.0,3.0,0.0,3.0,0.0,0.0,2.0,1.0,0.0,0.0,2019-12-01,7-31-Bew-Aufenthalte-AIG-J-d-2020-12.xlsx,7-31,flow
25,Mauritius,2.0,2.0,0.0,3.0,2.0,1.0,0.0,0.0,0.0,0.0,2019-12-01,7-31-Bew-Aufenthalte-AIG-J-d-2020-12.xlsx,7-31,flow
26,Niger,1.0,1.0,0.0,1.0,0.0,0.0,0.0,1.0,0.0,0.0,2019-12-01,7-31-Bew-Aufenthalte-AIG-J-d-2020-12.xlsx,7-31,flow
27,Nigeria,240.0,225.0,15.0,235.0,0.0,46.0,42.0,123.0,0.0,24.0,2019-12-01,7-31-Bew-Aufenthalte-AIG-J-d-2020-12.xlsx,7-31,flow
28,Senegal,30.0,25.0,5.0,28.0,3.0,4.0,2.0,13.0,2.0,4.0,2019-12-01,7-31-Bew-Aufenthalte-AIG-J-d-2020-12.xlsx,7-31,flow
29,Sierra Leone,6.0,4.0,2.0,3.0,0.0,0.0,0.0,2.0,1.0,0.0,2019-12-01,7-31-Bew-Aufenthalte-AIG-J-d-2020-12.xlsx,7-31,flow
30,Somalia,19.0,15.0,4.0,16.0,0.0,0.0,0.0,10.0,3.0,3.0,2019-12-01,7-31-Bew-Aufenthalte-AIG-J-d-2020-12.xlsx,7-31,flow
31,Südafrika,4.0,4.0,0.0,4.0,0.0,1.0,0.0,3.0,0.0,0.0,2019-12-01,7-31-Bew-Aufenthalte-AIG-J-d-2020-12.xlsx,7-31,flow
32,Sudan,6.0,5.0,1.0,7.0,0.0,3.0,0.0,2.0,1.0,1.0,2019-12-01,7-31-Bew-Aufenthalte-AIG-J-d-2020-12.xlsx,7-31,flow
33,Südsudan,1.0,0.0,1.0,1.0,0.0,0.0,0.0,0.0,0.0,1.0,2019-12-01,7-31-Bew-Aufenthalte-AIG-J-d-2020-12.xlsx,7-31,flow
34,Tansania,2.0,2.0,0.0,2.0,0.0,1.0,1.0,0.0,0.0,0.0,2019-12-01,7-31-Bew-Aufenthalte-AIG-J-d-2020-12.xlsx,7-31,flow
35,Togo,1.0,1.0,0.0,1.0,0.0,0.0,0.0,1.0,0.0,0.0,2019-12-01,7-31-Bew-Aufenthalte-AIG-J-d-2020-12.xlsx,7-31,flow
36,Tschad,2.0,1.0,1.0,1.0,0.0,0.0,0.0,0.0,1.0,0.0,2019-12-01,7-31-Bew-Aufenthalte-AIG-J-d-2020-12.xlsx,7-31,flow
37,Tunesien,64.0,50.0,14.0,61.0,2.0,21.0,0.0,14.0,15.0,9.0,2019-12-01,7-31-Bew-Aufenthalte-AIG-J-d-2020-12.xlsx,7-31,flow
38,Uganda,1.0,0.0,1.0,0.0,0.0,0.0,0.0,0.0,0.0,0.0,2019-12-01,7-31-Bew-Aufenthalte-AIG-J-d-2020-12.xlsx,7-31,flow
39,Westsahara,1.0,1.0,0.0,0.0,0.0,0.0,0.0,0.0,0.0,0.0,2019-12-01,7-31-Bew-Aufenthalte-AIG-J-d-2020-12.xlsx,7-31,flow
40,Zimbabwe,2.0,2.0,0.0,0.0,0.0,0.0,0.0,0.0,0.0,0.0,2019-12-01,7-31-Bew-Aufenthalte-AIG-J-d-2020-12.xlsx,7-31,flow
41,Total Afrika,969.0,829.0,140.0,918.0,25.0,142.0,88.0,408.0,144.0,111.0,2019-12-01,7-31-Bew-Aufenthalte-AIG-J-d-2020-12.xlsx,7-31,flow
42,Argentinien,8.0,8.0,0.0,8.0,3.0,3.0,0.0,0.0,0.0,2.0,2019-12-01,7-31-Bew-Aufenthalte-AIG-J-d-2020-12.xlsx,7-31,flow
43,Bolivien,7.0,6.0,1.0,7.0,4.0,2.0,0.0,0.0,0.0,1.0,2019-12-01,7-31-Bew-Aufenthalte-AIG-J-d-2020-12.xlsx,7-31,flow
44,Brasilien,112.0,106.0,6.0,110.0,33.0,61.0,1.0,0.0,2.0,13.0,2019-12-01,7-31-Bew-Aufenthalte-AIG-J-d-2020-12.xlsx,7-31,flow
45,Chile,15.0,15.0,0.0,13.0,6.0,6.0,1.0,0.0,0.0,0.0,2019-12-01,7-31-Bew-Aufenthalte-AIG-J-d-2020-12.xlsx,7-31,flow
46,Costa Rica,1.0,1.0,0.0,1.0,0.0,1.0,0.0,0.0,0.0,0.0,2019-12-01,7-31-Bew-Aufenthalte-AIG-J-d-2020-12.xlsx,7-31,flow
47,Dominikanische Republik,46.0,42.0,4.0,47.0,4.0,20.0,14.0,1.0,4.0,4.0,2019-12-01,7-31-Bew-Aufenthalte-AIG-J-d-2020-12.xlsx,7-31,flow
48,Ecuador,5.0,5.0,0.0,5.0,3.0,1.0,1.0,0.0,0.0,0.0,2019-12-01,7-31-Bew-Aufenthalte-AIG-J-d-2020-12.xlsx,7-31,flow
49,El Salvador,1.0,1.0,0.0,1.0,0.0,1.0,0.0,0.0,0.0,0.0,2019-12-01,7-31-Bew-Aufenthalte-AIG-J-d-2020-12.xlsx,7-31,flow
50,Haiti,3.0,2.0,1.0,3.0,0.0,2.0,0.0,0.0,0.0,1.0,2019-12-01,7-31-Bew-Aufenthalte-AIG-J-d-2020-12.xlsx,7-31,flow
51,Honduras,4.0,3.0,1.0,3.0,3.0,0.0,0.0,0.0,0.0,0.0,2019-12-01,7-31-Bew-Aufenthalte-AIG-J-d-2020-12.xlsx,7-31,flow
52,Jamaika,3.0,3.0,0.0,2.0,0.0,0.0,0.0,0.0,0.0,2.0,2019-12-01,7-31-Bew-Aufenthalte-AIG-J-d-2020-12.xlsx,7-31,flow
53,Kanada,1.0,1.0,0.0,1.0,0.0,1.0,0.0,0.0,0.0,0.0,2019-12-01,7-31-Bew-Aufenthalte-AIG-J-d-2020-12.xlsx,7-31,flow
54,Kolumbien,53.0,49.0,4.0,53.0,16.0,24.0,1.0,0.0,0.0,12.0,2019-12-01,7-31-Bew-Aufenthalte-AIG-J-d-2020-12.xlsx,7-31,flow
55,Kuba,6.0,6.0,0.0,4.0,2.0,0.0,1.0,0.0,0.0,1.0,2019-12-01,7-31-Bew-Aufenthalte-AIG-J-d-2020-12.xlsx,7-31,flow
56,Mexiko,7.0,7.0,0.0,7.0,2.0,5.0,0.0,0.0,0.0,0.0,2019-12-01,7-31-Bew-Aufenthalte-AIG-J-d-2020-12.xlsx,7-31,flow
57,Nicaragua,3.0,3.0,0.0,3.0,1.0,1.0,0.0,0.0,0.0,1.0,2019-12-01,7-31-Bew-Aufenthalte-AIG-J-d-2020-12.xlsx,7-31,flow
58,Paraguay,7.0,5.0,2.0,7.0,4.0,3.0,0.0,0.0,0.0,0.0,2019-12-01,7-31-Bew-Aufenthalte-AIG-J-d-2020-12.xlsx,7-31,flow
59,Peru,18.0,17.0,1.0,18.0,6.0,9.0,1.0,0.0,0.0,2.0,2019-12-01,7-31-Bew-Aufenthalte-AIG-J-d-2020-12.xlsx,7-31,flow
60,Uruguay,3.0,3.0,0.0,2.0,1.0,1.0,0.0,0.0,0.0,0.0,2019-12-01,7-31-Bew-Aufenthalte-AIG-J-d-2020-12.xlsx,7-31,flow
61,USA,11.0,9.0,2.0,11.0,0.0,8.0,0.0,0.0,0.0,3.0,2019-12-01,7-31-Bew-Aufenthalte-AIG-J-d-2020-12.xlsx,7-31,flow
62,Venezuela,9.0,8.0,1.0,9.0,1.0,3.0,1.0,0.0,0.0,4.0,2019-12-01,7-31-Bew-Aufenthalte-AIG-J-d-2020-12.xlsx,7-31,flow
63,Total Amerika,323.0,300.0,23.0,315.0,89.0,152.0,21.0,1.0,6.0,46.0,2019-12-01,7-31-Bew-Aufenthalte-AIG-J-d-2020-12.xlsx,7-31,flow
64,Afghanistan,16.0,12.0,4.0,16.0,0.0,1.0,1.0,10.0,0.0,4.0,2019-12-01,7-31-Bew-Aufenthalte-AIG-J-d-2020-12.xlsx,7-31,flow
65,Armenien,3.0,3.0,0.0,4.0,1.0,0.0,0.0,2.0,1.0,0.0,2019-12-01,7-31-Bew-Aufenthalte-AIG-J-d-2020-12.xlsx,7-31,flow
66,Aserbaidschan,1.0,1.0,0.0,1.0,0.0,0.0,0.0,0.0,0.0,1.0,2019-12-01,7-31-Bew-Aufenthalte-AIG-J-d-2020-12.xlsx,7-31,flow
67,Bangladesh,5.0,4.0,1.0,5.0,1.0,1.0,0.0,1.0,0.0,2.0,2019-12-01,7-31-Bew-Aufenthalte-AIG-J-d-2020-12.xlsx,7-31,flow
68,China (Volksrepublik),19.0,16.0,3.0,13.0,0.0,5.0,5.0,0.0,1.0,2.0,2019-12-01,7-31-Bew-Aufenthalte-AIG-J-d-2020-12.xlsx,7-31,flow
69,Georgien,103.0,96.0,7.0,101.0,0.0,70.0,1.0,12.0,3.0,15.0,2019-12-01,7-31-Bew-Aufenthalte-AIG-J-d-2020-12.xlsx,7-31,flow
70,Indien,10.0,10.0,0.0,11.0,1.0,5.0,0.0,4.0,0.0,1.0,2019-12-01,7-31-Bew-Aufenthalte-AIG-J-d-2020-12.xlsx,7-31,flow
71,Irak,24.0,23.0,1.0,28.0,7.0,0.0,0.0,8.0,9.0,4.0,2019-12-01,7-31-Bew-Aufenthalte-AIG-J-d-2020-12.xlsx,7-31,flow
72,Iran,8.0,8.0,0.0,7.0,2.0,1.0,0.0,4.0,0.0,0.0,2019-12-01,7-31-Bew-Aufenthalte-AIG-J-d-2020-12.xlsx,7-31,flow
73,Israel,8.0,8.0,0.0,7.0,0.0,6.0,0.0,1.0,0.0,0.0,2019-12-01,7-31-Bew-Aufenthalte-AIG-J-d-2020-12.xlsx,7-31,flow
74,Jordanien,4.0,4.0,0.0,5.0,2.0,2.0,0.0,0.0,0.0,1.0,2019-12-01,7-31-Bew-Aufenthalte-AIG-J-d-2020-12.xlsx,7-31,flow
75,Kambodscha,1.0,1.0,0.0,1.0,0.0,0.0,0.0,0.0,1.0,0.0,2019-12-01,7-31-Bew-Aufenthalte-AIG-J-d-2020-12.xlsx,7-31,flow
76,Kasachstan,2.0,2.0,0.0,2.0,0.0,2.0,0.0,0.0,0.0,0.0,2019-12-01,7-31-Bew-Aufenthalte-AIG-J-d-2020-12.xlsx,7-31,flow
77,Korea (Süd),2.0,2.0,0.0,2.0,0.0,2.0,0.0,0.0,0.0,0.0,2019-12-01,7-31-Bew-Aufenthalte-AIG-J-d-2020-12.xlsx,7-31,flow
78,Libanon,10.0,9.0,1.0,11.0,1.0,2.0,0.0,4.0,3.0,1.0,2019-12-01,7-31-Bew-Aufenthalte-AIG-J-d-2020-12.xlsx,7-31,flow
79,Malaysia,1.0,1.0,0.0,1.0,1.0,0.0,0.0,0.0,0.0,0.0,2019-12-01,7-31-Bew-Aufenthalte-AIG-J-d-2020-12.xlsx,7-31,flow
80,Mongolei,8.0,8.0,0.0,9.0,6.0,0.0,0.0,2.0,0.0,1.0,2019-12-01,7-31-Bew-Aufenthalte-AIG-J-d-2020-12.xlsx,7-31,flow
81,Nepal,1.0,1.0,0.0,0.0,0.0,0.0,0.0,0.0,0.0,0.0,2019-12-01,7-31-Bew-Aufenthalte-AIG-J-d-2020-12.xlsx,7-31,flow
82,Pakistan,14.0,10.0,4.0,13.0,0.0,1.0,1.0,6.0,0.0,5.0,2019-12-01,7-31-Bew-Aufenthalte-AIG-J-d-2020-12.xlsx,7-31,flow
83,Philippinen,10.0,10.0,0.0,10.0,8.0,2.0,0.0,0.0,0.0,0.0,2019-12-01,7-31-Bew-Aufenthalte-AIG-J-d-2020-12.xlsx,7-31,flow
84,Sri Lanka,22.0,19.0,3.0,20.0,1.0,3.0,1.0,7.0,1.0,7.0,2019-12-01,7-31-Bew-Aufenthalte-AIG-J-d-2020-12.xlsx,7-31,flow
85,Syrien,9.0,9.0,0.0,6.0,0.0,0.0,2.0,1.0,0.0,3.0,2019-12-01,7-31-Bew-Aufenthalte-AIG-J-d-2020-12.xlsx,7-31,flow
86,Thailand,9.0,8.0,1.0,10.0,3.0,6.0,0.0,0.0,1.0,0.0,2019-12-01,7-31-Bew-Aufenthalte-AIG-J-d-2020-12.xlsx,7-31,flow
87,Usbekistan,2.0,2.0,0.0,2.0,2.0,0.0,0.0,0.0,0.0,0.0,2019-12-01,7-31-Bew-Aufenthalte-AIG-J-d-2020-12.xlsx,7-31,flow
88,Vietnam,4.0,4.0,0.0,5.0,3.0,1.0,0.0,0.0,0.0,1.0,2019-12-01,7-31-Bew-Aufenthalte-AIG-J-d-2020-12.xlsx,7-31,flow
89,Total Asien,296.0,271.0,25.0,290.0,39.0,110.0,11.0,62.0,20.0,48.0,2019-12-01,7-31-Bew-Aufenthalte-AIG-J-d-2020-12.xlsx,7-31,flow
90,Albanien,624.0,610.0,14.0,612.0,1.0,542.0,2.0,4.0,2.0,61.0,2019-12-01,7-31-Bew-Aufenthalte-AIG-J-d-2020-12.xlsx,7-31,flow
91,Belarus,12.0,11.0,1.0,11.0,0.0,2.0,0.0,5.0,0.0,4.0,2019-12-01,7-31-Bew-Aufenthalte-AIG-J-d-2020-12.xlsx,7-31,flow
92,Belgien,6.0,5.0,1.0,5.0,0.0,1.0,0.0,0.0,0.0,4.0,2019-12-01,7-31-Bew-Aufenthalte-AIG-J-d-2020-12.xlsx,7-31,flow
93,Bosnien u. Herzegowina,49.0,46.0,3.0,46.0,1.0,41.0,0.0,0.0,0.0,4.0,2019-12-01,7-31-Bew-Aufenthalte-AIG-J-d-2020-12.xlsx,7-31,flow
94,Bulgarien,30.0,30.0,0.0,30.0,3.0,24.0,0.0,0.0,0.0,3.0,2019-12-01,7-31-Bew-Aufenthalte-AIG-J-d-2020-12.xlsx,7-31,flow
95,Deutschland,8.0,8.0,0.0,8.0,3.0,4.0,0.0,0.0,0.0,1.0,2019-12-01,7-31-Bew-Aufenthalte-AIG-J-d-2020-12.xlsx,7-31,flow
96,Estland,3.0,3.0,0.0,3.0,0.0,2.0,0.0,0.0,0.0,1.0,2019-12-01,7-31-Bew-Aufenthalte-AIG-J-d-2020-12.xlsx,7-31,flow
97,Frankreich,9.0,9.0,0.0,9.0,0.0,8.0,0.0,0.0,1.0,0.0,2019-12-01,7-31-Bew-Aufenthalte-AIG-J-d-2020-12.xlsx,7-31,flow
98,Griechenland,4.0,3.0,1.0,4.0,1.0,3.0,0.0,0.0,0.0,0.0,2019-12-01,7-31-Bew-Aufenthalte-AIG-J-d-2020-12.xlsx,7-31,flow
99,Grossbritannien,7.0,6.0,1.0,8.0,0.0,6.0,0.0,0.0,0.0,2.0,2019-12-01,7-31-Bew-Aufenthalte-AIG-J-d-2020-12.xlsx,7-31,flow
100,Italien,31.0,30.0,1.0,29.0,0.0,25.0,1.0,0.0,0.0,3.0,2019-12-01,7-31-Bew-Aufenthalte-AIG-J-d-2020-12.xlsx,7-31,flow
101,Kosovo,256.0,246.0,10.0,267.0,3.0,227.0,0.0,7.0,3.0,27.0,2019-12-01,7-31-Bew-Aufenthalte-AIG-J-d-2020-12.xlsx,7-31,flow
102,Kroatien,25.0,24.0,1.0,24.0,0.0,21.0,0.0,0.0,0.0,3.0,2019-12-01,7-31-Bew-Aufenthalte-AIG-J-d-2020-12.xlsx,7-31,flow
103,Lettland,5.0,5.0,0.0,6.0,1.0,4.0,1.0,0.0,0.0,0.0,2019-12-01,7-31-Bew-Aufenthalte-AIG-J-d-2020-12.xlsx,7-31,flow
104,Litauen,30.0,23.0,7.0,29.0,0.0,20.0,0.0,0.0,0.0,9.0,2019-12-01,7-31-Bew-Aufenthalte-AIG-J-d-2020-12.xlsx,7-31,flow
105,Nordmazedonien,126.0,119.0,7.0,133.0,13.0,101.0,0.0,2.0,3.0,14.0,2019-12-01,7-31-Bew-Aufenthalte-AIG-J-d-2020-12.xlsx,7-31,flow
106,Moldova,24.0,21.0,3.0,27.0,1.0,20.0,1.0,1.0,2.0,2.0,2019-12-01,7-31-Bew-Aufenthalte-AIG-J-d-2020-12.xlsx,7-31,flow
107,Montenegro,12.0,12.0,0.0,14.0,2.0,9.0,1.0,0.0,0.0,2.0,2019-12-01,7-31-Bew-Aufenthalte-AIG-J-d-2020-12.xlsx,7-31,flow
108,Niederlande,19.0,15.0,4.0,19.0,2.0,12.0,1.0,0.0,0.0,4.0,2019-12-01,7-31-Bew-Aufenthalte-AIG-J-d-2020-12.xlsx,7-31,flow
109,Österreich,4.0,3.0,1.0,4.0,0.0,3.0,0.0,0.0,0.0,1.0,2019-12-01,7-31-Bew-Aufenthalte-AIG-J-d-2020-12.xlsx,7-31,flow
110,Polen,45.0,39.0,6.0,45.0,0.0,36.0,0.0,0.0,0.0,9.0,2019-12-01,7-31-Bew-Aufenthalte-AIG-J-d-2020-12.xlsx,7-31,flow
111,Portugal,103.0,92.0,11.0,107.0,4.0,81.0,2.0,0.0,1.0,19.0,2019-12-01,7-31-Bew-Aufenthalte-AIG-J-d-2020-12.xlsx,7-31,flow
112,Rumänien,338.0,322.0,16.0,329.0,8.0,271.0,3.0,0.0,1.0,46.0,2019-12-01,7-31-Bew-Aufenthalte-AIG-J-d-2020-12.xlsx,7-31,flow
113,Russland,20.0,19.0,1.0,17.0,0.0,10.0,2.0,3.0,0.0,2.0,2019-12-01,7-31-Bew-Aufenthalte-AIG-J-d-2020-12.xlsx,7-31,flow
114,Schweden,1.0,1.0,0.0,1.0,0.0,1.0,0.0,0.0,0.0,0.0,2019-12-01,7-31-Bew-Aufenthalte-AIG-J-d-2020-12.xlsx,7-31,flow
115,Serbien,321.0,315.0,6.0,289.0,4.0,262.0,2.0,4.0,2.0,15.0,2019-12-01,7-31-Bew-Aufenthalte-AIG-J-d-2020-12.xlsx,7-31,flow
116,Slowakische Republik,11.0,11.0,0.0,11.0,0.0,9.0,0.0,0.0,2.0,0.0,2019-12-01,7-31-Bew-Aufenthalte-AIG-J-d-2020-12.xlsx,7-31,flow
117,Slowenien,3.0,3.0,0.0,3.0,0.0,3.0,0.0,0.0,0.0,0.0,2019-12-01,7-31-Bew-Aufenthalte-AIG-J-d-2020-12.xlsx,7-31,flow
118,Spanien,66.0,63.0,3.0,66.0,10.0,50.0,0.0,0.0,0.0,6.0,2019-12-01,7-31-Bew-Aufenthalte-AIG-J-d-2020-12.xlsx,7-31,flow
119,Tschechische Republik,7.0,7.0,0.0,7.0,0.0,5.0,0.0,0.0,0.0,2.0,2019-12-01,7-31-Bew-Aufenthalte-AIG-J-d-2020-12.xlsx,7-31,flow
120,Tschechoslowakei,1.0,1.0,0.0,1.0,0.0,1.0,0.0,0.0,0.0,0.0,2019-12-01,7-31-Bew-Aufenthalte-AIG-J-d-2020-12.xlsx,7-31,flow
121,Türkei,53.0,51.0,2.0,49.0,3.0,35.0,0.0,2.0,0.0,9.0,2019-12-01,7-31-Bew-Aufenthalte-AIG-J-d-2020-12.xlsx,7-31,flow
122,Ukraine,22.0,21.0,1.0,23.0,0.0,17.0,0.0,2.0,0.0,4.0,2019-12-01,7-31-Bew-Aufenthalte-AIG-J-d-2020-12.xlsx,7-31,flow
123,Ungarn,27.0,25.0,2.0,26.0,3.0,16.0,0.0,0.0,0.0,7.0,2019-12-01,7-31-Bew-Aufenthalte-AIG-J-d-2020-12.xlsx,7-31,flow
124,Total Europa,2302.0,2199.0,103.0,2262.0,63.0,1872.0,16.0,30.0,17.0,264.0,2019-12-01,7-31-Bew-Aufenthalte-AIG-J-d-2020-12.xlsx,7-31,flow
125,Australien,2.0,2.0,0.0,2.0,1.0,0.0,0.0,0.0,0.0,1.0,2019-12-01,7-31-Bew-Aufenthalte-AIG-J-d-2020-12.xlsx,7-31,flow
126,Total Ozeanien,2.0,2.0,0.0,2.0,1.0,0.0,0.0,0.0,0.0,1.0,2019-12-01,7-31-Bew-Aufenthalte-AIG-J-d-2020-12.xlsx,7-31,flow
127,Staatenlos,2.0,1.0,1.0,1.0,0.0,0.0,0.0,0.0,0.0,1.0,2019-12-01,7-31-Bew-Aufenthalte-AIG-J-d-2020-12.xlsx,7-31,flow
128,Ohne Nationalität,8.0,6.0,2.0,11.0,0.0,0.0,2.0,2.0,6.0,1.0,2019-12-01,7-31-Bew-Aufenthalte-AIG-J-d-2020-12.xlsx,7-31,flow
129,Staat unbekannt,26.0,21.0,5.0,24.0,0.0,4.0,10.0,4.0,5.0,1.0,2019-12-01,7-31-Bew-Aufenthalte-AIG-J-d-2020-12.xlsx,7-31,flow
130,Total Herkunft unbek.,36.0,28.0,8.0,36.0,0.0,4.0,12.0,6.0,11.0,3.0,2019-12-01,7-31-Bew-Aufenthalte-AIG-J-d-2020-12.xlsx,7-31,flow
131,Ägypten,6.0,4.0,2.0,7.0,0.0,2.0,0.0,1.0,2.0,2.0,2020-12-01,7-31-Bew-Aufenthalte-AIG-J-d-2020-12.xlsx,7-31,flow
132,Algerien,129.0,82.0,47.0,166.0,1.0,7.0,3.0,29.0,101.0,25.0,2020-12-01,7-31-Bew-Aufenthalte-AIG-J-d-2020-12.xlsx,7-31,flow
133,Angola,6.0,6.0,0.0,4.0,1.0,0.0,0.0,2.0,1.0,0.0,2020-12-01,7-31-Bew-Aufenthalte-AIG-J-d-2020-12.xlsx,7-31,flow
134,Äquatorialguinea,1.0,1.0,0.0,1.0,0.0,0.0,1.0,0.0,0.0,0.0,2020-12-01,7-31-Bew-Aufenthalte-AIG-J-d-2020-12.xlsx,7-31,flow
135,Äthiopien,8.0,6.0,2.0,7.0,0.0,0.0,0.0,1.0,0.0,6.0,2020-12-01,7-31-Bew-Aufenthalte-AIG-J-d-2020-12.xlsx,7-31,flow
136,Benin,2.0,2.0,0.0,2.0,0.0,0.0,0.0,0.0,2.0,0.0,2020-12-01,7-31-Bew-Aufenthalte-AIG-J-d-2020-12.xlsx,7-31,flow
137,Burkina Faso,4.0,4.0,0.0,3.0,3.0,0.0,0.0,0.0,0.0,0.0,2020-12-01,7-31-Bew-Aufenthalte-AIG-J-d-2020-12.xlsx,7-31,flow
138,Burundi,0.0,0.0,0.0,1.0,0.0,0.0,0.0,0.0,1.0,0.0,2020-12-01,7-31-Bew-Aufenthalte-AIG-J-d-2020-12.xlsx,7-31,flow
139,Côte d'Ivoire,11.0,10.0,1.0,11.0,1.0,2.0,0.0,4.0,2.0,2.0,2020-12-01,7-31-Bew-Aufenthalte-AIG-J-d-2020-12.xlsx,7-31,flow
140,Eritrea,4.0,4.0,0.0,5.0,1.0,0.0,1.0,2.0,1.0,0.0,2020-12-01,7-31-Bew-Aufenthalte-AIG-J-d-2020-12.xlsx,7-31,flow
141,Gabun,0.0,0.0,0.0,1.0,0.0,0.0,0.0,1.0,0.0,0.0,2020-12-01,7-31-Bew-Aufenthalte-AIG-J-d-2020-12.xlsx,7-31,flow
142,Gambia,48.0,42.0,6.0,50.0,1.0,6.0,6.0,24.0,2.0,11.0,2020-12-01,7-31-Bew-Aufenthalte-AIG-J-d-2020-12.xlsx,7-31,flow
143,Ghana,4.0,4.0,0.0,4.0,0.0,1.0,1.0,2.0,0.0,0.0,2020-12-01,7-31-Bew-Aufenthalte-AIG-J-d-2020-12.xlsx,7-31,flow
144,Guinea,49.0,40.0,9.0,46.0,1.0,8.0,11.0,10.0,7.0,9.0,2020-12-01,7-31-Bew-Aufenthalte-AIG-J-d-2020-12.xlsx,7-31,flow
145,Guinea-Bissau,13.0,12.0,1.0,13.0,1.0,6.0,3.0,1.0,0.0,2.0,2020-12-01,7-31-Bew-Aufenthalte-AIG-J-d-2020-12.xlsx,7-31,flow
146,Kamerun,8.0,7.0,1.0,7.0,0.0,3.0,0.0,1.0,0.0,3.0,2020-12-01,7-31-Bew-Aufenthalte-AIG-J-d-2020-12.xlsx,7-31,flow
147,Kapverden,0.0,0.0,0.0,2.0,0.0,0.0,0.0,0.0,2.0,0.0,2020-12-01,7-31-Bew-Aufenthalte-AIG-J-d-2020-12.xlsx,7-31,flow
148,Kenia,4.0,3.0,1.0,4.0,1.0,2.0,0.0,0.0,0.0,1.0,2020-12-01,7-31-Bew-Aufenthalte-AIG-J-d-2020-12.xlsx,7-31,flow
149,Kongo,1.0,1.0,0.0,1.0,0.0,0.0,0.0,0.0,0.0,1.0,2020-12-01,7-31-Bew-Aufenthalte-AIG-J-d-2020-12.xlsx,7-31,flow
150,Kongo DR,8.0,6.0,2.0,6.0,1.0,1.0,0.0,0.0,2.0,2.0,2020-12-01,7-31-Bew-Aufenthalte-AIG-J-d-2020-12.xlsx,7-31,flow
151,Liberia,3.0,3.0,0.0,2.0,0.0,0.0,0.0,1.0,1.0,0.0,2020-12-01,7-31-Bew-Aufenthalte-AIG-J-d-2020-12.xlsx,7-31,flow
152,Libyen,27.0,21.0,6.0,15.0,0.0,0.0,1.0,3.0,6.0,5.0,2020-12-01,7-31-Bew-Aufenthalte-AIG-J-d-2020-12.xlsx,7-31,flow
153,Malawi,1.0,1.0,0.0,0.0,0.0,0.0,0.0,0.0,0.0,0.0,2020-12-01,7-31-Bew-Aufenthalte-AIG-J-d-2020-12.xlsx,7-31,flow
154,Mali,6.0,5.0,1.0,5.0,0.0,1.0,0.0,2.0,1.0,1.0,2020-12-01,7-31-Bew-Aufenthalte-AIG-J-d-2020-12.xlsx,7-31,flow
155,Marokko,84.0,63.0,21.0,71.0,3.0,2.0,4.0,24.0,21.0,17.0,2020-12-01,7-31-Bew-Aufenthalte-AIG-J-d-2020-12.xlsx,7-31,flow
156,Mauretanien,2.0,2.0,0.0,1.0,0.0,0.0,1.0,0.0,0.0,0.0,2020-12-01,7-31-Bew-Aufenthalte-AIG-J-d-2020-12.xlsx,7-31,flow
157,Mauritius,3.0,2.0,1.0,2.0,2.0,0.0,0.0,0.0,0.0,0.0,2020-12-01,7-31-Bew-Aufenthalte-AIG-J-d-2020-12.xlsx,7-31,flow
158,Mosambik,1.0,1.0,0.0,1.0,0.0,0.0,0.0,0.0,0.0,1.0,2020-12-01,7-31-Bew-Aufenthalte-AIG-J-d-2020-12.xlsx,7-31,flow
159,Niger,3.0,3.0,0.0,2.0,0.0,0.0,0.0,1.0,0.0,1.0,2020-12-01,7-31-Bew-Aufenthalte-AIG-J-d-2020-12.xlsx,7-31,flow
160,Nigeria,122.0,99.0,23.0,120.0,1.0,16.0,33.0,26.0,6.0,38.0,2020-12-01,7-31-Bew-Aufenthalte-AIG-J-d-2020-12.xlsx,7-31,flow
161,Ruanda,1.0,1.0,0.0,1.0,0.0,0.0,0.0,1.0,0.0,0.0,2020-12-01,7-31-Bew-Aufenthalte-AIG-J-d-2020-12.xlsx,7-31,flow
162,Sambia,0.0,0.0,0.0,1.0,0.0,0.0,0.0,0.0,1.0,0.0,2020-12-01,7-31-Bew-Aufenthalte-AIG-J-d-2020-12.xlsx,7-31,flow
163,Senegal,17.0,15.0,2.0,16.0,0.0,3.0,4.0,3.0,3.0,3.0,2020-12-01,7-31-Bew-Aufenthalte-AIG-J-d-2020-12.xlsx,7-31,flow
164,Sierra Leone,3.0,3.0,0.0,5.0,0.0,0.0,2.0,1.0,2.0,0.0,2020-12-01,7-31-Bew-Aufenthalte-AIG-J-d-2020-12.xlsx,7-31,flow
165,Somalia,19.0,17.0,2.0,16.0,1.0,0.0,0.0,11.0,2.0,2.0,2020-12-01,7-31-Bew-Aufenthalte-AIG-J-d-2020-12.xlsx,7-31,flow
166,Sudan,5.0,4.0,1.0,3.0,0.0,0.0,0.0,2.0,0.0,1.0,2020-12-01,7-31-Bew-Aufenthalte-AIG-J-d-2020-12.xlsx,7-31,flow
167,Südsudan,2.0,2.0,0.0,0.0,0.0,0.0,0.0,0.0,0.0,0.0,2020-12-01,7-31-Bew-Aufenthalte-AIG-J-d-2020-12.xlsx,7-31,flow
168,Togo,3.0,3.0,0.0,2.0,2.0,0.0,0.0,0.0,0.0,0.0,2020-12-01,7-31-Bew-Aufenthalte-AIG-J-d-2020-12.xlsx,7-31,flow
169,Tschad,3.0,2.0,1.0,2.0,0.0,0.0,0.0,0.0,0.0,2.0,2020-12-01,7-31-Bew-Aufenthalte-AIG-J-d-2020-12.xlsx,7-31,flow
170,Tunesien,57.0,43.0,14.0,59.0,3.0,18.0,1.0,8.0,18.0,11.0,2020-12-01,7-31-Bew-Aufenthalte-AIG-J-d-2020-12.xlsx,7-31,flow
171,Uganda,2.0,2.0,0.0,1.0,1.0,0.0,0.0,0.0,0.0,0.0,2020-12-01,7-31-Bew-Aufenthalte-AIG-J-d-2020-12.xlsx,7-31,flow
172,Total Afrika,670.0,526.0,144.0,666.0,25.0,78.0,72.0,161.0,184.0,146.0,2020-12-01,7-31-Bew-Aufenthalte-AIG-J-d-2020-12.xlsx,7-31,flow
173,Argentinien,5.0,4.0,1.0,5.0,2.0,0.0,0.0,0.0,0.0,3.0,2020-12-01,7-31-Bew-Aufenthalte-AIG-J-d-2020-12.xlsx,7-31,flow
174,Bolivien,5.0,4.0,1.0,6.0,1.0,1.0,0.0,0.0,0.0,4.0,2020-12-01,7-31-Bew-Aufenthalte-AIG-J-d-2020-12.xlsx,7-31,flow
175,Brasilien,87.0,82.0,5.0,84.0,41.0,24.0,1.0,0.0,1.0,17.0,2020-12-01,7-31-Bew-Aufenthalte-AIG-J-d-2020-12.xlsx,7-31,flow
176,Chile,15.0,13.0,2.0,18.0,3.0,9.0,1.0,0.0,0.0,5.0,2020-12-01,7-31-Bew-Aufenthalte-AIG-J-d-2020-12.xlsx,7-31,flow
177,Dominikanische Republik,25.0,21.0,4.0,23.0,0.0,11.0,5.0,0.0,0.0,7.0,2020-12-01,7-31-Bew-Aufenthalte-AIG-J-d-2020-12.xlsx,7-31,flow
178,Ecuador,6.0,6.0,0.0,5.0,2.0,1.0,1.0,0.0,0.0,1.0,2020-12-01,7-31-Bew-Aufenthalte-AIG-J-d-2020-12.xlsx,7-31,flow
179,Honduras,2.0,2.0,0.0,3.0,0.0,0.0,0.0,0.0,1.0,2.0,2020-12-01,7-31-Bew-Aufenthalte-AIG-J-d-2020-12.xlsx,7-31,flow
180,Jamaika,0.0,0.0,0.0,4.0,1.0,1.0,0.0,0.0,0.0,2.0,2020-12-01,7-31-Bew-Aufenthalte-AIG-J-d-2020-12.xlsx,7-31,flow
181,Kanada,3.0,3.0,0.0,3.0,2.0,0.0,0.0,0.0,0.0,1.0,2020-12-01,7-31-Bew-Aufenthalte-AIG-J-d-2020-12.xlsx,7-31,flow
182,Kolumbien,38.0,35.0,3.0,38.0,16.0,13.0,2.0,0.0,1.0,6.0,2020-12-01,7-31-Bew-Aufenthalte-AIG-J-d-2020-12.xlsx,7-31,flow
183,Kuba,2.0,1.0,1.0,3.0,0.0,0.0,0.0,0.0,3.0,0.0,2020-12-01,7-31-Bew-Aufenthalte-AIG-J-d-2020-12.xlsx,7-31,flow
184,Mexiko,5.0,4.0,1.0,5.0,0.0,2.0,0.0,0.0,0.0,3.0,2020-12-01,7-31-Bew-Aufenthalte-AIG-J-d-2020-12.xlsx,7-31,flow
185,Paraguay,4.0,4.0,0.0,4.0,3.0,0.0,0.0,0.0,0.0,1.0,2020-12-01,7-31-Bew-Aufenthalte-AIG-J-d-2020-12.xlsx,7-31,flow
186,Peru,8.0,8.0,0.0,6.0,2.0,2.0,1.0,0.0,0.0,1.0,2020-12-01,7-31-Bew-Aufenthalte-AIG-J-d-2020-12.xlsx,7-31,flow
187,Uruguay,0.0,0.0,0.0,1.0,0.0,1.0,0.0,0.0,0.0,0.0,2020-12-01,7-31-Bew-Aufenthalte-AIG-J-d-2020-12.xlsx,7-31,flow
188,USA,9.0,8.0,1.0,8.0,0.0,6.0,0.0,1.0,0.0,1.0,2020-12-01,7-31-Bew-Aufenthalte-AIG-J-d-2020-12.xlsx,7-31,flow
189,Venezuela,10.0,8.0,2.0,8.0,3.0,2.0,0.0,0.0,1.0,2.0,2020-12-01,7-31-Bew-Aufenthalte-AIG-J-d-2020-12.xlsx,7-31,flow
190,Total Amerika,224.0,203.0,21.0,224.0,76.0,73.0,11.0,1.0,7.0,56.0,2020-12-01,7-31-Bew-Aufenthalte-AIG-J-d-2020-12.xlsx,7-31,flow
191,Afghanistan,10.0,10.0,0.0,9.0,1.0,0.0,1.0,7.0,0.0,0.0,2020-12-01,7-31-Bew-Aufenthalte-AIG-J-d-2020-12.xlsx,7-31,flow
192,Armenien,1.0,1.0,0.0,1.0,0.0,0.0,0.0,0.0,0.0,1.0,2020-12-01,7-31-Bew-Aufenthalte-AIG-J-d-2020-12.xlsx,7-31,flow
193,Aserbaidschan,1.0,1.0,0.0,2.0,0.0,0.0,0.0,2.0,0.0,0.0,2020-12-01,7-31-Bew-Aufenthalte-AIG-J-d-2020-12.xlsx,7-31,flow
194,Bangladesh,4.0,4.0,0.0,3.0,0.0,0.0,0.0,3.0,0.0,0.0,2020-12-01,7-31-Bew-Aufenthalte-AIG-J-d-2020-12.xlsx,7-31,flow
195,China (Volksrepublik),15.0,14.0,1.0,18.0,3.0,6.0,2.0,0.0,2.0,5.0,2020-12-01,7-31-Bew-Aufenthalte-AIG-J-d-2020-12.xlsx,7-31,flow
196,Georgien,51.0,41.0,10.0,47.0,3.0,23.0,1.0,3.0,1.0,16.0,2020-12-01,7-31-Bew-Aufenthalte-AIG-J-d-2020-12.xlsx,7-31,flow
197,Indien,13.0,10.0,3.0,12.0,3.0,2.0,0.0,2.0,0.0,5.0,2020-12-01,7-31-Bew-Aufenthalte-AIG-J-d-2020-12.xlsx,7-31,flow
198,Irak,39.0,24.0,15.0,38.0,15.0,0.0,0.0,3.0,3.0,17.0,2020-12-01,7-31-Bew-Aufenthalte-AIG-J-d-2020-12.xlsx,7-31,flow
199,Iran,1.0,1.0,0.0,2.0,0.0,0.0,0.0,0.0,0.0,2.0,2020-12-01,7-31-Bew-Aufenthalte-AIG-J-d-2020-12.xlsx,7-31,flow
200,Israel,4.0,3.0,1.0,4.0,0.0,3.0,0.0,0.0,0.0,1.0,2020-12-01,7-31-Bew-Aufenthalte-AIG-J-d-2020-12.xlsx,7-31,flow
201,Jordanien,1.0,1.0,0.0,2.0,0.0,1.0,0.0,1.0,0.0,0.0,2020-12-01,7-31-Bew-Aufenthalte-AIG-J-d-2020-12.xlsx,7-31,flow
202,Kambodscha,1.0,0.0,1.0,1.0,0.0,0.0,0.0,0.0,0.0,1.0,2020-12-01,7-31-Bew-Aufenthalte-AIG-J-d-2020-12.xlsx,7-31,flow
203,Kasachstan,2.0,2.0,0.0,2.0,0.0,1.0,0.0,0.0,0.0,1.0,2020-12-01,7-31-Bew-Aufenthalte-AIG-J-d-2020-12.xlsx,7-31,flow
204,Malaysia,1.0,1.0,0.0,1.0,1.0,0.0,0.0,0.0,0.0,0.0,2020-12-01,7-31-Bew-Aufenthalte-AIG-J-d-2020-12.xlsx,7-31,flow
205,Mongolei,6.0,5.0,1.0,6.0,4.0,0.0,0.0,1.0,1.0,0.0,2020-12-01,7-31-Bew-Aufenthalte-AIG-J-d-2020-12.xlsx,7-31,flow
206,Nepal,0.0,0.0,0.0,1.0,0.0,1.0,0.0,0.0,0.0,0.0,2020-12-01,7-31-Bew-Aufenthalte-AIG-J-d-2020-12.xlsx,7-31,flow
207,Oman,1.0,1.0,0.0,1.0,0.0,1.0,0.0,0.0,0.0,0.0,2020-12-01,7-31-Bew-Aufenthalte-AIG-J-d-2020-12.xlsx,7-31,flow
208,Pakistan,10.0,8.0,2.0,11.0,1.0,1.0,1.0,3.0,0.0,5.0,2020-12-01,7-31-Bew-Aufenthalte-AIG-J-d-2020-12.xlsx,7-31,flow
209,Philippinen,6.0,6.0,0.0,6.0,5.0,1.0,0.0,0.0,0.0,0.0,2020-12-01,7-31-Bew-Aufenthalte-AIG-J-d-2020-12.xlsx,7-31,flow
210,Sri Lanka,14.0,12.0,2.0,11.0,0.0,2.0,0.0,0.0,0.0,9.0,2020-12-01,7-31-Bew-Aufenthalte-AIG-J-d-2020-12.xlsx,7-31,flow
211,Syrien,6.0,6.0,0.0,6.0,0.0,0.0,0.0,0.0,1.0,5.0,2020-12-01,7-31-Bew-Aufenthalte-AIG-J-d-2020-12.xlsx,7-31,flow
212,Thailand,9.0,7.0,2.0,8.0,0.0,5.0,0.0,0.0,0.0,3.0,2020-12-01,7-31-Bew-Aufenthalte-AIG-J-d-2020-12.xlsx,7-31,flow
213,Vietnam,1.0,1.0,0.0,1.0,0.0,1.0,0.0,0.0,0.0,0.0,2020-12-01,7-31-Bew-Aufenthalte-AIG-J-d-2020-12.xlsx,7-31,flow
214,Total Asien,197.0,159.0,38.0,193.0,36.0,48.0,5.0,25.0,8.0,71.0,2020-12-01,7-31-Bew-Aufenthalte-AIG-J-d-2020-12.xlsx,7-31,flow
215,Albanien,440.0,411.0,29.0,443.0,32.0,298.0,1.0,4.0,1.0,107.0,2020-12-01,7-31-Bew-Aufenthalte-AIG-J-d-2020-12.xlsx,7-31,flow
216,Belarus,9.0,8.0,1.0,9.0,0.0,4.0,0.0,0.0,1.0,4.0,2020-12-01,7-31-Bew-Aufenthalte-AIG-J-d-2020-12.xlsx,7-31,flow
217,Belgien,7.0,6.0,1.0,7.0,0.0,4.0,0.0,0.0,0.0,3.0,2020-12-01,7-31-Bew-Aufenthalte-AIG-J-d-2020-12.xlsx,7-31,flow
218,Bosnien u. Herzegowina,24.0,23.0,1.0,25.0,0.0,18.0,0.0,0.0,0.0,7.0,2020-12-01,7-31-Bew-Aufenthalte-AIG-J-d-2020-12.xlsx,7-31,flow
219,Bulgarien,21.0,20.0,1.0,17.0,2.0,11.0,0.0,0.0,1.0,3.0,2020-12-01,7-31-Bew-Aufenthalte-AIG-J-d-2020-12.xlsx,7-31,flow
220,Deutschland,2.0,2.0,0.0,1.0,0.0,1.0,0.0,0.0,0.0,0.0,2020-12-01,7-31-Bew-Aufenthalte-AIG-J-d-2020-12.xlsx,7-31,flow
221,Estland,2.0,2.0,0.0,2.0,0.0,1.0,0.0,0.0,0.0,1.0,2020-12-01,7-31-Bew-Aufenthalte-AIG-J-d-2020-12.xlsx,7-31,flow
222,Frankreich,10.0,10.0,0.0,8.0,0.0,5.0,0.0,0.0,0.0,3.0,2020-12-01,7-31-Bew-Aufenthalte-AIG-J-d-2020-12.xlsx,7-31,flow
223,Griechenland,6.0,5.0,1.0,6.0,1.0,2.0,0.0,0.0,0.0,3.0,2020-12-01,7-31-Bew-Aufenthalte-AIG-J-d-2020-12.xlsx,7-31,flow
224,Grossbritannien,5.0,5.0,0.0,5.0,1.0,4.0,0.0,0.0,0.0,0.0,2020-12-01,7-31-Bew-Aufenthalte-AIG-J-d-2020-12.xlsx,7-31,flow
225,Irland,1.0,1.0,0.0,1.0,1.0,0.0,0.0,0.0,0.0,0.0,2020-12-01,7-31-Bew-Aufenthalte-AIG-J-d-2020-12.xlsx,7-31,flow
226,Italien,27.0,23.0,4.0,30.0,2.0,15.0,0.0,0.0,1.0,12.0,2020-12-01,7-31-Bew-Aufenthalte-AIG-J-d-2020-12.xlsx,7-31,flow
227,Kosovo,155.0,141.0,14.0,176.0,4.0,126.0,2.0,4.0,6.0,34.0,2020-12-01,7-31-Bew-Aufenthalte-AIG-J-d-2020-12.xlsx,7-31,flow
228,Kroatien,16.0,13.0,3.0,18.0,0.0,13.0,0.0,0.0,0.0,5.0,2020-12-01,7-31-Bew-Aufenthalte-AIG-J-d-2020-12.xlsx,7-31,flow
229,Lettland,4.0,3.0,1.0,4.0,0.0,2.0,0.0,0.0,0.0,2.0,2020-12-01,7-31-Bew-Aufenthalte-AIG-J-d-2020-12.xlsx,7-31,flow
230,Litauen,14.0,12.0,2.0,15.0,0.0,11.0,0.0,0.0,0.0,4.0,2020-12-01,7-31-Bew-Aufenthalte-AIG-J-d-2020-12.xlsx,7-31,flow
231,Nordmazedonien,78.0,72.0,6.0,73.0,0.0,61.0,0.0,0.0,1.0,11.0,2020-12-01,7-31-Bew-Aufenthalte-AIG-J-d-2020-12.xlsx,7-31,flow
232,Moldova,17.0,14.0,3.0,16.0,2.0,8.0,0.0,0.0,1.0,5.0,2020-12-01,7-31-Bew-Aufenthalte-AIG-J-d-2020-12.xlsx,7-31,flow
233,Montenegro,2.0,2.0,0.0,2.0,1.0,1.0,0.0,0.0,0.0,0.0,2020-12-01,7-31-Bew-Aufenthalte-AIG-J-d-2020-12.xlsx,7-31,flow
234,Niederlande,6.0,6.0,0.0,6.0,0.0,5.0,1.0,0.0,0.0,0.0,2020-12-01,7-31-Bew-Aufenthalte-AIG-J-d-2020-12.xlsx,7-31,flow
235,Österreich,1.0,1.0,0.0,1.0,0.0,1.0,0.0,0.0,0.0,0.0,2020-12-01,7-31-Bew-Aufenthalte-AIG-J-d-2020-12.xlsx,7-31,flow
236,Polen,30.0,26.0,4.0,31.0,1.0,20.0,0.0,0.0,0.0,10.0,2020-12-01,7-31-Bew-Aufenthalte-AIG-J-d-2020-12.xlsx,7-31,flow
237,Portugal,76.0,66.0,10.0,78.0,10.0,54.0,0.0,0.0,0.0,14.0,2020-12-01,7-31-Bew-Aufenthalte-AIG-J-d-2020-12.xlsx,7-31,flow
238,Rumänien,281.0,252.0,29.0,285.0,73.0,132.0,1.0,0.0,0.0,79.0,2020-12-01,7-31-Bew-Aufenthalte-AIG-J-d-2020-12.xlsx,7-31,flow
239,Russland,7.0,7.0,0.0,8.0,0.0,5.0,0.0,0.0,2.0,1.0,2020-12-01,7-31-Bew-Aufenthalte-AIG-J-d-2020-12.xlsx,7-31,flow
240,Serbien,190.0,177.0,13.0,185.0,3.0,121.0,1.0,1.0,6.0,53.0,2020-12-01,7-31-Bew-Aufenthalte-AIG-J-d-2020-12.xlsx,7-31,flow
241,Slowakische Republik,16.0,13.0,3.0,16.0,2.0,4.0,0.0,0.0,0.0,10.0,2020-12-01,7-31-Bew-Aufenthalte-AIG-J-d-2020-12.xlsx,7-31,flow
242,Slowenien,1.0,1.0,0.0,1.0,0.0,1.0,0.0,0.0,0.0,0.0,2020-12-01,7-31-Bew-Aufenthalte-AIG-J-d-2020-12.xlsx,7-31,flow
243,Spanien,26.0,26.0,0.0,27.0,7.0,15.0,1.0,0.0,0.0,4.0,2020-12-01,7-31-Bew-Aufenthalte-AIG-J-d-2020-12.xlsx,7-31,flow
244,Tschechische Republik,6.0,6.0,0.0,6.0,0.0,6.0,0.0,0.0,0.0,0.0,2020-12-01,7-31-Bew-Aufenthalte-AIG-J-d-2020-12.xlsx,7-31,flow
245,Türkei,44.0,36.0,8.0,45.0,6.0,24.0,2.0,0.0,4.0,9.0,2020-12-01,7-31-Bew-Aufenthalte-AIG-J-d-2020-12.xlsx,7-31,flow
246,Ukraine,12.0,12.0,0.0,12.0,0.0,7.0,0.0,1.0,0.0,4.0,2020-12-01,7-31-Bew-Aufenthalte-AIG-J-d-2020-12.xlsx,7-31,flow
247,Ungarn,14.0,10.0,4.0,14.0,2.0,4.0,1.0,0.0,0.0,7.0,2020-12-01,7-31-Bew-Aufenthalte-AIG-J-d-2020-12.xlsx,7-31,flow
248,Total Europa,1550.0,1412.0,138.0,1573.0,150.0,984.0,10.0,10.0,24.0,395.0,2020-12-01,7-31-Bew-Aufenthalte-AIG-J-d-2020-12.xlsx,7-31,flow
249,Australien,1.0,0.0,1.0,1.0,0.0,1.0,0.0,0.0,0.0,0.0,2020-12-01,7-31-Bew-Aufenthalte-AIG-J-d-2020-12.xlsx,7-31,flow
250,Total Ozeanien,1.0,0.0,1.0,1.0,0.0,1.0,0.0,0.0,0.0,0.0,2020-12-01,7-31-Bew-Aufenthalte-AIG-J-d-2020-12.xlsx,7-31,flow
251,Staatenlos,1.0,1.0,0.0,1.0,0.0,0.0,1.0,0.0,0.0,0.0,2020-12-01,7-31-Bew-Aufenthalte-AIG-J-d-2020-12.xlsx,7-31,flow
252,Ohne Nationalität,7.0,5.0,2.0,8.0,0.0,0.0,0.0,2.0,6.0,0.0,2020-12-01,7-31-Bew-Aufenthalte-AIG-J-d-2020-12.xlsx,7-31,flow
253,Staat unbekannt,10.0,7.0,3.0,13.0,1.0,1.0,2.0,3.0,5.0,1.0,2020-12-01,7-31-Bew-Aufenthalte-AIG-J-d-2020-12.xlsx,7-31,flow
254,Total Herkunft unbek.,18.0,13.0,5.0,22.0,1.0,1.0,3.0,5.0,11.0,1.0,2020-12-01,7-31-Bew-Aufenthalte-AIG-J-d-2020-12.xlsx,7-31,flow
