,Nation,Total,Beginn,WiederaufnahmenAufenthalt,Total ,"Kontrollierte, selbständige Ausreisen",Rückführungen Heimatstaat,Rückführungen Drittstaat,RückführungenDublinstaat,Unkontrollierte Abreisen,Andere Abgänge ,,.1,.2,.3,Datum,file_name
0,Ägypten,4.0,4.0,0.0,6.0,0.0,0.0,0.0,4.0,2.0,0.0,,,,,2019-12-01,7-31-Bew-Aufenthalte-AIG-J-d-2020-12.xlsx
1,Algerien,179.0,127.0,52.0,166.0,3.0,13.0,9.0,58.0,56.0,27.0,,,,,2019-12-01,7-31-Bew-Aufenthalte-AIG-J-d-2020-12.xlsx
2,Angola,3.0,3.0,0.0,3.0,0.0,1.0,0.0,1.0,0.0,1.0,,,,,2019-12-01,7-31-Bew-Aufenthalte-AIG-J-d-2020-12.xlsx
3,Äquatorialguinea,1.0,1.0,0.0,2.0,0.0,0.0,0.0,0.0,1.0,1.0,,,,,2019-12-01,7-31-Bew-Aufenthalte-AIG-J-d-2020-12.xlsx
4,Äthiopien,10.0,6.0,4.0,10.0,1.0,0.0,0.0,5.0,2.0,2.0,,,,,2019-12-01,7-31-Bew-Aufenthalte-AIG-J-d-2020-12.xlsx
5,Benin,3.0,3.0,0.0,1.0,0.0,0.0,0.0,0.0,0.0,1.0,,,,,2019-12-01,7-31-Bew-Aufenthalte-AIG-J-d-2020-12.xlsx
6,Burkina Faso,2.0,2.0,0.0,1.0,0.0,1.0,0.0,0.0,0.0,0.0,,,,,2019-12-01,7-31-Bew-Aufenthalte-AIG-J-d-2020-12.xlsx
7,Burundi,1.0,1.0,0.0,0.0,0.0,0.0,0.0,0.0,0.0,0.0,,,,,2019-12-01,7-31-Bew-Aufenthalte-AIG-J-d-2020-12.xlsx
8,Côte d'Ivoire,9.0,8.0,1.0,9.0,0.0,0.0,2.0,3.0,3.0,1.0,,,,,2019-12-01,7-31-Bew-Aufenthalte-AIG-J-d-2020-12.xlsx
9,Dschibuti,1.0,1.0,0.0,0.0,0.0,0.0,0.0,0.0,0.0,0.0,,,,,2019-12-01,7-31-Bew-Aufenthalte-AIG-J-d-2020-12.xlsx
10,Eritrea,9.0,9.0,0.0,5.0,1.0,0.0,0.0,4.0,0.0,0.0,,,,,2019-12-01,7-31-Bew-Aufenthalte-AIG-J-d-2020-12.xlsx
11,Gabun,4.0,4.0,0.0,1.0,0.0,0.0,0.0,0.0,0.0,1.0,,,,,2019-12-01,7-31-Bew-Aufenthalte-AIG-J-d-2020-12.xlsx
12,Gambia,85.0,79.0,6.0,77.0,1.0,5.0,7.0,56.0,4.0,4.0,,,,,2019-12-01,7-31-Bew-Aufenthalte-AIG-J-d-2020-12.xlsx
13,Ghana,11.0,11.0,0.0,10.0,0.0,0.0,2.0,7.0,0.0,1.0,,,,,2019-12-01,7-31-Bew-Aufenthalte-AIG-J-d-2020-12.xlsx
14,Guinea,93.0,84.0,9.0,88.0,0.0,23.0,11.0,36.0,8.0,10.0,,,,,2019-12-01,7-31-Bew-Aufenthalte-AIG-J-d-2020-12.xlsx
15,Guinea-Bissau,22.0,20.0,2.0,21.0,0.0,7.0,4.0,5.0,0.0,5.0,,,,,2019-12-01,7-31-Bew-Aufenthalte-AIG-J-d-2020-12.xlsx
16,Kamerun,15.0,12.0,3.0,19.0,1.0,4.0,0.0,4.0,6.0,4.0,,,,,2019-12-01,7-31-Bew-Aufenthalte-AIG-J-d-2020-12.xlsx
17,Kapverden,2.0,2.0,0.0,4.0,2.0,0.0,0.0,0.0,2.0,0.0,,,,,2019-12-01,7-31-Bew-Aufenthalte-AIG-J-d-2020-12.xlsx
18,Kenia,3.0,3.0,0.0,5.0,1.0,0.0,0.0,1.0,2.0,1.0,,,,,2019-12-01,7-31-Bew-Aufenthalte-AIG-J-d-2020-12.xlsx
19,Kongo DR,4.0,3.0,1.0,9.0,0.0,1.0,0.0,0.0,5.0,3.0,,,,,2019-12-01,7-31-Bew-Aufenthalte-AIG-J-d-2020-12.xlsx
20,Liberia,1.0,1.0,0.0,1.0,0.0,0.0,0.0,0.0,1.0,0.0,,,,,2019-12-01,7-31-Bew-Aufenthalte-AIG-J-d-2020-12.xlsx
21,Libyen,18.0,15.0,3.0,16.0,2.0,0.0,0.0,8.0,4.0,2.0,,,,,2019-12-01,7-31-Bew-Aufenthalte-AIG-J-d-2020-12.xlsx
22,Mali,17.0,17.0,0.0,16.0,1.0,0.0,2.0,13.0,0.0,0.0,,,,,2019-12-01,7-31-Bew-Aufenthalte-AIG-J-d-2020-12.xlsx
23,Marokko,87.0,72.0,15.0,82.0,5.0,10.0,4.0,33.0,25.0,5.0,,,,,2019-12-01,7-31-Bew-Aufenthalte-AIG-J-d-2020-12.xlsx
24,Mauretanien,3.0,3.0,0.0,3.0,0.0,0.0,2.0,1.0,0.0,0.0,,,,,2019-12-01,7-31-Bew-Aufenthalte-AIG-J-d-2020-12.xlsx
25,Mauritius,2.0,2.0,0.0,3.0,2.0,1.0,0.0,0.0,0.0,0.0,,,,,2019-12-01,7-31-Bew-Aufenthalte-AIG-J-d-2020-12.xlsx
26,Niger,1.0,1.0,0.0,1.0,0.0,0.0,0.0,1.0,0.0,0.0,,,,,2019-12-01,7-31-Bew-Aufenthalte-AIG-J-d-2020-12.xlsx
27,Nigeria,240.0,225.0,15.0,235.0,0.0,46.0,42.0,123.0,0.0,24.0,,,,,2019-12-01,7-31-Bew-Aufenthalte-AIG-J-d-2020-12.xlsx
28,Senegal,30.0,25.0,5.0,28.0,3.0,4.0,2.0,13.0,2.0,4.0,,,,,2019-12-01,7-31-Bew-Aufenthalte-AIG-J-d-2020-12.xlsx
29,Sierra Leone,6.0,4.0,2.0,3.0,0.0,0.0,0.0,2.0,1.0,0.0,,,,,2019-12-01,7-31-Bew-Aufenthalte-AIG-J-d-2020-12.xlsx
30,Somalia,19.0,15.0,4.0,16.0,0.0,0.0,0.0,10.0,3.0,3.0,,,,,2019-12-01,7-31-Bew-Aufenthalte-AIG-J-d-2020-12.xlsx
31,Südafrika,4.0,4.0,0.0,4.0,0.0,1.0,0.0,3.0,0.0,0.0,,,,,2019-12-01,7-31-Bew-Aufenthalte-AIG-J-d-2020-12.xlsx
32,Sudan,6.0,5.0,1.0,7.0,0.0,3.0,0.0,2.0,1.0,1.0,,,,,2019-12-01,7-31-Bew-Aufenthalte-AIG-J-d-2020-12.xlsx
33,Südsudan,1.0,0.0,1.0,1.0,0.0,0.0,0.0,0.0,0.0,1.0,,,,,2019-12-01,7-31-Bew-Aufenthalte-AIG-J-d-2020-12.xlsx
34,Tansania,2.0,2.0,0.0,2.0,0.0,1.0,1.0,0.0,0.0,0.0,,,,,2019-12-01,7-31-Bew-Aufenthalte-AIG-J-d-2020-12.xlsx
35,Togo,1.0,1.0,0.0,1.0,0.0,0.0,0.0,1.0,0.0,0.0,,,,,2019-12-01,7-31-Bew-Aufenthalte-AIG-J-d-2020-12.xlsx
36,Tschad,2.0,1.0,1.0,1.0,0.0,0.0,0.0,0.0,1.0,0.0,,,,,2019-12-01,7-31-Bew-Aufenthalte-AIG-J-d-2020-12.xlsx
37,Tunesien,64.0,50.0,14.0,61.0,2.0,21.0,0.0,14.0,15.0,9.0,,,,,2019-12-01,7-31-Bew-Aufenthalte-AIG-J-d-2020-12.xlsx
38,Uganda,1.0,0.0,1.0,0.0,0.0,0.0,0.0,0.0,0.0,0.0,,,,,2019-12-01,7-31-Bew-Aufenthalte-AIG-J-d-2020-12.xlsx
39,Westsahara,1.0,1.0,0.0,0.0,0.0,0.0,0.0,0.0,0.0,0.0,,,,,2019-12-01,7-31-Bew-Aufenthalte-AIG-J-d-2020-12.xlsx
40,Zimbabwe,2.0,2.0,0.0,0.0,0.0,0.0,0.0,0.0,0.0,0.0,,,,,2019-12-01,7-31-Bew-Aufenthalte-AIG-J-d-2020-12.xlsx
41,Argentinien,8.0,8.0,0.0,8.0,3.0,3.0,0.0,0.0,0.0,2.0,,,,,2019-12-01,7-31-Bew-Aufenthalte-AIG-J-d-2020-12.xlsx
42,Bolivien,7.0,6.0,1.0,7.0,4.0,2.0,0.0,0.0,0.0,1.0,,,,,2019-12-01,7-31-Bew-Aufenthalte-AIG-J-d-2020-12.xlsx
43,Brasilien,112.0,106.0,6.0,110.0,33.0,61.0,1.0,0.0,2.0,13.0,,,,,2019-12-01,7-31-Bew-Aufenthalte-AIG-J-d-2020-12.xlsx
44,Chile,15.0,15.0,0.0,13.0,6.0,6.0,1.0,0.0,0.0,0.0,,,,,2019-12-01,7-31-Bew-Aufenthalte-AIG-J-d-2020-12.xlsx
45,Costa Rica,1.0,1.0,0.0,1.0,0.0,1.0,0.0,0.0,0.0,0.0,,,,,2019-12-01,7-31-Bew-Aufenthalte-AIG-J-d-2020-12.xlsx
46,Dominikanische Republik,46.0,42.0,4.0,47.0,4.0,20.0,14.0,1.0,4.0,4.0,,,,,2019-12-01,7-31-Bew-Aufenthalte-AIG-J-d-2020-12.xlsx
47,Ecuador,5.0,5.0,0.0,5.0,3.0,1.0,1.0,0.0,0.0,0.0,,,,,2019-12-01,7-31-Bew-Aufenthalte-AIG-J-d-2020-12.xlsx
48,El Salvador,1.0,1.0,0.0,1.0,0.0,1.0,0.0,0.0,0.0,0.0,,,,,2019-12-01,7-31-Bew-Aufenthalte-AIG-J-d-2020-12.xlsx
49,Haiti,3.0,2.0,1.0,3.0,0.0,2.0,0.0,0.0,0.0,1.0,,,,,2019-12-01,7-31-Bew-Aufenthalte-AIG-J-d-2020-12.xlsx
50,Honduras,4.0,3.0,1.0,3.0,3.0,0.0,0.0,0.0,0.0,0.0,,,,,2019-12-01,7-31-Bew-Aufenthalte-AIG-J-d-2020-12.xlsx
51,Jamaika,3.0,3.0,0.0,2.0,0.0,0.0,0.0,0.0,0.0,2.0,,,,,2019-12-01,7-31-Bew-Aufenthalte-AIG-J-d-2020-12.xlsx
52,Kanada,1.0,1.0,0.0,1.0,0.0,1.0,0.0,0.0,0.0,0.0,,,,,2019-12-01,7-31-Bew-Aufenthalte-AIG-J-d-2020-12.xlsx
53,Kolumbien,53.0,49.0,4.0,53.0,16.0,24.0,1.0,0.0,0.0,12.0,,,,,2019-12-01,7-31-Bew-Aufenthalte-AIG-J-d-2020-12.xlsx
54,Kuba,6.0,6.0,0.0,4.0,2.0,0.0,1.0,0.0,0.0,1.0,,,,,2019-12-01,7-31-Bew-Aufenthalte-AIG-J-d-2020-12.xlsx
55,Mexiko,7.0,7.0,0.0,7.0,2.0,5.0,0.0,0.0,0.0,0.0,,,,,2019-12-01,7-31-Bew-Aufenthalte-AIG-J-d-2020-12.xlsx
56,Nicaragua,3.0,3.0,0.0,3.0,1.0,1.0,0.0,0.0,0.0,1.0,,,,,2019-12-01,7-31-Bew-Aufenthalte-AIG-J-d-2020-12.xlsx
57,Paraguay,7.0,5.0,2.0,7.0,4.0,3.0,0.0,0.0,0.0,0.0,,,,,2019-12-01,7-31-Bew-Aufenthalte-AIG-J-d-2020-12.xlsx
58,Peru,18.0,17.0,1.0,18.0,6.0,9.0,1.0,0.0,0.0,2.0,,,,,2019-12-01,7-31-Bew-Aufenthalte-AIG-J-d-2020-12.xlsx
59,Uruguay,3.0,3.0,0.0,2.0,1.0,1.0,0.0,0.0,0.0,0.0,,,,,2019-12-01,7-31-Bew-Aufenthalte-AIG-J-d-2020-12.xlsx
60,USA,11.0,9.0,2.0,11.0,0.0,8.0,0.0,0.0,0.0,3.0,,,,,2019-12-01,7-31-Bew-Aufenthalte-AIG-J-d-2020-12.xlsx
61,Venezuela,9.0,8.0,1.0,9.0,1.0,3.0,1.0,0.0,0.0,4.0,,,,,2019-12-01,7-31-Bew-Aufenthalte-AIG-J-d-2020-12.xlsx
62,Afghanistan,16.0,12.0,4.0,16.0,0.0,1.0,1.0,10.0,0.0,4.0,,,,,2019-12-01,7-31-Bew-Aufenthalte-AIG-J-d-2020-12.xlsx
63,Armenien,3.0,3.0,0.0,4.0,1.0,0.0,0.0,2.0,1.0,0.0,,,,,2019-12-01,7-31-Bew-Aufenthalte-AIG-J-d-2020-12.xlsx
64,Aserbaidschan,1.0,1.0,0.0,1.0,0.0,0.0,0.0,0.0,0.0,1.0,,,,,2019-12-01,7-31-Bew-Aufenthalte-AIG-J-d-2020-12.xlsx
65,Bangladesh,5.0,4.0,1.0,5.0,1.0,1.0,0.0,1.0,0.0,2.0,,,,,2019-12-01,7-31-Bew-Aufenthalte-AIG-J-d-2020-12.xlsx
66,China (Volksrepublik),19.0,16.0,3.0,13.0,0.0,5.0,5.0,0.0,1.0,2.0,,,,,2019-12-01,7-31-Bew-Aufenthalte-AIG-J-d-2020-12.xlsx
67,Georgien,103.0,96.0,7.0,101.0,0.0,70.0,1.0,12.0,3.0,15.0,,,,,2019-12-01,7-31-Bew-Aufenthalte-AIG-J-d-2020-12.xlsx
68,Indien,10.0,10.0,0.0,11.0,1.0,5.0,0.0,4.0,0.0,1.0,,,,,2019-12-01,7-31-Bew-Aufenthalte-AIG-J-d-2020-12.xlsx
69,Irak,24.0,23.0,1.0,28.0,7.0,0.0,0.0,8.0,9.0,4.0,,,,,2019-12-01,7-31-Bew-Aufenthalte-AIG-J-d-2020-12.xlsx
70,Iran,8.0,8.0,0.0,7.0,2.0,1.0,0.0,4.0,0.0,0.0,,,,,2019-12-01,7-31-Bew-Aufenthalte-AIG-J-d-2020-12.xlsx
71,Israel,8.0,8.0,0.0,7.0,0.0,6.0,0.0,1.0,0.0,0.0,,,,,2019-12-01,7-31-Bew-Aufenthalte-AIG-J-d-2020-12.xlsx
72,Jordanien,4.0,4.0,0.0,5.0,2.0,2.0,0.0,0.0,0.0,1.0,,,,,2019-12-01,7-31-Bew-Aufenthalte-AIG-J-d-2020-12.xlsx
73,Kambodscha,1.0,1.0,0.0,1.0,0.0,0.0,0.0,0.0,1.0,0.0,,,,,2019-12-01,7-31-Bew-Aufenthalte-AIG-J-d-2020-12.xlsx
74,Kasachstan,2.0,2.0,0.0,2.0,0.0,2.0,0.0,0.0,0.0,0.0,,,,,2019-12-01,7-31-Bew-Aufenthalte-AIG-J-d-2020-12.xlsx
75,Korea (Süd),2.0,2.0,0.0,2.0,0.0,2.0,0.0,0.0,0.0,0.0,,,,,2019-12-01,7-31-Bew-Aufenthalte-AIG-J-d-2020-12.xlsx
76,Libanon,10.0,9.0,1.0,11.0,1.0,2.0,0.0,4.0,3.0,1.0,,,,,2019-12-01,7-31-Bew-Aufenthalte-AIG-J-d-2020-12.xlsx
77,Malaysia,1.0,1.0,0.0,1.0,1.0,0.0,0.0,0.0,0.0,0.0,,,,,2019-12-01,7-31-Bew-Aufenthalte-AIG-J-d-2020-12.xlsx
78,Mongolei,8.0,8.0,0.0,9.0,6.0,0.0,0.0,2.0,0.0,1.0,,,,,2019-12-01,7-31-Bew-Aufenthalte-AIG-J-d-2020-12.xlsx
79,Nepal,1.0,1.0,0.0,0.0,0.0,0.0,0.0,0.0,0.0,0.0,,,,,2019-12-01,7-31-Bew-Aufenthalte-AIG-J-d-2020-12.xlsx
80,Pakistan,14.0,10.0,4.0,13.0,0.0,1.0,1.0,6.0,0.0,5.0,,,,,2019-12-01,7-31-Bew-Aufenthalte-AIG-J-d-2020-12.xlsx
81,Philippinen,10.0,10.0,0.0,10.0,8.0,2.0,0.0,0.0,0.0,0.0,,,,,2019-12-01,7-31-Bew-Aufenthalte-AIG-J-d-2020-12.xlsx
82,Sri Lanka,22.0,19.0,3.0,20.0,1.0,3.0,1.0,7.0,1.0,7.0,,,,,2019-12-01,7-31-Bew-Aufenthalte-AIG-J-d-2020-12.xlsx
83,Syrien,9.0,9.0,0.0,6.0,0.0,0.0,2.0,1.0,0.0,3.0,,,,,2019-12-01,7-31-Bew-Aufenthalte-AIG-J-d-2020-12.xlsx
84,Thailand,9.0,8.0,1.0,10.0,3.0,6.0,0.0,0.0,1.0,0.0,,,,,2019-12-01,7-31-Bew-Aufenthalte-AIG-J-d-2020-12.xlsx
85,Usbekistan,2.0,2.0,0.0,2.0,2.0,0.0,0.0,0.0,0.0,0.0,,,,,2019-12-01,7-31-Bew-Aufenthalte-AIG-J-d-2020-12.xlsx
86,Vietnam,4.0,4.0,0.0,5.0,3.0,1.0,0.0,0.0,0.0,1.0,,,,,2019-12-01,7-31-Bew-Aufenthalte-AIG-J-d-2020-12.xlsx
87,Albanien,624.0,610.0,14.0,612.0,1.0,542.0,2.0,4.0,2.0,61.0,,,,,2019-12-01,7-31-Bew-Aufenthalte-AIG-J-d-2020-12.xlsx
88,Belarus,12.0,11.0,1.0,11.0,0.0,2.0,0.0,5.0,0.0,4.0,,,,,2019-12-01,7-31-Bew-Aufenthalte-AIG-J-d-2020-12.xlsx
89,Belgien,6.0,5.0,1.0,5.0,0.0,1.0,0.0,0.0,0.0,4.0,,,,,2019-12-01,7-31-Bew-Aufenthalte-AIG-J-d-2020-12.xlsx
90,Bosnien u. Herzegowina,49.0,46.0,3.0,46.0,1.0,41.0,0.0,0.0,0.0,4.0,,,,,2019-12-01,7-31-Bew-Aufenthalte-AIG-J-d-2020-12.xlsx
91,Bulgarien,30.0,30.0,0.0,30.0,3.0,24.0,0.0,0.0,0.0,3.0,,,,,2019-12-01,7-31-Bew-Aufenthalte-AIG-J-d-2020-12.xlsx
92,Deutschland,8.0,8.0,0.0,8.0,3.0,4.0,0.0,0.0,0.0,1.0,,,,,2019-12-01,7-31-Bew-Aufenthalte-AIG-J-d-2020-12.xlsx
93,Estland,3.0,3.0,0.0,3.0,0.0,2.0,0.0,0.0,0.0,1.0,,,,,2019-12-01,7-31-Bew-Aufenthalte-AIG-J-d-2020-12.xlsx
94,Frankreich,9.0,9.0,0.0,9.0,0.0,8.0,0.0,0.0,1.0,0.0,,,,,2019-12-01,7-31-Bew-Aufenthalte-AIG-J-d-2020-12.xlsx
95,Griechenland,4.0,3.0,1.0,4.0,1.0,3.0,0.0,0.0,0.0,0.0,,,,,2019-12-01,7-31-Bew-Aufenthalte-AIG-J-d-2020-12.xlsx
96,Grossbritannien,7.0,6.0,1.0,8.0,0.0,6.0,0.0,0.0,0.0,2.0,,,,,2019-12-01,7-31-Bew-Aufenthalte-AIG-J-d-2020-12.xlsx
97,Italien,31.0,30.0,1.0,29.0,0.0,25.0,1.0,0.0,0.0,3.0,,,,,2019-12-01,7-31-Bew-Aufenthalte-AIG-J-d-2020-12.xlsx
98,Kosovo,256.0,246.0,10.0,267.0,3.0,227.0,0.0,7.0,3.0,27.0,,,,,2019-12-01,7-31-Bew-Aufenthalte-AIG-J-d-2020-12.xlsx
99,Kroatien,25.0,24.0,1.0,24.0,0.0,21.0,0.0,0.0,0.0,3.0,,,,,2019-12-01,7-31-Bew-Aufenthalte-AIG-J-d-2020-12.xlsx
100,Lettland,5.0,5.0,0.0,6.0,1.0,4.0,1.0,0.0,0.0,0.0,,,,,2019-12-01,7-31-Bew-Aufenthalte-AIG-J-d-2020-12.xlsx
101,Litauen,30.0,23.0,7.0,29.0,0.0,20.0,0.0,0.0,0.0,9.0,,,,,2019-12-01,7-31-Bew-Aufenthalte-AIG-J-d-2020-12.xlsx
102,Nordmazedonien,126.0,119.0,7.0,133.0,13.0,101.0,0.0,2.0,3.0,14.0,,,,,2019-12-01,7-31-Bew-Aufenthalte-AIG-J-d-2020-12.xlsx
103,Moldova,24.0,21.0,3.0,27.0,1.0,20.0,1.0,1.0,2.0,2.0,,,,,2019-12-01,7-31-Bew-Aufenthalte-AIG-J-d-2020-12.xlsx
104,Montenegro,12.0,12.0,0.0,14.0,2.0,9.0,1.0,0.0,0.0,2.0,,,,,2019-12-01,7-31-Bew-Aufenthalte-AIG-J-d-2020-12.xlsx
105,Niederlande,19.0,15.0,4.0,19.0,2.0,12.0,1.0,0.0,0.0,4.0,,,,,2019-12-01,7-31-Bew-Aufenthalte-AIG-J-d-2020-12.xlsx
106,Österreich,4.0,3.0,1.0,4.0,0.0,3.0,0.0,0.0,0.0,1.0,,,,,2019-12-01,7-31-Bew-Aufenthalte-AIG-J-d-2020-12.xlsx
107,Polen,45.0,39.0,6.0,45.0,0.0,36.0,0.0,0.0,0.0,9.0,,,,,2019-12-01,7-31-Bew-Aufenthalte-AIG-J-d-2020-12.xlsx
108,Portugal,103.0,92.0,11.0,107.0,4.0,81.0,2.0,0.0,1.0,19.0,,,,,2019-12-01,7-31-Bew-Aufenthalte-AIG-J-d-2020-12.xlsx
109,Rumänien,338.0,322.0,16.0,329.0,8.0,271.0,3.0,0.0,1.0,46.0,,,,,2019-12-01,7-31-Bew-Aufenthalte-AIG-J-d-2020-12.xlsx
110,Russland,20.0,19.0,1.0,17.0,0.0,10.0,2.0,3.0,0.0,2.0,,,,,2019-12-01,7-31-Bew-Aufenthalte-AIG-J-d-2020-12.xlsx
111,Schweden,1.0,1.0,0.0,1.0,0.0,1.0,0.0,0.0,0.0,0.0,,,,,2019-12-01,7-31-Bew-Aufenthalte-AIG-J-d-2020-12.xlsx
112,Serbien,321.0,315.0,6.0,289.0,4.0,262.0,2.0,4.0,2.0,15.0,,,,,2019-12-01,7-31-Bew-Aufenthalte-AIG-J-d-2020-12.xlsx
113,Slowakische Republik,11.0,11.0,0.0,11.0,0.0,9.0,0.0,0.0,2.0,0.0,,,,,2019-12-01,7-31-Bew-Aufenthalte-AIG-J-d-2020-12.xlsx
114,Slowenien,3.0,3.0,0.0,3.0,0.0,3.0,0.0,0.0,0.0,0.0,,,,,2019-12-01,7-31-Bew-Aufenthalte-AIG-J-d-2020-12.xlsx
115,Spanien,66.0,63.0,3.0,66.0,10.0,50.0,0.0,0.0,0.0,6.0,,,,,2019-12-01,7-31-Bew-Aufenthalte-AIG-J-d-2020-12.xlsx
116,Tschechische Republik,7.0,7.0,0.0,7.0,0.0,5.0,0.0,0.0,0.0,2.0,,,,,2019-12-01,7-31-Bew-Aufenthalte-AIG-J-d-2020-12.xlsx
117,Tschechoslowakei,1.0,1.0,0.0,1.0,0.0,1.0,0.0,0.0,0.0,0.0,,,,,2019-12-01,7-31-Bew-Aufenthalte-AIG-J-d-2020-12.xlsx
118,Türkei,53.0,51.0,2.0,49.0,3.0,35.0,0.0,2.0,0.0,9.0,,,,,2019-12-01,7-31-Bew-Aufenthalte-AIG-J-d-2020-12.xlsx
119,Ukraine,22.0,21.0,1.0,23.0,0.0,17.0,0.0,2.0,0.0,4.0,,,,,2019-12-01,7-31-Bew-Aufenthalte-AIG-J-d-2020-12.xlsx
120,Ungarn,27.0,25.0,2.0,26.0,3.0,16.0,0.0,0.0,0.0,7.0,,,,,2019-12-01,7-31-Bew-Aufenthalte-AIG-J-d-2020-12.xlsx
121,Australien,2.0,2.0,0.0,2.0,1.0,0.0,0.0,0.0,0.0,1.0,,,,,2019-12-01,7-31-Bew-Aufenthalte-AIG-J-d-2020-12.xlsx
122,Staatenlos,2.0,1.0,1.0,1.0,0.0,0.0,0.0,0.0,0.0,1.0,,,,,2019-12-01,7-31-Bew-Aufenthalte-AIG-J-d-2020-12.xlsx
123,Ohne Nationalität,8.0,6.0,2.0,11.0,0.0,0.0,2.0,2.0,6.0,1.0,,,,,2019-12-01,7-31-Bew-Aufenthalte-AIG-J-d-2020-12.xlsx
124,Staat unbekannt,26.0,21.0,5.0,24.0,0.0,4.0,10.0,4.0,5.0,1.0,,,,,2019-12-01,7-31-Bew-Aufenthalte-AIG-J-d-2020-12.xlsx
125,Ägypten,6.0,4.0,2.0,7.0,0.0,2.0,0.0,1.0,2.0,2.0,,,,,2020-12-01,7-31-Bew-Aufenthalte-AIG-J-d-2020-12.xlsx
126,Algerien,129.0,82.0,47.0,166.0,1.0,7.0,3.0,29.0,101.0,25.0,,,,,2020-12-01,7-31-Bew-Aufenthalte-AIG-J-d-2020-12.xlsx
127,Angola,6.0,6.0,0.0,4.0,1.0,0.0,0.0,2.0,1.0,0.0,,,,,2020-12-01,7-31-Bew-Aufenthalte-AIG-J-d-2020-12.xlsx
128,Äquatorialguinea,1.0,1.0,0.0,1.0,0.0,0.0,1.0,0.0,0.0,0.0,,,,,2020-12-01,7-31-Bew-Aufenthalte-AIG-J-d-2020-12.xlsx
129,Äthiopien,8.0,6.0,2.0,7.0,0.0,0.0,0.0,1.0,0.0,6.0,,,,,2020-12-01,7-31-Bew-Aufenthalte-AIG-J-d-2020-12.xlsx
130,Benin,2.0,2.0,0.0,2.0,0.0,0.0,0.0,0.0,2.0,0.0,,,,,2020-12-01,7-31-Bew-Aufenthalte-AIG-J-d-2020-12.xlsx
131,Burkina Faso,4.0,4.0,0.0,3.0,3.0,0.0,0.0,0.0,0.0,0.0,,,,,2020-12-01,7-31-Bew-Aufenthalte-AIG-J-d-2020-12.xlsx
132,Burundi,0.0,0.0,0.0,1.0,0.0,0.0,0.0,0.0,1.0,0.0,,,,,2020-12-01,7-31-Bew-Aufenthalte-AIG-J-d-2020-12.xlsx
133,Côte d'Ivoire,11.0,10.0,1.0,11.0,1.0,2.0,0.0,4.0,2.0,2.0,,,,,2020-12-01,7-31-Bew-Aufenthalte-AIG-J-d-2020-12.xlsx
134,Eritrea,4.0,4.0,0.0,5.0,1.0,0.0,1.0,2.0,1.0,0.0,,,,,2020-12-01,7-31-Bew-Aufenthalte-AIG-J-d-2020-12.xlsx
135,Gabun,0.0,0.0,0.0,1.0,0.0,0.0,0.0,1.0,0.0,0.0,,,,,2020-12-01,7-31-Bew-Aufenthalte-AIG-J-d-2020-12.xlsx
136,Gambia,48.0,42.0,6.0,50.0,1.0,6.0,6.0,24.0,2.0,11.0,,,,,2020-12-01,7-31-Bew-Aufenthalte-AIG-J-d-2020-12.xlsx
137,Ghana,4.0,4.0,0.0,4.0,0.0,1.0,1.0,2.0,0.0,0.0,,,,,2020-12-01,7-31-Bew-Aufenthalte-AIG-J-d-2020-12.xlsx
138,Guinea,49.0,40.0,9.0,46.0,1.0,8.0,11.0,10.0,7.0,9.0,,,,,2020-12-01,7-31-Bew-Aufenthalte-AIG-J-d-2020-12.xlsx
139,Guinea-Bissau,13.0,12.0,1.0,13.0,1.0,6.0,3.0,1.0,0.0,2.0,,,,,2020-12-01,7-31-Bew-Aufenthalte-AIG-J-d-2020-12.xlsx
140,Kamerun,8.0,7.0,1.0,7.0,0.0,3.0,0.0,1.0,0.0,3.0,,,,,2020-12-01,7-31-Bew-Aufenthalte-AIG-J-d-2020-12.xlsx
141,Kapverden,0.0,0.0,0.0,2.0,0.0,0.0,0.0,0.0,2.0,0.0,,,,,2020-12-01,7-31-Bew-Aufenthalte-AIG-J-d-2020-12.xlsx
142,Kenia,4.0,3.0,1.0,4.0,1.0,2.0,0.0,0.0,0.0,1.0,,,,,2020-12-01,7-31-Bew-Aufenthalte-AIG-J-d-2020-12.xlsx
143,Kongo,1.0,1.0,0.0,1.0,0.0,0.0,0.0,0.0,0.0,1.0,,,,,2020-12-01,7-31-Bew-Aufenthalte-AIG-J-d-2020-12.xlsx
144,Kongo DR,8.0,6.0,2.0,6.0,1.0,1.0,0.0,0.0,2.0,2.0,,,,,2020-12-01,7-31-Bew-Aufenthalte-AIG-J-d-2020-12.xlsx
145,Liberia,3.0,3.0,0.0,2.0,0.0,0.0,0.0,1.0,1.0,0.0,,,,,2020-12-01,7-31-Bew-Aufenthalte-AIG-J-d-2020-12.xlsx
146,Libyen,27.0,21.0,6.0,15.0,0.0,0.0,1.0,3.0,6.0,5.0,,,,,2020-12-01,7-31-Bew-Aufenthalte-AIG-J-d-2020-12.xlsx
147,Malawi,1.0,1.0,0.0,0.0,0.0,0.0,0.0,0.0,0.0,0.0,,,,,2020-12-01,7-31-Bew-Aufenthalte-AIG-J-d-2020-12.xlsx
148,Mali,6.0,5.0,1.0,5.0,0.0,1.0,0.0,2.0,1.0,1.0,,,,,2020-12-01,7-31-Bew-Aufenthalte-AIG-J-d-2020-12.xlsx
149,Marokko,84.0,63.0,21.0,71.0,3.0,2.0,4.0,24.0,21.0,17.0,,,,,2020-12-01,7-31-Bew-Aufenthalte-AIG-J-d-2020-12.xlsx
150,Mauretanien,2.0,2.0,0.0,1.0,0.0,0.0,1.0,0.0,0.0,0.0,,,,,2020-12-01,7-31-Bew-Aufenthalte-AIG-J-d-2020-12.xlsx
151,Mauritius,3.0,2.0,1.0,2.0,2.0,0.0,0.0,0.0,0.0,0.0,,,,,2020-12-01,7-31-Bew-Aufenthalte-AIG-J-d-2020-12.xlsx
152,Mosambik,1.0,1.0,0.0,1.0,0.0,0.0,0.0,0.0,0.0,1.0,,,,,2020-12-01,7-31-Bew-Aufenthalte-AIG-J-d-2020-12.xlsx
153,Niger,3.0,3.0,0.0,2.0,0.0,0.0,0.0,1.0,0.0,1.0,,,,,2020-12-01,7-31-Bew-Aufenthalte-AIG-J-d-2020-12.xlsx
154,Nigeria,122.0,99.0,23.0,120.0,1.0,16.0,33.0,26.0,6.0,38.0,,,,,2020-12-01,7-31-Bew-Aufenthalte-AIG-J-d-2020-12.xlsx
155,Ruanda,1.0,1.0,0.0,1.0,0.0,0.0,0.0,1.0,0.0,0.0,,,,,2020-12-01,7-31-Bew-Aufenthalte-AIG-J-d-2020-12.xlsx
156,Sambia,0.0,0.0,0.0,1.0,0.0,0.0,0.0,0.0,1.0,0.0,,,,,2020-12-01,7-31-Bew-Aufenthalte-AIG-J-d-2020-12.xlsx
157,Senegal,17.0,15.0,2.0,16.0,0.0,3.0,4.0,3.0,3.0,3.0,,,,,2020-12-01,7-31-Bew-Aufenthalte-AIG-J-d-2020-12.xlsx
158,Sierra Leone,3.0,3.0,0.0,5.0,0.0,0.0,2.0,1.0,2.0,0.0,,,,,2020-12-01,7-31-Bew-Aufenthalte-AIG-J-d-2020-12.xlsx
159,Somalia,19.0,17.0,2.0,16.0,1.0,0.0,0.0,11.0,2.0,2.0,,,,,2020-12-01,7-31-Bew-Aufenthalte-AIG-J-d-2020-12.xlsx
160,Sudan,5.0,4.0,1.0,3.0,0.0,0.0,0.0,2.0,0.0,1.0,,,,,2020-12-01,7-31-Bew-Aufenthalte-AIG-J-d-2020-12.xlsx
161,Südsudan,2.0,2.0,0.0,0.0,0.0,0.0,0.0,0.0,0.0,0.0,,,,,2020-12-01,7-31-Bew-Aufenthalte-AIG-J-d-2020-12.xlsx
162,Togo,3.0,3.0,0.0,2.0,2.0,0.0,0.0,0.0,0.0,0.0,,,,,2020-12-01,7-31-Bew-Aufenthalte-AIG-J-d-2020-12.xlsx
163,Tschad,3.0,2.0,1.0,2.0,0.0,0.0,0.0,0.0,0.0,2.0,,,,,2020-12-01,7-31-Bew-Aufenthalte-AIG-J-d-2020-12.xlsx
164,Tunesien,57.0,43.0,14.0,59.0,3.0,18.0,1.0,8.0,18.0,11.0,,,,,2020-12-01,7-31-Bew-Aufenthalte-AIG-J-d-2020-12.xlsx
165,Uganda,2.0,2.0,0.0,1.0,1.0,0.0,0.0,0.0,0.0,0.0,,,,,2020-12-01,7-31-Bew-Aufenthalte-AIG-J-d-2020-12.xlsx
166,Argentinien,5.0,4.0,1.0,5.0,2.0,0.0,0.0,0.0,0.0,3.0,,,,,2020-12-01,7-31-Bew-Aufenthalte-AIG-J-d-2020-12.xlsx
167,Bolivien,5.0,4.0,1.0,6.0,1.0,1.0,0.0,0.0,0.0,4.0,,,,,2020-12-01,7-31-Bew-Aufenthalte-AIG-J-d-2020-12.xlsx
168,Brasilien,87.0,82.0,5.0,84.0,41.0,24.0,1.0,0.0,1.0,17.0,,,,,2020-12-01,7-31-Bew-Aufenthalte-AIG-J-d-2020-12.xlsx
169,Chile,15.0,13.0,2.0,18.0,3.0,9.0,1.0,0.0,0.0,5.0,,,,,2020-12-01,7-31-Bew-Aufenthalte-AIG-J-d-2020-12.xlsx
170,Dominikanische Republik,25.0,21.0,4.0,23.0,0.0,11.0,5.0,0.0,0.0,7.0,,,,,2020-12-01,7-31-Bew-Aufenthalte-AIG-J-d-2020-12.xlsx
171,Ecuador,6.0,6.0,0.0,5.0,2.0,1.0,1.0,0.0,0.0,1.0,,,,,2020-12-01,7-31-Bew-Aufenthalte-AIG-J-d-2020-12.xlsx
172,Honduras,2.0,2.0,0.0,3.0,0.0,0.0,0.0,0.0,1.0,2.0,,,,,2020-12-01,7-31-Bew-Aufenthalte-AIG-J-d-2020-12.xlsx
173,Jamaika,0.0,0.0,0.0,4.0,1.0,1.0,0.0,0.0,0.0,2.0,,,,,2020-12-01,7-31-Bew-Aufenthalte-AIG-J-d-2020-12.xlsx
174,Kanada,3.0,3.0,0.0,3.0,2.0,0.0,0.0,0.0,0.0,1.0,,,,,2020-12-01,7-31-Bew-Aufenthalte-AIG-J-d-2020-12.xlsx
175,Kolumbien,38.0,35.0,3.0,38.0,16.0,13.0,2.0,0.0,1.0,6.0,,,,,2020-12-01,7-31-Bew-Aufenthalte-AIG-J-d-2020-12.xlsx
176,Kuba,2.0,1.0,1.0,3.0,0.0,0.0,0.0,0.0,3.0,0.0,,,,,2020-12-01,7-31-Bew-Aufenthalte-AIG-J-d-2020-12.xlsx
177,Mexiko,5.0,4.0,1.0,5.0,0.0,2.0,0.0,0.0,0.0,3.0,,,,,2020-12-01,7-31-Bew-Aufenthalte-AIG-J-d-2020-12.xlsx
178,Paraguay,4.0,4.0,0.0,4.0,3.0,0.0,0.0,0.0,0.0,1.0,,,,,2020-12-01,7-31-Bew-Aufenthalte-AIG-J-d-2020-12.xlsx
179,Peru,8.0,8.0,0.0,6.0,2.0,2.0,1.0,0.0,0.0,1.0,,,,,2020-12-01,7-31-Bew-Aufenthalte-AIG-J-d-2020-12.xlsx
180,Uruguay,0.0,0.0,0.0,1.0,0.0,1.0,0.0,0.0,0.0,0.0,,,,,2020-12-01,7-31-Bew-Aufenthalte-AIG-J-d-2020-12.xlsx
181,USA,9.0,8.0,1.0,8.0,0.0,6.0,0.0,1.0,0.0,1.0,,,,,2020-12-01,7-31-Bew-Aufenthalte-AIG-J-d-2020-12.xlsx
182,Venezuela,10.0,8.0,2.0,8.0,3.0,2.0,0.0,0.0,1.0,2.0,,,,,2020-12-01,7-31-Bew-Aufenthalte-AIG-J-d-2020-12.xlsx
183,Afghanistan,10.0,10.0,0.0,9.0,1.0,0.0,1.0,7.0,0.0,0.0,,,,,2020-12-01,7-31-Bew-Aufenthalte-AIG-J-d-2020-12.xlsx
184,Armenien,1.0,1.0,0.0,1.0,0.0,0.0,0.0,0.0,0.0,1.0,,,,,2020-12-01,7-31-Bew-Aufenthalte-AIG-J-d-2020-12.xlsx
185,Aserbaidschan,1.0,1.0,0.0,2.0,0.0,0.0,0.0,2.0,0.0,0.0,,,,,2020-12-01,7-31-Bew-Aufenthalte-AIG-J-d-2020-12.xlsx
186,Bangladesh,4.0,4.0,0.0,3.0,0.0,0.0,0.0,3.0,0.0,0.0,,,,,2020-12-01,7-31-Bew-Aufenthalte-AIG-J-d-2020-12.xlsx
187,China (Volksrepublik),15.0,14.0,1.0,18.0,3.0,6.0,2.0,0.0,2.0,5.0,,,,,2020-12-01,7-31-Bew-Aufenthalte-AIG-J-d-2020-12.xlsx
188,Georgien,51.0,41.0,10.0,47.0,3.0,23.0,1.0,3.0,1.0,16.0,,,,,2020-12-01,7-31-Bew-Aufenthalte-AIG-J-d-2020-12.xlsx
189,Indien,13.0,10.0,3.0,12.0,3.0,2.0,0.0,2.0,0.0,5.0,,,,,2020-12-01,7-31-Bew-Aufenthalte-AIG-J-d-2020-12.xlsx
190,Irak,39.0,24.0,15.0,38.0,15.0,0.0,0.0,3.0,3.0,17.0,,,,,2020-12-01,7-31-Bew-Aufenthalte-AIG-J-d-2020-12.xlsx
191,Iran,1.0,1.0,0.0,2.0,0.0,0.0,0.0,0.0,0.0,2.0,,,,,2020-12-01,7-31-Bew-Aufenthalte-AIG-J-d-2020-12.xlsx
192,Israel,4.0,3.0,1.0,4.0,0.0,3.0,0.0,0.0,0.0,1.0,,,,,2020-12-01,7-31-Bew-Aufenthalte-AIG-J-d-2020-12.xlsx
193,Jordanien,1.0,1.0,0.0,2.0,0.0,1.0,0.0,1.0,0.0,0.0,,,,,2020-12-01,7-31-Bew-Aufenthalte-AIG-J-d-2020-12.xlsx
194,Kambodscha,1.0,0.0,1.0,1.0,0.0,0.0,0.0,0.0,0.0,1.0,,,,,2020-12-01,7-31-Bew-Aufenthalte-AIG-J-d-2020-12.xlsx
195,Kasachstan,2.0,2.0,0.0,2.0,0.0,1.0,0.0,0.0,0.0,1.0,,,,,2020-12-01,7-31-Bew-Aufenthalte-AIG-J-d-2020-12.xlsx
196,Malaysia,1.0,1.0,0.0,1.0,1.0,0.0,0.0,0.0,0.0,0.0,,,,,2020-12-01,7-31-Bew-Aufenthalte-AIG-J-d-2020-12.xlsx
197,Mongolei,6.0,5.0,1.0,6.0,4.0,0.0,0.0,1.0,1.0,0.0,,,,,2020-12-01,7-31-Bew-Aufenthalte-AIG-J-d-2020-12.xlsx
198,Nepal,0.0,0.0,0.0,1.0,0.0,1.0,0.0,0.0,0.0,0.0,,,,,2020-12-01,7-31-Bew-Aufenthalte-AIG-J-d-2020-12.xlsx
199,Oman,1.0,1.0,0.0,1.0,0.0,1.0,0.0,0.0,0.0,0.0,,,,,2020-12-01,7-31-Bew-Aufenthalte-AIG-J-d-2020-12.xlsx
200,Pakistan,10.0,8.0,2.0,11.0,1.0,1.0,1.0,3.0,0.0,5.0,,,,,2020-12-01,7-31-Bew-Aufenthalte-AIG-J-d-2020-12.xlsx
201,Philippinen,6.0,6.0,0.0,6.0,5.0,1.0,0.0,0.0,0.0,0.0,,,,,2020-12-01,7-31-Bew-Aufenthalte-AIG-J-d-2020-12.xlsx
202,Sri Lanka,14.0,12.0,2.0,11.0,0.0,2.0,0.0,0.0,0.0,9.0,,,,,2020-12-01,7-31-Bew-Aufenthalte-AIG-J-d-2020-12.xlsx
203,Syrien,6.0,6.0,0.0,6.0,0.0,0.0,0.0,0.0,1.0,5.0,,,,,2020-12-01,7-31-Bew-Aufenthalte-AIG-J-d-2020-12.xlsx
204,Thailand,9.0,7.0,2.0,8.0,0.0,5.0,0.0,0.0,0.0,3.0,,,,,2020-12-01,7-31-Bew-Aufenthalte-AIG-J-d-2020-12.xlsx
205,Vietnam,1.0,1.0,0.0,1.0,0.0,1.0,0.0,0.0,0.0,0.0,,,,,2020-12-01,7-31-Bew-Aufenthalte-AIG-J-d-2020-12.xlsx
206,Albanien,440.0,411.0,29.0,443.0,32.0,298.0,1.0,4.0,1.0,107.0,,,,,2020-12-01,7-31-Bew-Aufenthalte-AIG-J-d-2020-12.xlsx
207,Belarus,9.0,8.0,1.0,9.0,0.0,4.0,0.0,0.0,1.0,4.0,,,,,2020-12-01,7-31-Bew-Aufenthalte-AIG-J-d-2020-12.xlsx
208,Belgien,7.0,6.0,1.0,7.0,0.0,4.0,0.0,0.0,0.0,3.0,,,,,2020-12-01,7-31-Bew-Aufenthalte-AIG-J-d-2020-12.xlsx
209,Bosnien u. Herzegowina,24.0,23.0,1.0,25.0,0.0,18.0,0.0,0.0,0.0,7.0,,,,,2020-12-01,7-31-Bew-Aufenthalte-AIG-J-d-2020-12.xlsx
210,Bulgarien,21.0,20.0,1.0,17.0,2.0,11.0,0.0,0.0,1.0,3.0,,,,,2020-12-01,7-31-Bew-Aufenthalte-AIG-J-d-2020-12.xlsx
211,Deutschland,2.0,2.0,0.0,1.0,0.0,1.0,0.0,0.0,0.0,0.0,,,,,2020-12-01,7-31-Bew-Aufenthalte-AIG-J-d-2020-12.xlsx
212,Estland,2.0,2.0,0.0,2.0,0.0,1.0,0.0,0.0,0.0,1.0,,,,,2020-12-01,7-31-Bew-Aufenthalte-AIG-J-d-2020-12.xlsx
213,Frankreich,10.0,10.0,0.0,8.0,0.0,5.0,0.0,0.0,0.0,3.0,,,,,2020-12-01,7-31-Bew-Aufenthalte-AIG-J-d-2020-12.xlsx
214,Griechenland,6.0,5.0,1.0,6.0,1.0,2.0,0.0,0.0,0.0,3.0,,,,,2020-12-01,7-31-Bew-Aufenthalte-AIG-J-d-2020-12.xlsx
215,Grossbritannien,5.0,5.0,0.0,5.0,1.0,4.0,0.0,0.0,0.0,0.0,,,,,2020-12-01,7-31-Bew-Aufenthalte-AIG-J-d-2020-12.xlsx
216,Irland,1.0,1.0,0.0,1.0,1.0,0.0,0.0,0.0,0.0,0.0,,,,,2020-12-01,7-31-Bew-Aufenthalte-AIG-J-d-2020-12.xlsx
217,Italien,27.0,23.0,4.0,30.0,2.0,15.0,0.0,0.0,1.0,12.0,,,,,2020-12-01,7-31-Bew-Aufenthalte-AIG-J-d-2020-12.xlsx
218,Kosovo,155.0,141.0,14.0,176.0,4.0,126.0,2.0,4.0,6.0,34.0,,,,,2020-12-01,7-31-Bew-Aufenthalte-AIG-J-d-2020-12.xlsx
219,Kroatien,16.0,13.0,3.0,18.0,0.0,13.0,0.0,0.0,0.0,5.0,,,,,2020-12-01,7-31-Bew-Aufenthalte-AIG-J-d-2020-12.xlsx
220,Lettland,4.0,3.0,1.0,4.0,0.0,2.0,0.0,0.0,0.0,2.0,,,,,2020-12-01,7-31-Bew-Aufenthalte-AIG-J-d-2020-12.xlsx
221,Litauen,14.0,12.0,2.0,15.0,0.0,11.0,0.0,0.0,0.0,4.0,,,,,2020-12-01,7-31-Bew-Aufenthalte-AIG-J-d-2020-12.xlsx
222,Nordmazedonien,78.0,72.0,6.0,73.0,0.0,61.0,0.0,0.0,1.0,11.0,,,,,2020-12-01,7-31-Bew-Aufenthalte-AIG-J-d-2020-12.xlsx
223,Moldova,17.0,14.0,3.0,16.0,2.0,8.0,0.0,0.0,1.0,5.0,,,,,2020-12-01,7-31-Bew-Aufenthalte-AIG-J-d-2020-12.xlsx
224,Montenegro,2.0,2.0,0.0,2.0,1.0,1.0,0.0,0.0,0.0,0.0,,,,,2020-12-01,7-31-Bew-Aufenthalte-AIG-J-d-2020-12.xlsx
225,Niederlande,6.0,6.0,0.0,6.0,0.0,5.0,1.0,0.0,0.0,0.0,,,,,2020-12-01,7-31-Bew-Aufenthalte-AIG-J-d-2020-12.xlsx
226,Österreich,1.0,1.0,0.0,1.0,0.0,1.0,0.0,0.0,0.0,0.0,,,,,2020-12-01,7-31-Bew-Aufenthalte-AIG-J-d-2020-12.xlsx
227,Polen,30.0,26.0,4.0,31.0,1.0,20.0,0.0,0.0,0.0,10.0,,,,,2020-12-01,7-31-Bew-Aufenthalte-AIG-J-d-2020-12.xlsx
228,Portugal,76.0,66.0,10.0,78.0,10.0,54.0,0.0,0.0,0.0,14.0,,,,,2020-12-01,7-31-Bew-Aufenthalte-AIG-J-d-2020-12.xlsx
229,Rumänien,281.0,252.0,29.0,285.0,73.0,132.0,1.0,0.0,0.0,79.0,,,,,2020-12-01,7-31-Bew-Aufenthalte-AIG-J-d-2020-12.xlsx
230,Russland,7.0,7.0,0.0,8.0,0.0,5.0,0.0,0.0,2.0,1.0,,,,,2020-12-01,7-31-Bew-Aufenthalte-AIG-J-d-2020-12.xlsx
231,Serbien,190.0,177.0,13.0,185.0,3.0,121.0,1.0,1.0,6.0,53.0,,,,,2020-12-01,7-31-Bew-Aufenthalte-AIG-J-d-2020-12.xlsx
232,Slowakische Republik,16.0,13.0,3.0,16.0,2.0,4.0,0.0,0.0,0.0,10.0,,,,,2020-12-01,7-31-Bew-Aufenthalte-AIG-J-d-2020-12.xlsx
233,Slowenien,1.0,1.0,0.0,1.0,0.0,1.0,0.0,0.0,0.0,0.0,,,,,2020-12-01,7-31-Bew-Aufenthalte-AIG-J-d-2020-12.xlsx
234,Spanien,26.0,26.0,0.0,27.0,7.0,15.0,1.0,0.0,0.0,4.0,,,,,2020-12-01,7-31-Bew-Aufenthalte-AIG-J-d-2020-12.xlsx
235,Tschechische Republik,6.0,6.0,0.0,6.0,0.0,6.0,0.0,0.0,0.0,0.0,,,,,2020-12-01,7-31-Bew-Aufenthalte-AIG-J-d-2020-12.xlsx
236,Türkei,44.0,36.0,8.0,45.0,6.0,24.0,2.0,0.0,4.0,9.0,,,,,2020-12-01,7-31-Bew-Aufenthalte-AIG-J-d-2020-12.xlsx
237,Ukraine,12.0,12.0,0.0,12.0,0.0,7.0,0.0,1.0,0.0,4.0,,,,,2020-12-01,7-31-Bew-Aufenthalte-AIG-J-d-2020-12.xlsx
238,Ungarn,14.0,10.0,4.0,14.0,2.0,4.0,1.0,0.0,0.0,7.0,,,,,2020-12-01,7-31-Bew-Aufenthalte-AIG-J-d-2020-12.xlsx
239,Australien,1.0,0.0,1.0,1.0,0.0,1.0,0.0,0.0,0.0,0.0,,,,,2020-12-01,7-31-Bew-Aufenthalte-AIG-J-d-2020-12.xlsx
240,Staatenlos,1.0,1.0,0.0,1.0,0.0,0.0,1.0,0.0,0.0,0.0,,,,,2020-12-01,7-31-Bew-Aufenthalte-AIG-J-d-2020-12.xlsx
241,Ohne Nationalität,7.0,5.0,2.0,8.0,0.0,0.0,0.0,2.0,6.0,0.0,,,,,2020-12-01,7-31-Bew-Aufenthalte-AIG-J-d-2020-12.xlsx
242,Staat unbekannt,10.0,7.0,3.0,13.0,1.0,1.0,2.0,3.0,5.0,1.0,,,,,2020-12-01,7-31-Bew-Aufenthalte-AIG-J-d-2020-12.xlsx
