,index,Unnamed: 0,Unnamed: 1,Unnamed: 2,Unnamed: 3,Unnamed: 4,Unnamed: 5,Unnamed: 6,Unnamed: 7,Unnamed: 8,Unnamed: 9,Unnamed: 10,Unnamed: 11,Unnamed: 12,Unnamed: 13,Unnamed: 14,datum
0,0,Ägypten,4.0,4.0,0.0,6.0,0.0,0.0,0.0,4.0,2.0,0.0,,,,,2019-12-01
1,1,Algerien,179.0,127.0,52.0,166.0,3.0,13.0,9.0,58.0,56.0,27.0,,,,,2019-12-01
2,2,Angola,3.0,3.0,0.0,3.0,0.0,1.0,0.0,1.0,0.0,1.0,,,,,2019-12-01
3,3,Äquatorialguinea,1.0,1.0,0.0,2.0,0.0,0.0,0.0,0.0,1.0,1.0,,,,,2019-12-01
4,4,Äthiopien,10.0,6.0,4.0,10.0,1.0,0.0,0.0,5.0,2.0,2.0,,,,,2019-12-01
5,5,Benin,3.0,3.0,0.0,1.0,0.0,0.0,0.0,0.0,0.0,1.0,,,,,2019-12-01
6,6,Burkina Faso,2.0,2.0,0.0,1.0,0.0,1.0,0.0,0.0,0.0,0.0,,,,,2019-12-01
7,7,Burundi,1.0,1.0,0.0,0.0,0.0,0.0,0.0,0.0,0.0,0.0,,,,,2019-12-01
8,8,Côte d'Ivoire,9.0,8.0,1.0,9.0,0.0,0.0,2.0,3.0,3.0,1.0,,,,,2019-12-01
9,9,Dschibuti,1.0,1.0,0.0,0.0,0.0,0.0,0.0,0.0,0.0,0.0,,,,,2019-12-01
10,10,Eritrea,9.0,9.0,0.0,5.0,1.0,0.0,0.0,4.0,0.0,0.0,,,,,2019-12-01
11,11,Gabun,4.0,4.0,0.0,1.0,0.0,0.0,0.0,0.0,0.0,1.0,,,,,2019-12-01
12,12,Gambia,85.0,79.0,6.0,77.0,1.0,5.0,7.0,56.0,4.0,4.0,,,,,2019-12-01
13,13,Ghana,11.0,11.0,0.0,10.0,0.0,0.0,2.0,7.0,0.0,1.0,,,,,2019-12-01
14,14,Guinea,93.0,84.0,9.0,88.0,0.0,23.0,11.0,36.0,8.0,10.0,,,,,2019-12-01
15,15,Guinea-Bissau,22.0,20.0,2.0,21.0,0.0,7.0,4.0,5.0,0.0,5.0,,,,,2019-12-01
16,16,Kamerun,15.0,12.0,3.0,19.0,1.0,4.0,0.0,4.0,6.0,4.0,,,,,2019-12-01
17,17,Kapverden,2.0,2.0,0.0,4.0,2.0,0.0,0.0,0.0,2.0,0.0,,,,,2019-12-01
18,18,Kenia,3.0,3.0,0.0,5.0,1.0,0.0,0.0,1.0,2.0,1.0,,,,,2019-12-01
19,19,Kongo DR,4.0,3.0,1.0,9.0,0.0,1.0,0.0,0.0,5.0,3.0,,,,,2019-12-01
20,20,Liberia,1.0,1.0,0.0,1.0,0.0,0.0,0.0,0.0,1.0,0.0,,,,,2019-12-01
21,21,Libyen,18.0,15.0,3.0,16.0,2.0,0.0,0.0,8.0,4.0,2.0,,,,,2019-12-01
22,22,Mali,17.0,17.0,0.0,16.0,1.0,0.0,2.0,13.0,0.0,0.0,,,,,2019-12-01
23,23,Marokko,87.0,72.0,15.0,82.0,5.0,10.0,4.0,33.0,25.0,5.0,,,,,2019-12-01
24,24,Mauretanien,3.0,3.0,0.0,3.0,0.0,0.0,2.0,1.0,0.0,0.0,,,,,2019-12-01
25,25,Mauritius,2.0,2.0,0.0,3.0,2.0,1.0,0.0,0.0,0.0,0.0,,,,,2019-12-01
26,26,Niger,1.0,1.0,0.0,1.0,0.0,0.0,0.0,1.0,0.0,0.0,,,,,2019-12-01
27,27,Nigeria,240.0,225.0,15.0,235.0,0.0,46.0,42.0,123.0,0.0,24.0,,,,,2019-12-01
28,28,Senegal,30.0,25.0,5.0,28.0,3.0,4.0,2.0,13.0,2.0,4.0,,,,,2019-12-01
29,29,Sierra Leone,6.0,4.0,2.0,3.0,0.0,0.0,0.0,2.0,1.0,0.0,,,,,2019-12-01
30,30,Somalia,19.0,15.0,4.0,16.0,0.0,0.0,0.0,10.0,3.0,3.0,,,,,2019-12-01
31,31,Südafrika,4.0,4.0,0.0,4.0,0.0,1.0,0.0,3.0,0.0,0.0,,,,,2019-12-01
32,32,Sudan,6.0,5.0,1.0,7.0,0.0,3.0,0.0,2.0,1.0,1.0,,,,,2019-12-01
33,33,Südsudan,1.0,0.0,1.0,1.0,0.0,0.0,0.0,0.0,0.0,1.0,,,,,2019-12-01
34,34,Tansania,2.0,2.0,0.0,2.0,0.0,1.0,1.0,0.0,0.0,0.0,,,,,2019-12-01
35,35,Togo,1.0,1.0,0.0,1.0,0.0,0.0,0.0,1.0,0.0,0.0,,,,,2019-12-01
36,36,Tschad,2.0,1.0,1.0,1.0,0.0,0.0,0.0,0.0,1.0,0.0,,,,,2019-12-01
37,37,Tunesien,64.0,50.0,14.0,61.0,2.0,21.0,0.0,14.0,15.0,9.0,,,,,2019-12-01
38,38,Uganda,1.0,0.0,1.0,0.0,0.0,0.0,0.0,0.0,0.0,0.0,,,,,2019-12-01
39,39,Westsahara,1.0,1.0,0.0,0.0,0.0,0.0,0.0,0.0,0.0,0.0,,,,,2019-12-01
40,40,Zimbabwe,2.0,2.0,0.0,0.0,0.0,0.0,0.0,0.0,0.0,0.0,,,,,2019-12-01
41,41,Total Afrika,969.0,829.0,140.0,918.0,25.0,142.0,88.0,408.0,144.0,111.0,,,,,2019-12-01
42,42,,,,,,,,,,,,,,,,2019-12-01
43,43,Argentinien,8.0,8.0,0.0,8.0,3.0,3.0,0.0,0.0,0.0,2.0,,,,,2019-12-01
44,44,Bolivien,7.0,6.0,1.0,7.0,4.0,2.0,0.0,0.0,0.0,1.0,,,,,2019-12-01
45,45,Brasilien,112.0,106.0,6.0,110.0,33.0,61.0,1.0,0.0,2.0,13.0,,,,,2019-12-01
46,46,Chile,15.0,15.0,0.0,13.0,6.0,6.0,1.0,0.0,0.0,0.0,,,,,2019-12-01
47,47,Costa Rica,1.0,1.0,0.0,1.0,0.0,1.0,0.0,0.0,0.0,0.0,,,,,2019-12-01
48,48,Dominikanische Republik,46.0,42.0,4.0,47.0,4.0,20.0,14.0,1.0,4.0,4.0,,,,,2019-12-01
49,49,Ecuador,5.0,5.0,0.0,5.0,3.0,1.0,1.0,0.0,0.0,0.0,,,,,2019-12-01
50,50,El Salvador,1.0,1.0,0.0,1.0,0.0,1.0,0.0,0.0,0.0,0.0,,,,,2019-12-01
51,51,Haiti,3.0,2.0,1.0,3.0,0.0,2.0,0.0,0.0,0.0,1.0,,,,,2019-12-01
52,52,Honduras,4.0,3.0,1.0,3.0,3.0,0.0,0.0,0.0,0.0,0.0,,,,,2019-12-01
53,53,Jamaika,3.0,3.0,0.0,2.0,0.0,0.0,0.0,0.0,0.0,2.0,,,,,2019-12-01
54,54,Kanada,1.0,1.0,0.0,1.0,0.0,1.0,0.0,0.0,0.0,0.0,,,,,2019-12-01
55,55,Kolumbien,53.0,49.0,4.0,53.0,16.0,24.0,1.0,0.0,0.0,12.0,,,,,2019-12-01
56,56,Kuba,6.0,6.0,0.0,4.0,2.0,0.0,1.0,0.0,0.0,1.0,,,,,2019-12-01
57,57,Mexiko,7.0,7.0,0.0,7.0,2.0,5.0,0.0,0.0,0.0,0.0,,,,,2019-12-01
58,58,Nicaragua,3.0,3.0,0.0,3.0,1.0,1.0,0.0,0.0,0.0,1.0,,,,,2019-12-01
59,59,Paraguay,7.0,5.0,2.0,7.0,4.0,3.0,0.0,0.0,0.0,0.0,,,,,2019-12-01
60,60,Peru,18.0,17.0,1.0,18.0,6.0,9.0,1.0,0.0,0.0,2.0,,,,,2019-12-01
61,61,Uruguay,3.0,3.0,0.0,2.0,1.0,1.0,0.0,0.0,0.0,0.0,,,,,2019-12-01
62,62,USA,11.0,9.0,2.0,11.0,0.0,8.0,0.0,0.0,0.0,3.0,,,,,2019-12-01
63,63,Venezuela,9.0,8.0,1.0,9.0,1.0,3.0,1.0,0.0,0.0,4.0,,,,,2019-12-01
64,64,Total Amerika,323.0,300.0,23.0,315.0,89.0,152.0,21.0,1.0,6.0,46.0,,,,,2019-12-01
65,65,,,,,,,,,,,,,,,,2019-12-01
66,66,Afghanistan,16.0,12.0,4.0,16.0,0.0,1.0,1.0,10.0,0.0,4.0,,,,,2019-12-01
67,67,Armenien,3.0,3.0,0.0,4.0,1.0,0.0,0.0,2.0,1.0,0.0,,,,,2019-12-01
68,68,Aserbaidschan,1.0,1.0,0.0,1.0,0.0,0.0,0.0,0.0,0.0,1.0,,,,,2019-12-01
69,69,Bangladesh,5.0,4.0,1.0,5.0,1.0,1.0,0.0,1.0,0.0,2.0,,,,,2019-12-01
70,70,China (Volksrepublik),19.0,16.0,3.0,13.0,0.0,5.0,5.0,0.0,1.0,2.0,,,,,2019-12-01
71,71,Georgien,103.0,96.0,7.0,101.0,0.0,70.0,1.0,12.0,3.0,15.0,,,,,2019-12-01
72,72,Indien,10.0,10.0,0.0,11.0,1.0,5.0,0.0,4.0,0.0,1.0,,,,,2019-12-01
73,73,Irak,24.0,23.0,1.0,28.0,7.0,0.0,0.0,8.0,9.0,4.0,,,,,2019-12-01
74,74,Iran,8.0,8.0,0.0,7.0,2.0,1.0,0.0,4.0,0.0,0.0,,,,,2019-12-01
75,75,Israel,8.0,8.0,0.0,7.0,0.0,6.0,0.0,1.0,0.0,0.0,,,,,2019-12-01
76,76,Jordanien,4.0,4.0,0.0,5.0,2.0,2.0,0.0,0.0,0.0,1.0,,,,,2019-12-01
77,77,Kambodscha,1.0,1.0,0.0,1.0,0.0,0.0,0.0,0.0,1.0,0.0,,,,,2019-12-01
78,78,Kasachstan,2.0,2.0,0.0,2.0,0.0,2.0,0.0,0.0,0.0,0.0,,,,,2019-12-01
79,79,Korea (Süd),2.0,2.0,0.0,2.0,0.0,2.0,0.0,0.0,0.0,0.0,,,,,2019-12-01
80,80,Libanon,10.0,9.0,1.0,11.0,1.0,2.0,0.0,4.0,3.0,1.0,,,,,2019-12-01
81,81,Malaysia,1.0,1.0,0.0,1.0,1.0,0.0,0.0,0.0,0.0,0.0,,,,,2019-12-01
82,82,Mongolei,8.0,8.0,0.0,9.0,6.0,0.0,0.0,2.0,0.0,1.0,,,,,2019-12-01
83,83,Nepal,1.0,1.0,0.0,0.0,0.0,0.0,0.0,0.0,0.0,0.0,,,,,2019-12-01
84,84,Pakistan,14.0,10.0,4.0,13.0,0.0,1.0,1.0,6.0,0.0,5.0,,,,,2019-12-01
85,85,Philippinen,10.0,10.0,0.0,10.0,8.0,2.0,0.0,0.0,0.0,0.0,,,,,2019-12-01
86,86,Sri Lanka,22.0,19.0,3.0,20.0,1.0,3.0,1.0,7.0,1.0,7.0,,,,,2019-12-01
87,87,Syrien,9.0,9.0,0.0,6.0,0.0,0.0,2.0,1.0,0.0,3.0,,,,,2019-12-01
88,88,Thailand,9.0,8.0,1.0,10.0,3.0,6.0,0.0,0.0,1.0,0.0,,,,,2019-12-01
89,89,Usbekistan,2.0,2.0,0.0,2.0,2.0,0.0,0.0,0.0,0.0,0.0,,,,,2019-12-01
90,90,Vietnam,4.0,4.0,0.0,5.0,3.0,1.0,0.0,0.0,0.0,1.0,,,,,2019-12-01
91,91,Total Asien,296.0,271.0,25.0,290.0,39.0,110.0,11.0,62.0,20.0,48.0,,,,,2019-12-01
92,92,,,,,,,,,,,,,,,,2019-12-01
93,93,Albanien,624.0,610.0,14.0,612.0,1.0,542.0,2.0,4.0,2.0,61.0,,,,,2019-12-01
94,94,Belarus,12.0,11.0,1.0,11.0,0.0,2.0,0.0,5.0,0.0,4.0,,,,,2019-12-01
95,95,Belgien,6.0,5.0,1.0,5.0,0.0,1.0,0.0,0.0,0.0,4.0,,,,,2019-12-01
96,96,Bosnien u. Herzegowina,49.0,46.0,3.0,46.0,1.0,41.0,0.0,0.0,0.0,4.0,,,,,2019-12-01
97,97,Bulgarien,30.0,30.0,0.0,30.0,3.0,24.0,0.0,0.0,0.0,3.0,,,,,2019-12-01
98,98,Deutschland,8.0,8.0,0.0,8.0,3.0,4.0,0.0,0.0,0.0,1.0,,,,,2019-12-01
99,99,Estland,3.0,3.0,0.0,3.0,0.0,2.0,0.0,0.0,0.0,1.0,,,,,2019-12-01
100,100,Frankreich,9.0,9.0,0.0,9.0,0.0,8.0,0.0,0.0,1.0,0.0,,,,,2019-12-01
101,101,Griechenland,4.0,3.0,1.0,4.0,1.0,3.0,0.0,0.0,0.0,0.0,,,,,2019-12-01
102,102,Grossbritannien,7.0,6.0,1.0,8.0,0.0,6.0,0.0,0.0,0.0,2.0,,,,,2019-12-01
103,103,Italien,31.0,30.0,1.0,29.0,0.0,25.0,1.0,0.0,0.0,3.0,,,,,2019-12-01
104,104,Kosovo,256.0,246.0,10.0,267.0,3.0,227.0,0.0,7.0,3.0,27.0,,,,,2019-12-01
105,105,Kroatien,25.0,24.0,1.0,24.0,0.0,21.0,0.0,0.0,0.0,3.0,,,,,2019-12-01
106,106,Lettland,5.0,5.0,0.0,6.0,1.0,4.0,1.0,0.0,0.0,0.0,,,,,2019-12-01
107,107,Litauen,30.0,23.0,7.0,29.0,0.0,20.0,0.0,0.0,0.0,9.0,,,,,2019-12-01
108,108,Nordmazedonien,126.0,119.0,7.0,133.0,13.0,101.0,0.0,2.0,3.0,14.0,,,,,2019-12-01
109,109,Moldova,24.0,21.0,3.0,27.0,1.0,20.0,1.0,1.0,2.0,2.0,,,,,2019-12-01
110,110,Montenegro,12.0,12.0,0.0,14.0,2.0,9.0,1.0,0.0,0.0,2.0,,,,,2019-12-01
111,111,Niederlande,19.0,15.0,4.0,19.0,2.0,12.0,1.0,0.0,0.0,4.0,,,,,2019-12-01
112,112,Österreich,4.0,3.0,1.0,4.0,0.0,3.0,0.0,0.0,0.0,1.0,,,,,2019-12-01
113,113,Polen,45.0,39.0,6.0,45.0,0.0,36.0,0.0,0.0,0.0,9.0,,,,,2019-12-01
114,114,Portugal,103.0,92.0,11.0,107.0,4.0,81.0,2.0,0.0,1.0,19.0,,,,,2019-12-01
115,115,Rumänien,338.0,322.0,16.0,329.0,8.0,271.0,3.0,0.0,1.0,46.0,,,,,2019-12-01
116,116,Russland,20.0,19.0,1.0,17.0,0.0,10.0,2.0,3.0,0.0,2.0,,,,,2019-12-01
117,117,Schweden,1.0,1.0,0.0,1.0,0.0,1.0,0.0,0.0,0.0,0.0,,,,,2019-12-01
118,118,Serbien,321.0,315.0,6.0,289.0,4.0,262.0,2.0,4.0,2.0,15.0,,,,,2019-12-01
119,119,Slowakische Republik,11.0,11.0,0.0,11.0,0.0,9.0,0.0,0.0,2.0,0.0,,,,,2019-12-01
120,120,Slowenien,3.0,3.0,0.0,3.0,0.0,3.0,0.0,0.0,0.0,0.0,,,,,2019-12-01
121,121,Spanien,66.0,63.0,3.0,66.0,10.0,50.0,0.0,0.0,0.0,6.0,,,,,2019-12-01
122,122,Tschechische Republik,7.0,7.0,0.0,7.0,0.0,5.0,0.0,0.0,0.0,2.0,,,,,2019-12-01
123,123,Tschechoslowakei,1.0,1.0,0.0,1.0,0.0,1.0,0.0,0.0,0.0,0.0,,,,,2019-12-01
124,124,Türkei,53.0,51.0,2.0,49.0,3.0,35.0,0.0,2.0,0.0,9.0,,,,,2019-12-01
125,125,Ukraine,22.0,21.0,1.0,23.0,0.0,17.0,0.0,2.0,0.0,4.0,,,,,2019-12-01
126,126,Ungarn,27.0,25.0,2.0,26.0,3.0,16.0,0.0,0.0,0.0,7.0,,,,,2019-12-01
127,127,Total Europa,2302.0,2199.0,103.0,2262.0,63.0,1872.0,16.0,30.0,17.0,264.0,,,,,2019-12-01
128,128,,,,,,,,,,,,,,,,2019-12-01
129,129,Australien,2.0,2.0,0.0,2.0,1.0,0.0,0.0,0.0,0.0,1.0,,,,,2019-12-01
130,130,Total Ozeanien,2.0,2.0,0.0,2.0,1.0,0.0,0.0,0.0,0.0,1.0,,,,,2019-12-01
131,131,,,,,,,,,,,,,,,,2019-12-01
132,132,Staatenlos,2.0,1.0,1.0,1.0,0.0,0.0,0.0,0.0,0.0,1.0,,,,,2019-12-01
133,133,Ohne Nationalität,8.0,6.0,2.0,11.0,0.0,0.0,2.0,2.0,6.0,1.0,,,,,2019-12-01
134,134,Staat unbekannt,26.0,21.0,5.0,24.0,0.0,4.0,10.0,4.0,5.0,1.0,,,,,2019-12-01
135,135,Total Herkunft unbek.,36.0,28.0,8.0,36.0,0.0,4.0,12.0,6.0,11.0,3.0,,,,,2019-12-01
136,0,Ägypten,6.0,4.0,2.0,7.0,0.0,2.0,0.0,1.0,2.0,2.0,,,,,2020-12-01
137,1,Algerien,129.0,82.0,47.0,166.0,1.0,7.0,3.0,29.0,101.0,25.0,,,,,2020-12-01
138,2,Angola,6.0,6.0,0.0,4.0,1.0,0.0,0.0,2.0,1.0,0.0,,,,,2020-12-01
139,3,Äquatorialguinea,1.0,1.0,0.0,1.0,0.0,0.0,1.0,0.0,0.0,0.0,,,,,2020-12-01
140,4,Äthiopien,8.0,6.0,2.0,7.0,0.0,0.0,0.0,1.0,0.0,6.0,,,,,2020-12-01
141,5,Benin,2.0,2.0,0.0,2.0,0.0,0.0,0.0,0.0,2.0,0.0,,,,,2020-12-01
142,6,Burkina Faso,4.0,4.0,0.0,3.0,3.0,0.0,0.0,0.0,0.0,0.0,,,,,2020-12-01
143,7,Burundi,0.0,0.0,0.0,1.0,0.0,0.0,0.0,0.0,1.0,0.0,,,,,2020-12-01
144,8,Côte d'Ivoire,11.0,10.0,1.0,11.0,1.0,2.0,0.0,4.0,2.0,2.0,,,,,2020-12-01
145,9,Eritrea,4.0,4.0,0.0,5.0,1.0,0.0,1.0,2.0,1.0,0.0,,,,,2020-12-01
146,10,Gabun,0.0,0.0,0.0,1.0,0.0,0.0,0.0,1.0,0.0,0.0,,,,,2020-12-01
147,11,Gambia,48.0,42.0,6.0,50.0,1.0,6.0,6.0,24.0,2.0,11.0,,,,,2020-12-01
148,12,Ghana,4.0,4.0,0.0,4.0,0.0,1.0,1.0,2.0,0.0,0.0,,,,,2020-12-01
149,13,Guinea,49.0,40.0,9.0,46.0,1.0,8.0,11.0,10.0,7.0,9.0,,,,,2020-12-01
150,14,Guinea-Bissau,13.0,12.0,1.0,13.0,1.0,6.0,3.0,1.0,0.0,2.0,,,,,2020-12-01
151,15,Kamerun,8.0,7.0,1.0,7.0,0.0,3.0,0.0,1.0,0.0,3.0,,,,,2020-12-01
152,16,Kapverden,0.0,0.0,0.0,2.0,0.0,0.0,0.0,0.0,2.0,0.0,,,,,2020-12-01
153,17,Kenia,4.0,3.0,1.0,4.0,1.0,2.0,0.0,0.0,0.0,1.0,,,,,2020-12-01
154,18,Kongo,1.0,1.0,0.0,1.0,0.0,0.0,0.0,0.0,0.0,1.0,,,,,2020-12-01
155,19,Kongo DR,8.0,6.0,2.0,6.0,1.0,1.0,0.0,0.0,2.0,2.0,,,,,2020-12-01
156,20,Liberia,3.0,3.0,0.0,2.0,0.0,0.0,0.0,1.0,1.0,0.0,,,,,2020-12-01
157,21,Libyen,27.0,21.0,6.0,15.0,0.0,0.0,1.0,3.0,6.0,5.0,,,,,2020-12-01
158,22,Malawi,1.0,1.0,0.0,0.0,0.0,0.0,0.0,0.0,0.0,0.0,,,,,2020-12-01
159,23,Mali,6.0,5.0,1.0,5.0,0.0,1.0,0.0,2.0,1.0,1.0,,,,,2020-12-01
160,24,Marokko,84.0,63.0,21.0,71.0,3.0,2.0,4.0,24.0,21.0,17.0,,,,,2020-12-01
161,25,Mauretanien,2.0,2.0,0.0,1.0,0.0,0.0,1.0,0.0,0.0,0.0,,,,,2020-12-01
162,26,Mauritius,3.0,2.0,1.0,2.0,2.0,0.0,0.0,0.0,0.0,0.0,,,,,2020-12-01
163,27,Mosambik,1.0,1.0,0.0,1.0,0.0,0.0,0.0,0.0,0.0,1.0,,,,,2020-12-01
164,28,Niger,3.0,3.0,0.0,2.0,0.0,0.0,0.0,1.0,0.0,1.0,,,,,2020-12-01
165,29,Nigeria,122.0,99.0,23.0,120.0,1.0,16.0,33.0,26.0,6.0,38.0,,,,,2020-12-01
166,30,Ruanda,1.0,1.0,0.0,1.0,0.0,0.0,0.0,1.0,0.0,0.0,,,,,2020-12-01
167,31,Sambia,0.0,0.0,0.0,1.0,0.0,0.0,0.0,0.0,1.0,0.0,,,,,2020-12-01
168,32,Senegal,17.0,15.0,2.0,16.0,0.0,3.0,4.0,3.0,3.0,3.0,,,,,2020-12-01
169,33,Sierra Leone,3.0,3.0,0.0,5.0,0.0,0.0,2.0,1.0,2.0,0.0,,,,,2020-12-01
170,34,Somalia,19.0,17.0,2.0,16.0,1.0,0.0,0.0,11.0,2.0,2.0,,,,,2020-12-01
171,35,Sudan,5.0,4.0,1.0,3.0,0.0,0.0,0.0,2.0,0.0,1.0,,,,,2020-12-01
172,36,Südsudan,2.0,2.0,0.0,0.0,0.0,0.0,0.0,0.0,0.0,0.0,,,,,2020-12-01
173,37,Togo,3.0,3.0,0.0,2.0,2.0,0.0,0.0,0.0,0.0,0.0,,,,,2020-12-01
174,38,Tschad,3.0,2.0,1.0,2.0,0.0,0.0,0.0,0.0,0.0,2.0,,,,,2020-12-01
175,39,Tunesien,57.0,43.0,14.0,59.0,3.0,18.0,1.0,8.0,18.0,11.0,,,,,2020-12-01
176,40,Uganda,2.0,2.0,0.0,1.0,1.0,0.0,0.0,0.0,0.0,0.0,,,,,2020-12-01
177,41,Total Afrika,670.0,526.0,144.0,666.0,25.0,78.0,72.0,161.0,184.0,146.0,,,,,2020-12-01
178,42,,,,,,,,,,,,,,,,2020-12-01
179,43,Argentinien,5.0,4.0,1.0,5.0,2.0,0.0,0.0,0.0,0.0,3.0,,,,,2020-12-01
180,44,Bolivien,5.0,4.0,1.0,6.0,1.0,1.0,0.0,0.0,0.0,4.0,,,,,2020-12-01
181,45,Brasilien,87.0,82.0,5.0,84.0,41.0,24.0,1.0,0.0,1.0,17.0,,,,,2020-12-01
182,46,Chile,15.0,13.0,2.0,18.0,3.0,9.0,1.0,0.0,0.0,5.0,,,,,2020-12-01
183,47,Dominikanische Republik,25.0,21.0,4.0,23.0,0.0,11.0,5.0,0.0,0.0,7.0,,,,,2020-12-01
184,48,Ecuador,6.0,6.0,0.0,5.0,2.0,1.0,1.0,0.0,0.0,1.0,,,,,2020-12-01
185,49,Honduras,2.0,2.0,0.0,3.0,0.0,0.0,0.0,0.0,1.0,2.0,,,,,2020-12-01
186,50,Jamaika,0.0,0.0,0.0,4.0,1.0,1.0,0.0,0.0,0.0,2.0,,,,,2020-12-01
187,51,Kanada,3.0,3.0,0.0,3.0,2.0,0.0,0.0,0.0,0.0,1.0,,,,,2020-12-01
188,52,Kolumbien,38.0,35.0,3.0,38.0,16.0,13.0,2.0,0.0,1.0,6.0,,,,,2020-12-01
189,53,Kuba,2.0,1.0,1.0,3.0,0.0,0.0,0.0,0.0,3.0,0.0,,,,,2020-12-01
190,54,Mexiko,5.0,4.0,1.0,5.0,0.0,2.0,0.0,0.0,0.0,3.0,,,,,2020-12-01
191,55,Paraguay,4.0,4.0,0.0,4.0,3.0,0.0,0.0,0.0,0.0,1.0,,,,,2020-12-01
192,56,Peru,8.0,8.0,0.0,6.0,2.0,2.0,1.0,0.0,0.0,1.0,,,,,2020-12-01
193,57,Uruguay,0.0,0.0,0.0,1.0,0.0,1.0,0.0,0.0,0.0,0.0,,,,,2020-12-01
194,58,USA,9.0,8.0,1.0,8.0,0.0,6.0,0.0,1.0,0.0,1.0,,,,,2020-12-01
195,59,Venezuela,10.0,8.0,2.0,8.0,3.0,2.0,0.0,0.0,1.0,2.0,,,,,2020-12-01
196,60,Total Amerika,224.0,203.0,21.0,224.0,76.0,73.0,11.0,1.0,7.0,56.0,,,,,2020-12-01
197,61,,,,,,,,,,,,,,,,2020-12-01
198,62,Afghanistan,10.0,10.0,0.0,9.0,1.0,0.0,1.0,7.0,0.0,0.0,,,,,2020-12-01
199,63,Armenien,1.0,1.0,0.0,1.0,0.0,0.0,0.0,0.0,0.0,1.0,,,,,2020-12-01
200,64,Aserbaidschan,1.0,1.0,0.0,2.0,0.0,0.0,0.0,2.0,0.0,0.0,,,,,2020-12-01
201,65,Bangladesh,4.0,4.0,0.0,3.0,0.0,0.0,0.0,3.0,0.0,0.0,,,,,2020-12-01
202,66,China (Volksrepublik),15.0,14.0,1.0,18.0,3.0,6.0,2.0,0.0,2.0,5.0,,,,,2020-12-01
203,67,Georgien,51.0,41.0,10.0,47.0,3.0,23.0,1.0,3.0,1.0,16.0,,,,,2020-12-01
204,68,Indien,13.0,10.0,3.0,12.0,3.0,2.0,0.0,2.0,0.0,5.0,,,,,2020-12-01
205,69,Irak,39.0,24.0,15.0,38.0,15.0,0.0,0.0,3.0,3.0,17.0,,,,,2020-12-01
206,70,Iran,1.0,1.0,0.0,2.0,0.0,0.0,0.0,0.0,0.0,2.0,,,,,2020-12-01
207,71,Israel,4.0,3.0,1.0,4.0,0.0,3.0,0.0,0.0,0.0,1.0,,,,,2020-12-01
208,72,Jordanien,1.0,1.0,0.0,2.0,0.0,1.0,0.0,1.0,0.0,0.0,,,,,2020-12-01
209,73,Kambodscha,1.0,0.0,1.0,1.0,0.0,0.0,0.0,0.0,0.0,1.0,,,,,2020-12-01
210,74,Kasachstan,2.0,2.0,0.0,2.0,0.0,1.0,0.0,0.0,0.0,1.0,,,,,2020-12-01
211,75,Malaysia,1.0,1.0,0.0,1.0,1.0,0.0,0.0,0.0,0.0,0.0,,,,,2020-12-01
212,76,Mongolei,6.0,5.0,1.0,6.0,4.0,0.0,0.0,1.0,1.0,0.0,,,,,2020-12-01
213,77,Nepal,0.0,0.0,0.0,1.0,0.0,1.0,0.0,0.0,0.0,0.0,,,,,2020-12-01
214,78,Oman,1.0,1.0,0.0,1.0,0.0,1.0,0.0,0.0,0.0,0.0,,,,,2020-12-01
215,79,Pakistan,10.0,8.0,2.0,11.0,1.0,1.0,1.0,3.0,0.0,5.0,,,,,2020-12-01
216,80,Philippinen,6.0,6.0,0.0,6.0,5.0,1.0,0.0,0.0,0.0,0.0,,,,,2020-12-01
217,81,Sri Lanka,14.0,12.0,2.0,11.0,0.0,2.0,0.0,0.0,0.0,9.0,,,,,2020-12-01
218,82,Syrien,6.0,6.0,0.0,6.0,0.0,0.0,0.0,0.0,1.0,5.0,,,,,2020-12-01
219,83,Thailand,9.0,7.0,2.0,8.0,0.0,5.0,0.0,0.0,0.0,3.0,,,,,2020-12-01
220,84,Vietnam,1.0,1.0,0.0,1.0,0.0,1.0,0.0,0.0,0.0,0.0,,,,,2020-12-01
221,85,Total Asien,197.0,159.0,38.0,193.0,36.0,48.0,5.0,25.0,8.0,71.0,,,,,2020-12-01
222,86,,,,,,,,,,,,,,,,2020-12-01
223,87,Albanien,440.0,411.0,29.0,443.0,32.0,298.0,1.0,4.0,1.0,107.0,,,,,2020-12-01
224,88,Belarus,9.0,8.0,1.0,9.0,0.0,4.0,0.0,0.0,1.0,4.0,,,,,2020-12-01
225,89,Belgien,7.0,6.0,1.0,7.0,0.0,4.0,0.0,0.0,0.0,3.0,,,,,2020-12-01
226,90,Bosnien u. Herzegowina,24.0,23.0,1.0,25.0,0.0,18.0,0.0,0.0,0.0,7.0,,,,,2020-12-01
227,91,Bulgarien,21.0,20.0,1.0,17.0,2.0,11.0,0.0,0.0,1.0,3.0,,,,,2020-12-01
228,92,Deutschland,2.0,2.0,0.0,1.0,0.0,1.0,0.0,0.0,0.0,0.0,,,,,2020-12-01
229,93,Estland,2.0,2.0,0.0,2.0,0.0,1.0,0.0,0.0,0.0,1.0,,,,,2020-12-01
230,94,Frankreich,10.0,10.0,0.0,8.0,0.0,5.0,0.0,0.0,0.0,3.0,,,,,2020-12-01
231,95,Griechenland,6.0,5.0,1.0,6.0,1.0,2.0,0.0,0.0,0.0,3.0,,,,,2020-12-01
232,96,Grossbritannien,5.0,5.0,0.0,5.0,1.0,4.0,0.0,0.0,0.0,0.0,,,,,2020-12-01
233,97,Irland,1.0,1.0,0.0,1.0,1.0,0.0,0.0,0.0,0.0,0.0,,,,,2020-12-01
234,98,Italien,27.0,23.0,4.0,30.0,2.0,15.0,0.0,0.0,1.0,12.0,,,,,2020-12-01
235,99,Kosovo,155.0,141.0,14.0,176.0,4.0,126.0,2.0,4.0,6.0,34.0,,,,,2020-12-01
236,100,Kroatien,16.0,13.0,3.0,18.0,0.0,13.0,0.0,0.0,0.0,5.0,,,,,2020-12-01
237,101,Lettland,4.0,3.0,1.0,4.0,0.0,2.0,0.0,0.0,0.0,2.0,,,,,2020-12-01
238,102,Litauen,14.0,12.0,2.0,15.0,0.0,11.0,0.0,0.0,0.0,4.0,,,,,2020-12-01
239,103,Nordmazedonien,78.0,72.0,6.0,73.0,0.0,61.0,0.0,0.0,1.0,11.0,,,,,2020-12-01
240,104,Moldova,17.0,14.0,3.0,16.0,2.0,8.0,0.0,0.0,1.0,5.0,,,,,2020-12-01
241,105,Montenegro,2.0,2.0,0.0,2.0,1.0,1.0,0.0,0.0,0.0,0.0,,,,,2020-12-01
242,106,Niederlande,6.0,6.0,0.0,6.0,0.0,5.0,1.0,0.0,0.0,0.0,,,,,2020-12-01
243,107,Österreich,1.0,1.0,0.0,1.0,0.0,1.0,0.0,0.0,0.0,0.0,,,,,2020-12-01
244,108,Polen,30.0,26.0,4.0,31.0,1.0,20.0,0.0,0.0,0.0,10.0,,,,,2020-12-01
245,109,Portugal,76.0,66.0,10.0,78.0,10.0,54.0,0.0,0.0,0.0,14.0,,,,,2020-12-01
246,110,Rumänien,281.0,252.0,29.0,285.0,73.0,132.0,1.0,0.0,0.0,79.0,,,,,2020-12-01
247,111,Russland,7.0,7.0,0.0,8.0,0.0,5.0,0.0,0.0,2.0,1.0,,,,,2020-12-01
248,112,Serbien,190.0,177.0,13.0,185.0,3.0,121.0,1.0,1.0,6.0,53.0,,,,,2020-12-01
249,113,Slowakische Republik,16.0,13.0,3.0,16.0,2.0,4.0,0.0,0.0,0.0,10.0,,,,,2020-12-01
250,114,Slowenien,1.0,1.0,0.0,1.0,0.0,1.0,0.0,0.0,0.0,0.0,,,,,2020-12-01
251,115,Spanien,26.0,26.0,0.0,27.0,7.0,15.0,1.0,0.0,0.0,4.0,,,,,2020-12-01
252,116,Tschechische Republik,6.0,6.0,0.0,6.0,0.0,6.0,0.0,0.0,0.0,0.0,,,,,2020-12-01
253,117,Türkei,44.0,36.0,8.0,45.0,6.0,24.0,2.0,0.0,4.0,9.0,,,,,2020-12-01
254,118,Ukraine,12.0,12.0,0.0,12.0,0.0,7.0,0.0,1.0,0.0,4.0,,,,,2020-12-01
255,119,Ungarn,14.0,10.0,4.0,14.0,2.0,4.0,1.0,0.0,0.0,7.0,,,,,2020-12-01
256,120,Total Europa,1550.0,1412.0,138.0,1573.0,150.0,984.0,10.0,10.0,24.0,395.0,,,,,2020-12-01
257,121,,,,,,,,,,,,,,,,2020-12-01
258,122,Australien,1.0,0.0,1.0,1.0,0.0,1.0,0.0,0.0,0.0,0.0,,,,,2020-12-01
259,123,Total Ozeanien,1.0,0.0,1.0,1.0,0.0,1.0,0.0,0.0,0.0,0.0,,,,,2020-12-01
260,124,,,,,,,,,,,,,,,,2020-12-01
261,125,Staatenlos,1.0,1.0,0.0,1.0,0.0,0.0,1.0,0.0,0.0,0.0,,,,,2020-12-01
262,126,Ohne Nationalität,7.0,5.0,2.0,8.0,0.0,0.0,0.0,2.0,6.0,0.0,,,,,2020-12-01
263,127,Staat unbekannt,10.0,7.0,3.0,13.0,1.0,1.0,2.0,3.0,5.0,1.0,,,,,2020-12-01
264,128,Total Herkunft unbek.,18.0,13.0,5.0,22.0,1.0,1.0,3.0,5.0,11.0,1.0,,,,,2020-12-01
