,Nation,Total,Beginn,WiederaufnahmenAufenthalt,Total ,"Kontrollierte, selbständige Ausreisen",Rückführungen Heimatstaat,Rückführungen Drittstaat,RückführungenDublinstaat,Unkontrollierte Abreisen,Andere Abgänge ,Datum,file_name,name_of_sem_statistics,flow_or_stock,yearly_or_monthly
0,Ägypten,4.0,4.0,0.0,6.0,0.0,0.0,0.0,4.0,2.0,0.0,2019-12-01,7-31-Bew-Aufenthalte-AIG-J-d-2020-12.xlsx,7-31,flow,yearly
1,Algerien,179.0,127.0,52.0,166.0,3.0,13.0,9.0,58.0,56.0,27.0,2019-12-01,7-31-Bew-Aufenthalte-AIG-J-d-2020-12.xlsx,7-31,flow,yearly
2,Angola,3.0,3.0,0.0,3.0,0.0,1.0,0.0,1.0,0.0,1.0,2019-12-01,7-31-Bew-Aufenthalte-AIG-J-d-2020-12.xlsx,7-31,flow,yearly
3,Äquatorialguinea,1.0,1.0,0.0,2.0,0.0,0.0,0.0,0.0,1.0,1.0,2019-12-01,7-31-Bew-Aufenthalte-AIG-J-d-2020-12.xlsx,7-31,flow,yearly
4,Äthiopien,10.0,6.0,4.0,10.0,1.0,0.0,0.0,5.0,2.0,2.0,2019-12-01,7-31-Bew-Aufenthalte-AIG-J-d-2020-12.xlsx,7-31,flow,yearly
5,Benin,3.0,3.0,0.0,1.0,0.0,0.0,0.0,0.0,0.0,1.0,2019-12-01,7-31-Bew-Aufenthalte-AIG-J-d-2020-12.xlsx,7-31,flow,yearly
6,Burkina Faso,2.0,2.0,0.0,1.0,0.0,1.0,0.0,0.0,0.0,0.0,2019-12-01,7-31-Bew-Aufenthalte-AIG-J-d-2020-12.xlsx,7-31,flow,yearly
7,Burundi,1.0,1.0,0.0,0.0,0.0,0.0,0.0,0.0,0.0,0.0,2019-12-01,7-31-Bew-Aufenthalte-AIG-J-d-2020-12.xlsx,7-31,flow,yearly
8,Côte d'Ivoire,9.0,8.0,1.0,9.0,0.0,0.0,2.0,3.0,3.0,1.0,2019-12-01,7-31-Bew-Aufenthalte-AIG-J-d-2020-12.xlsx,7-31,flow,yearly
9,Dschibuti,1.0,1.0,0.0,0.0,0.0,0.0,0.0,0.0,0.0,0.0,2019-12-01,7-31-Bew-Aufenthalte-AIG-J-d-2020-12.xlsx,7-31,flow,yearly
10,Eritrea,9.0,9.0,0.0,5.0,1.0,0.0,0.0,4.0,0.0,0.0,2019-12-01,7-31-Bew-Aufenthalte-AIG-J-d-2020-12.xlsx,7-31,flow,yearly
11,Gabun,4.0,4.0,0.0,1.0,0.0,0.0,0.0,0.0,0.0,1.0,2019-12-01,7-31-Bew-Aufenthalte-AIG-J-d-2020-12.xlsx,7-31,flow,yearly
12,Gambia,85.0,79.0,6.0,77.0,1.0,5.0,7.0,56.0,4.0,4.0,2019-12-01,7-31-Bew-Aufenthalte-AIG-J-d-2020-12.xlsx,7-31,flow,yearly
13,Ghana,11.0,11.0,0.0,10.0,0.0,0.0,2.0,7.0,0.0,1.0,2019-12-01,7-31-Bew-Aufenthalte-AIG-J-d-2020-12.xlsx,7-31,flow,yearly
14,Guinea,93.0,84.0,9.0,88.0,0.0,23.0,11.0,36.0,8.0,10.0,2019-12-01,7-31-Bew-Aufenthalte-AIG-J-d-2020-12.xlsx,7-31,flow,yearly
15,Guinea-Bissau,22.0,20.0,2.0,21.0,0.0,7.0,4.0,5.0,0.0,5.0,2019-12-01,7-31-Bew-Aufenthalte-AIG-J-d-2020-12.xlsx,7-31,flow,yearly
16,Kamerun,15.0,12.0,3.0,19.0,1.0,4.0,0.0,4.0,6.0,4.0,2019-12-01,7-31-Bew-Aufenthalte-AIG-J-d-2020-12.xlsx,7-31,flow,yearly
17,Kapverden,2.0,2.0,0.0,4.0,2.0,0.0,0.0,0.0,2.0,0.0,2019-12-01,7-31-Bew-Aufenthalte-AIG-J-d-2020-12.xlsx,7-31,flow,yearly
18,Kenia,3.0,3.0,0.0,5.0,1.0,0.0,0.0,1.0,2.0,1.0,2019-12-01,7-31-Bew-Aufenthalte-AIG-J-d-2020-12.xlsx,7-31,flow,yearly
19,Kongo DR,4.0,3.0,1.0,9.0,0.0,1.0,0.0,0.0,5.0,3.0,2019-12-01,7-31-Bew-Aufenthalte-AIG-J-d-2020-12.xlsx,7-31,flow,yearly
20,Liberia,1.0,1.0,0.0,1.0,0.0,0.0,0.0,0.0,1.0,0.0,2019-12-01,7-31-Bew-Aufenthalte-AIG-J-d-2020-12.xlsx,7-31,flow,yearly
21,Libyen,18.0,15.0,3.0,16.0,2.0,0.0,0.0,8.0,4.0,2.0,2019-12-01,7-31-Bew-Aufenthalte-AIG-J-d-2020-12.xlsx,7-31,flow,yearly
22,Mali,17.0,17.0,0.0,16.0,1.0,0.0,2.0,13.0,0.0,0.0,2019-12-01,7-31-Bew-Aufenthalte-AIG-J-d-2020-12.xlsx,7-31,flow,yearly
23,Marokko,87.0,72.0,15.0,82.0,5.0,10.0,4.0,33.0,25.0,5.0,2019-12-01,7-31-Bew-Aufenthalte-AIG-J-d-2020-12.xlsx,7-31,flow,yearly
24,Mauretanien,3.0,3.0,0.0,3.0,0.0,0.0,2.0,1.0,0.0,0.0,2019-12-01,7-31-Bew-Aufenthalte-AIG-J-d-2020-12.xlsx,7-31,flow,yearly
25,Mauritius,2.0,2.0,0.0,3.0,2.0,1.0,0.0,0.0,0.0,0.0,2019-12-01,7-31-Bew-Aufenthalte-AIG-J-d-2020-12.xlsx,7-31,flow,yearly
26,Niger,1.0,1.0,0.0,1.0,0.0,0.0,0.0,1.0,0.0,0.0,2019-12-01,7-31-Bew-Aufenthalte-AIG-J-d-2020-12.xlsx,7-31,flow,yearly
27,Nigeria,240.0,225.0,15.0,235.0,0.0,46.0,42.0,123.0,0.0,24.0,2019-12-01,7-31-Bew-Aufenthalte-AIG-J-d-2020-12.xlsx,7-31,flow,yearly
28,Senegal,30.0,25.0,5.0,28.0,3.0,4.0,2.0,13.0,2.0,4.0,2019-12-01,7-31-Bew-Aufenthalte-AIG-J-d-2020-12.xlsx,7-31,flow,yearly
29,Sierra Leone,6.0,4.0,2.0,3.0,0.0,0.0,0.0,2.0,1.0,0.0,2019-12-01,7-31-Bew-Aufenthalte-AIG-J-d-2020-12.xlsx,7-31,flow,yearly
30,Somalia,19.0,15.0,4.0,16.0,0.0,0.0,0.0,10.0,3.0,3.0,2019-12-01,7-31-Bew-Aufenthalte-AIG-J-d-2020-12.xlsx,7-31,flow,yearly
31,Südafrika,4.0,4.0,0.0,4.0,0.0,1.0,0.0,3.0,0.0,0.0,2019-12-01,7-31-Bew-Aufenthalte-AIG-J-d-2020-12.xlsx,7-31,flow,yearly
32,Sudan,6.0,5.0,1.0,7.0,0.0,3.0,0.0,2.0,1.0,1.0,2019-12-01,7-31-Bew-Aufenthalte-AIG-J-d-2020-12.xlsx,7-31,flow,yearly
33,Südsudan,1.0,0.0,1.0,1.0,0.0,0.0,0.0,0.0,0.0,1.0,2019-12-01,7-31-Bew-Aufenthalte-AIG-J-d-2020-12.xlsx,7-31,flow,yearly
34,Tansania,2.0,2.0,0.0,2.0,0.0,1.0,1.0,0.0,0.0,0.0,2019-12-01,7-31-Bew-Aufenthalte-AIG-J-d-2020-12.xlsx,7-31,flow,yearly
35,Togo,1.0,1.0,0.0,1.0,0.0,0.0,0.0,1.0,0.0,0.0,2019-12-01,7-31-Bew-Aufenthalte-AIG-J-d-2020-12.xlsx,7-31,flow,yearly
36,Tschad,2.0,1.0,1.0,1.0,0.0,0.0,0.0,0.0,1.0,0.0,2019-12-01,7-31-Bew-Aufenthalte-AIG-J-d-2020-12.xlsx,7-31,flow,yearly
37,Tunesien,64.0,50.0,14.0,61.0,2.0,21.0,0.0,14.0,15.0,9.0,2019-12-01,7-31-Bew-Aufenthalte-AIG-J-d-2020-12.xlsx,7-31,flow,yearly
38,Uganda,1.0,0.0,1.0,0.0,0.0,0.0,0.0,0.0,0.0,0.0,2019-12-01,7-31-Bew-Aufenthalte-AIG-J-d-2020-12.xlsx,7-31,flow,yearly
39,Westsahara,1.0,1.0,0.0,0.0,0.0,0.0,0.0,0.0,0.0,0.0,2019-12-01,7-31-Bew-Aufenthalte-AIG-J-d-2020-12.xlsx,7-31,flow,yearly
40,Zimbabwe,2.0,2.0,0.0,0.0,0.0,0.0,0.0,0.0,0.0,0.0,2019-12-01,7-31-Bew-Aufenthalte-AIG-J-d-2020-12.xlsx,7-31,flow,yearly
41,Total Afrika,969.0,829.0,140.0,918.0,25.0,142.0,88.0,408.0,144.0,111.0,2019-12-01,7-31-Bew-Aufenthalte-AIG-J-d-2020-12.xlsx,7-31,flow,yearly
42,Argentinien,8.0,8.0,0.0,8.0,3.0,3.0,0.0,0.0,0.0,2.0,2019-12-01,7-31-Bew-Aufenthalte-AIG-J-d-2020-12.xlsx,7-31,flow,yearly
43,Bolivien,7.0,6.0,1.0,7.0,4.0,2.0,0.0,0.0,0.0,1.0,2019-12-01,7-31-Bew-Aufenthalte-AIG-J-d-2020-12.xlsx,7-31,flow,yearly
44,Brasilien,112.0,106.0,6.0,110.0,33.0,61.0,1.0,0.0,2.0,13.0,2019-12-01,7-31-Bew-Aufenthalte-AIG-J-d-2020-12.xlsx,7-31,flow,yearly
45,Chile,15.0,15.0,0.0,13.0,6.0,6.0,1.0,0.0,0.0,0.0,2019-12-01,7-31-Bew-Aufenthalte-AIG-J-d-2020-12.xlsx,7-31,flow,yearly
46,Costa Rica,1.0,1.0,0.0,1.0,0.0,1.0,0.0,0.0,0.0,0.0,2019-12-01,7-31-Bew-Aufenthalte-AIG-J-d-2020-12.xlsx,7-31,flow,yearly
47,Dominikanische Republik,46.0,42.0,4.0,47.0,4.0,20.0,14.0,1.0,4.0,4.0,2019-12-01,7-31-Bew-Aufenthalte-AIG-J-d-2020-12.xlsx,7-31,flow,yearly
48,Ecuador,5.0,5.0,0.0,5.0,3.0,1.0,1.0,0.0,0.0,0.0,2019-12-01,7-31-Bew-Aufenthalte-AIG-J-d-2020-12.xlsx,7-31,flow,yearly
49,El Salvador,1.0,1.0,0.0,1.0,0.0,1.0,0.0,0.0,0.0,0.0,2019-12-01,7-31-Bew-Aufenthalte-AIG-J-d-2020-12.xlsx,7-31,flow,yearly
50,Haiti,3.0,2.0,1.0,3.0,0.0,2.0,0.0,0.0,0.0,1.0,2019-12-01,7-31-Bew-Aufenthalte-AIG-J-d-2020-12.xlsx,7-31,flow,yearly
51,Honduras,4.0,3.0,1.0,3.0,3.0,0.0,0.0,0.0,0.0,0.0,2019-12-01,7-31-Bew-Aufenthalte-AIG-J-d-2020-12.xlsx,7-31,flow,yearly
52,Jamaika,3.0,3.0,0.0,2.0,0.0,0.0,0.0,0.0,0.0,2.0,2019-12-01,7-31-Bew-Aufenthalte-AIG-J-d-2020-12.xlsx,7-31,flow,yearly
53,Kanada,1.0,1.0,0.0,1.0,0.0,1.0,0.0,0.0,0.0,0.0,2019-12-01,7-31-Bew-Aufenthalte-AIG-J-d-2020-12.xlsx,7-31,flow,yearly
54,Kolumbien,53.0,49.0,4.0,53.0,16.0,24.0,1.0,0.0,0.0,12.0,2019-12-01,7-31-Bew-Aufenthalte-AIG-J-d-2020-12.xlsx,7-31,flow,yearly
55,Kuba,6.0,6.0,0.0,4.0,2.0,0.0,1.0,0.0,0.0,1.0,2019-12-01,7-31-Bew-Aufenthalte-AIG-J-d-2020-12.xlsx,7-31,flow,yearly
56,Mexiko,7.0,7.0,0.0,7.0,2.0,5.0,0.0,0.0,0.0,0.0,2019-12-01,7-31-Bew-Aufenthalte-AIG-J-d-2020-12.xlsx,7-31,flow,yearly
57,Nicaragua,3.0,3.0,0.0,3.0,1.0,1.0,0.0,0.0,0.0,1.0,2019-12-01,7-31-Bew-Aufenthalte-AIG-J-d-2020-12.xlsx,7-31,flow,yearly
58,Paraguay,7.0,5.0,2.0,7.0,4.0,3.0,0.0,0.0,0.0,0.0,2019-12-01,7-31-Bew-Aufenthalte-AIG-J-d-2020-12.xlsx,7-31,flow,yearly
59,Peru,18.0,17.0,1.0,18.0,6.0,9.0,1.0,0.0,0.0,2.0,2019-12-01,7-31-Bew-Aufenthalte-AIG-J-d-2020-12.xlsx,7-31,flow,yearly
60,Uruguay,3.0,3.0,0.0,2.0,1.0,1.0,0.0,0.0,0.0,0.0,2019-12-01,7-31-Bew-Aufenthalte-AIG-J-d-2020-12.xlsx,7-31,flow,yearly
61,USA,11.0,9.0,2.0,11.0,0.0,8.0,0.0,0.0,0.0,3.0,2019-12-01,7-31-Bew-Aufenthalte-AIG-J-d-2020-12.xlsx,7-31,flow,yearly
62,Venezuela,9.0,8.0,1.0,9.0,1.0,3.0,1.0,0.0,0.0,4.0,2019-12-01,7-31-Bew-Aufenthalte-AIG-J-d-2020-12.xlsx,7-31,flow,yearly
63,Total Amerika,323.0,300.0,23.0,315.0,89.0,152.0,21.0,1.0,6.0,46.0,2019-12-01,7-31-Bew-Aufenthalte-AIG-J-d-2020-12.xlsx,7-31,flow,yearly
64,Afghanistan,16.0,12.0,4.0,16.0,0.0,1.0,1.0,10.0,0.0,4.0,2019-12-01,7-31-Bew-Aufenthalte-AIG-J-d-2020-12.xlsx,7-31,flow,yearly
65,Armenien,3.0,3.0,0.0,4.0,1.0,0.0,0.0,2.0,1.0,0.0,2019-12-01,7-31-Bew-Aufenthalte-AIG-J-d-2020-12.xlsx,7-31,flow,yearly
66,Aserbaidschan,1.0,1.0,0.0,1.0,0.0,0.0,0.0,0.0,0.0,1.0,2019-12-01,7-31-Bew-Aufenthalte-AIG-J-d-2020-12.xlsx,7-31,flow,yearly
67,Bangladesh,5.0,4.0,1.0,5.0,1.0,1.0,0.0,1.0,0.0,2.0,2019-12-01,7-31-Bew-Aufenthalte-AIG-J-d-2020-12.xlsx,7-31,flow,yearly
68,China (Volksrepublik),19.0,16.0,3.0,13.0,0.0,5.0,5.0,0.0,1.0,2.0,2019-12-01,7-31-Bew-Aufenthalte-AIG-J-d-2020-12.xlsx,7-31,flow,yearly
69,Georgien,103.0,96.0,7.0,101.0,0.0,70.0,1.0,12.0,3.0,15.0,2019-12-01,7-31-Bew-Aufenthalte-AIG-J-d-2020-12.xlsx,7-31,flow,yearly
70,Indien,10.0,10.0,0.0,11.0,1.0,5.0,0.0,4.0,0.0,1.0,2019-12-01,7-31-Bew-Aufenthalte-AIG-J-d-2020-12.xlsx,7-31,flow,yearly
71,Irak,24.0,23.0,1.0,28.0,7.0,0.0,0.0,8.0,9.0,4.0,2019-12-01,7-31-Bew-Aufenthalte-AIG-J-d-2020-12.xlsx,7-31,flow,yearly
72,Iran,8.0,8.0,0.0,7.0,2.0,1.0,0.0,4.0,0.0,0.0,2019-12-01,7-31-Bew-Aufenthalte-AIG-J-d-2020-12.xlsx,7-31,flow,yearly
73,Israel,8.0,8.0,0.0,7.0,0.0,6.0,0.0,1.0,0.0,0.0,2019-12-01,7-31-Bew-Aufenthalte-AIG-J-d-2020-12.xlsx,7-31,flow,yearly
74,Jordanien,4.0,4.0,0.0,5.0,2.0,2.0,0.0,0.0,0.0,1.0,2019-12-01,7-31-Bew-Aufenthalte-AIG-J-d-2020-12.xlsx,7-31,flow,yearly
75,Kambodscha,1.0,1.0,0.0,1.0,0.0,0.0,0.0,0.0,1.0,0.0,2019-12-01,7-31-Bew-Aufenthalte-AIG-J-d-2020-12.xlsx,7-31,flow,yearly
76,Kasachstan,2.0,2.0,0.0,2.0,0.0,2.0,0.0,0.0,0.0,0.0,2019-12-01,7-31-Bew-Aufenthalte-AIG-J-d-2020-12.xlsx,7-31,flow,yearly
77,Korea (Süd),2.0,2.0,0.0,2.0,0.0,2.0,0.0,0.0,0.0,0.0,2019-12-01,7-31-Bew-Aufenthalte-AIG-J-d-2020-12.xlsx,7-31,flow,yearly
78,Libanon,10.0,9.0,1.0,11.0,1.0,2.0,0.0,4.0,3.0,1.0,2019-12-01,7-31-Bew-Aufenthalte-AIG-J-d-2020-12.xlsx,7-31,flow,yearly
79,Malaysia,1.0,1.0,0.0,1.0,1.0,0.0,0.0,0.0,0.0,0.0,2019-12-01,7-31-Bew-Aufenthalte-AIG-J-d-2020-12.xlsx,7-31,flow,yearly
80,Mongolei,8.0,8.0,0.0,9.0,6.0,0.0,0.0,2.0,0.0,1.0,2019-12-01,7-31-Bew-Aufenthalte-AIG-J-d-2020-12.xlsx,7-31,flow,yearly
81,Nepal,1.0,1.0,0.0,0.0,0.0,0.0,0.0,0.0,0.0,0.0,2019-12-01,7-31-Bew-Aufenthalte-AIG-J-d-2020-12.xlsx,7-31,flow,yearly
82,Pakistan,14.0,10.0,4.0,13.0,0.0,1.0,1.0,6.0,0.0,5.0,2019-12-01,7-31-Bew-Aufenthalte-AIG-J-d-2020-12.xlsx,7-31,flow,yearly
83,Philippinen,10.0,10.0,0.0,10.0,8.0,2.0,0.0,0.0,0.0,0.0,2019-12-01,7-31-Bew-Aufenthalte-AIG-J-d-2020-12.xlsx,7-31,flow,yearly
84,Sri Lanka,22.0,19.0,3.0,20.0,1.0,3.0,1.0,7.0,1.0,7.0,2019-12-01,7-31-Bew-Aufenthalte-AIG-J-d-2020-12.xlsx,7-31,flow,yearly
85,Syrien,9.0,9.0,0.0,6.0,0.0,0.0,2.0,1.0,0.0,3.0,2019-12-01,7-31-Bew-Aufenthalte-AIG-J-d-2020-12.xlsx,7-31,flow,yearly
86,Thailand,9.0,8.0,1.0,10.0,3.0,6.0,0.0,0.0,1.0,0.0,2019-12-01,7-31-Bew-Aufenthalte-AIG-J-d-2020-12.xlsx,7-31,flow,yearly
87,Usbekistan,2.0,2.0,0.0,2.0,2.0,0.0,0.0,0.0,0.0,0.0,2019-12-01,7-31-Bew-Aufenthalte-AIG-J-d-2020-12.xlsx,7-31,flow,yearly
88,Vietnam,4.0,4.0,0.0,5.0,3.0,1.0,0.0,0.0,0.0,1.0,2019-12-01,7-31-Bew-Aufenthalte-AIG-J-d-2020-12.xlsx,7-31,flow,yearly
89,Total Asien,296.0,271.0,25.0,290.0,39.0,110.0,11.0,62.0,20.0,48.0,2019-12-01,7-31-Bew-Aufenthalte-AIG-J-d-2020-12.xlsx,7-31,flow,yearly
90,Albanien,624.0,610.0,14.0,612.0,1.0,542.0,2.0,4.0,2.0,61.0,2019-12-01,7-31-Bew-Aufenthalte-AIG-J-d-2020-12.xlsx,7-31,flow,yearly
91,Belarus,12.0,11.0,1.0,11.0,0.0,2.0,0.0,5.0,0.0,4.0,2019-12-01,7-31-Bew-Aufenthalte-AIG-J-d-2020-12.xlsx,7-31,flow,yearly
92,Belgien,6.0,5.0,1.0,5.0,0.0,1.0,0.0,0.0,0.0,4.0,2019-12-01,7-31-Bew-Aufenthalte-AIG-J-d-2020-12.xlsx,7-31,flow,yearly
93,Bosnien u. Herzegowina,49.0,46.0,3.0,46.0,1.0,41.0,0.0,0.0,0.0,4.0,2019-12-01,7-31-Bew-Aufenthalte-AIG-J-d-2020-12.xlsx,7-31,flow,yearly
94,Bulgarien,30.0,30.0,0.0,30.0,3.0,24.0,0.0,0.0,0.0,3.0,2019-12-01,7-31-Bew-Aufenthalte-AIG-J-d-2020-12.xlsx,7-31,flow,yearly
95,Deutschland,8.0,8.0,0.0,8.0,3.0,4.0,0.0,0.0,0.0,1.0,2019-12-01,7-31-Bew-Aufenthalte-AIG-J-d-2020-12.xlsx,7-31,flow,yearly
96,Estland,3.0,3.0,0.0,3.0,0.0,2.0,0.0,0.0,0.0,1.0,2019-12-01,7-31-Bew-Aufenthalte-AIG-J-d-2020-12.xlsx,7-31,flow,yearly
97,Frankreich,9.0,9.0,0.0,9.0,0.0,8.0,0.0,0.0,1.0,0.0,2019-12-01,7-31-Bew-Aufenthalte-AIG-J-d-2020-12.xlsx,7-31,flow,yearly
98,Griechenland,4.0,3.0,1.0,4.0,1.0,3.0,0.0,0.0,0.0,0.0,2019-12-01,7-31-Bew-Aufenthalte-AIG-J-d-2020-12.xlsx,7-31,flow,yearly
99,Grossbritannien,7.0,6.0,1.0,8.0,0.0,6.0,0.0,0.0,0.0,2.0,2019-12-01,7-31-Bew-Aufenthalte-AIG-J-d-2020-12.xlsx,7-31,flow,yearly
100,Italien,31.0,30.0,1.0,29.0,0.0,25.0,1.0,0.0,0.0,3.0,2019-12-01,7-31-Bew-Aufenthalte-AIG-J-d-2020-12.xlsx,7-31,flow,yearly
101,Kosovo,256.0,246.0,10.0,267.0,3.0,227.0,0.0,7.0,3.0,27.0,2019-12-01,7-31-Bew-Aufenthalte-AIG-J-d-2020-12.xlsx,7-31,flow,yearly
102,Kroatien,25.0,24.0,1.0,24.0,0.0,21.0,0.0,0.0,0.0,3.0,2019-12-01,7-31-Bew-Aufenthalte-AIG-J-d-2020-12.xlsx,7-31,flow,yearly
103,Lettland,5.0,5.0,0.0,6.0,1.0,4.0,1.0,0.0,0.0,0.0,2019-12-01,7-31-Bew-Aufenthalte-AIG-J-d-2020-12.xlsx,7-31,flow,yearly
104,Litauen,30.0,23.0,7.0,29.0,0.0,20.0,0.0,0.0,0.0,9.0,2019-12-01,7-31-Bew-Aufenthalte-AIG-J-d-2020-12.xlsx,7-31,flow,yearly
105,Nordmazedonien,126.0,119.0,7.0,133.0,13.0,101.0,0.0,2.0,3.0,14.0,2019-12-01,7-31-Bew-Aufenthalte-AIG-J-d-2020-12.xlsx,7-31,flow,yearly
106,Moldova,24.0,21.0,3.0,27.0,1.0,20.0,1.0,1.0,2.0,2.0,2019-12-01,7-31-Bew-Aufenthalte-AIG-J-d-2020-12.xlsx,7-31,flow,yearly
107,Montenegro,12.0,12.0,0.0,14.0,2.0,9.0,1.0,0.0,0.0,2.0,2019-12-01,7-31-Bew-Aufenthalte-AIG-J-d-2020-12.xlsx,7-31,flow,yearly
108,Niederlande,19.0,15.0,4.0,19.0,2.0,12.0,1.0,0.0,0.0,4.0,2019-12-01,7-31-Bew-Aufenthalte-AIG-J-d-2020-12.xlsx,7-31,flow,yearly
109,Österreich,4.0,3.0,1.0,4.0,0.0,3.0,0.0,0.0,0.0,1.0,2019-12-01,7-31-Bew-Aufenthalte-AIG-J-d-2020-12.xlsx,7-31,flow,yearly
110,Polen,45.0,39.0,6.0,45.0,0.0,36.0,0.0,0.0,0.0,9.0,2019-12-01,7-31-Bew-Aufenthalte-AIG-J-d-2020-12.xlsx,7-31,flow,yearly
111,Portugal,103.0,92.0,11.0,107.0,4.0,81.0,2.0,0.0,1.0,19.0,2019-12-01,7-31-Bew-Aufenthalte-AIG-J-d-2020-12.xlsx,7-31,flow,yearly
112,Rumänien,338.0,322.0,16.0,329.0,8.0,271.0,3.0,0.0,1.0,46.0,2019-12-01,7-31-Bew-Aufenthalte-AIG-J-d-2020-12.xlsx,7-31,flow,yearly
113,Russland,20.0,19.0,1.0,17.0,0.0,10.0,2.0,3.0,0.0,2.0,2019-12-01,7-31-Bew-Aufenthalte-AIG-J-d-2020-12.xlsx,7-31,flow,yearly
114,Schweden,1.0,1.0,0.0,1.0,0.0,1.0,0.0,0.0,0.0,0.0,2019-12-01,7-31-Bew-Aufenthalte-AIG-J-d-2020-12.xlsx,7-31,flow,yearly
115,Serbien,321.0,315.0,6.0,289.0,4.0,262.0,2.0,4.0,2.0,15.0,2019-12-01,7-31-Bew-Aufenthalte-AIG-J-d-2020-12.xlsx,7-31,flow,yearly
116,Slowakische Republik,11.0,11.0,0.0,11.0,0.0,9.0,0.0,0.0,2.0,0.0,2019-12-01,7-31-Bew-Aufenthalte-AIG-J-d-2020-12.xlsx,7-31,flow,yearly
117,Slowenien,3.0,3.0,0.0,3.0,0.0,3.0,0.0,0.0,0.0,0.0,2019-12-01,7-31-Bew-Aufenthalte-AIG-J-d-2020-12.xlsx,7-31,flow,yearly
118,Spanien,66.0,63.0,3.0,66.0,10.0,50.0,0.0,0.0,0.0,6.0,2019-12-01,7-31-Bew-Aufenthalte-AIG-J-d-2020-12.xlsx,7-31,flow,yearly
119,Tschechische Republik,7.0,7.0,0.0,7.0,0.0,5.0,0.0,0.0,0.0,2.0,2019-12-01,7-31-Bew-Aufenthalte-AIG-J-d-2020-12.xlsx,7-31,flow,yearly
120,Tschechoslowakei,1.0,1.0,0.0,1.0,0.0,1.0,0.0,0.0,0.0,0.0,2019-12-01,7-31-Bew-Aufenthalte-AIG-J-d-2020-12.xlsx,7-31,flow,yearly
121,Türkei,53.0,51.0,2.0,49.0,3.0,35.0,0.0,2.0,0.0,9.0,2019-12-01,7-31-Bew-Aufenthalte-AIG-J-d-2020-12.xlsx,7-31,flow,yearly
122,Ukraine,22.0,21.0,1.0,23.0,0.0,17.0,0.0,2.0,0.0,4.0,2019-12-01,7-31-Bew-Aufenthalte-AIG-J-d-2020-12.xlsx,7-31,flow,yearly
123,Ungarn,27.0,25.0,2.0,26.0,3.0,16.0,0.0,0.0,0.0,7.0,2019-12-01,7-31-Bew-Aufenthalte-AIG-J-d-2020-12.xlsx,7-31,flow,yearly
124,Total Europa,2302.0,2199.0,103.0,2262.0,63.0,1872.0,16.0,30.0,17.0,264.0,2019-12-01,7-31-Bew-Aufenthalte-AIG-J-d-2020-12.xlsx,7-31,flow,yearly
125,Australien,2.0,2.0,0.0,2.0,1.0,0.0,0.0,0.0,0.0,1.0,2019-12-01,7-31-Bew-Aufenthalte-AIG-J-d-2020-12.xlsx,7-31,flow,yearly
126,Total Ozeanien,2.0,2.0,0.0,2.0,1.0,0.0,0.0,0.0,0.0,1.0,2019-12-01,7-31-Bew-Aufenthalte-AIG-J-d-2020-12.xlsx,7-31,flow,yearly
127,Staatenlos,2.0,1.0,1.0,1.0,0.0,0.0,0.0,0.0,0.0,1.0,2019-12-01,7-31-Bew-Aufenthalte-AIG-J-d-2020-12.xlsx,7-31,flow,yearly
128,Ohne Nationalität,8.0,6.0,2.0,11.0,0.0,0.0,2.0,2.0,6.0,1.0,2019-12-01,7-31-Bew-Aufenthalte-AIG-J-d-2020-12.xlsx,7-31,flow,yearly
129,Staat unbekannt,26.0,21.0,5.0,24.0,0.0,4.0,10.0,4.0,5.0,1.0,2019-12-01,7-31-Bew-Aufenthalte-AIG-J-d-2020-12.xlsx,7-31,flow,yearly
130,Total Herkunft unbek.,36.0,28.0,8.0,36.0,0.0,4.0,12.0,6.0,11.0,3.0,2019-12-01,7-31-Bew-Aufenthalte-AIG-J-d-2020-12.xlsx,7-31,flow,yearly
131,Ägypten,6.0,4.0,2.0,7.0,0.0,2.0,0.0,1.0,2.0,2.0,2020-12-01,7-31-Bew-Aufenthalte-AIG-J-d-2020-12.xlsx,7-31,flow,yearly
132,Algerien,129.0,82.0,47.0,166.0,1.0,7.0,3.0,29.0,101.0,25.0,2020-12-01,7-31-Bew-Aufenthalte-AIG-J-d-2020-12.xlsx,7-31,flow,yearly
133,Angola,6.0,6.0,0.0,4.0,1.0,0.0,0.0,2.0,1.0,0.0,2020-12-01,7-31-Bew-Aufenthalte-AIG-J-d-2020-12.xlsx,7-31,flow,yearly
134,Äquatorialguinea,1.0,1.0,0.0,1.0,0.0,0.0,1.0,0.0,0.0,0.0,2020-12-01,7-31-Bew-Aufenthalte-AIG-J-d-2020-12.xlsx,7-31,flow,yearly
135,Äthiopien,8.0,6.0,2.0,7.0,0.0,0.0,0.0,1.0,0.0,6.0,2020-12-01,7-31-Bew-Aufenthalte-AIG-J-d-2020-12.xlsx,7-31,flow,yearly
136,Benin,2.0,2.0,0.0,2.0,0.0,0.0,0.0,0.0,2.0,0.0,2020-12-01,7-31-Bew-Aufenthalte-AIG-J-d-2020-12.xlsx,7-31,flow,yearly
137,Burkina Faso,4.0,4.0,0.0,3.0,3.0,0.0,0.0,0.0,0.0,0.0,2020-12-01,7-31-Bew-Aufenthalte-AIG-J-d-2020-12.xlsx,7-31,flow,yearly
138,Burundi,0.0,0.0,0.0,1.0,0.0,0.0,0.0,0.0,1.0,0.0,2020-12-01,7-31-Bew-Aufenthalte-AIG-J-d-2020-12.xlsx,7-31,flow,yearly
139,Côte d'Ivoire,11.0,10.0,1.0,11.0,1.0,2.0,0.0,4.0,2.0,2.0,2020-12-01,7-31-Bew-Aufenthalte-AIG-J-d-2020-12.xlsx,7-31,flow,yearly
140,Eritrea,4.0,4.0,0.0,5.0,1.0,0.0,1.0,2.0,1.0,0.0,2020-12-01,7-31-Bew-Aufenthalte-AIG-J-d-2020-12.xlsx,7-31,flow,yearly
141,Gabun,0.0,0.0,0.0,1.0,0.0,0.0,0.0,1.0,0.0,0.0,2020-12-01,7-31-Bew-Aufenthalte-AIG-J-d-2020-12.xlsx,7-31,flow,yearly
142,Gambia,48.0,42.0,6.0,50.0,1.0,6.0,6.0,24.0,2.0,11.0,2020-12-01,7-31-Bew-Aufenthalte-AIG-J-d-2020-12.xlsx,7-31,flow,yearly
143,Ghana,4.0,4.0,0.0,4.0,0.0,1.0,1.0,2.0,0.0,0.0,2020-12-01,7-31-Bew-Aufenthalte-AIG-J-d-2020-12.xlsx,7-31,flow,yearly
144,Guinea,49.0,40.0,9.0,46.0,1.0,8.0,11.0,10.0,7.0,9.0,2020-12-01,7-31-Bew-Aufenthalte-AIG-J-d-2020-12.xlsx,7-31,flow,yearly
145,Guinea-Bissau,13.0,12.0,1.0,13.0,1.0,6.0,3.0,1.0,0.0,2.0,2020-12-01,7-31-Bew-Aufenthalte-AIG-J-d-2020-12.xlsx,7-31,flow,yearly
146,Kamerun,8.0,7.0,1.0,7.0,0.0,3.0,0.0,1.0,0.0,3.0,2020-12-01,7-31-Bew-Aufenthalte-AIG-J-d-2020-12.xlsx,7-31,flow,yearly
147,Kapverden,0.0,0.0,0.0,2.0,0.0,0.0,0.0,0.0,2.0,0.0,2020-12-01,7-31-Bew-Aufenthalte-AIG-J-d-2020-12.xlsx,7-31,flow,yearly
148,Kenia,4.0,3.0,1.0,4.0,1.0,2.0,0.0,0.0,0.0,1.0,2020-12-01,7-31-Bew-Aufenthalte-AIG-J-d-2020-12.xlsx,7-31,flow,yearly
149,Kongo,1.0,1.0,0.0,1.0,0.0,0.0,0.0,0.0,0.0,1.0,2020-12-01,7-31-Bew-Aufenthalte-AIG-J-d-2020-12.xlsx,7-31,flow,yearly
150,Kongo DR,8.0,6.0,2.0,6.0,1.0,1.0,0.0,0.0,2.0,2.0,2020-12-01,7-31-Bew-Aufenthalte-AIG-J-d-2020-12.xlsx,7-31,flow,yearly
151,Liberia,3.0,3.0,0.0,2.0,0.0,0.0,0.0,1.0,1.0,0.0,2020-12-01,7-31-Bew-Aufenthalte-AIG-J-d-2020-12.xlsx,7-31,flow,yearly
152,Libyen,27.0,21.0,6.0,15.0,0.0,0.0,1.0,3.0,6.0,5.0,2020-12-01,7-31-Bew-Aufenthalte-AIG-J-d-2020-12.xlsx,7-31,flow,yearly
153,Malawi,1.0,1.0,0.0,0.0,0.0,0.0,0.0,0.0,0.0,0.0,2020-12-01,7-31-Bew-Aufenthalte-AIG-J-d-2020-12.xlsx,7-31,flow,yearly
154,Mali,6.0,5.0,1.0,5.0,0.0,1.0,0.0,2.0,1.0,1.0,2020-12-01,7-31-Bew-Aufenthalte-AIG-J-d-2020-12.xlsx,7-31,flow,yearly
155,Marokko,84.0,63.0,21.0,71.0,3.0,2.0,4.0,24.0,21.0,17.0,2020-12-01,7-31-Bew-Aufenthalte-AIG-J-d-2020-12.xlsx,7-31,flow,yearly
156,Mauretanien,2.0,2.0,0.0,1.0,0.0,0.0,1.0,0.0,0.0,0.0,2020-12-01,7-31-Bew-Aufenthalte-AIG-J-d-2020-12.xlsx,7-31,flow,yearly
157,Mauritius,3.0,2.0,1.0,2.0,2.0,0.0,0.0,0.0,0.0,0.0,2020-12-01,7-31-Bew-Aufenthalte-AIG-J-d-2020-12.xlsx,7-31,flow,yearly
158,Mosambik,1.0,1.0,0.0,1.0,0.0,0.0,0.0,0.0,0.0,1.0,2020-12-01,7-31-Bew-Aufenthalte-AIG-J-d-2020-12.xlsx,7-31,flow,yearly
159,Niger,3.0,3.0,0.0,2.0,0.0,0.0,0.0,1.0,0.0,1.0,2020-12-01,7-31-Bew-Aufenthalte-AIG-J-d-2020-12.xlsx,7-31,flow,yearly
160,Nigeria,122.0,99.0,23.0,120.0,1.0,16.0,33.0,26.0,6.0,38.0,2020-12-01,7-31-Bew-Aufenthalte-AIG-J-d-2020-12.xlsx,7-31,flow,yearly
161,Ruanda,1.0,1.0,0.0,1.0,0.0,0.0,0.0,1.0,0.0,0.0,2020-12-01,7-31-Bew-Aufenthalte-AIG-J-d-2020-12.xlsx,7-31,flow,yearly
162,Sambia,0.0,0.0,0.0,1.0,0.0,0.0,0.0,0.0,1.0,0.0,2020-12-01,7-31-Bew-Aufenthalte-AIG-J-d-2020-12.xlsx,7-31,flow,yearly
163,Senegal,17.0,15.0,2.0,16.0,0.0,3.0,4.0,3.0,3.0,3.0,2020-12-01,7-31-Bew-Aufenthalte-AIG-J-d-2020-12.xlsx,7-31,flow,yearly
164,Sierra Leone,3.0,3.0,0.0,5.0,0.0,0.0,2.0,1.0,2.0,0.0,2020-12-01,7-31-Bew-Aufenthalte-AIG-J-d-2020-12.xlsx,7-31,flow,yearly
165,Somalia,19.0,17.0,2.0,16.0,1.0,0.0,0.0,11.0,2.0,2.0,2020-12-01,7-31-Bew-Aufenthalte-AIG-J-d-2020-12.xlsx,7-31,flow,yearly
166,Sudan,5.0,4.0,1.0,3.0,0.0,0.0,0.0,2.0,0.0,1.0,2020-12-01,7-31-Bew-Aufenthalte-AIG-J-d-2020-12.xlsx,7-31,flow,yearly
167,Südsudan,2.0,2.0,0.0,0.0,0.0,0.0,0.0,0.0,0.0,0.0,2020-12-01,7-31-Bew-Aufenthalte-AIG-J-d-2020-12.xlsx,7-31,flow,yearly
168,Togo,3.0,3.0,0.0,2.0,2.0,0.0,0.0,0.0,0.0,0.0,2020-12-01,7-31-Bew-Aufenthalte-AIG-J-d-2020-12.xlsx,7-31,flow,yearly
169,Tschad,3.0,2.0,1.0,2.0,0.0,0.0,0.0,0.0,0.0,2.0,2020-12-01,7-31-Bew-Aufenthalte-AIG-J-d-2020-12.xlsx,7-31,flow,yearly
170,Tunesien,57.0,43.0,14.0,59.0,3.0,18.0,1.0,8.0,18.0,11.0,2020-12-01,7-31-Bew-Aufenthalte-AIG-J-d-2020-12.xlsx,7-31,flow,yearly
171,Uganda,2.0,2.0,0.0,1.0,1.0,0.0,0.0,0.0,0.0,0.0,2020-12-01,7-31-Bew-Aufenthalte-AIG-J-d-2020-12.xlsx,7-31,flow,yearly
172,Total Afrika,670.0,526.0,144.0,666.0,25.0,78.0,72.0,161.0,184.0,146.0,2020-12-01,7-31-Bew-Aufenthalte-AIG-J-d-2020-12.xlsx,7-31,flow,yearly
173,Argentinien,5.0,4.0,1.0,5.0,2.0,0.0,0.0,0.0,0.0,3.0,2020-12-01,7-31-Bew-Aufenthalte-AIG-J-d-2020-12.xlsx,7-31,flow,yearly
174,Bolivien,5.0,4.0,1.0,6.0,1.0,1.0,0.0,0.0,0.0,4.0,2020-12-01,7-31-Bew-Aufenthalte-AIG-J-d-2020-12.xlsx,7-31,flow,yearly
175,Brasilien,87.0,82.0,5.0,84.0,41.0,24.0,1.0,0.0,1.0,17.0,2020-12-01,7-31-Bew-Aufenthalte-AIG-J-d-2020-12.xlsx,7-31,flow,yearly
176,Chile,15.0,13.0,2.0,18.0,3.0,9.0,1.0,0.0,0.0,5.0,2020-12-01,7-31-Bew-Aufenthalte-AIG-J-d-2020-12.xlsx,7-31,flow,yearly
177,Dominikanische Republik,25.0,21.0,4.0,23.0,0.0,11.0,5.0,0.0,0.0,7.0,2020-12-01,7-31-Bew-Aufenthalte-AIG-J-d-2020-12.xlsx,7-31,flow,yearly
178,Ecuador,6.0,6.0,0.0,5.0,2.0,1.0,1.0,0.0,0.0,1.0,2020-12-01,7-31-Bew-Aufenthalte-AIG-J-d-2020-12.xlsx,7-31,flow,yearly
179,Honduras,2.0,2.0,0.0,3.0,0.0,0.0,0.0,0.0,1.0,2.0,2020-12-01,7-31-Bew-Aufenthalte-AIG-J-d-2020-12.xlsx,7-31,flow,yearly
180,Jamaika,0.0,0.0,0.0,4.0,1.0,1.0,0.0,0.0,0.0,2.0,2020-12-01,7-31-Bew-Aufenthalte-AIG-J-d-2020-12.xlsx,7-31,flow,yearly
181,Kanada,3.0,3.0,0.0,3.0,2.0,0.0,0.0,0.0,0.0,1.0,2020-12-01,7-31-Bew-Aufenthalte-AIG-J-d-2020-12.xlsx,7-31,flow,yearly
182,Kolumbien,38.0,35.0,3.0,38.0,16.0,13.0,2.0,0.0,1.0,6.0,2020-12-01,7-31-Bew-Aufenthalte-AIG-J-d-2020-12.xlsx,7-31,flow,yearly
183,Kuba,2.0,1.0,1.0,3.0,0.0,0.0,0.0,0.0,3.0,0.0,2020-12-01,7-31-Bew-Aufenthalte-AIG-J-d-2020-12.xlsx,7-31,flow,yearly
184,Mexiko,5.0,4.0,1.0,5.0,0.0,2.0,0.0,0.0,0.0,3.0,2020-12-01,7-31-Bew-Aufenthalte-AIG-J-d-2020-12.xlsx,7-31,flow,yearly
185,Paraguay,4.0,4.0,0.0,4.0,3.0,0.0,0.0,0.0,0.0,1.0,2020-12-01,7-31-Bew-Aufenthalte-AIG-J-d-2020-12.xlsx,7-31,flow,yearly
186,Peru,8.0,8.0,0.0,6.0,2.0,2.0,1.0,0.0,0.0,1.0,2020-12-01,7-31-Bew-Aufenthalte-AIG-J-d-2020-12.xlsx,7-31,flow,yearly
187,Uruguay,0.0,0.0,0.0,1.0,0.0,1.0,0.0,0.0,0.0,0.0,2020-12-01,7-31-Bew-Aufenthalte-AIG-J-d-2020-12.xlsx,7-31,flow,yearly
188,USA,9.0,8.0,1.0,8.0,0.0,6.0,0.0,1.0,0.0,1.0,2020-12-01,7-31-Bew-Aufenthalte-AIG-J-d-2020-12.xlsx,7-31,flow,yearly
189,Venezuela,10.0,8.0,2.0,8.0,3.0,2.0,0.0,0.0,1.0,2.0,2020-12-01,7-31-Bew-Aufenthalte-AIG-J-d-2020-12.xlsx,7-31,flow,yearly
190,Total Amerika,224.0,203.0,21.0,224.0,76.0,73.0,11.0,1.0,7.0,56.0,2020-12-01,7-31-Bew-Aufenthalte-AIG-J-d-2020-12.xlsx,7-31,flow,yearly
191,Afghanistan,10.0,10.0,0.0,9.0,1.0,0.0,1.0,7.0,0.0,0.0,2020-12-01,7-31-Bew-Aufenthalte-AIG-J-d-2020-12.xlsx,7-31,flow,yearly
192,Armenien,1.0,1.0,0.0,1.0,0.0,0.0,0.0,0.0,0.0,1.0,2020-12-01,7-31-Bew-Aufenthalte-AIG-J-d-2020-12.xlsx,7-31,flow,yearly
193,Aserbaidschan,1.0,1.0,0.0,2.0,0.0,0.0,0.0,2.0,0.0,0.0,2020-12-01,7-31-Bew-Aufenthalte-AIG-J-d-2020-12.xlsx,7-31,flow,yearly
194,Bangladesh,4.0,4.0,0.0,3.0,0.0,0.0,0.0,3.0,0.0,0.0,2020-12-01,7-31-Bew-Aufenthalte-AIG-J-d-2020-12.xlsx,7-31,flow,yearly
195,China (Volksrepublik),15.0,14.0,1.0,18.0,3.0,6.0,2.0,0.0,2.0,5.0,2020-12-01,7-31-Bew-Aufenthalte-AIG-J-d-2020-12.xlsx,7-31,flow,yearly
196,Georgien,51.0,41.0,10.0,47.0,3.0,23.0,1.0,3.0,1.0,16.0,2020-12-01,7-31-Bew-Aufenthalte-AIG-J-d-2020-12.xlsx,7-31,flow,yearly
197,Indien,13.0,10.0,3.0,12.0,3.0,2.0,0.0,2.0,0.0,5.0,2020-12-01,7-31-Bew-Aufenthalte-AIG-J-d-2020-12.xlsx,7-31,flow,yearly
198,Irak,39.0,24.0,15.0,38.0,15.0,0.0,0.0,3.0,3.0,17.0,2020-12-01,7-31-Bew-Aufenthalte-AIG-J-d-2020-12.xlsx,7-31,flow,yearly
199,Iran,1.0,1.0,0.0,2.0,0.0,0.0,0.0,0.0,0.0,2.0,2020-12-01,7-31-Bew-Aufenthalte-AIG-J-d-2020-12.xlsx,7-31,flow,yearly
200,Israel,4.0,3.0,1.0,4.0,0.0,3.0,0.0,0.0,0.0,1.0,2020-12-01,7-31-Bew-Aufenthalte-AIG-J-d-2020-12.xlsx,7-31,flow,yearly
201,Jordanien,1.0,1.0,0.0,2.0,0.0,1.0,0.0,1.0,0.0,0.0,2020-12-01,7-31-Bew-Aufenthalte-AIG-J-d-2020-12.xlsx,7-31,flow,yearly
202,Kambodscha,1.0,0.0,1.0,1.0,0.0,0.0,0.0,0.0,0.0,1.0,2020-12-01,7-31-Bew-Aufenthalte-AIG-J-d-2020-12.xlsx,7-31,flow,yearly
203,Kasachstan,2.0,2.0,0.0,2.0,0.0,1.0,0.0,0.0,0.0,1.0,2020-12-01,7-31-Bew-Aufenthalte-AIG-J-d-2020-12.xlsx,7-31,flow,yearly
204,Malaysia,1.0,1.0,0.0,1.0,1.0,0.0,0.0,0.0,0.0,0.0,2020-12-01,7-31-Bew-Aufenthalte-AIG-J-d-2020-12.xlsx,7-31,flow,yearly
205,Mongolei,6.0,5.0,1.0,6.0,4.0,0.0,0.0,1.0,1.0,0.0,2020-12-01,7-31-Bew-Aufenthalte-AIG-J-d-2020-12.xlsx,7-31,flow,yearly
206,Nepal,0.0,0.0,0.0,1.0,0.0,1.0,0.0,0.0,0.0,0.0,2020-12-01,7-31-Bew-Aufenthalte-AIG-J-d-2020-12.xlsx,7-31,flow,yearly
207,Oman,1.0,1.0,0.0,1.0,0.0,1.0,0.0,0.0,0.0,0.0,2020-12-01,7-31-Bew-Aufenthalte-AIG-J-d-2020-12.xlsx,7-31,flow,yearly
208,Pakistan,10.0,8.0,2.0,11.0,1.0,1.0,1.0,3.0,0.0,5.0,2020-12-01,7-31-Bew-Aufenthalte-AIG-J-d-2020-12.xlsx,7-31,flow,yearly
209,Philippinen,6.0,6.0,0.0,6.0,5.0,1.0,0.0,0.0,0.0,0.0,2020-12-01,7-31-Bew-Aufenthalte-AIG-J-d-2020-12.xlsx,7-31,flow,yearly
210,Sri Lanka,14.0,12.0,2.0,11.0,0.0,2.0,0.0,0.0,0.0,9.0,2020-12-01,7-31-Bew-Aufenthalte-AIG-J-d-2020-12.xlsx,7-31,flow,yearly
211,Syrien,6.0,6.0,0.0,6.0,0.0,0.0,0.0,0.0,1.0,5.0,2020-12-01,7-31-Bew-Aufenthalte-AIG-J-d-2020-12.xlsx,7-31,flow,yearly
212,Thailand,9.0,7.0,2.0,8.0,0.0,5.0,0.0,0.0,0.0,3.0,2020-12-01,7-31-Bew-Aufenthalte-AIG-J-d-2020-12.xlsx,7-31,flow,yearly
213,Vietnam,1.0,1.0,0.0,1.0,0.0,1.0,0.0,0.0,0.0,0.0,2020-12-01,7-31-Bew-Aufenthalte-AIG-J-d-2020-12.xlsx,7-31,flow,yearly
214,Total Asien,197.0,159.0,38.0,193.0,36.0,48.0,5.0,25.0,8.0,71.0,2020-12-01,7-31-Bew-Aufenthalte-AIG-J-d-2020-12.xlsx,7-31,flow,yearly
215,Albanien,440.0,411.0,29.0,443.0,32.0,298.0,1.0,4.0,1.0,107.0,2020-12-01,7-31-Bew-Aufenthalte-AIG-J-d-2020-12.xlsx,7-31,flow,yearly
216,Belarus,9.0,8.0,1.0,9.0,0.0,4.0,0.0,0.0,1.0,4.0,2020-12-01,7-31-Bew-Aufenthalte-AIG-J-d-2020-12.xlsx,7-31,flow,yearly
217,Belgien,7.0,6.0,1.0,7.0,0.0,4.0,0.0,0.0,0.0,3.0,2020-12-01,7-31-Bew-Aufenthalte-AIG-J-d-2020-12.xlsx,7-31,flow,yearly
218,Bosnien u. Herzegowina,24.0,23.0,1.0,25.0,0.0,18.0,0.0,0.0,0.0,7.0,2020-12-01,7-31-Bew-Aufenthalte-AIG-J-d-2020-12.xlsx,7-31,flow,yearly
219,Bulgarien,21.0,20.0,1.0,17.0,2.0,11.0,0.0,0.0,1.0,3.0,2020-12-01,7-31-Bew-Aufenthalte-AIG-J-d-2020-12.xlsx,7-31,flow,yearly
220,Deutschland,2.0,2.0,0.0,1.0,0.0,1.0,0.0,0.0,0.0,0.0,2020-12-01,7-31-Bew-Aufenthalte-AIG-J-d-2020-12.xlsx,7-31,flow,yearly
221,Estland,2.0,2.0,0.0,2.0,0.0,1.0,0.0,0.0,0.0,1.0,2020-12-01,7-31-Bew-Aufenthalte-AIG-J-d-2020-12.xlsx,7-31,flow,yearly
222,Frankreich,10.0,10.0,0.0,8.0,0.0,5.0,0.0,0.0,0.0,3.0,2020-12-01,7-31-Bew-Aufenthalte-AIG-J-d-2020-12.xlsx,7-31,flow,yearly
223,Griechenland,6.0,5.0,1.0,6.0,1.0,2.0,0.0,0.0,0.0,3.0,2020-12-01,7-31-Bew-Aufenthalte-AIG-J-d-2020-12.xlsx,7-31,flow,yearly
224,Grossbritannien,5.0,5.0,0.0,5.0,1.0,4.0,0.0,0.0,0.0,0.0,2020-12-01,7-31-Bew-Aufenthalte-AIG-J-d-2020-12.xlsx,7-31,flow,yearly
225,Irland,1.0,1.0,0.0,1.0,1.0,0.0,0.0,0.0,0.0,0.0,2020-12-01,7-31-Bew-Aufenthalte-AIG-J-d-2020-12.xlsx,7-31,flow,yearly
226,Italien,27.0,23.0,4.0,30.0,2.0,15.0,0.0,0.0,1.0,12.0,2020-12-01,7-31-Bew-Aufenthalte-AIG-J-d-2020-12.xlsx,7-31,flow,yearly
227,Kosovo,155.0,141.0,14.0,176.0,4.0,126.0,2.0,4.0,6.0,34.0,2020-12-01,7-31-Bew-Aufenthalte-AIG-J-d-2020-12.xlsx,7-31,flow,yearly
228,Kroatien,16.0,13.0,3.0,18.0,0.0,13.0,0.0,0.0,0.0,5.0,2020-12-01,7-31-Bew-Aufenthalte-AIG-J-d-2020-12.xlsx,7-31,flow,yearly
229,Lettland,4.0,3.0,1.0,4.0,0.0,2.0,0.0,0.0,0.0,2.0,2020-12-01,7-31-Bew-Aufenthalte-AIG-J-d-2020-12.xlsx,7-31,flow,yearly
230,Litauen,14.0,12.0,2.0,15.0,0.0,11.0,0.0,0.0,0.0,4.0,2020-12-01,7-31-Bew-Aufenthalte-AIG-J-d-2020-12.xlsx,7-31,flow,yearly
231,Nordmazedonien,78.0,72.0,6.0,73.0,0.0,61.0,0.0,0.0,1.0,11.0,2020-12-01,7-31-Bew-Aufenthalte-AIG-J-d-2020-12.xlsx,7-31,flow,yearly
232,Moldova,17.0,14.0,3.0,16.0,2.0,8.0,0.0,0.0,1.0,5.0,2020-12-01,7-31-Bew-Aufenthalte-AIG-J-d-2020-12.xlsx,7-31,flow,yearly
233,Montenegro,2.0,2.0,0.0,2.0,1.0,1.0,0.0,0.0,0.0,0.0,2020-12-01,7-31-Bew-Aufenthalte-AIG-J-d-2020-12.xlsx,7-31,flow,yearly
234,Niederlande,6.0,6.0,0.0,6.0,0.0,5.0,1.0,0.0,0.0,0.0,2020-12-01,7-31-Bew-Aufenthalte-AIG-J-d-2020-12.xlsx,7-31,flow,yearly
235,Österreich,1.0,1.0,0.0,1.0,0.0,1.0,0.0,0.0,0.0,0.0,2020-12-01,7-31-Bew-Aufenthalte-AIG-J-d-2020-12.xlsx,7-31,flow,yearly
236,Polen,30.0,26.0,4.0,31.0,1.0,20.0,0.0,0.0,0.0,10.0,2020-12-01,7-31-Bew-Aufenthalte-AIG-J-d-2020-12.xlsx,7-31,flow,yearly
237,Portugal,76.0,66.0,10.0,78.0,10.0,54.0,0.0,0.0,0.0,14.0,2020-12-01,7-31-Bew-Aufenthalte-AIG-J-d-2020-12.xlsx,7-31,flow,yearly
238,Rumänien,281.0,252.0,29.0,285.0,73.0,132.0,1.0,0.0,0.0,79.0,2020-12-01,7-31-Bew-Aufenthalte-AIG-J-d-2020-12.xlsx,7-31,flow,yearly
239,Russland,7.0,7.0,0.0,8.0,0.0,5.0,0.0,0.0,2.0,1.0,2020-12-01,7-31-Bew-Aufenthalte-AIG-J-d-2020-12.xlsx,7-31,flow,yearly
240,Serbien,190.0,177.0,13.0,185.0,3.0,121.0,1.0,1.0,6.0,53.0,2020-12-01,7-31-Bew-Aufenthalte-AIG-J-d-2020-12.xlsx,7-31,flow,yearly
241,Slowakische Republik,16.0,13.0,3.0,16.0,2.0,4.0,0.0,0.0,0.0,10.0,2020-12-01,7-31-Bew-Aufenthalte-AIG-J-d-2020-12.xlsx,7-31,flow,yearly
242,Slowenien,1.0,1.0,0.0,1.0,0.0,1.0,0.0,0.0,0.0,0.0,2020-12-01,7-31-Bew-Aufenthalte-AIG-J-d-2020-12.xlsx,7-31,flow,yearly
243,Spanien,26.0,26.0,0.0,27.0,7.0,15.0,1.0,0.0,0.0,4.0,2020-12-01,7-31-Bew-Aufenthalte-AIG-J-d-2020-12.xlsx,7-31,flow,yearly
244,Tschechische Republik,6.0,6.0,0.0,6.0,0.0,6.0,0.0,0.0,0.0,0.0,2020-12-01,7-31-Bew-Aufenthalte-AIG-J-d-2020-12.xlsx,7-31,flow,yearly
245,Türkei,44.0,36.0,8.0,45.0,6.0,24.0,2.0,0.0,4.0,9.0,2020-12-01,7-31-Bew-Aufenthalte-AIG-J-d-2020-12.xlsx,7-31,flow,yearly
246,Ukraine,12.0,12.0,0.0,12.0,0.0,7.0,0.0,1.0,0.0,4.0,2020-12-01,7-31-Bew-Aufenthalte-AIG-J-d-2020-12.xlsx,7-31,flow,yearly
247,Ungarn,14.0,10.0,4.0,14.0,2.0,4.0,1.0,0.0,0.0,7.0,2020-12-01,7-31-Bew-Aufenthalte-AIG-J-d-2020-12.xlsx,7-31,flow,yearly
248,Total Europa,1550.0,1412.0,138.0,1573.0,150.0,984.0,10.0,10.0,24.0,395.0,2020-12-01,7-31-Bew-Aufenthalte-AIG-J-d-2020-12.xlsx,7-31,flow,yearly
249,Australien,1.0,0.0,1.0,1.0,0.0,1.0,0.0,0.0,0.0,0.0,2020-12-01,7-31-Bew-Aufenthalte-AIG-J-d-2020-12.xlsx,7-31,flow,yearly
250,Total Ozeanien,1.0,0.0,1.0,1.0,0.0,1.0,0.0,0.0,0.0,0.0,2020-12-01,7-31-Bew-Aufenthalte-AIG-J-d-2020-12.xlsx,7-31,flow,yearly
251,Staatenlos,1.0,1.0,0.0,1.0,0.0,0.0,1.0,0.0,0.0,0.0,2020-12-01,7-31-Bew-Aufenthalte-AIG-J-d-2020-12.xlsx,7-31,flow,yearly
252,Ohne Nationalität,7.0,5.0,2.0,8.0,0.0,0.0,0.0,2.0,6.0,0.0,2020-12-01,7-31-Bew-Aufenthalte-AIG-J-d-2020-12.xlsx,7-31,flow,yearly
253,Staat unbekannt,10.0,7.0,3.0,13.0,1.0,1.0,2.0,3.0,5.0,1.0,2020-12-01,7-31-Bew-Aufenthalte-AIG-J-d-2020-12.xlsx,7-31,flow,yearly
254,Total Herkunft unbek.,18.0,13.0,5.0,22.0,1.0,1.0,3.0,5.0,11.0,1.0,2020-12-01,7-31-Bew-Aufenthalte-AIG-J-d-2020-12.xlsx,7-31,flow,yearly
