,index,Nation,Total,Beginn,WiederaufnahmenAufenthalt,Total ,"Kontrollierte, selbständige Ausreisen",Rückführungen Heimatstaat,Rückführungen Drittstaat,RückführungenDublinstaat,Unkontrollierte Abreisen,Andere Abgänge ,,.1,.2,.3,Datum,file_name
0,1,Ägypten,4.0,4.0,0.0,6.0,0.0,0.0,0.0,4.0,2.0,0.0,,,,,2019-12-01,7-31-Bew-Aufenthalte-AIG-J-d-2020-12.xlsx
1,2,Algerien,179.0,127.0,52.0,166.0,3.0,13.0,9.0,58.0,56.0,27.0,,,,,2019-12-01,7-31-Bew-Aufenthalte-AIG-J-d-2020-12.xlsx
2,3,Angola,3.0,3.0,0.0,3.0,0.0,1.0,0.0,1.0,0.0,1.0,,,,,2019-12-01,7-31-Bew-Aufenthalte-AIG-J-d-2020-12.xlsx
3,4,Äquatorialguinea,1.0,1.0,0.0,2.0,0.0,0.0,0.0,0.0,1.0,1.0,,,,,2019-12-01,7-31-Bew-Aufenthalte-AIG-J-d-2020-12.xlsx
4,5,Äthiopien,10.0,6.0,4.0,10.0,1.0,0.0,0.0,5.0,2.0,2.0,,,,,2019-12-01,7-31-Bew-Aufenthalte-AIG-J-d-2020-12.xlsx
5,6,Benin,3.0,3.0,0.0,1.0,0.0,0.0,0.0,0.0,0.0,1.0,,,,,2019-12-01,7-31-Bew-Aufenthalte-AIG-J-d-2020-12.xlsx
6,7,Burkina Faso,2.0,2.0,0.0,1.0,0.0,1.0,0.0,0.0,0.0,0.0,,,,,2019-12-01,7-31-Bew-Aufenthalte-AIG-J-d-2020-12.xlsx
7,8,Burundi,1.0,1.0,0.0,0.0,0.0,0.0,0.0,0.0,0.0,0.0,,,,,2019-12-01,7-31-Bew-Aufenthalte-AIG-J-d-2020-12.xlsx
8,9,Côte d'Ivoire,9.0,8.0,1.0,9.0,0.0,0.0,2.0,3.0,3.0,1.0,,,,,2019-12-01,7-31-Bew-Aufenthalte-AIG-J-d-2020-12.xlsx
9,10,Dschibuti,1.0,1.0,0.0,0.0,0.0,0.0,0.0,0.0,0.0,0.0,,,,,2019-12-01,7-31-Bew-Aufenthalte-AIG-J-d-2020-12.xlsx
10,11,Eritrea,9.0,9.0,0.0,5.0,1.0,0.0,0.0,4.0,0.0,0.0,,,,,2019-12-01,7-31-Bew-Aufenthalte-AIG-J-d-2020-12.xlsx
11,12,Gabun,4.0,4.0,0.0,1.0,0.0,0.0,0.0,0.0,0.0,1.0,,,,,2019-12-01,7-31-Bew-Aufenthalte-AIG-J-d-2020-12.xlsx
12,13,Gambia,85.0,79.0,6.0,77.0,1.0,5.0,7.0,56.0,4.0,4.0,,,,,2019-12-01,7-31-Bew-Aufenthalte-AIG-J-d-2020-12.xlsx
13,14,Ghana,11.0,11.0,0.0,10.0,0.0,0.0,2.0,7.0,0.0,1.0,,,,,2019-12-01,7-31-Bew-Aufenthalte-AIG-J-d-2020-12.xlsx
14,15,Guinea,93.0,84.0,9.0,88.0,0.0,23.0,11.0,36.0,8.0,10.0,,,,,2019-12-01,7-31-Bew-Aufenthalte-AIG-J-d-2020-12.xlsx
15,16,Guinea-Bissau,22.0,20.0,2.0,21.0,0.0,7.0,4.0,5.0,0.0,5.0,,,,,2019-12-01,7-31-Bew-Aufenthalte-AIG-J-d-2020-12.xlsx
16,17,Kamerun,15.0,12.0,3.0,19.0,1.0,4.0,0.0,4.0,6.0,4.0,,,,,2019-12-01,7-31-Bew-Aufenthalte-AIG-J-d-2020-12.xlsx
17,18,Kapverden,2.0,2.0,0.0,4.0,2.0,0.0,0.0,0.0,2.0,0.0,,,,,2019-12-01,7-31-Bew-Aufenthalte-AIG-J-d-2020-12.xlsx
18,19,Kenia,3.0,3.0,0.0,5.0,1.0,0.0,0.0,1.0,2.0,1.0,,,,,2019-12-01,7-31-Bew-Aufenthalte-AIG-J-d-2020-12.xlsx
19,20,Kongo DR,4.0,3.0,1.0,9.0,0.0,1.0,0.0,0.0,5.0,3.0,,,,,2019-12-01,7-31-Bew-Aufenthalte-AIG-J-d-2020-12.xlsx
20,21,Liberia,1.0,1.0,0.0,1.0,0.0,0.0,0.0,0.0,1.0,0.0,,,,,2019-12-01,7-31-Bew-Aufenthalte-AIG-J-d-2020-12.xlsx
21,22,Libyen,18.0,15.0,3.0,16.0,2.0,0.0,0.0,8.0,4.0,2.0,,,,,2019-12-01,7-31-Bew-Aufenthalte-AIG-J-d-2020-12.xlsx
22,23,Mali,17.0,17.0,0.0,16.0,1.0,0.0,2.0,13.0,0.0,0.0,,,,,2019-12-01,7-31-Bew-Aufenthalte-AIG-J-d-2020-12.xlsx
23,24,Marokko,87.0,72.0,15.0,82.0,5.0,10.0,4.0,33.0,25.0,5.0,,,,,2019-12-01,7-31-Bew-Aufenthalte-AIG-J-d-2020-12.xlsx
24,25,Mauretanien,3.0,3.0,0.0,3.0,0.0,0.0,2.0,1.0,0.0,0.0,,,,,2019-12-01,7-31-Bew-Aufenthalte-AIG-J-d-2020-12.xlsx
25,26,Mauritius,2.0,2.0,0.0,3.0,2.0,1.0,0.0,0.0,0.0,0.0,,,,,2019-12-01,7-31-Bew-Aufenthalte-AIG-J-d-2020-12.xlsx
26,27,Niger,1.0,1.0,0.0,1.0,0.0,0.0,0.0,1.0,0.0,0.0,,,,,2019-12-01,7-31-Bew-Aufenthalte-AIG-J-d-2020-12.xlsx
27,28,Nigeria,240.0,225.0,15.0,235.0,0.0,46.0,42.0,123.0,0.0,24.0,,,,,2019-12-01,7-31-Bew-Aufenthalte-AIG-J-d-2020-12.xlsx
28,29,Senegal,30.0,25.0,5.0,28.0,3.0,4.0,2.0,13.0,2.0,4.0,,,,,2019-12-01,7-31-Bew-Aufenthalte-AIG-J-d-2020-12.xlsx
29,30,Sierra Leone,6.0,4.0,2.0,3.0,0.0,0.0,0.0,2.0,1.0,0.0,,,,,2019-12-01,7-31-Bew-Aufenthalte-AIG-J-d-2020-12.xlsx
30,31,Somalia,19.0,15.0,4.0,16.0,0.0,0.0,0.0,10.0,3.0,3.0,,,,,2019-12-01,7-31-Bew-Aufenthalte-AIG-J-d-2020-12.xlsx
31,32,Südafrika,4.0,4.0,0.0,4.0,0.0,1.0,0.0,3.0,0.0,0.0,,,,,2019-12-01,7-31-Bew-Aufenthalte-AIG-J-d-2020-12.xlsx
32,33,Sudan,6.0,5.0,1.0,7.0,0.0,3.0,0.0,2.0,1.0,1.0,,,,,2019-12-01,7-31-Bew-Aufenthalte-AIG-J-d-2020-12.xlsx
33,34,Südsudan,1.0,0.0,1.0,1.0,0.0,0.0,0.0,0.0,0.0,1.0,,,,,2019-12-01,7-31-Bew-Aufenthalte-AIG-J-d-2020-12.xlsx
34,35,Tansania,2.0,2.0,0.0,2.0,0.0,1.0,1.0,0.0,0.0,0.0,,,,,2019-12-01,7-31-Bew-Aufenthalte-AIG-J-d-2020-12.xlsx
35,36,Togo,1.0,1.0,0.0,1.0,0.0,0.0,0.0,1.0,0.0,0.0,,,,,2019-12-01,7-31-Bew-Aufenthalte-AIG-J-d-2020-12.xlsx
36,37,Tschad,2.0,1.0,1.0,1.0,0.0,0.0,0.0,0.0,1.0,0.0,,,,,2019-12-01,7-31-Bew-Aufenthalte-AIG-J-d-2020-12.xlsx
37,38,Tunesien,64.0,50.0,14.0,61.0,2.0,21.0,0.0,14.0,15.0,9.0,,,,,2019-12-01,7-31-Bew-Aufenthalte-AIG-J-d-2020-12.xlsx
38,39,Uganda,1.0,0.0,1.0,0.0,0.0,0.0,0.0,0.0,0.0,0.0,,,,,2019-12-01,7-31-Bew-Aufenthalte-AIG-J-d-2020-12.xlsx
39,40,Westsahara,1.0,1.0,0.0,0.0,0.0,0.0,0.0,0.0,0.0,0.0,,,,,2019-12-01,7-31-Bew-Aufenthalte-AIG-J-d-2020-12.xlsx
40,41,Zimbabwe,2.0,2.0,0.0,0.0,0.0,0.0,0.0,0.0,0.0,0.0,,,,,2019-12-01,7-31-Bew-Aufenthalte-AIG-J-d-2020-12.xlsx
41,44,Argentinien,8.0,8.0,0.0,8.0,3.0,3.0,0.0,0.0,0.0,2.0,,,,,2019-12-01,7-31-Bew-Aufenthalte-AIG-J-d-2020-12.xlsx
42,45,Bolivien,7.0,6.0,1.0,7.0,4.0,2.0,0.0,0.0,0.0,1.0,,,,,2019-12-01,7-31-Bew-Aufenthalte-AIG-J-d-2020-12.xlsx
43,46,Brasilien,112.0,106.0,6.0,110.0,33.0,61.0,1.0,0.0,2.0,13.0,,,,,2019-12-01,7-31-Bew-Aufenthalte-AIG-J-d-2020-12.xlsx
44,47,Chile,15.0,15.0,0.0,13.0,6.0,6.0,1.0,0.0,0.0,0.0,,,,,2019-12-01,7-31-Bew-Aufenthalte-AIG-J-d-2020-12.xlsx
45,48,Costa Rica,1.0,1.0,0.0,1.0,0.0,1.0,0.0,0.0,0.0,0.0,,,,,2019-12-01,7-31-Bew-Aufenthalte-AIG-J-d-2020-12.xlsx
46,49,Dominikanische Republik,46.0,42.0,4.0,47.0,4.0,20.0,14.0,1.0,4.0,4.0,,,,,2019-12-01,7-31-Bew-Aufenthalte-AIG-J-d-2020-12.xlsx
47,50,Ecuador,5.0,5.0,0.0,5.0,3.0,1.0,1.0,0.0,0.0,0.0,,,,,2019-12-01,7-31-Bew-Aufenthalte-AIG-J-d-2020-12.xlsx
48,51,El Salvador,1.0,1.0,0.0,1.0,0.0,1.0,0.0,0.0,0.0,0.0,,,,,2019-12-01,7-31-Bew-Aufenthalte-AIG-J-d-2020-12.xlsx
49,52,Haiti,3.0,2.0,1.0,3.0,0.0,2.0,0.0,0.0,0.0,1.0,,,,,2019-12-01,7-31-Bew-Aufenthalte-AIG-J-d-2020-12.xlsx
50,53,Honduras,4.0,3.0,1.0,3.0,3.0,0.0,0.0,0.0,0.0,0.0,,,,,2019-12-01,7-31-Bew-Aufenthalte-AIG-J-d-2020-12.xlsx
51,54,Jamaika,3.0,3.0,0.0,2.0,0.0,0.0,0.0,0.0,0.0,2.0,,,,,2019-12-01,7-31-Bew-Aufenthalte-AIG-J-d-2020-12.xlsx
52,55,Kanada,1.0,1.0,0.0,1.0,0.0,1.0,0.0,0.0,0.0,0.0,,,,,2019-12-01,7-31-Bew-Aufenthalte-AIG-J-d-2020-12.xlsx
53,56,Kolumbien,53.0,49.0,4.0,53.0,16.0,24.0,1.0,0.0,0.0,12.0,,,,,2019-12-01,7-31-Bew-Aufenthalte-AIG-J-d-2020-12.xlsx
54,57,Kuba,6.0,6.0,0.0,4.0,2.0,0.0,1.0,0.0,0.0,1.0,,,,,2019-12-01,7-31-Bew-Aufenthalte-AIG-J-d-2020-12.xlsx
55,58,Mexiko,7.0,7.0,0.0,7.0,2.0,5.0,0.0,0.0,0.0,0.0,,,,,2019-12-01,7-31-Bew-Aufenthalte-AIG-J-d-2020-12.xlsx
56,59,Nicaragua,3.0,3.0,0.0,3.0,1.0,1.0,0.0,0.0,0.0,1.0,,,,,2019-12-01,7-31-Bew-Aufenthalte-AIG-J-d-2020-12.xlsx
57,60,Paraguay,7.0,5.0,2.0,7.0,4.0,3.0,0.0,0.0,0.0,0.0,,,,,2019-12-01,7-31-Bew-Aufenthalte-AIG-J-d-2020-12.xlsx
58,61,Peru,18.0,17.0,1.0,18.0,6.0,9.0,1.0,0.0,0.0,2.0,,,,,2019-12-01,7-31-Bew-Aufenthalte-AIG-J-d-2020-12.xlsx
59,62,Uruguay,3.0,3.0,0.0,2.0,1.0,1.0,0.0,0.0,0.0,0.0,,,,,2019-12-01,7-31-Bew-Aufenthalte-AIG-J-d-2020-12.xlsx
60,63,USA,11.0,9.0,2.0,11.0,0.0,8.0,0.0,0.0,0.0,3.0,,,,,2019-12-01,7-31-Bew-Aufenthalte-AIG-J-d-2020-12.xlsx
61,64,Venezuela,9.0,8.0,1.0,9.0,1.0,3.0,1.0,0.0,0.0,4.0,,,,,2019-12-01,7-31-Bew-Aufenthalte-AIG-J-d-2020-12.xlsx
62,67,Afghanistan,16.0,12.0,4.0,16.0,0.0,1.0,1.0,10.0,0.0,4.0,,,,,2019-12-01,7-31-Bew-Aufenthalte-AIG-J-d-2020-12.xlsx
63,68,Armenien,3.0,3.0,0.0,4.0,1.0,0.0,0.0,2.0,1.0,0.0,,,,,2019-12-01,7-31-Bew-Aufenthalte-AIG-J-d-2020-12.xlsx
64,69,Aserbaidschan,1.0,1.0,0.0,1.0,0.0,0.0,0.0,0.0,0.0,1.0,,,,,2019-12-01,7-31-Bew-Aufenthalte-AIG-J-d-2020-12.xlsx
65,70,Bangladesh,5.0,4.0,1.0,5.0,1.0,1.0,0.0,1.0,0.0,2.0,,,,,2019-12-01,7-31-Bew-Aufenthalte-AIG-J-d-2020-12.xlsx
66,71,China (Volksrepublik),19.0,16.0,3.0,13.0,0.0,5.0,5.0,0.0,1.0,2.0,,,,,2019-12-01,7-31-Bew-Aufenthalte-AIG-J-d-2020-12.xlsx
67,72,Georgien,103.0,96.0,7.0,101.0,0.0,70.0,1.0,12.0,3.0,15.0,,,,,2019-12-01,7-31-Bew-Aufenthalte-AIG-J-d-2020-12.xlsx
68,73,Indien,10.0,10.0,0.0,11.0,1.0,5.0,0.0,4.0,0.0,1.0,,,,,2019-12-01,7-31-Bew-Aufenthalte-AIG-J-d-2020-12.xlsx
69,74,Irak,24.0,23.0,1.0,28.0,7.0,0.0,0.0,8.0,9.0,4.0,,,,,2019-12-01,7-31-Bew-Aufenthalte-AIG-J-d-2020-12.xlsx
70,75,Iran,8.0,8.0,0.0,7.0,2.0,1.0,0.0,4.0,0.0,0.0,,,,,2019-12-01,7-31-Bew-Aufenthalte-AIG-J-d-2020-12.xlsx
71,76,Israel,8.0,8.0,0.0,7.0,0.0,6.0,0.0,1.0,0.0,0.0,,,,,2019-12-01,7-31-Bew-Aufenthalte-AIG-J-d-2020-12.xlsx
72,77,Jordanien,4.0,4.0,0.0,5.0,2.0,2.0,0.0,0.0,0.0,1.0,,,,,2019-12-01,7-31-Bew-Aufenthalte-AIG-J-d-2020-12.xlsx
73,78,Kambodscha,1.0,1.0,0.0,1.0,0.0,0.0,0.0,0.0,1.0,0.0,,,,,2019-12-01,7-31-Bew-Aufenthalte-AIG-J-d-2020-12.xlsx
74,79,Kasachstan,2.0,2.0,0.0,2.0,0.0,2.0,0.0,0.0,0.0,0.0,,,,,2019-12-01,7-31-Bew-Aufenthalte-AIG-J-d-2020-12.xlsx
75,80,Korea (Süd),2.0,2.0,0.0,2.0,0.0,2.0,0.0,0.0,0.0,0.0,,,,,2019-12-01,7-31-Bew-Aufenthalte-AIG-J-d-2020-12.xlsx
76,81,Libanon,10.0,9.0,1.0,11.0,1.0,2.0,0.0,4.0,3.0,1.0,,,,,2019-12-01,7-31-Bew-Aufenthalte-AIG-J-d-2020-12.xlsx
77,82,Malaysia,1.0,1.0,0.0,1.0,1.0,0.0,0.0,0.0,0.0,0.0,,,,,2019-12-01,7-31-Bew-Aufenthalte-AIG-J-d-2020-12.xlsx
78,83,Mongolei,8.0,8.0,0.0,9.0,6.0,0.0,0.0,2.0,0.0,1.0,,,,,2019-12-01,7-31-Bew-Aufenthalte-AIG-J-d-2020-12.xlsx
79,84,Nepal,1.0,1.0,0.0,0.0,0.0,0.0,0.0,0.0,0.0,0.0,,,,,2019-12-01,7-31-Bew-Aufenthalte-AIG-J-d-2020-12.xlsx
80,85,Pakistan,14.0,10.0,4.0,13.0,0.0,1.0,1.0,6.0,0.0,5.0,,,,,2019-12-01,7-31-Bew-Aufenthalte-AIG-J-d-2020-12.xlsx
81,86,Philippinen,10.0,10.0,0.0,10.0,8.0,2.0,0.0,0.0,0.0,0.0,,,,,2019-12-01,7-31-Bew-Aufenthalte-AIG-J-d-2020-12.xlsx
82,87,Sri Lanka,22.0,19.0,3.0,20.0,1.0,3.0,1.0,7.0,1.0,7.0,,,,,2019-12-01,7-31-Bew-Aufenthalte-AIG-J-d-2020-12.xlsx
83,88,Syrien,9.0,9.0,0.0,6.0,0.0,0.0,2.0,1.0,0.0,3.0,,,,,2019-12-01,7-31-Bew-Aufenthalte-AIG-J-d-2020-12.xlsx
84,89,Thailand,9.0,8.0,1.0,10.0,3.0,6.0,0.0,0.0,1.0,0.0,,,,,2019-12-01,7-31-Bew-Aufenthalte-AIG-J-d-2020-12.xlsx
85,90,Usbekistan,2.0,2.0,0.0,2.0,2.0,0.0,0.0,0.0,0.0,0.0,,,,,2019-12-01,7-31-Bew-Aufenthalte-AIG-J-d-2020-12.xlsx
86,91,Vietnam,4.0,4.0,0.0,5.0,3.0,1.0,0.0,0.0,0.0,1.0,,,,,2019-12-01,7-31-Bew-Aufenthalte-AIG-J-d-2020-12.xlsx
87,94,Albanien,624.0,610.0,14.0,612.0,1.0,542.0,2.0,4.0,2.0,61.0,,,,,2019-12-01,7-31-Bew-Aufenthalte-AIG-J-d-2020-12.xlsx
88,95,Belarus,12.0,11.0,1.0,11.0,0.0,2.0,0.0,5.0,0.0,4.0,,,,,2019-12-01,7-31-Bew-Aufenthalte-AIG-J-d-2020-12.xlsx
89,96,Belgien,6.0,5.0,1.0,5.0,0.0,1.0,0.0,0.0,0.0,4.0,,,,,2019-12-01,7-31-Bew-Aufenthalte-AIG-J-d-2020-12.xlsx
90,97,Bosnien u. Herzegowina,49.0,46.0,3.0,46.0,1.0,41.0,0.0,0.0,0.0,4.0,,,,,2019-12-01,7-31-Bew-Aufenthalte-AIG-J-d-2020-12.xlsx
91,98,Bulgarien,30.0,30.0,0.0,30.0,3.0,24.0,0.0,0.0,0.0,3.0,,,,,2019-12-01,7-31-Bew-Aufenthalte-AIG-J-d-2020-12.xlsx
92,99,Deutschland,8.0,8.0,0.0,8.0,3.0,4.0,0.0,0.0,0.0,1.0,,,,,2019-12-01,7-31-Bew-Aufenthalte-AIG-J-d-2020-12.xlsx
93,100,Estland,3.0,3.0,0.0,3.0,0.0,2.0,0.0,0.0,0.0,1.0,,,,,2019-12-01,7-31-Bew-Aufenthalte-AIG-J-d-2020-12.xlsx
94,101,Frankreich,9.0,9.0,0.0,9.0,0.0,8.0,0.0,0.0,1.0,0.0,,,,,2019-12-01,7-31-Bew-Aufenthalte-AIG-J-d-2020-12.xlsx
95,102,Griechenland,4.0,3.0,1.0,4.0,1.0,3.0,0.0,0.0,0.0,0.0,,,,,2019-12-01,7-31-Bew-Aufenthalte-AIG-J-d-2020-12.xlsx
96,103,Grossbritannien,7.0,6.0,1.0,8.0,0.0,6.0,0.0,0.0,0.0,2.0,,,,,2019-12-01,7-31-Bew-Aufenthalte-AIG-J-d-2020-12.xlsx
97,104,Italien,31.0,30.0,1.0,29.0,0.0,25.0,1.0,0.0,0.0,3.0,,,,,2019-12-01,7-31-Bew-Aufenthalte-AIG-J-d-2020-12.xlsx
98,105,Kosovo,256.0,246.0,10.0,267.0,3.0,227.0,0.0,7.0,3.0,27.0,,,,,2019-12-01,7-31-Bew-Aufenthalte-AIG-J-d-2020-12.xlsx
99,106,Kroatien,25.0,24.0,1.0,24.0,0.0,21.0,0.0,0.0,0.0,3.0,,,,,2019-12-01,7-31-Bew-Aufenthalte-AIG-J-d-2020-12.xlsx
100,107,Lettland,5.0,5.0,0.0,6.0,1.0,4.0,1.0,0.0,0.0,0.0,,,,,2019-12-01,7-31-Bew-Aufenthalte-AIG-J-d-2020-12.xlsx
101,108,Litauen,30.0,23.0,7.0,29.0,0.0,20.0,0.0,0.0,0.0,9.0,,,,,2019-12-01,7-31-Bew-Aufenthalte-AIG-J-d-2020-12.xlsx
102,109,Nordmazedonien,126.0,119.0,7.0,133.0,13.0,101.0,0.0,2.0,3.0,14.0,,,,,2019-12-01,7-31-Bew-Aufenthalte-AIG-J-d-2020-12.xlsx
103,110,Moldova,24.0,21.0,3.0,27.0,1.0,20.0,1.0,1.0,2.0,2.0,,,,,2019-12-01,7-31-Bew-Aufenthalte-AIG-J-d-2020-12.xlsx
104,111,Montenegro,12.0,12.0,0.0,14.0,2.0,9.0,1.0,0.0,0.0,2.0,,,,,2019-12-01,7-31-Bew-Aufenthalte-AIG-J-d-2020-12.xlsx
105,112,Niederlande,19.0,15.0,4.0,19.0,2.0,12.0,1.0,0.0,0.0,4.0,,,,,2019-12-01,7-31-Bew-Aufenthalte-AIG-J-d-2020-12.xlsx
106,113,Österreich,4.0,3.0,1.0,4.0,0.0,3.0,0.0,0.0,0.0,1.0,,,,,2019-12-01,7-31-Bew-Aufenthalte-AIG-J-d-2020-12.xlsx
107,114,Polen,45.0,39.0,6.0,45.0,0.0,36.0,0.0,0.0,0.0,9.0,,,,,2019-12-01,7-31-Bew-Aufenthalte-AIG-J-d-2020-12.xlsx
108,115,Portugal,103.0,92.0,11.0,107.0,4.0,81.0,2.0,0.0,1.0,19.0,,,,,2019-12-01,7-31-Bew-Aufenthalte-AIG-J-d-2020-12.xlsx
109,116,Rumänien,338.0,322.0,16.0,329.0,8.0,271.0,3.0,0.0,1.0,46.0,,,,,2019-12-01,7-31-Bew-Aufenthalte-AIG-J-d-2020-12.xlsx
110,117,Russland,20.0,19.0,1.0,17.0,0.0,10.0,2.0,3.0,0.0,2.0,,,,,2019-12-01,7-31-Bew-Aufenthalte-AIG-J-d-2020-12.xlsx
111,118,Schweden,1.0,1.0,0.0,1.0,0.0,1.0,0.0,0.0,0.0,0.0,,,,,2019-12-01,7-31-Bew-Aufenthalte-AIG-J-d-2020-12.xlsx
112,119,Serbien,321.0,315.0,6.0,289.0,4.0,262.0,2.0,4.0,2.0,15.0,,,,,2019-12-01,7-31-Bew-Aufenthalte-AIG-J-d-2020-12.xlsx
113,120,Slowakische Republik,11.0,11.0,0.0,11.0,0.0,9.0,0.0,0.0,2.0,0.0,,,,,2019-12-01,7-31-Bew-Aufenthalte-AIG-J-d-2020-12.xlsx
114,121,Slowenien,3.0,3.0,0.0,3.0,0.0,3.0,0.0,0.0,0.0,0.0,,,,,2019-12-01,7-31-Bew-Aufenthalte-AIG-J-d-2020-12.xlsx
115,122,Spanien,66.0,63.0,3.0,66.0,10.0,50.0,0.0,0.0,0.0,6.0,,,,,2019-12-01,7-31-Bew-Aufenthalte-AIG-J-d-2020-12.xlsx
116,123,Tschechische Republik,7.0,7.0,0.0,7.0,0.0,5.0,0.0,0.0,0.0,2.0,,,,,2019-12-01,7-31-Bew-Aufenthalte-AIG-J-d-2020-12.xlsx
117,124,Tschechoslowakei,1.0,1.0,0.0,1.0,0.0,1.0,0.0,0.0,0.0,0.0,,,,,2019-12-01,7-31-Bew-Aufenthalte-AIG-J-d-2020-12.xlsx
118,125,Türkei,53.0,51.0,2.0,49.0,3.0,35.0,0.0,2.0,0.0,9.0,,,,,2019-12-01,7-31-Bew-Aufenthalte-AIG-J-d-2020-12.xlsx
119,126,Ukraine,22.0,21.0,1.0,23.0,0.0,17.0,0.0,2.0,0.0,4.0,,,,,2019-12-01,7-31-Bew-Aufenthalte-AIG-J-d-2020-12.xlsx
120,127,Ungarn,27.0,25.0,2.0,26.0,3.0,16.0,0.0,0.0,0.0,7.0,,,,,2019-12-01,7-31-Bew-Aufenthalte-AIG-J-d-2020-12.xlsx
121,130,Australien,2.0,2.0,0.0,2.0,1.0,0.0,0.0,0.0,0.0,1.0,,,,,2019-12-01,7-31-Bew-Aufenthalte-AIG-J-d-2020-12.xlsx
122,133,Staatenlos,2.0,1.0,1.0,1.0,0.0,0.0,0.0,0.0,0.0,1.0,,,,,2019-12-01,7-31-Bew-Aufenthalte-AIG-J-d-2020-12.xlsx
123,134,Ohne Nationalität,8.0,6.0,2.0,11.0,0.0,0.0,2.0,2.0,6.0,1.0,,,,,2019-12-01,7-31-Bew-Aufenthalte-AIG-J-d-2020-12.xlsx
124,135,Staat unbekannt,26.0,21.0,5.0,24.0,0.0,4.0,10.0,4.0,5.0,1.0,,,,,2019-12-01,7-31-Bew-Aufenthalte-AIG-J-d-2020-12.xlsx
125,1,Ägypten,6.0,4.0,2.0,7.0,0.0,2.0,0.0,1.0,2.0,2.0,,,,,2020-12-01,7-31-Bew-Aufenthalte-AIG-J-d-2020-12.xlsx
126,2,Algerien,129.0,82.0,47.0,166.0,1.0,7.0,3.0,29.0,101.0,25.0,,,,,2020-12-01,7-31-Bew-Aufenthalte-AIG-J-d-2020-12.xlsx
127,3,Angola,6.0,6.0,0.0,4.0,1.0,0.0,0.0,2.0,1.0,0.0,,,,,2020-12-01,7-31-Bew-Aufenthalte-AIG-J-d-2020-12.xlsx
128,4,Äquatorialguinea,1.0,1.0,0.0,1.0,0.0,0.0,1.0,0.0,0.0,0.0,,,,,2020-12-01,7-31-Bew-Aufenthalte-AIG-J-d-2020-12.xlsx
129,5,Äthiopien,8.0,6.0,2.0,7.0,0.0,0.0,0.0,1.0,0.0,6.0,,,,,2020-12-01,7-31-Bew-Aufenthalte-AIG-J-d-2020-12.xlsx
130,6,Benin,2.0,2.0,0.0,2.0,0.0,0.0,0.0,0.0,2.0,0.0,,,,,2020-12-01,7-31-Bew-Aufenthalte-AIG-J-d-2020-12.xlsx
131,7,Burkina Faso,4.0,4.0,0.0,3.0,3.0,0.0,0.0,0.0,0.0,0.0,,,,,2020-12-01,7-31-Bew-Aufenthalte-AIG-J-d-2020-12.xlsx
132,8,Burundi,0.0,0.0,0.0,1.0,0.0,0.0,0.0,0.0,1.0,0.0,,,,,2020-12-01,7-31-Bew-Aufenthalte-AIG-J-d-2020-12.xlsx
133,9,Côte d'Ivoire,11.0,10.0,1.0,11.0,1.0,2.0,0.0,4.0,2.0,2.0,,,,,2020-12-01,7-31-Bew-Aufenthalte-AIG-J-d-2020-12.xlsx
134,10,Eritrea,4.0,4.0,0.0,5.0,1.0,0.0,1.0,2.0,1.0,0.0,,,,,2020-12-01,7-31-Bew-Aufenthalte-AIG-J-d-2020-12.xlsx
135,11,Gabun,0.0,0.0,0.0,1.0,0.0,0.0,0.0,1.0,0.0,0.0,,,,,2020-12-01,7-31-Bew-Aufenthalte-AIG-J-d-2020-12.xlsx
136,12,Gambia,48.0,42.0,6.0,50.0,1.0,6.0,6.0,24.0,2.0,11.0,,,,,2020-12-01,7-31-Bew-Aufenthalte-AIG-J-d-2020-12.xlsx
137,13,Ghana,4.0,4.0,0.0,4.0,0.0,1.0,1.0,2.0,0.0,0.0,,,,,2020-12-01,7-31-Bew-Aufenthalte-AIG-J-d-2020-12.xlsx
138,14,Guinea,49.0,40.0,9.0,46.0,1.0,8.0,11.0,10.0,7.0,9.0,,,,,2020-12-01,7-31-Bew-Aufenthalte-AIG-J-d-2020-12.xlsx
139,15,Guinea-Bissau,13.0,12.0,1.0,13.0,1.0,6.0,3.0,1.0,0.0,2.0,,,,,2020-12-01,7-31-Bew-Aufenthalte-AIG-J-d-2020-12.xlsx
140,16,Kamerun,8.0,7.0,1.0,7.0,0.0,3.0,0.0,1.0,0.0,3.0,,,,,2020-12-01,7-31-Bew-Aufenthalte-AIG-J-d-2020-12.xlsx
141,17,Kapverden,0.0,0.0,0.0,2.0,0.0,0.0,0.0,0.0,2.0,0.0,,,,,2020-12-01,7-31-Bew-Aufenthalte-AIG-J-d-2020-12.xlsx
142,18,Kenia,4.0,3.0,1.0,4.0,1.0,2.0,0.0,0.0,0.0,1.0,,,,,2020-12-01,7-31-Bew-Aufenthalte-AIG-J-d-2020-12.xlsx
143,19,Kongo,1.0,1.0,0.0,1.0,0.0,0.0,0.0,0.0,0.0,1.0,,,,,2020-12-01,7-31-Bew-Aufenthalte-AIG-J-d-2020-12.xlsx
144,20,Kongo DR,8.0,6.0,2.0,6.0,1.0,1.0,0.0,0.0,2.0,2.0,,,,,2020-12-01,7-31-Bew-Aufenthalte-AIG-J-d-2020-12.xlsx
145,21,Liberia,3.0,3.0,0.0,2.0,0.0,0.0,0.0,1.0,1.0,0.0,,,,,2020-12-01,7-31-Bew-Aufenthalte-AIG-J-d-2020-12.xlsx
146,22,Libyen,27.0,21.0,6.0,15.0,0.0,0.0,1.0,3.0,6.0,5.0,,,,,2020-12-01,7-31-Bew-Aufenthalte-AIG-J-d-2020-12.xlsx
147,23,Malawi,1.0,1.0,0.0,0.0,0.0,0.0,0.0,0.0,0.0,0.0,,,,,2020-12-01,7-31-Bew-Aufenthalte-AIG-J-d-2020-12.xlsx
148,24,Mali,6.0,5.0,1.0,5.0,0.0,1.0,0.0,2.0,1.0,1.0,,,,,2020-12-01,7-31-Bew-Aufenthalte-AIG-J-d-2020-12.xlsx
149,25,Marokko,84.0,63.0,21.0,71.0,3.0,2.0,4.0,24.0,21.0,17.0,,,,,2020-12-01,7-31-Bew-Aufenthalte-AIG-J-d-2020-12.xlsx
150,26,Mauretanien,2.0,2.0,0.0,1.0,0.0,0.0,1.0,0.0,0.0,0.0,,,,,2020-12-01,7-31-Bew-Aufenthalte-AIG-J-d-2020-12.xlsx
151,27,Mauritius,3.0,2.0,1.0,2.0,2.0,0.0,0.0,0.0,0.0,0.0,,,,,2020-12-01,7-31-Bew-Aufenthalte-AIG-J-d-2020-12.xlsx
152,28,Mosambik,1.0,1.0,0.0,1.0,0.0,0.0,0.0,0.0,0.0,1.0,,,,,2020-12-01,7-31-Bew-Aufenthalte-AIG-J-d-2020-12.xlsx
153,29,Niger,3.0,3.0,0.0,2.0,0.0,0.0,0.0,1.0,0.0,1.0,,,,,2020-12-01,7-31-Bew-Aufenthalte-AIG-J-d-2020-12.xlsx
154,30,Nigeria,122.0,99.0,23.0,120.0,1.0,16.0,33.0,26.0,6.0,38.0,,,,,2020-12-01,7-31-Bew-Aufenthalte-AIG-J-d-2020-12.xlsx
155,31,Ruanda,1.0,1.0,0.0,1.0,0.0,0.0,0.0,1.0,0.0,0.0,,,,,2020-12-01,7-31-Bew-Aufenthalte-AIG-J-d-2020-12.xlsx
156,32,Sambia,0.0,0.0,0.0,1.0,0.0,0.0,0.0,0.0,1.0,0.0,,,,,2020-12-01,7-31-Bew-Aufenthalte-AIG-J-d-2020-12.xlsx
157,33,Senegal,17.0,15.0,2.0,16.0,0.0,3.0,4.0,3.0,3.0,3.0,,,,,2020-12-01,7-31-Bew-Aufenthalte-AIG-J-d-2020-12.xlsx
158,34,Sierra Leone,3.0,3.0,0.0,5.0,0.0,0.0,2.0,1.0,2.0,0.0,,,,,2020-12-01,7-31-Bew-Aufenthalte-AIG-J-d-2020-12.xlsx
159,35,Somalia,19.0,17.0,2.0,16.0,1.0,0.0,0.0,11.0,2.0,2.0,,,,,2020-12-01,7-31-Bew-Aufenthalte-AIG-J-d-2020-12.xlsx
160,36,Sudan,5.0,4.0,1.0,3.0,0.0,0.0,0.0,2.0,0.0,1.0,,,,,2020-12-01,7-31-Bew-Aufenthalte-AIG-J-d-2020-12.xlsx
161,37,Südsudan,2.0,2.0,0.0,0.0,0.0,0.0,0.0,0.0,0.0,0.0,,,,,2020-12-01,7-31-Bew-Aufenthalte-AIG-J-d-2020-12.xlsx
162,38,Togo,3.0,3.0,0.0,2.0,2.0,0.0,0.0,0.0,0.0,0.0,,,,,2020-12-01,7-31-Bew-Aufenthalte-AIG-J-d-2020-12.xlsx
163,39,Tschad,3.0,2.0,1.0,2.0,0.0,0.0,0.0,0.0,0.0,2.0,,,,,2020-12-01,7-31-Bew-Aufenthalte-AIG-J-d-2020-12.xlsx
164,40,Tunesien,57.0,43.0,14.0,59.0,3.0,18.0,1.0,8.0,18.0,11.0,,,,,2020-12-01,7-31-Bew-Aufenthalte-AIG-J-d-2020-12.xlsx
165,41,Uganda,2.0,2.0,0.0,1.0,1.0,0.0,0.0,0.0,0.0,0.0,,,,,2020-12-01,7-31-Bew-Aufenthalte-AIG-J-d-2020-12.xlsx
166,44,Argentinien,5.0,4.0,1.0,5.0,2.0,0.0,0.0,0.0,0.0,3.0,,,,,2020-12-01,7-31-Bew-Aufenthalte-AIG-J-d-2020-12.xlsx
167,45,Bolivien,5.0,4.0,1.0,6.0,1.0,1.0,0.0,0.0,0.0,4.0,,,,,2020-12-01,7-31-Bew-Aufenthalte-AIG-J-d-2020-12.xlsx
168,46,Brasilien,87.0,82.0,5.0,84.0,41.0,24.0,1.0,0.0,1.0,17.0,,,,,2020-12-01,7-31-Bew-Aufenthalte-AIG-J-d-2020-12.xlsx
169,47,Chile,15.0,13.0,2.0,18.0,3.0,9.0,1.0,0.0,0.0,5.0,,,,,2020-12-01,7-31-Bew-Aufenthalte-AIG-J-d-2020-12.xlsx
170,48,Dominikanische Republik,25.0,21.0,4.0,23.0,0.0,11.0,5.0,0.0,0.0,7.0,,,,,2020-12-01,7-31-Bew-Aufenthalte-AIG-J-d-2020-12.xlsx
171,49,Ecuador,6.0,6.0,0.0,5.0,2.0,1.0,1.0,0.0,0.0,1.0,,,,,2020-12-01,7-31-Bew-Aufenthalte-AIG-J-d-2020-12.xlsx
172,50,Honduras,2.0,2.0,0.0,3.0,0.0,0.0,0.0,0.0,1.0,2.0,,,,,2020-12-01,7-31-Bew-Aufenthalte-AIG-J-d-2020-12.xlsx
173,51,Jamaika,0.0,0.0,0.0,4.0,1.0,1.0,0.0,0.0,0.0,2.0,,,,,2020-12-01,7-31-Bew-Aufenthalte-AIG-J-d-2020-12.xlsx
174,52,Kanada,3.0,3.0,0.0,3.0,2.0,0.0,0.0,0.0,0.0,1.0,,,,,2020-12-01,7-31-Bew-Aufenthalte-AIG-J-d-2020-12.xlsx
175,53,Kolumbien,38.0,35.0,3.0,38.0,16.0,13.0,2.0,0.0,1.0,6.0,,,,,2020-12-01,7-31-Bew-Aufenthalte-AIG-J-d-2020-12.xlsx
176,54,Kuba,2.0,1.0,1.0,3.0,0.0,0.0,0.0,0.0,3.0,0.0,,,,,2020-12-01,7-31-Bew-Aufenthalte-AIG-J-d-2020-12.xlsx
177,55,Mexiko,5.0,4.0,1.0,5.0,0.0,2.0,0.0,0.0,0.0,3.0,,,,,2020-12-01,7-31-Bew-Aufenthalte-AIG-J-d-2020-12.xlsx
178,56,Paraguay,4.0,4.0,0.0,4.0,3.0,0.0,0.0,0.0,0.0,1.0,,,,,2020-12-01,7-31-Bew-Aufenthalte-AIG-J-d-2020-12.xlsx
179,57,Peru,8.0,8.0,0.0,6.0,2.0,2.0,1.0,0.0,0.0,1.0,,,,,2020-12-01,7-31-Bew-Aufenthalte-AIG-J-d-2020-12.xlsx
180,58,Uruguay,0.0,0.0,0.0,1.0,0.0,1.0,0.0,0.0,0.0,0.0,,,,,2020-12-01,7-31-Bew-Aufenthalte-AIG-J-d-2020-12.xlsx
181,59,USA,9.0,8.0,1.0,8.0,0.0,6.0,0.0,1.0,0.0,1.0,,,,,2020-12-01,7-31-Bew-Aufenthalte-AIG-J-d-2020-12.xlsx
182,60,Venezuela,10.0,8.0,2.0,8.0,3.0,2.0,0.0,0.0,1.0,2.0,,,,,2020-12-01,7-31-Bew-Aufenthalte-AIG-J-d-2020-12.xlsx
183,63,Afghanistan,10.0,10.0,0.0,9.0,1.0,0.0,1.0,7.0,0.0,0.0,,,,,2020-12-01,7-31-Bew-Aufenthalte-AIG-J-d-2020-12.xlsx
184,64,Armenien,1.0,1.0,0.0,1.0,0.0,0.0,0.0,0.0,0.0,1.0,,,,,2020-12-01,7-31-Bew-Aufenthalte-AIG-J-d-2020-12.xlsx
185,65,Aserbaidschan,1.0,1.0,0.0,2.0,0.0,0.0,0.0,2.0,0.0,0.0,,,,,2020-12-01,7-31-Bew-Aufenthalte-AIG-J-d-2020-12.xlsx
186,66,Bangladesh,4.0,4.0,0.0,3.0,0.0,0.0,0.0,3.0,0.0,0.0,,,,,2020-12-01,7-31-Bew-Aufenthalte-AIG-J-d-2020-12.xlsx
187,67,China (Volksrepublik),15.0,14.0,1.0,18.0,3.0,6.0,2.0,0.0,2.0,5.0,,,,,2020-12-01,7-31-Bew-Aufenthalte-AIG-J-d-2020-12.xlsx
188,68,Georgien,51.0,41.0,10.0,47.0,3.0,23.0,1.0,3.0,1.0,16.0,,,,,2020-12-01,7-31-Bew-Aufenthalte-AIG-J-d-2020-12.xlsx
189,69,Indien,13.0,10.0,3.0,12.0,3.0,2.0,0.0,2.0,0.0,5.0,,,,,2020-12-01,7-31-Bew-Aufenthalte-AIG-J-d-2020-12.xlsx
190,70,Irak,39.0,24.0,15.0,38.0,15.0,0.0,0.0,3.0,3.0,17.0,,,,,2020-12-01,7-31-Bew-Aufenthalte-AIG-J-d-2020-12.xlsx
191,71,Iran,1.0,1.0,0.0,2.0,0.0,0.0,0.0,0.0,0.0,2.0,,,,,2020-12-01,7-31-Bew-Aufenthalte-AIG-J-d-2020-12.xlsx
192,72,Israel,4.0,3.0,1.0,4.0,0.0,3.0,0.0,0.0,0.0,1.0,,,,,2020-12-01,7-31-Bew-Aufenthalte-AIG-J-d-2020-12.xlsx
193,73,Jordanien,1.0,1.0,0.0,2.0,0.0,1.0,0.0,1.0,0.0,0.0,,,,,2020-12-01,7-31-Bew-Aufenthalte-AIG-J-d-2020-12.xlsx
194,74,Kambodscha,1.0,0.0,1.0,1.0,0.0,0.0,0.0,0.0,0.0,1.0,,,,,2020-12-01,7-31-Bew-Aufenthalte-AIG-J-d-2020-12.xlsx
195,75,Kasachstan,2.0,2.0,0.0,2.0,0.0,1.0,0.0,0.0,0.0,1.0,,,,,2020-12-01,7-31-Bew-Aufenthalte-AIG-J-d-2020-12.xlsx
196,76,Malaysia,1.0,1.0,0.0,1.0,1.0,0.0,0.0,0.0,0.0,0.0,,,,,2020-12-01,7-31-Bew-Aufenthalte-AIG-J-d-2020-12.xlsx
197,77,Mongolei,6.0,5.0,1.0,6.0,4.0,0.0,0.0,1.0,1.0,0.0,,,,,2020-12-01,7-31-Bew-Aufenthalte-AIG-J-d-2020-12.xlsx
198,78,Nepal,0.0,0.0,0.0,1.0,0.0,1.0,0.0,0.0,0.0,0.0,,,,,2020-12-01,7-31-Bew-Aufenthalte-AIG-J-d-2020-12.xlsx
199,79,Oman,1.0,1.0,0.0,1.0,0.0,1.0,0.0,0.0,0.0,0.0,,,,,2020-12-01,7-31-Bew-Aufenthalte-AIG-J-d-2020-12.xlsx
200,80,Pakistan,10.0,8.0,2.0,11.0,1.0,1.0,1.0,3.0,0.0,5.0,,,,,2020-12-01,7-31-Bew-Aufenthalte-AIG-J-d-2020-12.xlsx
201,81,Philippinen,6.0,6.0,0.0,6.0,5.0,1.0,0.0,0.0,0.0,0.0,,,,,2020-12-01,7-31-Bew-Aufenthalte-AIG-J-d-2020-12.xlsx
202,82,Sri Lanka,14.0,12.0,2.0,11.0,0.0,2.0,0.0,0.0,0.0,9.0,,,,,2020-12-01,7-31-Bew-Aufenthalte-AIG-J-d-2020-12.xlsx
203,83,Syrien,6.0,6.0,0.0,6.0,0.0,0.0,0.0,0.0,1.0,5.0,,,,,2020-12-01,7-31-Bew-Aufenthalte-AIG-J-d-2020-12.xlsx
204,84,Thailand,9.0,7.0,2.0,8.0,0.0,5.0,0.0,0.0,0.0,3.0,,,,,2020-12-01,7-31-Bew-Aufenthalte-AIG-J-d-2020-12.xlsx
205,85,Vietnam,1.0,1.0,0.0,1.0,0.0,1.0,0.0,0.0,0.0,0.0,,,,,2020-12-01,7-31-Bew-Aufenthalte-AIG-J-d-2020-12.xlsx
206,88,Albanien,440.0,411.0,29.0,443.0,32.0,298.0,1.0,4.0,1.0,107.0,,,,,2020-12-01,7-31-Bew-Aufenthalte-AIG-J-d-2020-12.xlsx
207,89,Belarus,9.0,8.0,1.0,9.0,0.0,4.0,0.0,0.0,1.0,4.0,,,,,2020-12-01,7-31-Bew-Aufenthalte-AIG-J-d-2020-12.xlsx
208,90,Belgien,7.0,6.0,1.0,7.0,0.0,4.0,0.0,0.0,0.0,3.0,,,,,2020-12-01,7-31-Bew-Aufenthalte-AIG-J-d-2020-12.xlsx
209,91,Bosnien u. Herzegowina,24.0,23.0,1.0,25.0,0.0,18.0,0.0,0.0,0.0,7.0,,,,,2020-12-01,7-31-Bew-Aufenthalte-AIG-J-d-2020-12.xlsx
210,92,Bulgarien,21.0,20.0,1.0,17.0,2.0,11.0,0.0,0.0,1.0,3.0,,,,,2020-12-01,7-31-Bew-Aufenthalte-AIG-J-d-2020-12.xlsx
211,93,Deutschland,2.0,2.0,0.0,1.0,0.0,1.0,0.0,0.0,0.0,0.0,,,,,2020-12-01,7-31-Bew-Aufenthalte-AIG-J-d-2020-12.xlsx
212,94,Estland,2.0,2.0,0.0,2.0,0.0,1.0,0.0,0.0,0.0,1.0,,,,,2020-12-01,7-31-Bew-Aufenthalte-AIG-J-d-2020-12.xlsx
213,95,Frankreich,10.0,10.0,0.0,8.0,0.0,5.0,0.0,0.0,0.0,3.0,,,,,2020-12-01,7-31-Bew-Aufenthalte-AIG-J-d-2020-12.xlsx
214,96,Griechenland,6.0,5.0,1.0,6.0,1.0,2.0,0.0,0.0,0.0,3.0,,,,,2020-12-01,7-31-Bew-Aufenthalte-AIG-J-d-2020-12.xlsx
215,97,Grossbritannien,5.0,5.0,0.0,5.0,1.0,4.0,0.0,0.0,0.0,0.0,,,,,2020-12-01,7-31-Bew-Aufenthalte-AIG-J-d-2020-12.xlsx
216,98,Irland,1.0,1.0,0.0,1.0,1.0,0.0,0.0,0.0,0.0,0.0,,,,,2020-12-01,7-31-Bew-Aufenthalte-AIG-J-d-2020-12.xlsx
217,99,Italien,27.0,23.0,4.0,30.0,2.0,15.0,0.0,0.0,1.0,12.0,,,,,2020-12-01,7-31-Bew-Aufenthalte-AIG-J-d-2020-12.xlsx
218,100,Kosovo,155.0,141.0,14.0,176.0,4.0,126.0,2.0,4.0,6.0,34.0,,,,,2020-12-01,7-31-Bew-Aufenthalte-AIG-J-d-2020-12.xlsx
219,101,Kroatien,16.0,13.0,3.0,18.0,0.0,13.0,0.0,0.0,0.0,5.0,,,,,2020-12-01,7-31-Bew-Aufenthalte-AIG-J-d-2020-12.xlsx
220,102,Lettland,4.0,3.0,1.0,4.0,0.0,2.0,0.0,0.0,0.0,2.0,,,,,2020-12-01,7-31-Bew-Aufenthalte-AIG-J-d-2020-12.xlsx
221,103,Litauen,14.0,12.0,2.0,15.0,0.0,11.0,0.0,0.0,0.0,4.0,,,,,2020-12-01,7-31-Bew-Aufenthalte-AIG-J-d-2020-12.xlsx
222,104,Nordmazedonien,78.0,72.0,6.0,73.0,0.0,61.0,0.0,0.0,1.0,11.0,,,,,2020-12-01,7-31-Bew-Aufenthalte-AIG-J-d-2020-12.xlsx
223,105,Moldova,17.0,14.0,3.0,16.0,2.0,8.0,0.0,0.0,1.0,5.0,,,,,2020-12-01,7-31-Bew-Aufenthalte-AIG-J-d-2020-12.xlsx
224,106,Montenegro,2.0,2.0,0.0,2.0,1.0,1.0,0.0,0.0,0.0,0.0,,,,,2020-12-01,7-31-Bew-Aufenthalte-AIG-J-d-2020-12.xlsx
225,107,Niederlande,6.0,6.0,0.0,6.0,0.0,5.0,1.0,0.0,0.0,0.0,,,,,2020-12-01,7-31-Bew-Aufenthalte-AIG-J-d-2020-12.xlsx
226,108,Österreich,1.0,1.0,0.0,1.0,0.0,1.0,0.0,0.0,0.0,0.0,,,,,2020-12-01,7-31-Bew-Aufenthalte-AIG-J-d-2020-12.xlsx
227,109,Polen,30.0,26.0,4.0,31.0,1.0,20.0,0.0,0.0,0.0,10.0,,,,,2020-12-01,7-31-Bew-Aufenthalte-AIG-J-d-2020-12.xlsx
228,110,Portugal,76.0,66.0,10.0,78.0,10.0,54.0,0.0,0.0,0.0,14.0,,,,,2020-12-01,7-31-Bew-Aufenthalte-AIG-J-d-2020-12.xlsx
229,111,Rumänien,281.0,252.0,29.0,285.0,73.0,132.0,1.0,0.0,0.0,79.0,,,,,2020-12-01,7-31-Bew-Aufenthalte-AIG-J-d-2020-12.xlsx
230,112,Russland,7.0,7.0,0.0,8.0,0.0,5.0,0.0,0.0,2.0,1.0,,,,,2020-12-01,7-31-Bew-Aufenthalte-AIG-J-d-2020-12.xlsx
231,113,Serbien,190.0,177.0,13.0,185.0,3.0,121.0,1.0,1.0,6.0,53.0,,,,,2020-12-01,7-31-Bew-Aufenthalte-AIG-J-d-2020-12.xlsx
232,114,Slowakische Republik,16.0,13.0,3.0,16.0,2.0,4.0,0.0,0.0,0.0,10.0,,,,,2020-12-01,7-31-Bew-Aufenthalte-AIG-J-d-2020-12.xlsx
233,115,Slowenien,1.0,1.0,0.0,1.0,0.0,1.0,0.0,0.0,0.0,0.0,,,,,2020-12-01,7-31-Bew-Aufenthalte-AIG-J-d-2020-12.xlsx
234,116,Spanien,26.0,26.0,0.0,27.0,7.0,15.0,1.0,0.0,0.0,4.0,,,,,2020-12-01,7-31-Bew-Aufenthalte-AIG-J-d-2020-12.xlsx
235,117,Tschechische Republik,6.0,6.0,0.0,6.0,0.0,6.0,0.0,0.0,0.0,0.0,,,,,2020-12-01,7-31-Bew-Aufenthalte-AIG-J-d-2020-12.xlsx
236,118,Türkei,44.0,36.0,8.0,45.0,6.0,24.0,2.0,0.0,4.0,9.0,,,,,2020-12-01,7-31-Bew-Aufenthalte-AIG-J-d-2020-12.xlsx
237,119,Ukraine,12.0,12.0,0.0,12.0,0.0,7.0,0.0,1.0,0.0,4.0,,,,,2020-12-01,7-31-Bew-Aufenthalte-AIG-J-d-2020-12.xlsx
238,120,Ungarn,14.0,10.0,4.0,14.0,2.0,4.0,1.0,0.0,0.0,7.0,,,,,2020-12-01,7-31-Bew-Aufenthalte-AIG-J-d-2020-12.xlsx
239,123,Australien,1.0,0.0,1.0,1.0,0.0,1.0,0.0,0.0,0.0,0.0,,,,,2020-12-01,7-31-Bew-Aufenthalte-AIG-J-d-2020-12.xlsx
240,126,Staatenlos,1.0,1.0,0.0,1.0,0.0,0.0,1.0,0.0,0.0,0.0,,,,,2020-12-01,7-31-Bew-Aufenthalte-AIG-J-d-2020-12.xlsx
241,127,Ohne Nationalität,7.0,5.0,2.0,8.0,0.0,0.0,0.0,2.0,6.0,0.0,,,,,2020-12-01,7-31-Bew-Aufenthalte-AIG-J-d-2020-12.xlsx
242,128,Staat unbekannt,10.0,7.0,3.0,13.0,1.0,1.0,2.0,3.0,5.0,1.0,,,,,2020-12-01,7-31-Bew-Aufenthalte-AIG-J-d-2020-12.xlsx
