,Nation,7-31_yearly_flow_b,7-31_yearly_flow_c,7-31_yearly_flow_d,7-31_yearly_flow_e,7-31_yearly_flow_f,7-31_yearly_flow_g,7-31_yearly_flow_h,7-31_yearly_flow_i,7-31_yearly_flow_j,7-31_yearly_flow_k,Datum,file_name,name_of_sem_statistics,name_of_sem_code,flow_or_stock,yearly_or_monthly
1,Ägypten,4.0,4.0,0.0,6.0,0.0,0.0,0.0,4.0,2.0,0.0,2020-12-01,7-31-Bew-Aufenthalte-AIG-J-d-2020-12.xlsx,7-31-Bew-Aufenthalte-AIG-J,7-31,flow,yearly
2,Algerien,179.0,127.0,52.0,166.0,3.0,13.0,9.0,58.0,56.0,27.0,2020-12-01,7-31-Bew-Aufenthalte-AIG-J-d-2020-12.xlsx,7-31-Bew-Aufenthalte-AIG-J,7-31,flow,yearly
3,Angola,3.0,3.0,0.0,3.0,0.0,1.0,0.0,1.0,0.0,1.0,2020-12-01,7-31-Bew-Aufenthalte-AIG-J-d-2020-12.xlsx,7-31-Bew-Aufenthalte-AIG-J,7-31,flow,yearly
4,Äquatorialguinea,1.0,1.0,0.0,2.0,0.0,0.0,0.0,0.0,1.0,1.0,2020-12-01,7-31-Bew-Aufenthalte-AIG-J-d-2020-12.xlsx,7-31-Bew-Aufenthalte-AIG-J,7-31,flow,yearly
5,Äthiopien,10.0,6.0,4.0,10.0,1.0,0.0,0.0,5.0,2.0,2.0,2020-12-01,7-31-Bew-Aufenthalte-AIG-J-d-2020-12.xlsx,7-31-Bew-Aufenthalte-AIG-J,7-31,flow,yearly
6,Benin,3.0,3.0,0.0,1.0,0.0,0.0,0.0,0.0,0.0,1.0,2020-12-01,7-31-Bew-Aufenthalte-AIG-J-d-2020-12.xlsx,7-31-Bew-Aufenthalte-AIG-J,7-31,flow,yearly
7,Burkina Faso,2.0,2.0,0.0,1.0,0.0,1.0,0.0,0.0,0.0,0.0,2020-12-01,7-31-Bew-Aufenthalte-AIG-J-d-2020-12.xlsx,7-31-Bew-Aufenthalte-AIG-J,7-31,flow,yearly
8,Burundi,1.0,1.0,0.0,0.0,0.0,0.0,0.0,0.0,0.0,0.0,2020-12-01,7-31-Bew-Aufenthalte-AIG-J-d-2020-12.xlsx,7-31-Bew-Aufenthalte-AIG-J,7-31,flow,yearly
9,Côte d'Ivoire,9.0,8.0,1.0,9.0,0.0,0.0,2.0,3.0,3.0,1.0,2020-12-01,7-31-Bew-Aufenthalte-AIG-J-d-2020-12.xlsx,7-31-Bew-Aufenthalte-AIG-J,7-31,flow,yearly
10,Dschibuti,1.0,1.0,0.0,0.0,0.0,0.0,0.0,0.0,0.0,0.0,2020-12-01,7-31-Bew-Aufenthalte-AIG-J-d-2020-12.xlsx,7-31-Bew-Aufenthalte-AIG-J,7-31,flow,yearly
11,Eritrea,9.0,9.0,0.0,5.0,1.0,0.0,0.0,4.0,0.0,0.0,2020-12-01,7-31-Bew-Aufenthalte-AIG-J-d-2020-12.xlsx,7-31-Bew-Aufenthalte-AIG-J,7-31,flow,yearly
12,Gabun,4.0,4.0,0.0,1.0,0.0,0.0,0.0,0.0,0.0,1.0,2020-12-01,7-31-Bew-Aufenthalte-AIG-J-d-2020-12.xlsx,7-31-Bew-Aufenthalte-AIG-J,7-31,flow,yearly
13,Gambia,85.0,79.0,6.0,77.0,1.0,5.0,7.0,56.0,4.0,4.0,2020-12-01,7-31-Bew-Aufenthalte-AIG-J-d-2020-12.xlsx,7-31-Bew-Aufenthalte-AIG-J,7-31,flow,yearly
14,Ghana,11.0,11.0,0.0,10.0,0.0,0.0,2.0,7.0,0.0,1.0,2020-12-01,7-31-Bew-Aufenthalte-AIG-J-d-2020-12.xlsx,7-31-Bew-Aufenthalte-AIG-J,7-31,flow,yearly
15,Guinea,93.0,84.0,9.0,88.0,0.0,23.0,11.0,36.0,8.0,10.0,2020-12-01,7-31-Bew-Aufenthalte-AIG-J-d-2020-12.xlsx,7-31-Bew-Aufenthalte-AIG-J,7-31,flow,yearly
16,Guinea-Bissau,22.0,20.0,2.0,21.0,0.0,7.0,4.0,5.0,0.0,5.0,2020-12-01,7-31-Bew-Aufenthalte-AIG-J-d-2020-12.xlsx,7-31-Bew-Aufenthalte-AIG-J,7-31,flow,yearly
17,Kamerun,15.0,12.0,3.0,19.0,1.0,4.0,0.0,4.0,6.0,4.0,2020-12-01,7-31-Bew-Aufenthalte-AIG-J-d-2020-12.xlsx,7-31-Bew-Aufenthalte-AIG-J,7-31,flow,yearly
18,Kapverden,2.0,2.0,0.0,4.0,2.0,0.0,0.0,0.0,2.0,0.0,2020-12-01,7-31-Bew-Aufenthalte-AIG-J-d-2020-12.xlsx,7-31-Bew-Aufenthalte-AIG-J,7-31,flow,yearly
19,Kenia,3.0,3.0,0.0,5.0,1.0,0.0,0.0,1.0,2.0,1.0,2020-12-01,7-31-Bew-Aufenthalte-AIG-J-d-2020-12.xlsx,7-31-Bew-Aufenthalte-AIG-J,7-31,flow,yearly
20,Kongo DR,4.0,3.0,1.0,9.0,0.0,1.0,0.0,0.0,5.0,3.0,2020-12-01,7-31-Bew-Aufenthalte-AIG-J-d-2020-12.xlsx,7-31-Bew-Aufenthalte-AIG-J,7-31,flow,yearly
21,Liberia,1.0,1.0,0.0,1.0,0.0,0.0,0.0,0.0,1.0,0.0,2020-12-01,7-31-Bew-Aufenthalte-AIG-J-d-2020-12.xlsx,7-31-Bew-Aufenthalte-AIG-J,7-31,flow,yearly
22,Libyen,18.0,15.0,3.0,16.0,2.0,0.0,0.0,8.0,4.0,2.0,2020-12-01,7-31-Bew-Aufenthalte-AIG-J-d-2020-12.xlsx,7-31-Bew-Aufenthalte-AIG-J,7-31,flow,yearly
23,Mali,17.0,17.0,0.0,16.0,1.0,0.0,2.0,13.0,0.0,0.0,2020-12-01,7-31-Bew-Aufenthalte-AIG-J-d-2020-12.xlsx,7-31-Bew-Aufenthalte-AIG-J,7-31,flow,yearly
24,Marokko,87.0,72.0,15.0,82.0,5.0,10.0,4.0,33.0,25.0,5.0,2020-12-01,7-31-Bew-Aufenthalte-AIG-J-d-2020-12.xlsx,7-31-Bew-Aufenthalte-AIG-J,7-31,flow,yearly
25,Mauretanien,3.0,3.0,0.0,3.0,0.0,0.0,2.0,1.0,0.0,0.0,2020-12-01,7-31-Bew-Aufenthalte-AIG-J-d-2020-12.xlsx,7-31-Bew-Aufenthalte-AIG-J,7-31,flow,yearly
26,Mauritius,2.0,2.0,0.0,3.0,2.0,1.0,0.0,0.0,0.0,0.0,2020-12-01,7-31-Bew-Aufenthalte-AIG-J-d-2020-12.xlsx,7-31-Bew-Aufenthalte-AIG-J,7-31,flow,yearly
27,Niger,1.0,1.0,0.0,1.0,0.0,0.0,0.0,1.0,0.0,0.0,2020-12-01,7-31-Bew-Aufenthalte-AIG-J-d-2020-12.xlsx,7-31-Bew-Aufenthalte-AIG-J,7-31,flow,yearly
28,Nigeria,240.0,225.0,15.0,235.0,0.0,46.0,42.0,123.0,0.0,24.0,2020-12-01,7-31-Bew-Aufenthalte-AIG-J-d-2020-12.xlsx,7-31-Bew-Aufenthalte-AIG-J,7-31,flow,yearly
29,Senegal,30.0,25.0,5.0,28.0,3.0,4.0,2.0,13.0,2.0,4.0,2020-12-01,7-31-Bew-Aufenthalte-AIG-J-d-2020-12.xlsx,7-31-Bew-Aufenthalte-AIG-J,7-31,flow,yearly
30,Sierra Leone,6.0,4.0,2.0,3.0,0.0,0.0,0.0,2.0,1.0,0.0,2020-12-01,7-31-Bew-Aufenthalte-AIG-J-d-2020-12.xlsx,7-31-Bew-Aufenthalte-AIG-J,7-31,flow,yearly
31,Somalia,19.0,15.0,4.0,16.0,0.0,0.0,0.0,10.0,3.0,3.0,2020-12-01,7-31-Bew-Aufenthalte-AIG-J-d-2020-12.xlsx,7-31-Bew-Aufenthalte-AIG-J,7-31,flow,yearly
32,Südafrika,4.0,4.0,0.0,4.0,0.0,1.0,0.0,3.0,0.0,0.0,2020-12-01,7-31-Bew-Aufenthalte-AIG-J-d-2020-12.xlsx,7-31-Bew-Aufenthalte-AIG-J,7-31,flow,yearly
33,Sudan,6.0,5.0,1.0,7.0,0.0,3.0,0.0,2.0,1.0,1.0,2020-12-01,7-31-Bew-Aufenthalte-AIG-J-d-2020-12.xlsx,7-31-Bew-Aufenthalte-AIG-J,7-31,flow,yearly
34,Südsudan,1.0,0.0,1.0,1.0,0.0,0.0,0.0,0.0,0.0,1.0,2020-12-01,7-31-Bew-Aufenthalte-AIG-J-d-2020-12.xlsx,7-31-Bew-Aufenthalte-AIG-J,7-31,flow,yearly
35,Tansania,2.0,2.0,0.0,2.0,0.0,1.0,1.0,0.0,0.0,0.0,2020-12-01,7-31-Bew-Aufenthalte-AIG-J-d-2020-12.xlsx,7-31-Bew-Aufenthalte-AIG-J,7-31,flow,yearly
36,Togo,1.0,1.0,0.0,1.0,0.0,0.0,0.0,1.0,0.0,0.0,2020-12-01,7-31-Bew-Aufenthalte-AIG-J-d-2020-12.xlsx,7-31-Bew-Aufenthalte-AIG-J,7-31,flow,yearly
37,Tschad,2.0,1.0,1.0,1.0,0.0,0.0,0.0,0.0,1.0,0.0,2020-12-01,7-31-Bew-Aufenthalte-AIG-J-d-2020-12.xlsx,7-31-Bew-Aufenthalte-AIG-J,7-31,flow,yearly
38,Tunesien,64.0,50.0,14.0,61.0,2.0,21.0,0.0,14.0,15.0,9.0,2020-12-01,7-31-Bew-Aufenthalte-AIG-J-d-2020-12.xlsx,7-31-Bew-Aufenthalte-AIG-J,7-31,flow,yearly
39,Uganda,1.0,0.0,1.0,0.0,0.0,0.0,0.0,0.0,0.0,0.0,2020-12-01,7-31-Bew-Aufenthalte-AIG-J-d-2020-12.xlsx,7-31-Bew-Aufenthalte-AIG-J,7-31,flow,yearly
40,Westsahara,1.0,1.0,0.0,0.0,0.0,0.0,0.0,0.0,0.0,0.0,2020-12-01,7-31-Bew-Aufenthalte-AIG-J-d-2020-12.xlsx,7-31-Bew-Aufenthalte-AIG-J,7-31,flow,yearly
41,Zimbabwe,2.0,2.0,0.0,0.0,0.0,0.0,0.0,0.0,0.0,0.0,2020-12-01,7-31-Bew-Aufenthalte-AIG-J-d-2020-12.xlsx,7-31-Bew-Aufenthalte-AIG-J,7-31,flow,yearly
42,Total Afrika,969.0,829.0,140.0,918.0,25.0,142.0,88.0,408.0,144.0,111.0,2020-12-01,7-31-Bew-Aufenthalte-AIG-J-d-2020-12.xlsx,7-31-Bew-Aufenthalte-AIG-J,7-31,flow,yearly
44,Argentinien,8.0,8.0,0.0,8.0,3.0,3.0,0.0,0.0,0.0,2.0,2020-12-01,7-31-Bew-Aufenthalte-AIG-J-d-2020-12.xlsx,7-31-Bew-Aufenthalte-AIG-J,7-31,flow,yearly
45,Bolivien,7.0,6.0,1.0,7.0,4.0,2.0,0.0,0.0,0.0,1.0,2020-12-01,7-31-Bew-Aufenthalte-AIG-J-d-2020-12.xlsx,7-31-Bew-Aufenthalte-AIG-J,7-31,flow,yearly
46,Brasilien,112.0,106.0,6.0,110.0,33.0,61.0,1.0,0.0,2.0,13.0,2020-12-01,7-31-Bew-Aufenthalte-AIG-J-d-2020-12.xlsx,7-31-Bew-Aufenthalte-AIG-J,7-31,flow,yearly
47,Chile,15.0,15.0,0.0,13.0,6.0,6.0,1.0,0.0,0.0,0.0,2020-12-01,7-31-Bew-Aufenthalte-AIG-J-d-2020-12.xlsx,7-31-Bew-Aufenthalte-AIG-J,7-31,flow,yearly
48,Costa Rica,1.0,1.0,0.0,1.0,0.0,1.0,0.0,0.0,0.0,0.0,2020-12-01,7-31-Bew-Aufenthalte-AIG-J-d-2020-12.xlsx,7-31-Bew-Aufenthalte-AIG-J,7-31,flow,yearly
49,Dominikanische Republik,46.0,42.0,4.0,47.0,4.0,20.0,14.0,1.0,4.0,4.0,2020-12-01,7-31-Bew-Aufenthalte-AIG-J-d-2020-12.xlsx,7-31-Bew-Aufenthalte-AIG-J,7-31,flow,yearly
50,Ecuador,5.0,5.0,0.0,5.0,3.0,1.0,1.0,0.0,0.0,0.0,2020-12-01,7-31-Bew-Aufenthalte-AIG-J-d-2020-12.xlsx,7-31-Bew-Aufenthalte-AIG-J,7-31,flow,yearly
51,El Salvador,1.0,1.0,0.0,1.0,0.0,1.0,0.0,0.0,0.0,0.0,2020-12-01,7-31-Bew-Aufenthalte-AIG-J-d-2020-12.xlsx,7-31-Bew-Aufenthalte-AIG-J,7-31,flow,yearly
52,Haiti,3.0,2.0,1.0,3.0,0.0,2.0,0.0,0.0,0.0,1.0,2020-12-01,7-31-Bew-Aufenthalte-AIG-J-d-2020-12.xlsx,7-31-Bew-Aufenthalte-AIG-J,7-31,flow,yearly
53,Honduras,4.0,3.0,1.0,3.0,3.0,0.0,0.0,0.0,0.0,0.0,2020-12-01,7-31-Bew-Aufenthalte-AIG-J-d-2020-12.xlsx,7-31-Bew-Aufenthalte-AIG-J,7-31,flow,yearly
54,Jamaika,3.0,3.0,0.0,2.0,0.0,0.0,0.0,0.0,0.0,2.0,2020-12-01,7-31-Bew-Aufenthalte-AIG-J-d-2020-12.xlsx,7-31-Bew-Aufenthalte-AIG-J,7-31,flow,yearly
55,Kanada,1.0,1.0,0.0,1.0,0.0,1.0,0.0,0.0,0.0,0.0,2020-12-01,7-31-Bew-Aufenthalte-AIG-J-d-2020-12.xlsx,7-31-Bew-Aufenthalte-AIG-J,7-31,flow,yearly
56,Kolumbien,53.0,49.0,4.0,53.0,16.0,24.0,1.0,0.0,0.0,12.0,2020-12-01,7-31-Bew-Aufenthalte-AIG-J-d-2020-12.xlsx,7-31-Bew-Aufenthalte-AIG-J,7-31,flow,yearly
57,Kuba,6.0,6.0,0.0,4.0,2.0,0.0,1.0,0.0,0.0,1.0,2020-12-01,7-31-Bew-Aufenthalte-AIG-J-d-2020-12.xlsx,7-31-Bew-Aufenthalte-AIG-J,7-31,flow,yearly
58,Mexiko,7.0,7.0,0.0,7.0,2.0,5.0,0.0,0.0,0.0,0.0,2020-12-01,7-31-Bew-Aufenthalte-AIG-J-d-2020-12.xlsx,7-31-Bew-Aufenthalte-AIG-J,7-31,flow,yearly
59,Nicaragua,3.0,3.0,0.0,3.0,1.0,1.0,0.0,0.0,0.0,1.0,2020-12-01,7-31-Bew-Aufenthalte-AIG-J-d-2020-12.xlsx,7-31-Bew-Aufenthalte-AIG-J,7-31,flow,yearly
60,Paraguay,7.0,5.0,2.0,7.0,4.0,3.0,0.0,0.0,0.0,0.0,2020-12-01,7-31-Bew-Aufenthalte-AIG-J-d-2020-12.xlsx,7-31-Bew-Aufenthalte-AIG-J,7-31,flow,yearly
61,Peru,18.0,17.0,1.0,18.0,6.0,9.0,1.0,0.0,0.0,2.0,2020-12-01,7-31-Bew-Aufenthalte-AIG-J-d-2020-12.xlsx,7-31-Bew-Aufenthalte-AIG-J,7-31,flow,yearly
62,Uruguay,3.0,3.0,0.0,2.0,1.0,1.0,0.0,0.0,0.0,0.0,2020-12-01,7-31-Bew-Aufenthalte-AIG-J-d-2020-12.xlsx,7-31-Bew-Aufenthalte-AIG-J,7-31,flow,yearly
63,USA,11.0,9.0,2.0,11.0,0.0,8.0,0.0,0.0,0.0,3.0,2020-12-01,7-31-Bew-Aufenthalte-AIG-J-d-2020-12.xlsx,7-31-Bew-Aufenthalte-AIG-J,7-31,flow,yearly
64,Venezuela,9.0,8.0,1.0,9.0,1.0,3.0,1.0,0.0,0.0,4.0,2020-12-01,7-31-Bew-Aufenthalte-AIG-J-d-2020-12.xlsx,7-31-Bew-Aufenthalte-AIG-J,7-31,flow,yearly
65,Total Amerika,323.0,300.0,23.0,315.0,89.0,152.0,21.0,1.0,6.0,46.0,2020-12-01,7-31-Bew-Aufenthalte-AIG-J-d-2020-12.xlsx,7-31-Bew-Aufenthalte-AIG-J,7-31,flow,yearly
67,Afghanistan,16.0,12.0,4.0,16.0,0.0,1.0,1.0,10.0,0.0,4.0,2020-12-01,7-31-Bew-Aufenthalte-AIG-J-d-2020-12.xlsx,7-31-Bew-Aufenthalte-AIG-J,7-31,flow,yearly
68,Armenien,3.0,3.0,0.0,4.0,1.0,0.0,0.0,2.0,1.0,0.0,2020-12-01,7-31-Bew-Aufenthalte-AIG-J-d-2020-12.xlsx,7-31-Bew-Aufenthalte-AIG-J,7-31,flow,yearly
69,Aserbaidschan,1.0,1.0,0.0,1.0,0.0,0.0,0.0,0.0,0.0,1.0,2020-12-01,7-31-Bew-Aufenthalte-AIG-J-d-2020-12.xlsx,7-31-Bew-Aufenthalte-AIG-J,7-31,flow,yearly
70,Bangladesh,5.0,4.0,1.0,5.0,1.0,1.0,0.0,1.0,0.0,2.0,2020-12-01,7-31-Bew-Aufenthalte-AIG-J-d-2020-12.xlsx,7-31-Bew-Aufenthalte-AIG-J,7-31,flow,yearly
71,China (Volksrepublik),19.0,16.0,3.0,13.0,0.0,5.0,5.0,0.0,1.0,2.0,2020-12-01,7-31-Bew-Aufenthalte-AIG-J-d-2020-12.xlsx,7-31-Bew-Aufenthalte-AIG-J,7-31,flow,yearly
72,Georgien,103.0,96.0,7.0,101.0,0.0,70.0,1.0,12.0,3.0,15.0,2020-12-01,7-31-Bew-Aufenthalte-AIG-J-d-2020-12.xlsx,7-31-Bew-Aufenthalte-AIG-J,7-31,flow,yearly
73,Indien,10.0,10.0,0.0,11.0,1.0,5.0,0.0,4.0,0.0,1.0,2020-12-01,7-31-Bew-Aufenthalte-AIG-J-d-2020-12.xlsx,7-31-Bew-Aufenthalte-AIG-J,7-31,flow,yearly
74,Irak,24.0,23.0,1.0,28.0,7.0,0.0,0.0,8.0,9.0,4.0,2020-12-01,7-31-Bew-Aufenthalte-AIG-J-d-2020-12.xlsx,7-31-Bew-Aufenthalte-AIG-J,7-31,flow,yearly
75,Iran,8.0,8.0,0.0,7.0,2.0,1.0,0.0,4.0,0.0,0.0,2020-12-01,7-31-Bew-Aufenthalte-AIG-J-d-2020-12.xlsx,7-31-Bew-Aufenthalte-AIG-J,7-31,flow,yearly
76,Israel,8.0,8.0,0.0,7.0,0.0,6.0,0.0,1.0,0.0,0.0,2020-12-01,7-31-Bew-Aufenthalte-AIG-J-d-2020-12.xlsx,7-31-Bew-Aufenthalte-AIG-J,7-31,flow,yearly
77,Jordanien,4.0,4.0,0.0,5.0,2.0,2.0,0.0,0.0,0.0,1.0,2020-12-01,7-31-Bew-Aufenthalte-AIG-J-d-2020-12.xlsx,7-31-Bew-Aufenthalte-AIG-J,7-31,flow,yearly
78,Kambodscha,1.0,1.0,0.0,1.0,0.0,0.0,0.0,0.0,1.0,0.0,2020-12-01,7-31-Bew-Aufenthalte-AIG-J-d-2020-12.xlsx,7-31-Bew-Aufenthalte-AIG-J,7-31,flow,yearly
79,Kasachstan,2.0,2.0,0.0,2.0,0.0,2.0,0.0,0.0,0.0,0.0,2020-12-01,7-31-Bew-Aufenthalte-AIG-J-d-2020-12.xlsx,7-31-Bew-Aufenthalte-AIG-J,7-31,flow,yearly
80,Korea (Süd),2.0,2.0,0.0,2.0,0.0,2.0,0.0,0.0,0.0,0.0,2020-12-01,7-31-Bew-Aufenthalte-AIG-J-d-2020-12.xlsx,7-31-Bew-Aufenthalte-AIG-J,7-31,flow,yearly
81,Libanon,10.0,9.0,1.0,11.0,1.0,2.0,0.0,4.0,3.0,1.0,2020-12-01,7-31-Bew-Aufenthalte-AIG-J-d-2020-12.xlsx,7-31-Bew-Aufenthalte-AIG-J,7-31,flow,yearly
82,Malaysia,1.0,1.0,0.0,1.0,1.0,0.0,0.0,0.0,0.0,0.0,2020-12-01,7-31-Bew-Aufenthalte-AIG-J-d-2020-12.xlsx,7-31-Bew-Aufenthalte-AIG-J,7-31,flow,yearly
83,Mongolei,8.0,8.0,0.0,9.0,6.0,0.0,0.0,2.0,0.0,1.0,2020-12-01,7-31-Bew-Aufenthalte-AIG-J-d-2020-12.xlsx,7-31-Bew-Aufenthalte-AIG-J,7-31,flow,yearly
84,Nepal,1.0,1.0,0.0,0.0,0.0,0.0,0.0,0.0,0.0,0.0,2020-12-01,7-31-Bew-Aufenthalte-AIG-J-d-2020-12.xlsx,7-31-Bew-Aufenthalte-AIG-J,7-31,flow,yearly
85,Pakistan,14.0,10.0,4.0,13.0,0.0,1.0,1.0,6.0,0.0,5.0,2020-12-01,7-31-Bew-Aufenthalte-AIG-J-d-2020-12.xlsx,7-31-Bew-Aufenthalte-AIG-J,7-31,flow,yearly
86,Philippinen,10.0,10.0,0.0,10.0,8.0,2.0,0.0,0.0,0.0,0.0,2020-12-01,7-31-Bew-Aufenthalte-AIG-J-d-2020-12.xlsx,7-31-Bew-Aufenthalte-AIG-J,7-31,flow,yearly
87,Sri Lanka,22.0,19.0,3.0,20.0,1.0,3.0,1.0,7.0,1.0,7.0,2020-12-01,7-31-Bew-Aufenthalte-AIG-J-d-2020-12.xlsx,7-31-Bew-Aufenthalte-AIG-J,7-31,flow,yearly
88,Syrien,9.0,9.0,0.0,6.0,0.0,0.0,2.0,1.0,0.0,3.0,2020-12-01,7-31-Bew-Aufenthalte-AIG-J-d-2020-12.xlsx,7-31-Bew-Aufenthalte-AIG-J,7-31,flow,yearly
89,Thailand,9.0,8.0,1.0,10.0,3.0,6.0,0.0,0.0,1.0,0.0,2020-12-01,7-31-Bew-Aufenthalte-AIG-J-d-2020-12.xlsx,7-31-Bew-Aufenthalte-AIG-J,7-31,flow,yearly
90,Usbekistan,2.0,2.0,0.0,2.0,2.0,0.0,0.0,0.0,0.0,0.0,2020-12-01,7-31-Bew-Aufenthalte-AIG-J-d-2020-12.xlsx,7-31-Bew-Aufenthalte-AIG-J,7-31,flow,yearly
91,Vietnam,4.0,4.0,0.0,5.0,3.0,1.0,0.0,0.0,0.0,1.0,2020-12-01,7-31-Bew-Aufenthalte-AIG-J-d-2020-12.xlsx,7-31-Bew-Aufenthalte-AIG-J,7-31,flow,yearly
92,Total Asien,296.0,271.0,25.0,290.0,39.0,110.0,11.0,62.0,20.0,48.0,2020-12-01,7-31-Bew-Aufenthalte-AIG-J-d-2020-12.xlsx,7-31-Bew-Aufenthalte-AIG-J,7-31,flow,yearly
94,Albanien,624.0,610.0,14.0,612.0,1.0,542.0,2.0,4.0,2.0,61.0,2020-12-01,7-31-Bew-Aufenthalte-AIG-J-d-2020-12.xlsx,7-31-Bew-Aufenthalte-AIG-J,7-31,flow,yearly
95,Belarus,12.0,11.0,1.0,11.0,0.0,2.0,0.0,5.0,0.0,4.0,2020-12-01,7-31-Bew-Aufenthalte-AIG-J-d-2020-12.xlsx,7-31-Bew-Aufenthalte-AIG-J,7-31,flow,yearly
96,Belgien,6.0,5.0,1.0,5.0,0.0,1.0,0.0,0.0,0.0,4.0,2020-12-01,7-31-Bew-Aufenthalte-AIG-J-d-2020-12.xlsx,7-31-Bew-Aufenthalte-AIG-J,7-31,flow,yearly
97,Bosnien u. Herzegowina,49.0,46.0,3.0,46.0,1.0,41.0,0.0,0.0,0.0,4.0,2020-12-01,7-31-Bew-Aufenthalte-AIG-J-d-2020-12.xlsx,7-31-Bew-Aufenthalte-AIG-J,7-31,flow,yearly
98,Bulgarien,30.0,30.0,0.0,30.0,3.0,24.0,0.0,0.0,0.0,3.0,2020-12-01,7-31-Bew-Aufenthalte-AIG-J-d-2020-12.xlsx,7-31-Bew-Aufenthalte-AIG-J,7-31,flow,yearly
99,Deutschland,8.0,8.0,0.0,8.0,3.0,4.0,0.0,0.0,0.0,1.0,2020-12-01,7-31-Bew-Aufenthalte-AIG-J-d-2020-12.xlsx,7-31-Bew-Aufenthalte-AIG-J,7-31,flow,yearly
100,Estland,3.0,3.0,0.0,3.0,0.0,2.0,0.0,0.0,0.0,1.0,2020-12-01,7-31-Bew-Aufenthalte-AIG-J-d-2020-12.xlsx,7-31-Bew-Aufenthalte-AIG-J,7-31,flow,yearly
101,Frankreich,9.0,9.0,0.0,9.0,0.0,8.0,0.0,0.0,1.0,0.0,2020-12-01,7-31-Bew-Aufenthalte-AIG-J-d-2020-12.xlsx,7-31-Bew-Aufenthalte-AIG-J,7-31,flow,yearly
102,Griechenland,4.0,3.0,1.0,4.0,1.0,3.0,0.0,0.0,0.0,0.0,2020-12-01,7-31-Bew-Aufenthalte-AIG-J-d-2020-12.xlsx,7-31-Bew-Aufenthalte-AIG-J,7-31,flow,yearly
103,Grossbritannien,7.0,6.0,1.0,8.0,0.0,6.0,0.0,0.0,0.0,2.0,2020-12-01,7-31-Bew-Aufenthalte-AIG-J-d-2020-12.xlsx,7-31-Bew-Aufenthalte-AIG-J,7-31,flow,yearly
104,Italien,31.0,30.0,1.0,29.0,0.0,25.0,1.0,0.0,0.0,3.0,2020-12-01,7-31-Bew-Aufenthalte-AIG-J-d-2020-12.xlsx,7-31-Bew-Aufenthalte-AIG-J,7-31,flow,yearly
105,Kosovo,256.0,246.0,10.0,267.0,3.0,227.0,0.0,7.0,3.0,27.0,2020-12-01,7-31-Bew-Aufenthalte-AIG-J-d-2020-12.xlsx,7-31-Bew-Aufenthalte-AIG-J,7-31,flow,yearly
106,Kroatien,25.0,24.0,1.0,24.0,0.0,21.0,0.0,0.0,0.0,3.0,2020-12-01,7-31-Bew-Aufenthalte-AIG-J-d-2020-12.xlsx,7-31-Bew-Aufenthalte-AIG-J,7-31,flow,yearly
107,Lettland,5.0,5.0,0.0,6.0,1.0,4.0,1.0,0.0,0.0,0.0,2020-12-01,7-31-Bew-Aufenthalte-AIG-J-d-2020-12.xlsx,7-31-Bew-Aufenthalte-AIG-J,7-31,flow,yearly
108,Litauen,30.0,23.0,7.0,29.0,0.0,20.0,0.0,0.0,0.0,9.0,2020-12-01,7-31-Bew-Aufenthalte-AIG-J-d-2020-12.xlsx,7-31-Bew-Aufenthalte-AIG-J,7-31,flow,yearly
109,Nordmazedonien,126.0,119.0,7.0,133.0,13.0,101.0,0.0,2.0,3.0,14.0,2020-12-01,7-31-Bew-Aufenthalte-AIG-J-d-2020-12.xlsx,7-31-Bew-Aufenthalte-AIG-J,7-31,flow,yearly
110,Moldova,24.0,21.0,3.0,27.0,1.0,20.0,1.0,1.0,2.0,2.0,2020-12-01,7-31-Bew-Aufenthalte-AIG-J-d-2020-12.xlsx,7-31-Bew-Aufenthalte-AIG-J,7-31,flow,yearly
111,Montenegro,12.0,12.0,0.0,14.0,2.0,9.0,1.0,0.0,0.0,2.0,2020-12-01,7-31-Bew-Aufenthalte-AIG-J-d-2020-12.xlsx,7-31-Bew-Aufenthalte-AIG-J,7-31,flow,yearly
112,Niederlande,19.0,15.0,4.0,19.0,2.0,12.0,1.0,0.0,0.0,4.0,2020-12-01,7-31-Bew-Aufenthalte-AIG-J-d-2020-12.xlsx,7-31-Bew-Aufenthalte-AIG-J,7-31,flow,yearly
113,Österreich,4.0,3.0,1.0,4.0,0.0,3.0,0.0,0.0,0.0,1.0,2020-12-01,7-31-Bew-Aufenthalte-AIG-J-d-2020-12.xlsx,7-31-Bew-Aufenthalte-AIG-J,7-31,flow,yearly
114,Polen,45.0,39.0,6.0,45.0,0.0,36.0,0.0,0.0,0.0,9.0,2020-12-01,7-31-Bew-Aufenthalte-AIG-J-d-2020-12.xlsx,7-31-Bew-Aufenthalte-AIG-J,7-31,flow,yearly
115,Portugal,103.0,92.0,11.0,107.0,4.0,81.0,2.0,0.0,1.0,19.0,2020-12-01,7-31-Bew-Aufenthalte-AIG-J-d-2020-12.xlsx,7-31-Bew-Aufenthalte-AIG-J,7-31,flow,yearly
116,Rumänien,338.0,322.0,16.0,329.0,8.0,271.0,3.0,0.0,1.0,46.0,2020-12-01,7-31-Bew-Aufenthalte-AIG-J-d-2020-12.xlsx,7-31-Bew-Aufenthalte-AIG-J,7-31,flow,yearly
117,Russland,20.0,19.0,1.0,17.0,0.0,10.0,2.0,3.0,0.0,2.0,2020-12-01,7-31-Bew-Aufenthalte-AIG-J-d-2020-12.xlsx,7-31-Bew-Aufenthalte-AIG-J,7-31,flow,yearly
118,Schweden,1.0,1.0,0.0,1.0,0.0,1.0,0.0,0.0,0.0,0.0,2020-12-01,7-31-Bew-Aufenthalte-AIG-J-d-2020-12.xlsx,7-31-Bew-Aufenthalte-AIG-J,7-31,flow,yearly
119,Serbien,321.0,315.0,6.0,289.0,4.0,262.0,2.0,4.0,2.0,15.0,2020-12-01,7-31-Bew-Aufenthalte-AIG-J-d-2020-12.xlsx,7-31-Bew-Aufenthalte-AIG-J,7-31,flow,yearly
120,Slowakische Republik,11.0,11.0,0.0,11.0,0.0,9.0,0.0,0.0,2.0,0.0,2020-12-01,7-31-Bew-Aufenthalte-AIG-J-d-2020-12.xlsx,7-31-Bew-Aufenthalte-AIG-J,7-31,flow,yearly
121,Slowenien,3.0,3.0,0.0,3.0,0.0,3.0,0.0,0.0,0.0,0.0,2020-12-01,7-31-Bew-Aufenthalte-AIG-J-d-2020-12.xlsx,7-31-Bew-Aufenthalte-AIG-J,7-31,flow,yearly
122,Spanien,66.0,63.0,3.0,66.0,10.0,50.0,0.0,0.0,0.0,6.0,2020-12-01,7-31-Bew-Aufenthalte-AIG-J-d-2020-12.xlsx,7-31-Bew-Aufenthalte-AIG-J,7-31,flow,yearly
123,Tschechische Republik,7.0,7.0,0.0,7.0,0.0,5.0,0.0,0.0,0.0,2.0,2020-12-01,7-31-Bew-Aufenthalte-AIG-J-d-2020-12.xlsx,7-31-Bew-Aufenthalte-AIG-J,7-31,flow,yearly
124,Tschechoslowakei,1.0,1.0,0.0,1.0,0.0,1.0,0.0,0.0,0.0,0.0,2020-12-01,7-31-Bew-Aufenthalte-AIG-J-d-2020-12.xlsx,7-31-Bew-Aufenthalte-AIG-J,7-31,flow,yearly
125,Türkei,53.0,51.0,2.0,49.0,3.0,35.0,0.0,2.0,0.0,9.0,2020-12-01,7-31-Bew-Aufenthalte-AIG-J-d-2020-12.xlsx,7-31-Bew-Aufenthalte-AIG-J,7-31,flow,yearly
126,Ukraine,22.0,21.0,1.0,23.0,0.0,17.0,0.0,2.0,0.0,4.0,2020-12-01,7-31-Bew-Aufenthalte-AIG-J-d-2020-12.xlsx,7-31-Bew-Aufenthalte-AIG-J,7-31,flow,yearly
127,Ungarn,27.0,25.0,2.0,26.0,3.0,16.0,0.0,0.0,0.0,7.0,2020-12-01,7-31-Bew-Aufenthalte-AIG-J-d-2020-12.xlsx,7-31-Bew-Aufenthalte-AIG-J,7-31,flow,yearly
128,Total Europa,2302.0,2199.0,103.0,2262.0,63.0,1872.0,16.0,30.0,17.0,264.0,2020-12-01,7-31-Bew-Aufenthalte-AIG-J-d-2020-12.xlsx,7-31-Bew-Aufenthalte-AIG-J,7-31,flow,yearly
130,Australien,2.0,2.0,0.0,2.0,1.0,0.0,0.0,0.0,0.0,1.0,2020-12-01,7-31-Bew-Aufenthalte-AIG-J-d-2020-12.xlsx,7-31-Bew-Aufenthalte-AIG-J,7-31,flow,yearly
131,Total Ozeanien,2.0,2.0,0.0,2.0,1.0,0.0,0.0,0.0,0.0,1.0,2020-12-01,7-31-Bew-Aufenthalte-AIG-J-d-2020-12.xlsx,7-31-Bew-Aufenthalte-AIG-J,7-31,flow,yearly
133,Staatenlos,2.0,1.0,1.0,1.0,0.0,0.0,0.0,0.0,0.0,1.0,2020-12-01,7-31-Bew-Aufenthalte-AIG-J-d-2020-12.xlsx,7-31-Bew-Aufenthalte-AIG-J,7-31,flow,yearly
134,Ohne Nationalität,8.0,6.0,2.0,11.0,0.0,0.0,2.0,2.0,6.0,1.0,2020-12-01,7-31-Bew-Aufenthalte-AIG-J-d-2020-12.xlsx,7-31-Bew-Aufenthalte-AIG-J,7-31,flow,yearly
135,Staat unbekannt,26.0,21.0,5.0,24.0,0.0,4.0,10.0,4.0,5.0,1.0,2020-12-01,7-31-Bew-Aufenthalte-AIG-J-d-2020-12.xlsx,7-31-Bew-Aufenthalte-AIG-J,7-31,flow,yearly
136,Total Herkunft unbek.,36.0,28.0,8.0,36.0,0.0,4.0,12.0,6.0,11.0,3.0,2020-12-01,7-31-Bew-Aufenthalte-AIG-J-d-2020-12.xlsx,7-31-Bew-Aufenthalte-AIG-J,7-31,flow,yearly
138,Ägypten,6.0,4.0,2.0,7.0,0.0,2.0,0.0,1.0,2.0,2.0,2020-12-01,7-31-Bew-Aufenthalte-AIG-J-d-2020-12.xlsx,7-31-Bew-Aufenthalte-AIG-J,7-31,flow,yearly
139,Algerien,129.0,82.0,47.0,166.0,1.0,7.0,3.0,29.0,101.0,25.0,2020-12-01,7-31-Bew-Aufenthalte-AIG-J-d-2020-12.xlsx,7-31-Bew-Aufenthalte-AIG-J,7-31,flow,yearly
140,Angola,6.0,6.0,0.0,4.0,1.0,0.0,0.0,2.0,1.0,0.0,2020-12-01,7-31-Bew-Aufenthalte-AIG-J-d-2020-12.xlsx,7-31-Bew-Aufenthalte-AIG-J,7-31,flow,yearly
141,Äquatorialguinea,1.0,1.0,0.0,1.0,0.0,0.0,1.0,0.0,0.0,0.0,2020-12-01,7-31-Bew-Aufenthalte-AIG-J-d-2020-12.xlsx,7-31-Bew-Aufenthalte-AIG-J,7-31,flow,yearly
142,Äthiopien,8.0,6.0,2.0,7.0,0.0,0.0,0.0,1.0,0.0,6.0,2020-12-01,7-31-Bew-Aufenthalte-AIG-J-d-2020-12.xlsx,7-31-Bew-Aufenthalte-AIG-J,7-31,flow,yearly
143,Benin,2.0,2.0,0.0,2.0,0.0,0.0,0.0,0.0,2.0,0.0,2020-12-01,7-31-Bew-Aufenthalte-AIG-J-d-2020-12.xlsx,7-31-Bew-Aufenthalte-AIG-J,7-31,flow,yearly
144,Burkina Faso,4.0,4.0,0.0,3.0,3.0,0.0,0.0,0.0,0.0,0.0,2020-12-01,7-31-Bew-Aufenthalte-AIG-J-d-2020-12.xlsx,7-31-Bew-Aufenthalte-AIG-J,7-31,flow,yearly
145,Burundi,0.0,0.0,0.0,1.0,0.0,0.0,0.0,0.0,1.0,0.0,2020-12-01,7-31-Bew-Aufenthalte-AIG-J-d-2020-12.xlsx,7-31-Bew-Aufenthalte-AIG-J,7-31,flow,yearly
146,Côte d'Ivoire,11.0,10.0,1.0,11.0,1.0,2.0,0.0,4.0,2.0,2.0,2020-12-01,7-31-Bew-Aufenthalte-AIG-J-d-2020-12.xlsx,7-31-Bew-Aufenthalte-AIG-J,7-31,flow,yearly
147,Eritrea,4.0,4.0,0.0,5.0,1.0,0.0,1.0,2.0,1.0,0.0,2020-12-01,7-31-Bew-Aufenthalte-AIG-J-d-2020-12.xlsx,7-31-Bew-Aufenthalte-AIG-J,7-31,flow,yearly
148,Gabun,0.0,0.0,0.0,1.0,0.0,0.0,0.0,1.0,0.0,0.0,2020-12-01,7-31-Bew-Aufenthalte-AIG-J-d-2020-12.xlsx,7-31-Bew-Aufenthalte-AIG-J,7-31,flow,yearly
149,Gambia,48.0,42.0,6.0,50.0,1.0,6.0,6.0,24.0,2.0,11.0,2020-12-01,7-31-Bew-Aufenthalte-AIG-J-d-2020-12.xlsx,7-31-Bew-Aufenthalte-AIG-J,7-31,flow,yearly
150,Ghana,4.0,4.0,0.0,4.0,0.0,1.0,1.0,2.0,0.0,0.0,2020-12-01,7-31-Bew-Aufenthalte-AIG-J-d-2020-12.xlsx,7-31-Bew-Aufenthalte-AIG-J,7-31,flow,yearly
151,Guinea,49.0,40.0,9.0,46.0,1.0,8.0,11.0,10.0,7.0,9.0,2020-12-01,7-31-Bew-Aufenthalte-AIG-J-d-2020-12.xlsx,7-31-Bew-Aufenthalte-AIG-J,7-31,flow,yearly
152,Guinea-Bissau,13.0,12.0,1.0,13.0,1.0,6.0,3.0,1.0,0.0,2.0,2020-12-01,7-31-Bew-Aufenthalte-AIG-J-d-2020-12.xlsx,7-31-Bew-Aufenthalte-AIG-J,7-31,flow,yearly
153,Kamerun,8.0,7.0,1.0,7.0,0.0,3.0,0.0,1.0,0.0,3.0,2020-12-01,7-31-Bew-Aufenthalte-AIG-J-d-2020-12.xlsx,7-31-Bew-Aufenthalte-AIG-J,7-31,flow,yearly
154,Kapverden,0.0,0.0,0.0,2.0,0.0,0.0,0.0,0.0,2.0,0.0,2020-12-01,7-31-Bew-Aufenthalte-AIG-J-d-2020-12.xlsx,7-31-Bew-Aufenthalte-AIG-J,7-31,flow,yearly
155,Kenia,4.0,3.0,1.0,4.0,1.0,2.0,0.0,0.0,0.0,1.0,2020-12-01,7-31-Bew-Aufenthalte-AIG-J-d-2020-12.xlsx,7-31-Bew-Aufenthalte-AIG-J,7-31,flow,yearly
156,Kongo,1.0,1.0,0.0,1.0,0.0,0.0,0.0,0.0,0.0,1.0,2020-12-01,7-31-Bew-Aufenthalte-AIG-J-d-2020-12.xlsx,7-31-Bew-Aufenthalte-AIG-J,7-31,flow,yearly
157,Kongo DR,8.0,6.0,2.0,6.0,1.0,1.0,0.0,0.0,2.0,2.0,2020-12-01,7-31-Bew-Aufenthalte-AIG-J-d-2020-12.xlsx,7-31-Bew-Aufenthalte-AIG-J,7-31,flow,yearly
158,Liberia,3.0,3.0,0.0,2.0,0.0,0.0,0.0,1.0,1.0,0.0,2020-12-01,7-31-Bew-Aufenthalte-AIG-J-d-2020-12.xlsx,7-31-Bew-Aufenthalte-AIG-J,7-31,flow,yearly
159,Libyen,27.0,21.0,6.0,15.0,0.0,0.0,1.0,3.0,6.0,5.0,2020-12-01,7-31-Bew-Aufenthalte-AIG-J-d-2020-12.xlsx,7-31-Bew-Aufenthalte-AIG-J,7-31,flow,yearly
160,Malawi,1.0,1.0,0.0,0.0,0.0,0.0,0.0,0.0,0.0,0.0,2020-12-01,7-31-Bew-Aufenthalte-AIG-J-d-2020-12.xlsx,7-31-Bew-Aufenthalte-AIG-J,7-31,flow,yearly
161,Mali,6.0,5.0,1.0,5.0,0.0,1.0,0.0,2.0,1.0,1.0,2020-12-01,7-31-Bew-Aufenthalte-AIG-J-d-2020-12.xlsx,7-31-Bew-Aufenthalte-AIG-J,7-31,flow,yearly
162,Marokko,84.0,63.0,21.0,71.0,3.0,2.0,4.0,24.0,21.0,17.0,2020-12-01,7-31-Bew-Aufenthalte-AIG-J-d-2020-12.xlsx,7-31-Bew-Aufenthalte-AIG-J,7-31,flow,yearly
163,Mauretanien,2.0,2.0,0.0,1.0,0.0,0.0,1.0,0.0,0.0,0.0,2020-12-01,7-31-Bew-Aufenthalte-AIG-J-d-2020-12.xlsx,7-31-Bew-Aufenthalte-AIG-J,7-31,flow,yearly
164,Mauritius,3.0,2.0,1.0,2.0,2.0,0.0,0.0,0.0,0.0,0.0,2020-12-01,7-31-Bew-Aufenthalte-AIG-J-d-2020-12.xlsx,7-31-Bew-Aufenthalte-AIG-J,7-31,flow,yearly
165,Mosambik,1.0,1.0,0.0,1.0,0.0,0.0,0.0,0.0,0.0,1.0,2020-12-01,7-31-Bew-Aufenthalte-AIG-J-d-2020-12.xlsx,7-31-Bew-Aufenthalte-AIG-J,7-31,flow,yearly
166,Niger,3.0,3.0,0.0,2.0,0.0,0.0,0.0,1.0,0.0,1.0,2020-12-01,7-31-Bew-Aufenthalte-AIG-J-d-2020-12.xlsx,7-31-Bew-Aufenthalte-AIG-J,7-31,flow,yearly
167,Nigeria,122.0,99.0,23.0,120.0,1.0,16.0,33.0,26.0,6.0,38.0,2020-12-01,7-31-Bew-Aufenthalte-AIG-J-d-2020-12.xlsx,7-31-Bew-Aufenthalte-AIG-J,7-31,flow,yearly
168,Ruanda,1.0,1.0,0.0,1.0,0.0,0.0,0.0,1.0,0.0,0.0,2020-12-01,7-31-Bew-Aufenthalte-AIG-J-d-2020-12.xlsx,7-31-Bew-Aufenthalte-AIG-J,7-31,flow,yearly
169,Sambia,0.0,0.0,0.0,1.0,0.0,0.0,0.0,0.0,1.0,0.0,2020-12-01,7-31-Bew-Aufenthalte-AIG-J-d-2020-12.xlsx,7-31-Bew-Aufenthalte-AIG-J,7-31,flow,yearly
170,Senegal,17.0,15.0,2.0,16.0,0.0,3.0,4.0,3.0,3.0,3.0,2020-12-01,7-31-Bew-Aufenthalte-AIG-J-d-2020-12.xlsx,7-31-Bew-Aufenthalte-AIG-J,7-31,flow,yearly
171,Sierra Leone,3.0,3.0,0.0,5.0,0.0,0.0,2.0,1.0,2.0,0.0,2020-12-01,7-31-Bew-Aufenthalte-AIG-J-d-2020-12.xlsx,7-31-Bew-Aufenthalte-AIG-J,7-31,flow,yearly
172,Somalia,19.0,17.0,2.0,16.0,1.0,0.0,0.0,11.0,2.0,2.0,2020-12-01,7-31-Bew-Aufenthalte-AIG-J-d-2020-12.xlsx,7-31-Bew-Aufenthalte-AIG-J,7-31,flow,yearly
173,Sudan,5.0,4.0,1.0,3.0,0.0,0.0,0.0,2.0,0.0,1.0,2020-12-01,7-31-Bew-Aufenthalte-AIG-J-d-2020-12.xlsx,7-31-Bew-Aufenthalte-AIG-J,7-31,flow,yearly
174,Südsudan,2.0,2.0,0.0,0.0,0.0,0.0,0.0,0.0,0.0,0.0,2020-12-01,7-31-Bew-Aufenthalte-AIG-J-d-2020-12.xlsx,7-31-Bew-Aufenthalte-AIG-J,7-31,flow,yearly
175,Togo,3.0,3.0,0.0,2.0,2.0,0.0,0.0,0.0,0.0,0.0,2020-12-01,7-31-Bew-Aufenthalte-AIG-J-d-2020-12.xlsx,7-31-Bew-Aufenthalte-AIG-J,7-31,flow,yearly
176,Tschad,3.0,2.0,1.0,2.0,0.0,0.0,0.0,0.0,0.0,2.0,2020-12-01,7-31-Bew-Aufenthalte-AIG-J-d-2020-12.xlsx,7-31-Bew-Aufenthalte-AIG-J,7-31,flow,yearly
177,Tunesien,57.0,43.0,14.0,59.0,3.0,18.0,1.0,8.0,18.0,11.0,2020-12-01,7-31-Bew-Aufenthalte-AIG-J-d-2020-12.xlsx,7-31-Bew-Aufenthalte-AIG-J,7-31,flow,yearly
178,Uganda,2.0,2.0,0.0,1.0,1.0,0.0,0.0,0.0,0.0,0.0,2020-12-01,7-31-Bew-Aufenthalte-AIG-J-d-2020-12.xlsx,7-31-Bew-Aufenthalte-AIG-J,7-31,flow,yearly
179,Total Afrika,670.0,526.0,144.0,666.0,25.0,78.0,72.0,161.0,184.0,146.0,2020-12-01,7-31-Bew-Aufenthalte-AIG-J-d-2020-12.xlsx,7-31-Bew-Aufenthalte-AIG-J,7-31,flow,yearly
181,Argentinien,5.0,4.0,1.0,5.0,2.0,0.0,0.0,0.0,0.0,3.0,2020-12-01,7-31-Bew-Aufenthalte-AIG-J-d-2020-12.xlsx,7-31-Bew-Aufenthalte-AIG-J,7-31,flow,yearly
182,Bolivien,5.0,4.0,1.0,6.0,1.0,1.0,0.0,0.0,0.0,4.0,2020-12-01,7-31-Bew-Aufenthalte-AIG-J-d-2020-12.xlsx,7-31-Bew-Aufenthalte-AIG-J,7-31,flow,yearly
183,Brasilien,87.0,82.0,5.0,84.0,41.0,24.0,1.0,0.0,1.0,17.0,2020-12-01,7-31-Bew-Aufenthalte-AIG-J-d-2020-12.xlsx,7-31-Bew-Aufenthalte-AIG-J,7-31,flow,yearly
184,Chile,15.0,13.0,2.0,18.0,3.0,9.0,1.0,0.0,0.0,5.0,2020-12-01,7-31-Bew-Aufenthalte-AIG-J-d-2020-12.xlsx,7-31-Bew-Aufenthalte-AIG-J,7-31,flow,yearly
185,Dominikanische Republik,25.0,21.0,4.0,23.0,0.0,11.0,5.0,0.0,0.0,7.0,2020-12-01,7-31-Bew-Aufenthalte-AIG-J-d-2020-12.xlsx,7-31-Bew-Aufenthalte-AIG-J,7-31,flow,yearly
186,Ecuador,6.0,6.0,0.0,5.0,2.0,1.0,1.0,0.0,0.0,1.0,2020-12-01,7-31-Bew-Aufenthalte-AIG-J-d-2020-12.xlsx,7-31-Bew-Aufenthalte-AIG-J,7-31,flow,yearly
187,Honduras,2.0,2.0,0.0,3.0,0.0,0.0,0.0,0.0,1.0,2.0,2020-12-01,7-31-Bew-Aufenthalte-AIG-J-d-2020-12.xlsx,7-31-Bew-Aufenthalte-AIG-J,7-31,flow,yearly
188,Jamaika,0.0,0.0,0.0,4.0,1.0,1.0,0.0,0.0,0.0,2.0,2020-12-01,7-31-Bew-Aufenthalte-AIG-J-d-2020-12.xlsx,7-31-Bew-Aufenthalte-AIG-J,7-31,flow,yearly
189,Kanada,3.0,3.0,0.0,3.0,2.0,0.0,0.0,0.0,0.0,1.0,2020-12-01,7-31-Bew-Aufenthalte-AIG-J-d-2020-12.xlsx,7-31-Bew-Aufenthalte-AIG-J,7-31,flow,yearly
190,Kolumbien,38.0,35.0,3.0,38.0,16.0,13.0,2.0,0.0,1.0,6.0,2020-12-01,7-31-Bew-Aufenthalte-AIG-J-d-2020-12.xlsx,7-31-Bew-Aufenthalte-AIG-J,7-31,flow,yearly
191,Kuba,2.0,1.0,1.0,3.0,0.0,0.0,0.0,0.0,3.0,0.0,2020-12-01,7-31-Bew-Aufenthalte-AIG-J-d-2020-12.xlsx,7-31-Bew-Aufenthalte-AIG-J,7-31,flow,yearly
192,Mexiko,5.0,4.0,1.0,5.0,0.0,2.0,0.0,0.0,0.0,3.0,2020-12-01,7-31-Bew-Aufenthalte-AIG-J-d-2020-12.xlsx,7-31-Bew-Aufenthalte-AIG-J,7-31,flow,yearly
193,Paraguay,4.0,4.0,0.0,4.0,3.0,0.0,0.0,0.0,0.0,1.0,2020-12-01,7-31-Bew-Aufenthalte-AIG-J-d-2020-12.xlsx,7-31-Bew-Aufenthalte-AIG-J,7-31,flow,yearly
194,Peru,8.0,8.0,0.0,6.0,2.0,2.0,1.0,0.0,0.0,1.0,2020-12-01,7-31-Bew-Aufenthalte-AIG-J-d-2020-12.xlsx,7-31-Bew-Aufenthalte-AIG-J,7-31,flow,yearly
195,Uruguay,0.0,0.0,0.0,1.0,0.0,1.0,0.0,0.0,0.0,0.0,2020-12-01,7-31-Bew-Aufenthalte-AIG-J-d-2020-12.xlsx,7-31-Bew-Aufenthalte-AIG-J,7-31,flow,yearly
196,USA,9.0,8.0,1.0,8.0,0.0,6.0,0.0,1.0,0.0,1.0,2020-12-01,7-31-Bew-Aufenthalte-AIG-J-d-2020-12.xlsx,7-31-Bew-Aufenthalte-AIG-J,7-31,flow,yearly
197,Venezuela,10.0,8.0,2.0,8.0,3.0,2.0,0.0,0.0,1.0,2.0,2020-12-01,7-31-Bew-Aufenthalte-AIG-J-d-2020-12.xlsx,7-31-Bew-Aufenthalte-AIG-J,7-31,flow,yearly
198,Total Amerika,224.0,203.0,21.0,224.0,76.0,73.0,11.0,1.0,7.0,56.0,2020-12-01,7-31-Bew-Aufenthalte-AIG-J-d-2020-12.xlsx,7-31-Bew-Aufenthalte-AIG-J,7-31,flow,yearly
200,Afghanistan,10.0,10.0,0.0,9.0,1.0,0.0,1.0,7.0,0.0,0.0,2020-12-01,7-31-Bew-Aufenthalte-AIG-J-d-2020-12.xlsx,7-31-Bew-Aufenthalte-AIG-J,7-31,flow,yearly
201,Armenien,1.0,1.0,0.0,1.0,0.0,0.0,0.0,0.0,0.0,1.0,2020-12-01,7-31-Bew-Aufenthalte-AIG-J-d-2020-12.xlsx,7-31-Bew-Aufenthalte-AIG-J,7-31,flow,yearly
202,Aserbaidschan,1.0,1.0,0.0,2.0,0.0,0.0,0.0,2.0,0.0,0.0,2020-12-01,7-31-Bew-Aufenthalte-AIG-J-d-2020-12.xlsx,7-31-Bew-Aufenthalte-AIG-J,7-31,flow,yearly
203,Bangladesh,4.0,4.0,0.0,3.0,0.0,0.0,0.0,3.0,0.0,0.0,2020-12-01,7-31-Bew-Aufenthalte-AIG-J-d-2020-12.xlsx,7-31-Bew-Aufenthalte-AIG-J,7-31,flow,yearly
204,China (Volksrepublik),15.0,14.0,1.0,18.0,3.0,6.0,2.0,0.0,2.0,5.0,2020-12-01,7-31-Bew-Aufenthalte-AIG-J-d-2020-12.xlsx,7-31-Bew-Aufenthalte-AIG-J,7-31,flow,yearly
205,Georgien,51.0,41.0,10.0,47.0,3.0,23.0,1.0,3.0,1.0,16.0,2020-12-01,7-31-Bew-Aufenthalte-AIG-J-d-2020-12.xlsx,7-31-Bew-Aufenthalte-AIG-J,7-31,flow,yearly
206,Indien,13.0,10.0,3.0,12.0,3.0,2.0,0.0,2.0,0.0,5.0,2020-12-01,7-31-Bew-Aufenthalte-AIG-J-d-2020-12.xlsx,7-31-Bew-Aufenthalte-AIG-J,7-31,flow,yearly
207,Irak,39.0,24.0,15.0,38.0,15.0,0.0,0.0,3.0,3.0,17.0,2020-12-01,7-31-Bew-Aufenthalte-AIG-J-d-2020-12.xlsx,7-31-Bew-Aufenthalte-AIG-J,7-31,flow,yearly
208,Iran,1.0,1.0,0.0,2.0,0.0,0.0,0.0,0.0,0.0,2.0,2020-12-01,7-31-Bew-Aufenthalte-AIG-J-d-2020-12.xlsx,7-31-Bew-Aufenthalte-AIG-J,7-31,flow,yearly
209,Israel,4.0,3.0,1.0,4.0,0.0,3.0,0.0,0.0,0.0,1.0,2020-12-01,7-31-Bew-Aufenthalte-AIG-J-d-2020-12.xlsx,7-31-Bew-Aufenthalte-AIG-J,7-31,flow,yearly
210,Jordanien,1.0,1.0,0.0,2.0,0.0,1.0,0.0,1.0,0.0,0.0,2020-12-01,7-31-Bew-Aufenthalte-AIG-J-d-2020-12.xlsx,7-31-Bew-Aufenthalte-AIG-J,7-31,flow,yearly
211,Kambodscha,1.0,0.0,1.0,1.0,0.0,0.0,0.0,0.0,0.0,1.0,2020-12-01,7-31-Bew-Aufenthalte-AIG-J-d-2020-12.xlsx,7-31-Bew-Aufenthalte-AIG-J,7-31,flow,yearly
212,Kasachstan,2.0,2.0,0.0,2.0,0.0,1.0,0.0,0.0,0.0,1.0,2020-12-01,7-31-Bew-Aufenthalte-AIG-J-d-2020-12.xlsx,7-31-Bew-Aufenthalte-AIG-J,7-31,flow,yearly
213,Malaysia,1.0,1.0,0.0,1.0,1.0,0.0,0.0,0.0,0.0,0.0,2020-12-01,7-31-Bew-Aufenthalte-AIG-J-d-2020-12.xlsx,7-31-Bew-Aufenthalte-AIG-J,7-31,flow,yearly
214,Mongolei,6.0,5.0,1.0,6.0,4.0,0.0,0.0,1.0,1.0,0.0,2020-12-01,7-31-Bew-Aufenthalte-AIG-J-d-2020-12.xlsx,7-31-Bew-Aufenthalte-AIG-J,7-31,flow,yearly
215,Nepal,0.0,0.0,0.0,1.0,0.0,1.0,0.0,0.0,0.0,0.0,2020-12-01,7-31-Bew-Aufenthalte-AIG-J-d-2020-12.xlsx,7-31-Bew-Aufenthalte-AIG-J,7-31,flow,yearly
216,Oman,1.0,1.0,0.0,1.0,0.0,1.0,0.0,0.0,0.0,0.0,2020-12-01,7-31-Bew-Aufenthalte-AIG-J-d-2020-12.xlsx,7-31-Bew-Aufenthalte-AIG-J,7-31,flow,yearly
217,Pakistan,10.0,8.0,2.0,11.0,1.0,1.0,1.0,3.0,0.0,5.0,2020-12-01,7-31-Bew-Aufenthalte-AIG-J-d-2020-12.xlsx,7-31-Bew-Aufenthalte-AIG-J,7-31,flow,yearly
218,Philippinen,6.0,6.0,0.0,6.0,5.0,1.0,0.0,0.0,0.0,0.0,2020-12-01,7-31-Bew-Aufenthalte-AIG-J-d-2020-12.xlsx,7-31-Bew-Aufenthalte-AIG-J,7-31,flow,yearly
219,Sri Lanka,14.0,12.0,2.0,11.0,0.0,2.0,0.0,0.0,0.0,9.0,2020-12-01,7-31-Bew-Aufenthalte-AIG-J-d-2020-12.xlsx,7-31-Bew-Aufenthalte-AIG-J,7-31,flow,yearly
220,Syrien,6.0,6.0,0.0,6.0,0.0,0.0,0.0,0.0,1.0,5.0,2020-12-01,7-31-Bew-Aufenthalte-AIG-J-d-2020-12.xlsx,7-31-Bew-Aufenthalte-AIG-J,7-31,flow,yearly
221,Thailand,9.0,7.0,2.0,8.0,0.0,5.0,0.0,0.0,0.0,3.0,2020-12-01,7-31-Bew-Aufenthalte-AIG-J-d-2020-12.xlsx,7-31-Bew-Aufenthalte-AIG-J,7-31,flow,yearly
222,Vietnam,1.0,1.0,0.0,1.0,0.0,1.0,0.0,0.0,0.0,0.0,2020-12-01,7-31-Bew-Aufenthalte-AIG-J-d-2020-12.xlsx,7-31-Bew-Aufenthalte-AIG-J,7-31,flow,yearly
223,Total Asien,197.0,159.0,38.0,193.0,36.0,48.0,5.0,25.0,8.0,71.0,2020-12-01,7-31-Bew-Aufenthalte-AIG-J-d-2020-12.xlsx,7-31-Bew-Aufenthalte-AIG-J,7-31,flow,yearly
225,Albanien,440.0,411.0,29.0,443.0,32.0,298.0,1.0,4.0,1.0,107.0,2020-12-01,7-31-Bew-Aufenthalte-AIG-J-d-2020-12.xlsx,7-31-Bew-Aufenthalte-AIG-J,7-31,flow,yearly
226,Belarus,9.0,8.0,1.0,9.0,0.0,4.0,0.0,0.0,1.0,4.0,2020-12-01,7-31-Bew-Aufenthalte-AIG-J-d-2020-12.xlsx,7-31-Bew-Aufenthalte-AIG-J,7-31,flow,yearly
227,Belgien,7.0,6.0,1.0,7.0,0.0,4.0,0.0,0.0,0.0,3.0,2020-12-01,7-31-Bew-Aufenthalte-AIG-J-d-2020-12.xlsx,7-31-Bew-Aufenthalte-AIG-J,7-31,flow,yearly
228,Bosnien u. Herzegowina,24.0,23.0,1.0,25.0,0.0,18.0,0.0,0.0,0.0,7.0,2020-12-01,7-31-Bew-Aufenthalte-AIG-J-d-2020-12.xlsx,7-31-Bew-Aufenthalte-AIG-J,7-31,flow,yearly
229,Bulgarien,21.0,20.0,1.0,17.0,2.0,11.0,0.0,0.0,1.0,3.0,2020-12-01,7-31-Bew-Aufenthalte-AIG-J-d-2020-12.xlsx,7-31-Bew-Aufenthalte-AIG-J,7-31,flow,yearly
230,Deutschland,2.0,2.0,0.0,1.0,0.0,1.0,0.0,0.0,0.0,0.0,2020-12-01,7-31-Bew-Aufenthalte-AIG-J-d-2020-12.xlsx,7-31-Bew-Aufenthalte-AIG-J,7-31,flow,yearly
231,Estland,2.0,2.0,0.0,2.0,0.0,1.0,0.0,0.0,0.0,1.0,2020-12-01,7-31-Bew-Aufenthalte-AIG-J-d-2020-12.xlsx,7-31-Bew-Aufenthalte-AIG-J,7-31,flow,yearly
232,Frankreich,10.0,10.0,0.0,8.0,0.0,5.0,0.0,0.0,0.0,3.0,2020-12-01,7-31-Bew-Aufenthalte-AIG-J-d-2020-12.xlsx,7-31-Bew-Aufenthalte-AIG-J,7-31,flow,yearly
233,Griechenland,6.0,5.0,1.0,6.0,1.0,2.0,0.0,0.0,0.0,3.0,2020-12-01,7-31-Bew-Aufenthalte-AIG-J-d-2020-12.xlsx,7-31-Bew-Aufenthalte-AIG-J,7-31,flow,yearly
234,Grossbritannien,5.0,5.0,0.0,5.0,1.0,4.0,0.0,0.0,0.0,0.0,2020-12-01,7-31-Bew-Aufenthalte-AIG-J-d-2020-12.xlsx,7-31-Bew-Aufenthalte-AIG-J,7-31,flow,yearly
235,Irland,1.0,1.0,0.0,1.0,1.0,0.0,0.0,0.0,0.0,0.0,2020-12-01,7-31-Bew-Aufenthalte-AIG-J-d-2020-12.xlsx,7-31-Bew-Aufenthalte-AIG-J,7-31,flow,yearly
236,Italien,27.0,23.0,4.0,30.0,2.0,15.0,0.0,0.0,1.0,12.0,2020-12-01,7-31-Bew-Aufenthalte-AIG-J-d-2020-12.xlsx,7-31-Bew-Aufenthalte-AIG-J,7-31,flow,yearly
237,Kosovo,155.0,141.0,14.0,176.0,4.0,126.0,2.0,4.0,6.0,34.0,2020-12-01,7-31-Bew-Aufenthalte-AIG-J-d-2020-12.xlsx,7-31-Bew-Aufenthalte-AIG-J,7-31,flow,yearly
238,Kroatien,16.0,13.0,3.0,18.0,0.0,13.0,0.0,0.0,0.0,5.0,2020-12-01,7-31-Bew-Aufenthalte-AIG-J-d-2020-12.xlsx,7-31-Bew-Aufenthalte-AIG-J,7-31,flow,yearly
239,Lettland,4.0,3.0,1.0,4.0,0.0,2.0,0.0,0.0,0.0,2.0,2020-12-01,7-31-Bew-Aufenthalte-AIG-J-d-2020-12.xlsx,7-31-Bew-Aufenthalte-AIG-J,7-31,flow,yearly
240,Litauen,14.0,12.0,2.0,15.0,0.0,11.0,0.0,0.0,0.0,4.0,2020-12-01,7-31-Bew-Aufenthalte-AIG-J-d-2020-12.xlsx,7-31-Bew-Aufenthalte-AIG-J,7-31,flow,yearly
241,Nordmazedonien,78.0,72.0,6.0,73.0,0.0,61.0,0.0,0.0,1.0,11.0,2020-12-01,7-31-Bew-Aufenthalte-AIG-J-d-2020-12.xlsx,7-31-Bew-Aufenthalte-AIG-J,7-31,flow,yearly
242,Moldova,17.0,14.0,3.0,16.0,2.0,8.0,0.0,0.0,1.0,5.0,2020-12-01,7-31-Bew-Aufenthalte-AIG-J-d-2020-12.xlsx,7-31-Bew-Aufenthalte-AIG-J,7-31,flow,yearly
243,Montenegro,2.0,2.0,0.0,2.0,1.0,1.0,0.0,0.0,0.0,0.0,2020-12-01,7-31-Bew-Aufenthalte-AIG-J-d-2020-12.xlsx,7-31-Bew-Aufenthalte-AIG-J,7-31,flow,yearly
244,Niederlande,6.0,6.0,0.0,6.0,0.0,5.0,1.0,0.0,0.0,0.0,2020-12-01,7-31-Bew-Aufenthalte-AIG-J-d-2020-12.xlsx,7-31-Bew-Aufenthalte-AIG-J,7-31,flow,yearly
245,Österreich,1.0,1.0,0.0,1.0,0.0,1.0,0.0,0.0,0.0,0.0,2020-12-01,7-31-Bew-Aufenthalte-AIG-J-d-2020-12.xlsx,7-31-Bew-Aufenthalte-AIG-J,7-31,flow,yearly
246,Polen,30.0,26.0,4.0,31.0,1.0,20.0,0.0,0.0,0.0,10.0,2020-12-01,7-31-Bew-Aufenthalte-AIG-J-d-2020-12.xlsx,7-31-Bew-Aufenthalte-AIG-J,7-31,flow,yearly
247,Portugal,76.0,66.0,10.0,78.0,10.0,54.0,0.0,0.0,0.0,14.0,2020-12-01,7-31-Bew-Aufenthalte-AIG-J-d-2020-12.xlsx,7-31-Bew-Aufenthalte-AIG-J,7-31,flow,yearly
248,Rumänien,281.0,252.0,29.0,285.0,73.0,132.0,1.0,0.0,0.0,79.0,2020-12-01,7-31-Bew-Aufenthalte-AIG-J-d-2020-12.xlsx,7-31-Bew-Aufenthalte-AIG-J,7-31,flow,yearly
249,Russland,7.0,7.0,0.0,8.0,0.0,5.0,0.0,0.0,2.0,1.0,2020-12-01,7-31-Bew-Aufenthalte-AIG-J-d-2020-12.xlsx,7-31-Bew-Aufenthalte-AIG-J,7-31,flow,yearly
250,Serbien,190.0,177.0,13.0,185.0,3.0,121.0,1.0,1.0,6.0,53.0,2020-12-01,7-31-Bew-Aufenthalte-AIG-J-d-2020-12.xlsx,7-31-Bew-Aufenthalte-AIG-J,7-31,flow,yearly
251,Slowakische Republik,16.0,13.0,3.0,16.0,2.0,4.0,0.0,0.0,0.0,10.0,2020-12-01,7-31-Bew-Aufenthalte-AIG-J-d-2020-12.xlsx,7-31-Bew-Aufenthalte-AIG-J,7-31,flow,yearly
252,Slowenien,1.0,1.0,0.0,1.0,0.0,1.0,0.0,0.0,0.0,0.0,2020-12-01,7-31-Bew-Aufenthalte-AIG-J-d-2020-12.xlsx,7-31-Bew-Aufenthalte-AIG-J,7-31,flow,yearly
253,Spanien,26.0,26.0,0.0,27.0,7.0,15.0,1.0,0.0,0.0,4.0,2020-12-01,7-31-Bew-Aufenthalte-AIG-J-d-2020-12.xlsx,7-31-Bew-Aufenthalte-AIG-J,7-31,flow,yearly
254,Tschechische Republik,6.0,6.0,0.0,6.0,0.0,6.0,0.0,0.0,0.0,0.0,2020-12-01,7-31-Bew-Aufenthalte-AIG-J-d-2020-12.xlsx,7-31-Bew-Aufenthalte-AIG-J,7-31,flow,yearly
255,Türkei,44.0,36.0,8.0,45.0,6.0,24.0,2.0,0.0,4.0,9.0,2020-12-01,7-31-Bew-Aufenthalte-AIG-J-d-2020-12.xlsx,7-31-Bew-Aufenthalte-AIG-J,7-31,flow,yearly
256,Ukraine,12.0,12.0,0.0,12.0,0.0,7.0,0.0,1.0,0.0,4.0,2020-12-01,7-31-Bew-Aufenthalte-AIG-J-d-2020-12.xlsx,7-31-Bew-Aufenthalte-AIG-J,7-31,flow,yearly
257,Ungarn,14.0,10.0,4.0,14.0,2.0,4.0,1.0,0.0,0.0,7.0,2020-12-01,7-31-Bew-Aufenthalte-AIG-J-d-2020-12.xlsx,7-31-Bew-Aufenthalte-AIG-J,7-31,flow,yearly
258,Total Europa,1550.0,1412.0,138.0,1573.0,150.0,984.0,10.0,10.0,24.0,395.0,2020-12-01,7-31-Bew-Aufenthalte-AIG-J-d-2020-12.xlsx,7-31-Bew-Aufenthalte-AIG-J,7-31,flow,yearly
260,Australien,1.0,0.0,1.0,1.0,0.0,1.0,0.0,0.0,0.0,0.0,2020-12-01,7-31-Bew-Aufenthalte-AIG-J-d-2020-12.xlsx,7-31-Bew-Aufenthalte-AIG-J,7-31,flow,yearly
261,Total Ozeanien,1.0,0.0,1.0,1.0,0.0,1.0,0.0,0.0,0.0,0.0,2020-12-01,7-31-Bew-Aufenthalte-AIG-J-d-2020-12.xlsx,7-31-Bew-Aufenthalte-AIG-J,7-31,flow,yearly
263,Staatenlos,1.0,1.0,0.0,1.0,0.0,0.0,1.0,0.0,0.0,0.0,2020-12-01,7-31-Bew-Aufenthalte-AIG-J-d-2020-12.xlsx,7-31-Bew-Aufenthalte-AIG-J,7-31,flow,yearly
264,Ohne Nationalität,7.0,5.0,2.0,8.0,0.0,0.0,0.0,2.0,6.0,0.0,2020-12-01,7-31-Bew-Aufenthalte-AIG-J-d-2020-12.xlsx,7-31-Bew-Aufenthalte-AIG-J,7-31,flow,yearly
265,Staat unbekannt,10.0,7.0,3.0,13.0,1.0,1.0,2.0,3.0,5.0,1.0,2020-12-01,7-31-Bew-Aufenthalte-AIG-J-d-2020-12.xlsx,7-31-Bew-Aufenthalte-AIG-J,7-31,flow,yearly
266,Total Herkunft unbek.,18.0,13.0,5.0,22.0,1.0,1.0,3.0,5.0,11.0,1.0,2020-12-01,7-31-Bew-Aufenthalte-AIG-J-d-2020-12.xlsx,7-31-Bew-Aufenthalte-AIG-J,7-31,flow,yearly
