,Nation,TotalRückübernahmeverfahren,OutVerfahren,InVerfahren,Total Erledigungen (inkl. Abschreibungen),Erledigungen,,NichteintretensentscheideRüA,ÜberstellungenOutVerfahren,Total Erledigungen (inkl. Abschreibungen).1,Erledigungen.1,.1,ÜberstellungenInVerfahren,Datum,file_name,name_of_sem_statistics
0,Herkunft unbekannt,17.0,16.0,1.0,16.0,10.0,5.0,0.0,14.0,1.0,1.0,0.0,1.0,2017-12-01,7-55-Bew-RueA-J-d-2020-12.xlsx,7-55-Bew-RueA-J
1,Ägypten,0.0,0.0,0.0,0.0,0.0,0.0,1.0,0.0,0.0,0.0,0.0,0.0,2017-12-01,7-55-Bew-RueA-J-d-2020-12.xlsx,7-55-Bew-RueA-J
2,Algerien,12.0,12.0,0.0,12.0,9.0,3.0,2.0,6.0,0.0,0.0,0.0,0.0,2017-12-01,7-55-Bew-RueA-J-d-2020-12.xlsx,7-55-Bew-RueA-J
3,Angola,1.0,1.0,0.0,1.0,1.0,0.0,0.0,0.0,0.0,0.0,0.0,0.0,2017-12-01,7-55-Bew-RueA-J-d-2020-12.xlsx,7-55-Bew-RueA-J
4,Äquatorialguinea,1.0,1.0,0.0,1.0,1.0,0.0,0.0,1.0,0.0,0.0,0.0,0.0,2017-12-01,7-55-Bew-RueA-J-d-2020-12.xlsx,7-55-Bew-RueA-J
5,Äthiopien,12.0,12.0,0.0,10.0,10.0,0.0,11.0,1.0,0.0,0.0,0.0,0.0,2017-12-01,7-55-Bew-RueA-J-d-2020-12.xlsx,7-55-Bew-RueA-J
6,Burkina Faso,4.0,4.0,0.0,4.0,1.0,2.0,0.0,1.0,0.0,0.0,0.0,0.0,2017-12-01,7-55-Bew-RueA-J-d-2020-12.xlsx,7-55-Bew-RueA-J
7,Côte d'Ivoire,2.0,2.0,0.0,2.0,2.0,0.0,0.0,1.0,0.0,0.0,0.0,0.0,2017-12-01,7-55-Bew-RueA-J-d-2020-12.xlsx,7-55-Bew-RueA-J
8,Eritrea,70.0,63.0,7.0,55.0,53.0,0.0,40.0,17.0,7.0,7.0,0.0,2.0,2017-12-01,7-55-Bew-RueA-J-d-2020-12.xlsx,7-55-Bew-RueA-J
9,Gambia,12.0,12.0,0.0,12.0,10.0,2.0,3.0,9.0,0.0,0.0,0.0,0.0,2017-12-01,7-55-Bew-RueA-J-d-2020-12.xlsx,7-55-Bew-RueA-J
10,Ghana,4.0,4.0,0.0,3.0,3.0,0.0,0.0,3.0,0.0,0.0,0.0,0.0,2017-12-01,7-55-Bew-RueA-J-d-2020-12.xlsx,7-55-Bew-RueA-J
11,Guinea,15.0,15.0,0.0,18.0,14.0,2.0,0.0,9.0,0.0,0.0,0.0,0.0,2017-12-01,7-55-Bew-RueA-J-d-2020-12.xlsx,7-55-Bew-RueA-J
12,Guinea-Bissau,6.0,6.0,0.0,4.0,4.0,0.0,0.0,2.0,0.0,0.0,0.0,0.0,2017-12-01,7-55-Bew-RueA-J-d-2020-12.xlsx,7-55-Bew-RueA-J
13,Kamerun,1.0,1.0,0.0,1.0,1.0,0.0,0.0,0.0,0.0,0.0,0.0,0.0,2017-12-01,7-55-Bew-RueA-J-d-2020-12.xlsx,7-55-Bew-RueA-J
14,Kongo DR,10.0,10.0,0.0,10.0,9.0,1.0,14.0,0.0,0.0,0.0,0.0,0.0,2017-12-01,7-55-Bew-RueA-J-d-2020-12.xlsx,7-55-Bew-RueA-J
15,Liberia,4.0,4.0,0.0,3.0,2.0,0.0,0.0,1.0,0.0,0.0,0.0,0.0,2017-12-01,7-55-Bew-RueA-J-d-2020-12.xlsx,7-55-Bew-RueA-J
16,Libyen,2.0,2.0,0.0,0.0,0.0,0.0,1.0,0.0,0.0,0.0,0.0,0.0,2017-12-01,7-55-Bew-RueA-J-d-2020-12.xlsx,7-55-Bew-RueA-J
17,Mali,6.0,6.0,0.0,4.0,4.0,0.0,2.0,3.0,0.0,0.0,0.0,0.0,2017-12-01,7-55-Bew-RueA-J-d-2020-12.xlsx,7-55-Bew-RueA-J
18,Marokko,14.0,14.0,0.0,14.0,11.0,2.0,2.0,9.0,0.0,0.0,0.0,0.0,2017-12-01,7-55-Bew-RueA-J-d-2020-12.xlsx,7-55-Bew-RueA-J
19,Mauretanien,1.0,1.0,0.0,1.0,1.0,0.0,1.0,1.0,0.0,0.0,0.0,0.0,2017-12-01,7-55-Bew-RueA-J-d-2020-12.xlsx,7-55-Bew-RueA-J
20,Mosambik,1.0,1.0,0.0,1.0,1.0,0.0,0.0,1.0,0.0,0.0,0.0,0.0,2017-12-01,7-55-Bew-RueA-J-d-2020-12.xlsx,7-55-Bew-RueA-J
21,Nigeria,119.0,119.0,0.0,110.0,96.0,10.0,11.0,87.0,0.0,0.0,0.0,0.0,2017-12-01,7-55-Bew-RueA-J-d-2020-12.xlsx,7-55-Bew-RueA-J
22,Senegal,9.0,9.0,0.0,9.0,8.0,1.0,1.0,4.0,0.0,0.0,0.0,0.0,2017-12-01,7-55-Bew-RueA-J-d-2020-12.xlsx,7-55-Bew-RueA-J
23,Sierra Leone,3.0,3.0,0.0,3.0,3.0,0.0,0.0,3.0,0.0,0.0,0.0,0.0,2017-12-01,7-55-Bew-RueA-J-d-2020-12.xlsx,7-55-Bew-RueA-J
24,Somalia,37.0,36.0,1.0,29.0,27.0,1.0,18.0,8.0,1.0,1.0,0.0,1.0,2017-12-01,7-55-Bew-RueA-J-d-2020-12.xlsx,7-55-Bew-RueA-J
25,Sudan,3.0,3.0,0.0,3.0,3.0,0.0,0.0,2.0,0.0,0.0,0.0,0.0,2017-12-01,7-55-Bew-RueA-J-d-2020-12.xlsx,7-55-Bew-RueA-J
26,Togo,1.0,1.0,0.0,1.0,1.0,0.0,0.0,1.0,0.0,0.0,0.0,0.0,2017-12-01,7-55-Bew-RueA-J-d-2020-12.xlsx,7-55-Bew-RueA-J
27,Tschad,1.0,1.0,0.0,1.0,0.0,1.0,0.0,0.0,0.0,0.0,0.0,0.0,2017-12-01,7-55-Bew-RueA-J-d-2020-12.xlsx,7-55-Bew-RueA-J
28,Tunesien,1.0,1.0,0.0,0.0,0.0,0.0,0.0,0.0,0.0,0.0,0.0,0.0,2017-12-01,7-55-Bew-RueA-J-d-2020-12.xlsx,7-55-Bew-RueA-J
29,Total Afrika,352.0,344.0,8.0,312.0,275.0,25.0,107.0,170.0,8.0,8.0,0.0,3.0,2017-12-01,7-55-Bew-RueA-J-d-2020-12.xlsx,7-55-Bew-RueA-J
30,Bolivien,1.0,1.0,0.0,1.0,0.0,1.0,0.0,0.0,0.0,0.0,0.0,0.0,2017-12-01,7-55-Bew-RueA-J-d-2020-12.xlsx,7-55-Bew-RueA-J
31,Brasilien,1.0,1.0,0.0,0.0,0.0,0.0,0.0,1.0,0.0,0.0,0.0,0.0,2017-12-01,7-55-Bew-RueA-J-d-2020-12.xlsx,7-55-Bew-RueA-J
32,Chile,1.0,1.0,0.0,1.0,1.0,0.0,0.0,1.0,0.0,0.0,0.0,0.0,2017-12-01,7-55-Bew-RueA-J-d-2020-12.xlsx,7-55-Bew-RueA-J
33,Dominikanische Republik,29.0,29.0,0.0,26.0,16.0,8.0,0.0,7.0,0.0,0.0,0.0,0.0,2017-12-01,7-55-Bew-RueA-J-d-2020-12.xlsx,7-55-Bew-RueA-J
34,Ecuador,1.0,1.0,0.0,2.0,2.0,0.0,0.0,1.0,0.0,0.0,0.0,0.0,2017-12-01,7-55-Bew-RueA-J-d-2020-12.xlsx,7-55-Bew-RueA-J
35,Haiti,0.0,0.0,0.0,4.0,4.0,0.0,0.0,0.0,0.0,0.0,0.0,0.0,2017-12-01,7-55-Bew-RueA-J-d-2020-12.xlsx,7-55-Bew-RueA-J
36,Honduras,1.0,1.0,0.0,1.0,0.0,1.0,0.0,0.0,0.0,0.0,0.0,0.0,2017-12-01,7-55-Bew-RueA-J-d-2020-12.xlsx,7-55-Bew-RueA-J
37,Kolumbien,2.0,2.0,0.0,2.0,1.0,1.0,0.0,0.0,0.0,0.0,0.0,0.0,2017-12-01,7-55-Bew-RueA-J-d-2020-12.xlsx,7-55-Bew-RueA-J
38,Kuba,1.0,1.0,0.0,1.0,0.0,1.0,0.0,0.0,0.0,0.0,0.0,0.0,2017-12-01,7-55-Bew-RueA-J-d-2020-12.xlsx,7-55-Bew-RueA-J
39,Total Amerika,37.0,37.0,0.0,38.0,24.0,12.0,0.0,10.0,0.0,0.0,0.0,0.0,2017-12-01,7-55-Bew-RueA-J-d-2020-12.xlsx,7-55-Bew-RueA-J
40,Afghanistan,18.0,18.0,0.0,17.0,16.0,0.0,10.0,9.0,0.0,0.0,0.0,0.0,2017-12-01,7-55-Bew-RueA-J-d-2020-12.xlsx,7-55-Bew-RueA-J
41,Armenien,1.0,1.0,0.0,1.0,1.0,0.0,0.0,0.0,0.0,0.0,0.0,0.0,2017-12-01,7-55-Bew-RueA-J-d-2020-12.xlsx,7-55-Bew-RueA-J
42,China (Volksrepublik),1.0,1.0,0.0,1.0,1.0,0.0,0.0,0.0,0.0,0.0,0.0,0.0,2017-12-01,7-55-Bew-RueA-J-d-2020-12.xlsx,7-55-Bew-RueA-J
43,Georgien,4.0,4.0,0.0,4.0,2.0,1.0,2.0,2.0,0.0,0.0,0.0,0.0,2017-12-01,7-55-Bew-RueA-J-d-2020-12.xlsx,7-55-Bew-RueA-J
44,Irak,16.0,16.0,0.0,11.0,10.0,0.0,6.0,4.0,0.0,0.0,0.0,0.0,2017-12-01,7-55-Bew-RueA-J-d-2020-12.xlsx,7-55-Bew-RueA-J
45,Iran,19.0,15.0,4.0,12.0,12.0,0.0,4.0,4.0,4.0,4.0,0.0,1.0,2017-12-01,7-55-Bew-RueA-J-d-2020-12.xlsx,7-55-Bew-RueA-J
46,Jordanien,0.0,0.0,0.0,0.0,0.0,0.0,0.0,0.0,0.0,0.0,0.0,0.0,2017-12-01,7-55-Bew-RueA-J-d-2020-12.xlsx,7-55-Bew-RueA-J
47,Laos,0.0,0.0,0.0,1.0,1.0,0.0,1.0,1.0,0.0,0.0,0.0,0.0,2017-12-01,7-55-Bew-RueA-J-d-2020-12.xlsx,7-55-Bew-RueA-J
48,Mongolei,1.0,1.0,0.0,1.0,1.0,0.0,0.0,1.0,0.0,0.0,0.0,0.0,2017-12-01,7-55-Bew-RueA-J-d-2020-12.xlsx,7-55-Bew-RueA-J
49,Pakistan,14.0,14.0,0.0,10.0,10.0,0.0,8.0,8.0,0.0,0.0,0.0,0.0,2017-12-01,7-55-Bew-RueA-J-d-2020-12.xlsx,7-55-Bew-RueA-J
50,Philippinen,1.0,1.0,0.0,1.0,0.0,1.0,0.0,0.0,0.0,0.0,0.0,0.0,2017-12-01,7-55-Bew-RueA-J-d-2020-12.xlsx,7-55-Bew-RueA-J
51,Sri Lanka,4.0,2.0,2.0,3.0,3.0,0.0,2.0,2.0,2.0,2.0,0.0,0.0,2017-12-01,7-55-Bew-RueA-J-d-2020-12.xlsx,7-55-Bew-RueA-J
52,Syrien,47.0,40.0,7.0,37.0,36.0,1.0,36.0,13.0,7.0,7.0,0.0,0.0,2017-12-01,7-55-Bew-RueA-J-d-2020-12.xlsx,7-55-Bew-RueA-J
53,Total Asien,126.0,113.0,13.0,99.0,93.0,3.0,69.0,44.0,13.0,13.0,0.0,1.0,2017-12-01,7-55-Bew-RueA-J-d-2020-12.xlsx,7-55-Bew-RueA-J
54,Belarus,0.0,0.0,0.0,0.0,0.0,0.0,0.0,1.0,0.0,0.0,0.0,0.0,2017-12-01,7-55-Bew-RueA-J-d-2020-12.xlsx,7-55-Bew-RueA-J
55,Belgien,2.0,2.0,0.0,2.0,2.0,0.0,0.0,1.0,0.0,0.0,0.0,0.0,2017-12-01,7-55-Bew-RueA-J-d-2020-12.xlsx,7-55-Bew-RueA-J
56,Bosnien u. Herzegowina,2.0,2.0,0.0,5.0,5.0,0.0,3.0,1.0,0.0,0.0,0.0,0.0,2017-12-01,7-55-Bew-RueA-J-d-2020-12.xlsx,7-55-Bew-RueA-J
57,Bulgarien,3.0,3.0,0.0,3.0,3.0,0.0,0.0,3.0,0.0,0.0,0.0,0.0,2017-12-01,7-55-Bew-RueA-J-d-2020-12.xlsx,7-55-Bew-RueA-J
58,Dänemark,0.0,0.0,0.0,0.0,0.0,0.0,1.0,0.0,0.0,0.0,0.0,0.0,2017-12-01,7-55-Bew-RueA-J-d-2020-12.xlsx,7-55-Bew-RueA-J
59,Deutschland,1.0,1.0,0.0,1.0,1.0,0.0,0.0,1.0,0.0,0.0,0.0,0.0,2017-12-01,7-55-Bew-RueA-J-d-2020-12.xlsx,7-55-Bew-RueA-J
60,Griechenland,1.0,1.0,0.0,1.0,0.0,0.0,0.0,0.0,0.0,0.0,0.0,0.0,2017-12-01,7-55-Bew-RueA-J-d-2020-12.xlsx,7-55-Bew-RueA-J
61,Grossbritannien,1.0,1.0,0.0,1.0,1.0,0.0,0.0,0.0,0.0,0.0,0.0,0.0,2017-12-01,7-55-Bew-RueA-J-d-2020-12.xlsx,7-55-Bew-RueA-J
62,Kosovo,3.0,3.0,0.0,3.0,3.0,0.0,1.0,3.0,0.0,0.0,0.0,0.0,2017-12-01,7-55-Bew-RueA-J-d-2020-12.xlsx,7-55-Bew-RueA-J
63,Kroatien,13.0,13.0,0.0,13.0,4.0,8.0,0.0,2.0,0.0,0.0,0.0,0.0,2017-12-01,7-55-Bew-RueA-J-d-2020-12.xlsx,7-55-Bew-RueA-J
64,Litauen,4.0,4.0,0.0,4.0,4.0,0.0,0.0,4.0,0.0,0.0,0.0,0.0,2017-12-01,7-55-Bew-RueA-J-d-2020-12.xlsx,7-55-Bew-RueA-J
65,Moldova,0.0,0.0,0.0,0.0,0.0,0.0,0.0,0.0,0.0,0.0,0.0,0.0,2017-12-01,7-55-Bew-RueA-J-d-2020-12.xlsx,7-55-Bew-RueA-J
66,Niederlande,2.0,2.0,0.0,1.0,1.0,0.0,0.0,1.0,0.0,0.0,0.0,0.0,2017-12-01,7-55-Bew-RueA-J-d-2020-12.xlsx,7-55-Bew-RueA-J
67,Polen,13.0,13.0,0.0,13.0,13.0,0.0,0.0,9.0,0.0,0.0,0.0,0.0,2017-12-01,7-55-Bew-RueA-J-d-2020-12.xlsx,7-55-Bew-RueA-J
68,Portugal,1.0,1.0,0.0,1.0,1.0,0.0,0.0,0.0,0.0,0.0,0.0,0.0,2017-12-01,7-55-Bew-RueA-J-d-2020-12.xlsx,7-55-Bew-RueA-J
69,Rumänien,61.0,61.0,0.0,61.0,60.0,1.0,0.0,51.0,0.0,0.0,0.0,0.0,2017-12-01,7-55-Bew-RueA-J-d-2020-12.xlsx,7-55-Bew-RueA-J
70,Russland,4.0,3.0,1.0,3.0,3.0,0.0,3.0,0.0,1.0,1.0,0.0,0.0,2017-12-01,7-55-Bew-RueA-J-d-2020-12.xlsx,7-55-Bew-RueA-J
71,Serbien,3.0,2.0,1.0,2.0,1.0,0.0,0.0,0.0,1.0,0.0,1.0,0.0,2017-12-01,7-55-Bew-RueA-J-d-2020-12.xlsx,7-55-Bew-RueA-J
72,Slowakische Republik,9.0,9.0,0.0,8.0,8.0,0.0,0.0,6.0,0.0,0.0,0.0,0.0,2017-12-01,7-55-Bew-RueA-J-d-2020-12.xlsx,7-55-Bew-RueA-J
73,Slowenien,1.0,1.0,0.0,1.0,1.0,0.0,0.0,0.0,0.0,0.0,0.0,0.0,2017-12-01,7-55-Bew-RueA-J-d-2020-12.xlsx,7-55-Bew-RueA-J
74,Spanien,6.0,6.0,0.0,6.0,4.0,0.0,0.0,2.0,0.0,0.0,0.0,0.0,2017-12-01,7-55-Bew-RueA-J-d-2020-12.xlsx,7-55-Bew-RueA-J
75,Tschechische Republik,1.0,1.0,0.0,1.0,1.0,0.0,0.0,0.0,0.0,0.0,0.0,0.0,2017-12-01,7-55-Bew-RueA-J-d-2020-12.xlsx,7-55-Bew-RueA-J
76,Türkei,3.0,3.0,0.0,3.0,1.0,1.0,0.0,1.0,0.0,0.0,0.0,0.0,2017-12-01,7-55-Bew-RueA-J-d-2020-12.xlsx,7-55-Bew-RueA-J
77,Ukraine,1.0,1.0,0.0,1.0,1.0,0.0,0.0,0.0,0.0,0.0,0.0,0.0,2017-12-01,7-55-Bew-RueA-J-d-2020-12.xlsx,7-55-Bew-RueA-J
78,Ungarn,12.0,12.0,0.0,12.0,10.0,2.0,0.0,9.0,0.0,0.0,0.0,0.0,2017-12-01,7-55-Bew-RueA-J-d-2020-12.xlsx,7-55-Bew-RueA-J
79,Total Europa,147.0,145.0,2.0,146.0,128.0,12.0,8.0,95.0,2.0,1.0,1.0,0.0,2017-12-01,7-55-Bew-RueA-J-d-2020-12.xlsx,7-55-Bew-RueA-J
80,Ohne Nationalität,0.0,0.0,0.0,0.0,0.0,0.0,0.0,0.0,0.0,0.0,0.0,0.0,2017-12-01,7-55-Bew-RueA-J-d-2020-12.xlsx,7-55-Bew-RueA-J
81,Staat unbekannt,17.0,16.0,1.0,16.0,10.0,5.0,0.0,14.0,1.0,1.0,0.0,1.0,2017-12-01,7-55-Bew-RueA-J-d-2020-12.xlsx,7-55-Bew-RueA-J
82,Total Herkunft unbek.,17.0,16.0,1.0,16.0,10.0,5.0,0.0,14.0,1.0,1.0,0.0,1.0,2017-12-01,7-55-Bew-RueA-J-d-2020-12.xlsx,7-55-Bew-RueA-J
83,Herkunft unbekannt,35.0,35.0,0.0,34.0,26.0,7.0,9.0,11.0,0.0,0.0,0.0,0.0,2016-12-01,7-55-Bew-RueA-J-d-2020-12.xlsx,7-55-Bew-RueA-J
84,Ägypten,1.0,1.0,0.0,1.0,1.0,0.0,1.0,1.0,0.0,0.0,0.0,0.0,2016-12-01,7-55-Bew-RueA-J-d-2020-12.xlsx,7-55-Bew-RueA-J
85,Algerien,5.0,5.0,0.0,4.0,4.0,0.0,3.0,2.0,0.0,0.0,0.0,0.0,2016-12-01,7-55-Bew-RueA-J-d-2020-12.xlsx,7-55-Bew-RueA-J
86,Äthiopien,7.0,6.0,1.0,4.0,4.0,0.0,7.0,0.0,1.0,1.0,0.0,0.0,2016-12-01,7-55-Bew-RueA-J-d-2020-12.xlsx,7-55-Bew-RueA-J
87,Benin,1.0,1.0,0.0,1.0,1.0,0.0,0.0,1.0,0.0,0.0,0.0,0.0,2016-12-01,7-55-Bew-RueA-J-d-2020-12.xlsx,7-55-Bew-RueA-J
88,Burundi,0.0,0.0,0.0,0.0,0.0,0.0,1.0,0.0,0.0,0.0,0.0,0.0,2016-12-01,7-55-Bew-RueA-J-d-2020-12.xlsx,7-55-Bew-RueA-J
89,Côte d'Ivoire,4.0,4.0,0.0,4.0,3.0,1.0,1.0,2.0,0.0,0.0,0.0,0.0,2016-12-01,7-55-Bew-RueA-J-d-2020-12.xlsx,7-55-Bew-RueA-J
90,Eritrea,73.0,68.0,5.0,91.0,86.0,2.0,59.0,28.0,5.0,5.0,0.0,1.0,2016-12-01,7-55-Bew-RueA-J-d-2020-12.xlsx,7-55-Bew-RueA-J
91,Gambia,25.0,25.0,0.0,26.0,25.0,1.0,13.0,14.0,0.0,0.0,0.0,0.0,2016-12-01,7-55-Bew-RueA-J-d-2020-12.xlsx,7-55-Bew-RueA-J
92,Ghana,5.0,5.0,0.0,5.0,4.0,0.0,1.0,3.0,0.0,0.0,0.0,0.0,2016-12-01,7-55-Bew-RueA-J-d-2020-12.xlsx,7-55-Bew-RueA-J
93,Guinea,17.0,17.0,0.0,14.0,13.0,1.0,3.0,9.0,0.0,0.0,0.0,0.0,2016-12-01,7-55-Bew-RueA-J-d-2020-12.xlsx,7-55-Bew-RueA-J
94,Guinea-Bissau,3.0,3.0,0.0,3.0,3.0,0.0,0.0,3.0,0.0,0.0,0.0,0.0,2016-12-01,7-55-Bew-RueA-J-d-2020-12.xlsx,7-55-Bew-RueA-J
95,Kamerun,4.0,4.0,0.0,4.0,3.0,1.0,0.0,2.0,0.0,0.0,0.0,0.0,2016-12-01,7-55-Bew-RueA-J-d-2020-12.xlsx,7-55-Bew-RueA-J
96,Kongo DR,0.0,0.0,0.0,0.0,0.0,0.0,1.0,1.0,0.0,0.0,0.0,0.0,2016-12-01,7-55-Bew-RueA-J-d-2020-12.xlsx,7-55-Bew-RueA-J
97,Liberia,2.0,2.0,0.0,2.0,2.0,0.0,1.0,1.0,0.0,0.0,0.0,0.0,2016-12-01,7-55-Bew-RueA-J-d-2020-12.xlsx,7-55-Bew-RueA-J
98,Libyen,1.0,1.0,0.0,1.0,1.0,0.0,1.0,0.0,0.0,0.0,0.0,0.0,2016-12-01,7-55-Bew-RueA-J-d-2020-12.xlsx,7-55-Bew-RueA-J
99,Mali,12.0,12.0,0.0,11.0,10.0,1.0,2.0,9.0,0.0,0.0,0.0,0.0,2016-12-01,7-55-Bew-RueA-J-d-2020-12.xlsx,7-55-Bew-RueA-J
100,Marokko,4.0,4.0,0.0,4.0,2.0,2.0,0.0,0.0,0.0,0.0,0.0,0.0,2016-12-01,7-55-Bew-RueA-J-d-2020-12.xlsx,7-55-Bew-RueA-J
101,Niger,2.0,2.0,0.0,2.0,2.0,0.0,0.0,2.0,0.0,0.0,0.0,0.0,2016-12-01,7-55-Bew-RueA-J-d-2020-12.xlsx,7-55-Bew-RueA-J
102,Nigeria,151.0,151.0,0.0,141.0,123.0,14.0,21.0,81.0,0.0,0.0,0.0,0.0,2016-12-01,7-55-Bew-RueA-J-d-2020-12.xlsx,7-55-Bew-RueA-J
103,Senegal,10.0,10.0,0.0,11.0,11.0,0.0,0.0,6.0,0.0,0.0,0.0,0.0,2016-12-01,7-55-Bew-RueA-J-d-2020-12.xlsx,7-55-Bew-RueA-J
104,Sierra Leone,3.0,3.0,0.0,3.0,3.0,0.0,0.0,3.0,0.0,0.0,0.0,0.0,2016-12-01,7-55-Bew-RueA-J-d-2020-12.xlsx,7-55-Bew-RueA-J
105,Somalia,40.0,38.0,2.0,43.0,39.0,1.0,24.0,13.0,2.0,0.0,2.0,1.0,2016-12-01,7-55-Bew-RueA-J-d-2020-12.xlsx,7-55-Bew-RueA-J
106,Sudan,3.0,3.0,0.0,6.0,4.0,2.0,2.0,3.0,0.0,0.0,0.0,0.0,2016-12-01,7-55-Bew-RueA-J-d-2020-12.xlsx,7-55-Bew-RueA-J
107,Südsudan,1.0,1.0,0.0,1.0,0.0,1.0,0.0,0.0,0.0,0.0,0.0,0.0,2016-12-01,7-55-Bew-RueA-J-d-2020-12.xlsx,7-55-Bew-RueA-J
108,Togo,1.0,1.0,0.0,2.0,2.0,0.0,0.0,2.0,0.0,0.0,0.0,0.0,2016-12-01,7-55-Bew-RueA-J-d-2020-12.xlsx,7-55-Bew-RueA-J
109,Tschad,0.0,0.0,0.0,0.0,0.0,0.0,0.0,0.0,0.0,0.0,0.0,0.0,2016-12-01,7-55-Bew-RueA-J-d-2020-12.xlsx,7-55-Bew-RueA-J
110,Uganda,1.0,1.0,0.0,1.0,1.0,0.0,0.0,1.0,0.0,0.0,0.0,0.0,2016-12-01,7-55-Bew-RueA-J-d-2020-12.xlsx,7-55-Bew-RueA-J
111,Total Afrika,376.0,368.0,8.0,385.0,347.0,27.0,141.0,187.0,8.0,6.0,2.0,2.0,2016-12-01,7-55-Bew-RueA-J-d-2020-12.xlsx,7-55-Bew-RueA-J
112,Dominikanische Republik,10.0,10.0,0.0,10.0,8.0,2.0,0.0,8.0,0.0,0.0,0.0,0.0,2016-12-01,7-55-Bew-RueA-J-d-2020-12.xlsx,7-55-Bew-RueA-J
113,Ecuador,2.0,2.0,0.0,1.0,1.0,0.0,0.0,1.0,0.0,0.0,0.0,0.0,2016-12-01,7-55-Bew-RueA-J-d-2020-12.xlsx,7-55-Bew-RueA-J
114,Kolumbien,1.0,1.0,0.0,2.0,0.0,1.0,0.0,0.0,0.0,0.0,0.0,0.0,2016-12-01,7-55-Bew-RueA-J-d-2020-12.xlsx,7-55-Bew-RueA-J
115,Kuba,1.0,1.0,0.0,1.0,1.0,0.0,0.0,2.0,0.0,0.0,0.0,0.0,2016-12-01,7-55-Bew-RueA-J-d-2020-12.xlsx,7-55-Bew-RueA-J
116,Peru,1.0,1.0,0.0,1.0,1.0,0.0,0.0,1.0,0.0,0.0,0.0,0.0,2016-12-01,7-55-Bew-RueA-J-d-2020-12.xlsx,7-55-Bew-RueA-J
117,Trinidad u. Tobago,1.0,1.0,0.0,1.0,1.0,0.0,0.0,1.0,0.0,0.0,0.0,0.0,2016-12-01,7-55-Bew-RueA-J-d-2020-12.xlsx,7-55-Bew-RueA-J
118,USA,1.0,1.0,0.0,1.0,1.0,0.0,0.0,1.0,0.0,0.0,0.0,0.0,2016-12-01,7-55-Bew-RueA-J-d-2020-12.xlsx,7-55-Bew-RueA-J
119,Venezuela,1.0,1.0,0.0,1.0,1.0,0.0,0.0,1.0,0.0,0.0,0.0,0.0,2016-12-01,7-55-Bew-RueA-J-d-2020-12.xlsx,7-55-Bew-RueA-J
120,Total Amerika,18.0,18.0,0.0,18.0,14.0,3.0,0.0,15.0,0.0,0.0,0.0,0.0,2016-12-01,7-55-Bew-RueA-J-d-2020-12.xlsx,7-55-Bew-RueA-J
121,Afghanistan,20.0,20.0,0.0,20.0,20.0,0.0,22.0,10.0,0.0,0.0,0.0,0.0,2016-12-01,7-55-Bew-RueA-J-d-2020-12.xlsx,7-55-Bew-RueA-J
122,Bangladesh,0.0,0.0,0.0,0.0,0.0,0.0,0.0,0.0,0.0,0.0,0.0,0.0,2016-12-01,7-55-Bew-RueA-J-d-2020-12.xlsx,7-55-Bew-RueA-J
123,China (Volksrepublik),3.0,3.0,0.0,3.0,3.0,0.0,3.0,1.0,0.0,0.0,0.0,0.0,2016-12-01,7-55-Bew-RueA-J-d-2020-12.xlsx,7-55-Bew-RueA-J
124,Georgien,1.0,1.0,0.0,1.0,1.0,0.0,1.0,1.0,0.0,0.0,0.0,0.0,2016-12-01,7-55-Bew-RueA-J-d-2020-12.xlsx,7-55-Bew-RueA-J
125,Indien,1.0,1.0,0.0,1.0,0.0,1.0,0.0,0.0,0.0,0.0,0.0,0.0,2016-12-01,7-55-Bew-RueA-J-d-2020-12.xlsx,7-55-Bew-RueA-J
126,Irak,12.0,12.0,0.0,14.0,13.0,0.0,7.0,3.0,0.0,0.0,0.0,0.0,2016-12-01,7-55-Bew-RueA-J-d-2020-12.xlsx,7-55-Bew-RueA-J
127,Iran,8.0,8.0,0.0,9.0,9.0,0.0,6.0,1.0,0.0,0.0,0.0,0.0,2016-12-01,7-55-Bew-RueA-J-d-2020-12.xlsx,7-55-Bew-RueA-J
128,Jemen,4.0,4.0,0.0,4.0,4.0,0.0,4.0,4.0,0.0,0.0,0.0,0.0,2016-12-01,7-55-Bew-RueA-J-d-2020-12.xlsx,7-55-Bew-RueA-J
129,Jordanien,2.0,2.0,0.0,2.0,2.0,0.0,2.0,1.0,0.0,0.0,0.0,0.0,2016-12-01,7-55-Bew-RueA-J-d-2020-12.xlsx,7-55-Bew-RueA-J
130,Laos,1.0,1.0,0.0,0.0,0.0,0.0,0.0,0.0,0.0,0.0,0.0,0.0,2016-12-01,7-55-Bew-RueA-J-d-2020-12.xlsx,7-55-Bew-RueA-J
131,Libanon,1.0,1.0,0.0,1.0,1.0,0.0,0.0,0.0,0.0,0.0,0.0,0.0,2016-12-01,7-55-Bew-RueA-J-d-2020-12.xlsx,7-55-Bew-RueA-J
132,Nepal,1.0,1.0,0.0,1.0,1.0,0.0,0.0,1.0,0.0,0.0,0.0,0.0,2016-12-01,7-55-Bew-RueA-J-d-2020-12.xlsx,7-55-Bew-RueA-J
133,Pakistan,2.0,2.0,0.0,2.0,2.0,0.0,4.0,4.0,0.0,0.0,0.0,0.0,2016-12-01,7-55-Bew-RueA-J-d-2020-12.xlsx,7-55-Bew-RueA-J
134,Sri Lanka,4.0,4.0,0.0,3.0,3.0,0.0,1.0,0.0,0.0,0.0,0.0,0.0,2016-12-01,7-55-Bew-RueA-J-d-2020-12.xlsx,7-55-Bew-RueA-J
135,Syrien,42.0,35.0,7.0,37.0,37.0,0.0,49.0,8.0,7.0,7.0,0.0,0.0,2016-12-01,7-55-Bew-RueA-J-d-2020-12.xlsx,7-55-Bew-RueA-J
136,Total Asien,102.0,95.0,7.0,98.0,96.0,1.0,99.0,34.0,7.0,7.0,0.0,0.0,2016-12-01,7-55-Bew-RueA-J-d-2020-12.xlsx,7-55-Bew-RueA-J
137,Albanien,2.0,2.0,0.0,2.0,2.0,0.0,1.0,2.0,0.0,0.0,0.0,0.0,2016-12-01,7-55-Bew-RueA-J-d-2020-12.xlsx,7-55-Bew-RueA-J
138,Belarus,1.0,1.0,0.0,1.0,1.0,0.0,0.0,0.0,0.0,0.0,0.0,0.0,2016-12-01,7-55-Bew-RueA-J-d-2020-12.xlsx,7-55-Bew-RueA-J
139,Bosnien u. Herzegowina,4.0,4.0,0.0,1.0,1.0,0.0,0.0,1.0,0.0,0.0,0.0,0.0,2016-12-01,7-55-Bew-RueA-J-d-2020-12.xlsx,7-55-Bew-RueA-J
140,Bulgarien,5.0,5.0,0.0,5.0,5.0,0.0,0.0,4.0,0.0,0.0,0.0,0.0,2016-12-01,7-55-Bew-RueA-J-d-2020-12.xlsx,7-55-Bew-RueA-J
141,Dänemark,1.0,1.0,0.0,1.0,1.0,0.0,0.0,0.0,0.0,0.0,0.0,0.0,2016-12-01,7-55-Bew-RueA-J-d-2020-12.xlsx,7-55-Bew-RueA-J
142,Estland,2.0,2.0,0.0,2.0,1.0,0.0,0.0,2.0,0.0,0.0,0.0,0.0,2016-12-01,7-55-Bew-RueA-J-d-2020-12.xlsx,7-55-Bew-RueA-J
143,Frankreich,1.0,1.0,0.0,1.0,0.0,1.0,0.0,0.0,0.0,0.0,0.0,0.0,2016-12-01,7-55-Bew-RueA-J-d-2020-12.xlsx,7-55-Bew-RueA-J
144,Grossbritannien,5.0,4.0,1.0,4.0,4.0,0.0,0.0,5.0,1.0,1.0,0.0,0.0,2016-12-01,7-55-Bew-RueA-J-d-2020-12.xlsx,7-55-Bew-RueA-J
145,Kosovo,2.0,2.0,0.0,2.0,2.0,0.0,0.0,2.0,0.0,0.0,0.0,0.0,2016-12-01,7-55-Bew-RueA-J-d-2020-12.xlsx,7-55-Bew-RueA-J
146,Kroatien,3.0,3.0,0.0,5.0,4.0,0.0,0.0,2.0,0.0,0.0,0.0,0.0,2016-12-01,7-55-Bew-RueA-J-d-2020-12.xlsx,7-55-Bew-RueA-J
147,Lettland,2.0,2.0,0.0,2.0,2.0,0.0,0.0,1.0,0.0,0.0,0.0,0.0,2016-12-01,7-55-Bew-RueA-J-d-2020-12.xlsx,7-55-Bew-RueA-J
148,Litauen,4.0,4.0,0.0,4.0,4.0,0.0,0.0,4.0,0.0,0.0,0.0,0.0,2016-12-01,7-55-Bew-RueA-J-d-2020-12.xlsx,7-55-Bew-RueA-J
149,Moldova,1.0,1.0,0.0,1.0,0.0,1.0,0.0,0.0,0.0,0.0,0.0,0.0,2016-12-01,7-55-Bew-RueA-J-d-2020-12.xlsx,7-55-Bew-RueA-J
150,Montenegro,0.0,0.0,0.0,0.0,0.0,0.0,0.0,0.0,0.0,0.0,0.0,0.0,2016-12-01,7-55-Bew-RueA-J-d-2020-12.xlsx,7-55-Bew-RueA-J
151,Niederlande,5.0,5.0,0.0,6.0,4.0,1.0,0.0,4.0,0.0,0.0,0.0,0.0,2016-12-01,7-55-Bew-RueA-J-d-2020-12.xlsx,7-55-Bew-RueA-J
152,Polen,11.0,11.0,0.0,11.0,11.0,0.0,1.0,9.0,0.0,0.0,0.0,0.0,2016-12-01,7-55-Bew-RueA-J-d-2020-12.xlsx,7-55-Bew-RueA-J
153,Rumänien,57.0,57.0,0.0,56.0,52.0,4.0,0.0,45.0,0.0,0.0,0.0,0.0,2016-12-01,7-55-Bew-RueA-J-d-2020-12.xlsx,7-55-Bew-RueA-J
154,Russland,5.0,5.0,0.0,10.0,10.0,0.0,9.0,1.0,0.0,0.0,0.0,0.0,2016-12-01,7-55-Bew-RueA-J-d-2020-12.xlsx,7-55-Bew-RueA-J
155,Serbien,5.0,3.0,2.0,3.0,2.0,0.0,0.0,1.0,2.0,2.0,0.0,2.0,2016-12-01,7-55-Bew-RueA-J-d-2020-12.xlsx,7-55-Bew-RueA-J
156,Slowakische Republik,1.0,1.0,0.0,1.0,1.0,0.0,0.0,2.0,0.0,0.0,0.0,0.0,2016-12-01,7-55-Bew-RueA-J-d-2020-12.xlsx,7-55-Bew-RueA-J
157,Spanien,4.0,4.0,0.0,4.0,4.0,0.0,0.0,4.0,0.0,0.0,0.0,0.0,2016-12-01,7-55-Bew-RueA-J-d-2020-12.xlsx,7-55-Bew-RueA-J
158,Tschechische Republik,1.0,1.0,0.0,1.0,1.0,0.0,0.0,1.0,0.0,0.0,0.0,0.0,2016-12-01,7-55-Bew-RueA-J-d-2020-12.xlsx,7-55-Bew-RueA-J
159,Türkei,5.0,5.0,0.0,5.0,5.0,0.0,2.0,2.0,0.0,0.0,0.0,0.0,2016-12-01,7-55-Bew-RueA-J-d-2020-12.xlsx,7-55-Bew-RueA-J
160,Ukraine,0.0,0.0,0.0,0.0,0.0,0.0,0.0,0.0,0.0,0.0,0.0,0.0,2016-12-01,7-55-Bew-RueA-J-d-2020-12.xlsx,7-55-Bew-RueA-J
161,Ungarn,9.0,9.0,0.0,8.0,8.0,0.0,0.0,7.0,0.0,0.0,0.0,0.0,2016-12-01,7-55-Bew-RueA-J-d-2020-12.xlsx,7-55-Bew-RueA-J
162,Total Europa,136.0,133.0,3.0,136.0,125.0,7.0,13.0,99.0,3.0,3.0,0.0,2.0,2016-12-01,7-55-Bew-RueA-J-d-2020-12.xlsx,7-55-Bew-RueA-J
163,Staatenlos,1.0,1.0,0.0,1.0,1.0,0.0,0.0,1.0,0.0,0.0,0.0,0.0,2016-12-01,7-55-Bew-RueA-J-d-2020-12.xlsx,7-55-Bew-RueA-J
164,Ohne Nationalität,6.0,6.0,0.0,6.0,6.0,0.0,6.0,0.0,0.0,0.0,0.0,0.0,2016-12-01,7-55-Bew-RueA-J-d-2020-12.xlsx,7-55-Bew-RueA-J
165,Staat unbekannt,28.0,28.0,0.0,27.0,19.0,7.0,3.0,10.0,0.0,0.0,0.0,0.0,2016-12-01,7-55-Bew-RueA-J-d-2020-12.xlsx,7-55-Bew-RueA-J
166,Total Herkunft unbek.,35.0,35.0,0.0,34.0,26.0,7.0,9.0,11.0,0.0,0.0,0.0,0.0,2016-12-01,7-55-Bew-RueA-J-d-2020-12.xlsx,7-55-Bew-RueA-J
167,Herkunft unbekannt,15.0,14.0,1.0,15.0,13.0,2.0,9.0,4.0,1.0,1.0,0.0,1.0,2020-12-01,7-55-Bew-RueA-J-d-2020-12.xlsx,7-55-Bew-RueA-J
168,Ägypten,1.0,1.0,0.0,1.0,1.0,0.0,0.0,0.0,0.0,0.0,0.0,0.0,2020-12-01,7-55-Bew-RueA-J-d-2020-12.xlsx,7-55-Bew-RueA-J
169,Algerien,2.0,2.0,0.0,2.0,1.0,1.0,1.0,0.0,0.0,0.0,0.0,0.0,2020-12-01,7-55-Bew-RueA-J-d-2020-12.xlsx,7-55-Bew-RueA-J
170,Angola,0.0,0.0,0.0,0.0,0.0,0.0,0.0,0.0,0.0,0.0,0.0,0.0,2020-12-01,7-55-Bew-RueA-J-d-2020-12.xlsx,7-55-Bew-RueA-J
171,Äquatorialguinea,1.0,1.0,0.0,1.0,1.0,0.0,0.0,1.0,0.0,0.0,0.0,0.0,2020-12-01,7-55-Bew-RueA-J-d-2020-12.xlsx,7-55-Bew-RueA-J
172,Äthiopien,4.0,3.0,1.0,3.0,3.0,0.0,1.0,3.0,1.0,1.0,0.0,0.0,2020-12-01,7-55-Bew-RueA-J-d-2020-12.xlsx,7-55-Bew-RueA-J
173,Côte d'Ivoire,2.0,2.0,0.0,2.0,2.0,0.0,1.0,0.0,0.0,0.0,0.0,0.0,2020-12-01,7-55-Bew-RueA-J-d-2020-12.xlsx,7-55-Bew-RueA-J
174,Eritrea,60.0,38.0,22.0,33.0,23.0,6.0,19.0,12.0,22.0,21.0,0.0,9.0,2020-12-01,7-55-Bew-RueA-J-d-2020-12.xlsx,7-55-Bew-RueA-J
175,Gabun,1.0,1.0,0.0,0.0,0.0,0.0,0.0,0.0,0.0,0.0,0.0,0.0,2020-12-01,7-55-Bew-RueA-J-d-2020-12.xlsx,7-55-Bew-RueA-J
176,Gambia,13.0,13.0,0.0,13.0,12.0,1.0,1.0,9.0,0.0,0.0,0.0,0.0,2020-12-01,7-55-Bew-RueA-J-d-2020-12.xlsx,7-55-Bew-RueA-J
177,Ghana,0.0,0.0,0.0,0.0,0.0,0.0,0.0,2.0,0.0,0.0,0.0,0.0,2020-12-01,7-55-Bew-RueA-J-d-2020-12.xlsx,7-55-Bew-RueA-J
178,Guinea,10.0,10.0,0.0,10.0,9.0,1.0,1.0,7.0,0.0,0.0,0.0,0.0,2020-12-01,7-55-Bew-RueA-J-d-2020-12.xlsx,7-55-Bew-RueA-J
179,Guinea-Bissau,1.0,1.0,0.0,1.0,0.0,1.0,1.0,0.0,0.0,0.0,0.0,0.0,2020-12-01,7-55-Bew-RueA-J-d-2020-12.xlsx,7-55-Bew-RueA-J
180,Kamerun,1.0,1.0,0.0,3.0,2.0,0.0,0.0,0.0,0.0,0.0,0.0,0.0,2020-12-01,7-55-Bew-RueA-J-d-2020-12.xlsx,7-55-Bew-RueA-J
181,Kongo,1.0,0.0,1.0,0.0,0.0,0.0,0.0,0.0,1.0,1.0,0.0,1.0,2020-12-01,7-55-Bew-RueA-J-d-2020-12.xlsx,7-55-Bew-RueA-J
182,Kongo DR,2.0,2.0,0.0,2.0,2.0,0.0,1.0,0.0,0.0,0.0,0.0,0.0,2020-12-01,7-55-Bew-RueA-J-d-2020-12.xlsx,7-55-Bew-RueA-J
183,Liberia,3.0,3.0,0.0,3.0,2.0,1.0,0.0,0.0,0.0,0.0,0.0,0.0,2020-12-01,7-55-Bew-RueA-J-d-2020-12.xlsx,7-55-Bew-RueA-J
184,Libyen,2.0,2.0,0.0,2.0,2.0,0.0,1.0,2.0,0.0,0.0,0.0,0.0,2020-12-01,7-55-Bew-RueA-J-d-2020-12.xlsx,7-55-Bew-RueA-J
185,Malawi,1.0,1.0,0.0,1.0,1.0,0.0,0.0,0.0,0.0,0.0,0.0,0.0,2020-12-01,7-55-Bew-RueA-J-d-2020-12.xlsx,7-55-Bew-RueA-J
186,Mali,1.0,1.0,0.0,1.0,1.0,0.0,0.0,2.0,0.0,0.0,0.0,0.0,2020-12-01,7-55-Bew-RueA-J-d-2020-12.xlsx,7-55-Bew-RueA-J
187,Marokko,5.0,5.0,0.0,5.0,4.0,1.0,1.0,3.0,0.0,0.0,0.0,0.0,2020-12-01,7-55-Bew-RueA-J-d-2020-12.xlsx,7-55-Bew-RueA-J
188,Mauretanien,1.0,1.0,0.0,1.0,1.0,0.0,0.0,0.0,0.0,0.0,0.0,0.0,2020-12-01,7-55-Bew-RueA-J-d-2020-12.xlsx,7-55-Bew-RueA-J
189,Niger,1.0,1.0,0.0,1.0,1.0,0.0,0.0,0.0,0.0,0.0,0.0,0.0,2020-12-01,7-55-Bew-RueA-J-d-2020-12.xlsx,7-55-Bew-RueA-J
190,Nigeria,89.0,89.0,0.0,75.0,68.0,5.0,4.0,48.0,0.0,0.0,0.0,0.0,2020-12-01,7-55-Bew-RueA-J-d-2020-12.xlsx,7-55-Bew-RueA-J
191,Senegal,8.0,8.0,0.0,7.0,5.0,2.0,0.0,4.0,0.0,0.0,0.0,0.0,2020-12-01,7-55-Bew-RueA-J-d-2020-12.xlsx,7-55-Bew-RueA-J
192,Sierra Leone,3.0,2.0,1.0,3.0,3.0,0.0,1.0,1.0,1.0,1.0,0.0,0.0,2020-12-01,7-55-Bew-RueA-J-d-2020-12.xlsx,7-55-Bew-RueA-J
193,Somalia,65.0,49.0,16.0,46.0,42.0,2.0,26.0,10.0,16.0,15.0,1.0,9.0,2020-12-01,7-55-Bew-RueA-J-d-2020-12.xlsx,7-55-Bew-RueA-J
194,Sudan,3.0,3.0,0.0,2.0,2.0,0.0,1.0,1.0,0.0,0.0,0.0,0.0,2020-12-01,7-55-Bew-RueA-J-d-2020-12.xlsx,7-55-Bew-RueA-J
195,Südsudan,1.0,1.0,0.0,1.0,1.0,0.0,0.0,0.0,0.0,0.0,0.0,0.0,2020-12-01,7-55-Bew-RueA-J-d-2020-12.xlsx,7-55-Bew-RueA-J
196,Togo,0.0,0.0,0.0,0.0,0.0,0.0,0.0,0.0,0.0,0.0,0.0,0.0,2020-12-01,7-55-Bew-RueA-J-d-2020-12.xlsx,7-55-Bew-RueA-J
197,Tschad,2.0,2.0,0.0,2.0,1.0,0.0,0.0,1.0,0.0,0.0,0.0,0.0,2020-12-01,7-55-Bew-RueA-J-d-2020-12.xlsx,7-55-Bew-RueA-J
198,Tunesien,2.0,2.0,0.0,2.0,1.0,1.0,0.0,0.0,0.0,0.0,0.0,0.0,2020-12-01,7-55-Bew-RueA-J-d-2020-12.xlsx,7-55-Bew-RueA-J
199,Zentralafr. Republik,1.0,1.0,0.0,1.0,1.0,0.0,1.0,0.0,0.0,0.0,0.0,0.0,2020-12-01,7-55-Bew-RueA-J-d-2020-12.xlsx,7-55-Bew-RueA-J
200,Total Afrika,287.0,246.0,41.0,224.0,192.0,22.0,61.0,106.0,41.0,39.0,1.0,19.0,2020-12-01,7-55-Bew-RueA-J-d-2020-12.xlsx,7-55-Bew-RueA-J
201,Bolivien,1.0,1.0,0.0,1.0,0.0,1.0,0.0,0.0,0.0,0.0,0.0,0.0,2020-12-01,7-55-Bew-RueA-J-d-2020-12.xlsx,7-55-Bew-RueA-J
202,Dominikanische Republik,9.0,9.0,0.0,11.0,7.0,4.0,0.0,6.0,0.0,0.0,0.0,0.0,2020-12-01,7-55-Bew-RueA-J-d-2020-12.xlsx,7-55-Bew-RueA-J
203,Ecuador,1.0,1.0,0.0,1.0,1.0,0.0,0.0,1.0,0.0,0.0,0.0,0.0,2020-12-01,7-55-Bew-RueA-J-d-2020-12.xlsx,7-55-Bew-RueA-J
204,Haiti,0.0,0.0,0.0,0.0,0.0,0.0,0.0,0.0,0.0,0.0,0.0,0.0,2020-12-01,7-55-Bew-RueA-J-d-2020-12.xlsx,7-55-Bew-RueA-J
205,Jamaika,1.0,1.0,0.0,1.0,1.0,0.0,1.0,1.0,0.0,0.0,0.0,0.0,2020-12-01,7-55-Bew-RueA-J-d-2020-12.xlsx,7-55-Bew-RueA-J
206,Kolumbien,6.0,4.0,2.0,4.0,2.0,2.0,0.0,4.0,2.0,2.0,0.0,0.0,2020-12-01,7-55-Bew-RueA-J-d-2020-12.xlsx,7-55-Bew-RueA-J
207,Kuba,1.0,1.0,0.0,1.0,0.0,1.0,0.0,0.0,0.0,0.0,0.0,0.0,2020-12-01,7-55-Bew-RueA-J-d-2020-12.xlsx,7-55-Bew-RueA-J
208,Peru,2.0,2.0,0.0,2.0,2.0,0.0,0.0,1.0,0.0,0.0,0.0,0.0,2020-12-01,7-55-Bew-RueA-J-d-2020-12.xlsx,7-55-Bew-RueA-J
209,Venezuela,1.0,1.0,0.0,1.0,0.0,1.0,0.0,0.0,0.0,0.0,0.0,0.0,2020-12-01,7-55-Bew-RueA-J-d-2020-12.xlsx,7-55-Bew-RueA-J
210,Total Amerika,22.0,20.0,2.0,22.0,13.0,9.0,1.0,13.0,2.0,2.0,0.0,0.0,2020-12-01,7-55-Bew-RueA-J-d-2020-12.xlsx,7-55-Bew-RueA-J
211,Afghanistan,72.0,70.0,2.0,69.0,68.0,1.0,55.0,18.0,2.0,2.0,0.0,1.0,2020-12-01,7-55-Bew-RueA-J-d-2020-12.xlsx,7-55-Bew-RueA-J
212,Armenien,1.0,1.0,0.0,1.0,1.0,0.0,0.0,0.0,0.0,0.0,0.0,0.0,2020-12-01,7-55-Bew-RueA-J-d-2020-12.xlsx,7-55-Bew-RueA-J
213,Bangladesh,0.0,0.0,0.0,0.0,0.0,0.0,0.0,0.0,0.0,0.0,0.0,0.0,2020-12-01,7-55-Bew-RueA-J-d-2020-12.xlsx,7-55-Bew-RueA-J
214,China (Volksrepublik),0.0,0.0,0.0,1.0,1.0,0.0,0.0,2.0,0.0,0.0,0.0,0.0,2020-12-01,7-55-Bew-RueA-J-d-2020-12.xlsx,7-55-Bew-RueA-J
215,Georgien,1.0,1.0,0.0,1.0,1.0,0.0,0.0,1.0,0.0,0.0,0.0,0.0,2020-12-01,7-55-Bew-RueA-J-d-2020-12.xlsx,7-55-Bew-RueA-J
216,Irak,41.0,39.0,2.0,33.0,33.0,0.0,32.0,5.0,2.0,2.0,0.0,2.0,2020-12-01,7-55-Bew-RueA-J-d-2020-12.xlsx,7-55-Bew-RueA-J
217,Iran,17.0,17.0,0.0,17.0,17.0,0.0,10.0,5.0,0.0,0.0,0.0,0.0,2020-12-01,7-55-Bew-RueA-J-d-2020-12.xlsx,7-55-Bew-RueA-J
218,Israel,2.0,2.0,0.0,2.0,2.0,0.0,2.0,0.0,0.0,0.0,0.0,0.0,2020-12-01,7-55-Bew-RueA-J-d-2020-12.xlsx,7-55-Bew-RueA-J
219,Jemen,0.0,0.0,0.0,0.0,0.0,0.0,0.0,0.0,0.0,0.0,0.0,0.0,2020-12-01,7-55-Bew-RueA-J-d-2020-12.xlsx,7-55-Bew-RueA-J
220,Libanon,0.0,0.0,0.0,0.0,0.0,0.0,0.0,0.0,0.0,0.0,0.0,0.0,2020-12-01,7-55-Bew-RueA-J-d-2020-12.xlsx,7-55-Bew-RueA-J
221,Malediven,1.0,0.0,1.0,0.0,0.0,0.0,0.0,0.0,1.0,1.0,0.0,0.0,2020-12-01,7-55-Bew-RueA-J-d-2020-12.xlsx,7-55-Bew-RueA-J
222,Mongolei,0.0,0.0,0.0,0.0,0.0,0.0,0.0,0.0,0.0,0.0,0.0,0.0,2020-12-01,7-55-Bew-RueA-J-d-2020-12.xlsx,7-55-Bew-RueA-J
223,Pakistan,2.0,2.0,0.0,3.0,3.0,0.0,0.0,1.0,0.0,0.0,0.0,0.0,2020-12-01,7-55-Bew-RueA-J-d-2020-12.xlsx,7-55-Bew-RueA-J
224,Sri Lanka,2.0,1.0,1.0,0.0,0.0,0.0,1.0,0.0,1.0,1.0,0.0,0.0,2020-12-01,7-55-Bew-RueA-J-d-2020-12.xlsx,7-55-Bew-RueA-J
225,Syrien,40.0,36.0,4.0,38.0,35.0,2.0,50.0,6.0,4.0,4.0,0.0,0.0,2020-12-01,7-55-Bew-RueA-J-d-2020-12.xlsx,7-55-Bew-RueA-J
226,Vietnam,1.0,1.0,0.0,1.0,0.0,1.0,0.0,0.0,0.0,0.0,0.0,0.0,2020-12-01,7-55-Bew-RueA-J-d-2020-12.xlsx,7-55-Bew-RueA-J
227,Total Asien,180.0,170.0,10.0,166.0,161.0,4.0,150.0,38.0,10.0,10.0,0.0,3.0,2020-12-01,7-55-Bew-RueA-J-d-2020-12.xlsx,7-55-Bew-RueA-J
228,Albanien,5.0,5.0,0.0,5.0,4.0,1.0,0.0,4.0,0.0,0.0,0.0,0.0,2020-12-01,7-55-Bew-RueA-J-d-2020-12.xlsx,7-55-Bew-RueA-J
229,Belarus,1.0,1.0,0.0,1.0,1.0,0.0,1.0,0.0,0.0,0.0,0.0,0.0,2020-12-01,7-55-Bew-RueA-J-d-2020-12.xlsx,7-55-Bew-RueA-J
230,Belgien,5.0,5.0,0.0,5.0,4.0,1.0,0.0,2.0,0.0,0.0,0.0,0.0,2020-12-01,7-55-Bew-RueA-J-d-2020-12.xlsx,7-55-Bew-RueA-J
231,Bosnien u. Herzegowina,0.0,0.0,0.0,0.0,0.0,0.0,0.0,0.0,0.0,0.0,0.0,0.0,2020-12-01,7-55-Bew-RueA-J-d-2020-12.xlsx,7-55-Bew-RueA-J
232,Bulgarien,1.0,1.0,0.0,1.0,1.0,0.0,0.0,1.0,0.0,0.0,0.0,0.0,2020-12-01,7-55-Bew-RueA-J-d-2020-12.xlsx,7-55-Bew-RueA-J
233,Deutschland,0.0,0.0,0.0,0.0,0.0,0.0,1.0,0.0,0.0,0.0,0.0,0.0,2020-12-01,7-55-Bew-RueA-J-d-2020-12.xlsx,7-55-Bew-RueA-J
234,Estland,2.0,2.0,0.0,2.0,2.0,0.0,0.0,0.0,0.0,0.0,0.0,0.0,2020-12-01,7-55-Bew-RueA-J-d-2020-12.xlsx,7-55-Bew-RueA-J
235,Grossbritannien,3.0,3.0,0.0,4.0,3.0,1.0,0.0,3.0,0.0,0.0,0.0,0.0,2020-12-01,7-55-Bew-RueA-J-d-2020-12.xlsx,7-55-Bew-RueA-J
236,Kosovo,1.0,0.0,1.0,0.0,0.0,0.0,0.0,1.0,1.0,1.0,0.0,1.0,2020-12-01,7-55-Bew-RueA-J-d-2020-12.xlsx,7-55-Bew-RueA-J
237,Kroatien,4.0,4.0,0.0,4.0,4.0,0.0,0.0,3.0,0.0,0.0,0.0,0.0,2020-12-01,7-55-Bew-RueA-J-d-2020-12.xlsx,7-55-Bew-RueA-J
238,Lettland,0.0,0.0,0.0,0.0,0.0,0.0,0.0,0.0,0.0,0.0,0.0,0.0,2020-12-01,7-55-Bew-RueA-J-d-2020-12.xlsx,7-55-Bew-RueA-J
239,Litauen,6.0,6.0,0.0,6.0,6.0,0.0,0.0,4.0,0.0,0.0,0.0,0.0,2020-12-01,7-55-Bew-RueA-J-d-2020-12.xlsx,7-55-Bew-RueA-J
240,Nordmazedonien,1.0,1.0,0.0,1.0,1.0,0.0,0.0,2.0,0.0,0.0,0.0,0.0,2020-12-01,7-55-Bew-RueA-J-d-2020-12.xlsx,7-55-Bew-RueA-J
241,Moldova,0.0,0.0,0.0,0.0,0.0,0.0,0.0,0.0,0.0,0.0,0.0,0.0,2020-12-01,7-55-Bew-RueA-J-d-2020-12.xlsx,7-55-Bew-RueA-J
242,Niederlande,3.0,3.0,0.0,3.0,3.0,0.0,0.0,1.0,0.0,0.0,0.0,0.0,2020-12-01,7-55-Bew-RueA-J-d-2020-12.xlsx,7-55-Bew-RueA-J
243,Polen,9.0,9.0,0.0,9.0,9.0,0.0,0.0,9.0,0.0,0.0,0.0,0.0,2020-12-01,7-55-Bew-RueA-J-d-2020-12.xlsx,7-55-Bew-RueA-J
244,Portugal,0.0,0.0,0.0,0.0,0.0,0.0,0.0,0.0,0.0,0.0,0.0,0.0,2020-12-01,7-55-Bew-RueA-J-d-2020-12.xlsx,7-55-Bew-RueA-J
245,Rumänien,29.0,29.0,0.0,29.0,26.0,3.0,0.0,19.0,0.0,0.0,0.0,0.0,2020-12-01,7-55-Bew-RueA-J-d-2020-12.xlsx,7-55-Bew-RueA-J
246,Russland,11.0,11.0,0.0,11.0,11.0,0.0,11.0,9.0,0.0,0.0,0.0,0.0,2020-12-01,7-55-Bew-RueA-J-d-2020-12.xlsx,7-55-Bew-RueA-J
247,Schweden,1.0,1.0,0.0,1.0,0.0,0.0,0.0,0.0,0.0,0.0,0.0,0.0,2020-12-01,7-55-Bew-RueA-J-d-2020-12.xlsx,7-55-Bew-RueA-J
248,Serbien,3.0,3.0,0.0,3.0,2.0,1.0,1.0,1.0,0.0,0.0,0.0,0.0,2020-12-01,7-55-Bew-RueA-J-d-2020-12.xlsx,7-55-Bew-RueA-J
249,Slowakische Republik,7.0,7.0,0.0,7.0,6.0,1.0,0.0,3.0,0.0,0.0,0.0,0.0,2020-12-01,7-55-Bew-RueA-J-d-2020-12.xlsx,7-55-Bew-RueA-J
250,Slowenien,1.0,1.0,0.0,1.0,1.0,0.0,0.0,1.0,0.0,0.0,0.0,0.0,2020-12-01,7-55-Bew-RueA-J-d-2020-12.xlsx,7-55-Bew-RueA-J
251,Spanien,5.0,5.0,0.0,5.0,3.0,1.0,0.0,3.0,0.0,0.0,0.0,0.0,2020-12-01,7-55-Bew-RueA-J-d-2020-12.xlsx,7-55-Bew-RueA-J
252,Tschechische Republik,3.0,3.0,0.0,3.0,3.0,0.0,0.0,2.0,0.0,0.0,0.0,0.0,2020-12-01,7-55-Bew-RueA-J-d-2020-12.xlsx,7-55-Bew-RueA-J
253,Türkei,13.0,8.0,5.0,8.0,8.0,0.0,13.0,1.0,5.0,5.0,0.0,1.0,2020-12-01,7-55-Bew-RueA-J-d-2020-12.xlsx,7-55-Bew-RueA-J
254,Ukraine,2.0,2.0,0.0,2.0,2.0,0.0,0.0,5.0,0.0,0.0,0.0,0.0,2020-12-01,7-55-Bew-RueA-J-d-2020-12.xlsx,7-55-Bew-RueA-J
255,Ungarn,3.0,3.0,0.0,3.0,3.0,0.0,0.0,3.0,0.0,0.0,0.0,0.0,2020-12-01,7-55-Bew-RueA-J-d-2020-12.xlsx,7-55-Bew-RueA-J
256,Total Europa,119.0,113.0,6.0,114.0,103.0,9.0,27.0,77.0,6.0,6.0,0.0,2.0,2020-12-01,7-55-Bew-RueA-J-d-2020-12.xlsx,7-55-Bew-RueA-J
257,Ohne Nationalität,6.0,6.0,0.0,6.0,5.0,1.0,5.0,0.0,0.0,0.0,0.0,0.0,2020-12-01,7-55-Bew-RueA-J-d-2020-12.xlsx,7-55-Bew-RueA-J
258,Staat unbekannt,9.0,8.0,1.0,9.0,8.0,1.0,4.0,4.0,1.0,1.0,0.0,1.0,2020-12-01,7-55-Bew-RueA-J-d-2020-12.xlsx,7-55-Bew-RueA-J
259,Total Herkunft unbek.,15.0,14.0,1.0,15.0,13.0,2.0,9.0,4.0,1.0,1.0,0.0,1.0,2020-12-01,7-55-Bew-RueA-J-d-2020-12.xlsx,7-55-Bew-RueA-J
260,Herkunft unbekannt,27.0,25.0,2.0,24.0,21.0,3.0,14.0,10.0,2.0,2.0,0.0,1.0,2014-12-01,7-55-Bew-RueA-J-d-2020-12.xlsx,7-55-Bew-RueA-J
261,Ägypten,9.0,9.0,0.0,7.0,7.0,0.0,7.0,3.0,0.0,0.0,0.0,0.0,2014-12-01,7-55-Bew-RueA-J-d-2020-12.xlsx,7-55-Bew-RueA-J
262,Algerien,13.0,13.0,0.0,12.0,6.0,6.0,0.0,5.0,0.0,0.0,0.0,0.0,2014-12-01,7-55-Bew-RueA-J-d-2020-12.xlsx,7-55-Bew-RueA-J
263,Angola,1.0,1.0,0.0,1.0,1.0,0.0,0.0,0.0,0.0,0.0,0.0,0.0,2014-12-01,7-55-Bew-RueA-J-d-2020-12.xlsx,7-55-Bew-RueA-J
264,Äquatorialguinea,1.0,1.0,0.0,1.0,1.0,0.0,0.0,1.0,0.0,0.0,0.0,0.0,2014-12-01,7-55-Bew-RueA-J-d-2020-12.xlsx,7-55-Bew-RueA-J
265,Äthiopien,9.0,9.0,0.0,9.0,9.0,0.0,9.0,2.0,0.0,0.0,0.0,0.0,2014-12-01,7-55-Bew-RueA-J-d-2020-12.xlsx,7-55-Bew-RueA-J
266,Burkina Faso,2.0,2.0,0.0,1.0,1.0,0.0,0.0,1.0,0.0,0.0,0.0,0.0,2014-12-01,7-55-Bew-RueA-J-d-2020-12.xlsx,7-55-Bew-RueA-J
267,Côte d'Ivoire,6.0,6.0,0.0,4.0,4.0,0.0,1.0,5.0,0.0,0.0,0.0,0.0,2014-12-01,7-55-Bew-RueA-J-d-2020-12.xlsx,7-55-Bew-RueA-J
268,Eritrea,137.0,131.0,6.0,90.0,90.0,0.0,57.0,14.0,6.0,6.0,0.0,3.0,2014-12-01,7-55-Bew-RueA-J-d-2020-12.xlsx,7-55-Bew-RueA-J
269,Gambia,14.0,14.0,0.0,13.0,11.0,2.0,2.0,8.0,0.0,0.0,0.0,0.0,2014-12-01,7-55-Bew-RueA-J-d-2020-12.xlsx,7-55-Bew-RueA-J
270,Ghana,1.0,1.0,0.0,0.0,0.0,0.0,0.0,0.0,0.0,0.0,0.0,0.0,2014-12-01,7-55-Bew-RueA-J-d-2020-12.xlsx,7-55-Bew-RueA-J
271,Guinea,14.0,14.0,0.0,11.0,11.0,0.0,0.0,8.0,0.0,0.0,0.0,0.0,2014-12-01,7-55-Bew-RueA-J-d-2020-12.xlsx,7-55-Bew-RueA-J
272,Guinea-Bissau,4.0,4.0,0.0,4.0,4.0,0.0,2.0,3.0,0.0,0.0,0.0,0.0,2014-12-01,7-55-Bew-RueA-J-d-2020-12.xlsx,7-55-Bew-RueA-J
273,Kamerun,2.0,2.0,0.0,2.0,2.0,0.0,0.0,1.0,0.0,0.0,0.0,0.0,2014-12-01,7-55-Bew-RueA-J-d-2020-12.xlsx,7-55-Bew-RueA-J
274,Kongo DR,3.0,1.0,2.0,1.0,0.0,0.0,7.0,0.0,2.0,2.0,0.0,1.0,2014-12-01,7-55-Bew-RueA-J-d-2020-12.xlsx,7-55-Bew-RueA-J
275,Liberia,10.0,10.0,0.0,9.0,6.0,3.0,4.0,4.0,0.0,0.0,0.0,0.0,2014-12-01,7-55-Bew-RueA-J-d-2020-12.xlsx,7-55-Bew-RueA-J
276,Libyen,3.0,3.0,0.0,3.0,3.0,0.0,2.0,0.0,0.0,0.0,0.0,0.0,2014-12-01,7-55-Bew-RueA-J-d-2020-12.xlsx,7-55-Bew-RueA-J
277,Mali,21.0,21.0,0.0,18.0,17.0,1.0,13.0,8.0,0.0,0.0,0.0,0.0,2014-12-01,7-55-Bew-RueA-J-d-2020-12.xlsx,7-55-Bew-RueA-J
278,Marokko,7.0,7.0,0.0,7.0,6.0,1.0,5.0,4.0,0.0,0.0,0.0,0.0,2014-12-01,7-55-Bew-RueA-J-d-2020-12.xlsx,7-55-Bew-RueA-J
279,Mauretanien,5.0,5.0,0.0,5.0,5.0,0.0,1.0,5.0,0.0,0.0,0.0,0.0,2014-12-01,7-55-Bew-RueA-J-d-2020-12.xlsx,7-55-Bew-RueA-J
280,Niger,3.0,3.0,0.0,3.0,3.0,0.0,2.0,1.0,0.0,0.0,0.0,0.0,2014-12-01,7-55-Bew-RueA-J-d-2020-12.xlsx,7-55-Bew-RueA-J
281,Nigeria,130.0,130.0,0.0,113.0,95.0,18.0,26.0,52.0,0.0,0.0,0.0,0.0,2014-12-01,7-55-Bew-RueA-J-d-2020-12.xlsx,7-55-Bew-RueA-J
282,Senegal,6.0,6.0,0.0,5.0,5.0,0.0,1.0,2.0,0.0,0.0,0.0,0.0,2014-12-01,7-55-Bew-RueA-J-d-2020-12.xlsx,7-55-Bew-RueA-J
283,Sierra Leone,4.0,4.0,0.0,4.0,3.0,1.0,0.0,3.0,0.0,0.0,0.0,0.0,2014-12-01,7-55-Bew-RueA-J-d-2020-12.xlsx,7-55-Bew-RueA-J
284,Somalia,49.0,45.0,4.0,36.0,30.0,6.0,27.0,3.0,4.0,4.0,0.0,0.0,2014-12-01,7-55-Bew-RueA-J-d-2020-12.xlsx,7-55-Bew-RueA-J
285,Sudan,7.0,7.0,0.0,4.0,4.0,0.0,7.0,0.0,0.0,0.0,0.0,0.0,2014-12-01,7-55-Bew-RueA-J-d-2020-12.xlsx,7-55-Bew-RueA-J
286,Südsudan,1.0,1.0,0.0,0.0,0.0,0.0,0.0,0.0,0.0,0.0,0.0,0.0,2014-12-01,7-55-Bew-RueA-J-d-2020-12.xlsx,7-55-Bew-RueA-J
287,Tansania,1.0,1.0,0.0,1.0,1.0,0.0,0.0,1.0,0.0,0.0,0.0,0.0,2014-12-01,7-55-Bew-RueA-J-d-2020-12.xlsx,7-55-Bew-RueA-J
288,Togo,1.0,1.0,0.0,1.0,1.0,0.0,1.0,1.0,0.0,0.0,0.0,0.0,2014-12-01,7-55-Bew-RueA-J-d-2020-12.xlsx,7-55-Bew-RueA-J
289,Tschad,1.0,1.0,0.0,1.0,1.0,0.0,0.0,0.0,0.0,0.0,0.0,0.0,2014-12-01,7-55-Bew-RueA-J-d-2020-12.xlsx,7-55-Bew-RueA-J
290,Tunesien,0.0,0.0,0.0,0.0,0.0,0.0,1.0,0.0,0.0,0.0,0.0,0.0,2014-12-01,7-55-Bew-RueA-J-d-2020-12.xlsx,7-55-Bew-RueA-J
291,Uganda,2.0,2.0,0.0,2.0,1.0,1.0,1.0,1.0,0.0,0.0,0.0,0.0,2014-12-01,7-55-Bew-RueA-J-d-2020-12.xlsx,7-55-Bew-RueA-J
292,Zimbabwe,2.0,2.0,0.0,2.0,1.0,1.0,0.0,1.0,0.0,0.0,0.0,0.0,2014-12-01,7-55-Bew-RueA-J-d-2020-12.xlsx,7-55-Bew-RueA-J
293,Total Afrika,469.0,457.0,12.0,370.0,329.0,40.0,176.0,137.0,12.0,12.0,0.0,4.0,2014-12-01,7-55-Bew-RueA-J-d-2020-12.xlsx,7-55-Bew-RueA-J
294,Brasilien,1.0,1.0,0.0,1.0,0.0,1.0,0.0,0.0,0.0,0.0,0.0,0.0,2014-12-01,7-55-Bew-RueA-J-d-2020-12.xlsx,7-55-Bew-RueA-J
295,Dominikanische Republik,25.0,25.0,0.0,25.0,20.0,5.0,0.0,16.0,0.0,0.0,0.0,0.0,2014-12-01,7-55-Bew-RueA-J-d-2020-12.xlsx,7-55-Bew-RueA-J
296,Ecuador,3.0,3.0,0.0,3.0,2.0,1.0,0.0,0.0,0.0,0.0,0.0,0.0,2014-12-01,7-55-Bew-RueA-J-d-2020-12.xlsx,7-55-Bew-RueA-J
297,Kolumbien,3.0,3.0,0.0,3.0,3.0,0.0,0.0,2.0,0.0,0.0,0.0,0.0,2014-12-01,7-55-Bew-RueA-J-d-2020-12.xlsx,7-55-Bew-RueA-J
298,Kuba,1.0,1.0,0.0,1.0,1.0,0.0,0.0,1.0,0.0,0.0,0.0,0.0,2014-12-01,7-55-Bew-RueA-J-d-2020-12.xlsx,7-55-Bew-RueA-J
299,Suriname,1.0,1.0,0.0,1.0,1.0,0.0,0.0,1.0,0.0,0.0,0.0,0.0,2014-12-01,7-55-Bew-RueA-J-d-2020-12.xlsx,7-55-Bew-RueA-J
300,USA,2.0,2.0,0.0,2.0,2.0,0.0,1.0,2.0,0.0,0.0,0.0,0.0,2014-12-01,7-55-Bew-RueA-J-d-2020-12.xlsx,7-55-Bew-RueA-J
301,Total Amerika,36.0,36.0,0.0,36.0,29.0,7.0,1.0,22.0,0.0,0.0,0.0,0.0,2014-12-01,7-55-Bew-RueA-J-d-2020-12.xlsx,7-55-Bew-RueA-J
302,Afghanistan,28.0,23.0,5.0,22.0,22.0,0.0,27.0,5.0,5.0,5.0,0.0,1.0,2014-12-01,7-55-Bew-RueA-J-d-2020-12.xlsx,7-55-Bew-RueA-J
303,Bangladesh,1.0,1.0,0.0,1.0,1.0,0.0,0.0,0.0,0.0,0.0,0.0,0.0,2014-12-01,7-55-Bew-RueA-J-d-2020-12.xlsx,7-55-Bew-RueA-J
304,China (Volksrepublik),1.0,1.0,0.0,1.0,1.0,0.0,4.0,1.0,0.0,0.0,0.0,0.0,2014-12-01,7-55-Bew-RueA-J-d-2020-12.xlsx,7-55-Bew-RueA-J
305,Georgien,1.0,1.0,0.0,1.0,1.0,0.0,0.0,2.0,0.0,0.0,0.0,0.0,2014-12-01,7-55-Bew-RueA-J-d-2020-12.xlsx,7-55-Bew-RueA-J
306,Irak,17.0,16.0,1.0,12.0,12.0,0.0,4.0,8.0,1.0,1.0,0.0,1.0,2014-12-01,7-55-Bew-RueA-J-d-2020-12.xlsx,7-55-Bew-RueA-J
307,Iran,16.0,16.0,0.0,16.0,16.0,0.0,18.0,0.0,0.0,0.0,0.0,0.0,2014-12-01,7-55-Bew-RueA-J-d-2020-12.xlsx,7-55-Bew-RueA-J
308,Libanon,1.0,1.0,0.0,1.0,1.0,0.0,0.0,1.0,0.0,0.0,0.0,0.0,2014-12-01,7-55-Bew-RueA-J-d-2020-12.xlsx,7-55-Bew-RueA-J
309,Mongolei,2.0,2.0,0.0,2.0,2.0,0.0,0.0,0.0,0.0,0.0,0.0,0.0,2014-12-01,7-55-Bew-RueA-J-d-2020-12.xlsx,7-55-Bew-RueA-J
310,Pakistan,4.0,4.0,0.0,4.0,4.0,0.0,0.0,1.0,0.0,0.0,0.0,0.0,2014-12-01,7-55-Bew-RueA-J-d-2020-12.xlsx,7-55-Bew-RueA-J
311,Sri Lanka,8.0,8.0,0.0,8.0,7.0,1.0,6.0,4.0,0.0,0.0,0.0,0.0,2014-12-01,7-55-Bew-RueA-J-d-2020-12.xlsx,7-55-Bew-RueA-J
312,Syrien,41.0,40.0,1.0,36.0,35.0,1.0,32.0,5.0,1.0,1.0,0.0,0.0,2014-12-01,7-55-Bew-RueA-J-d-2020-12.xlsx,7-55-Bew-RueA-J
313,Total Asien,120.0,113.0,7.0,104.0,102.0,2.0,91.0,27.0,7.0,7.0,0.0,2.0,2014-12-01,7-55-Bew-RueA-J-d-2020-12.xlsx,7-55-Bew-RueA-J
314,Belarus,1.0,1.0,0.0,1.0,1.0,0.0,0.0,1.0,0.0,0.0,0.0,0.0,2014-12-01,7-55-Bew-RueA-J-d-2020-12.xlsx,7-55-Bew-RueA-J
315,Belgien,2.0,2.0,0.0,2.0,1.0,1.0,0.0,0.0,0.0,0.0,0.0,0.0,2014-12-01,7-55-Bew-RueA-J-d-2020-12.xlsx,7-55-Bew-RueA-J
316,Bosnien u. Herzegowina,1.0,1.0,0.0,1.0,0.0,1.0,0.0,0.0,0.0,0.0,0.0,0.0,2014-12-01,7-55-Bew-RueA-J-d-2020-12.xlsx,7-55-Bew-RueA-J
317,Bulgarien,3.0,3.0,0.0,3.0,3.0,0.0,0.0,0.0,0.0,0.0,0.0,0.0,2014-12-01,7-55-Bew-RueA-J-d-2020-12.xlsx,7-55-Bew-RueA-J
318,Griechenland,1.0,1.0,0.0,1.0,0.0,1.0,0.0,0.0,0.0,0.0,0.0,0.0,2014-12-01,7-55-Bew-RueA-J-d-2020-12.xlsx,7-55-Bew-RueA-J
319,Grossbritannien,1.0,1.0,0.0,1.0,1.0,0.0,0.0,1.0,0.0,0.0,0.0,0.0,2014-12-01,7-55-Bew-RueA-J-d-2020-12.xlsx,7-55-Bew-RueA-J
320,Italien,0.0,0.0,0.0,0.0,0.0,0.0,2.0,0.0,0.0,0.0,0.0,0.0,2014-12-01,7-55-Bew-RueA-J-d-2020-12.xlsx,7-55-Bew-RueA-J
321,Kosovo,2.0,2.0,0.0,2.0,0.0,0.0,0.0,0.0,0.0,0.0,0.0,0.0,2014-12-01,7-55-Bew-RueA-J-d-2020-12.xlsx,7-55-Bew-RueA-J
322,Kroatien,5.0,5.0,0.0,2.0,1.0,0.0,0.0,2.0,0.0,0.0,0.0,0.0,2014-12-01,7-55-Bew-RueA-J-d-2020-12.xlsx,7-55-Bew-RueA-J
323,Lettland,2.0,2.0,0.0,2.0,2.0,0.0,0.0,2.0,0.0,0.0,0.0,0.0,2014-12-01,7-55-Bew-RueA-J-d-2020-12.xlsx,7-55-Bew-RueA-J
324,Litauen,6.0,6.0,0.0,5.0,4.0,1.0,0.0,3.0,0.0,0.0,0.0,0.0,2014-12-01,7-55-Bew-RueA-J-d-2020-12.xlsx,7-55-Bew-RueA-J
325,Mazedonien eh.Jug.Rep.,2.0,2.0,0.0,2.0,2.0,0.0,0.0,1.0,0.0,0.0,0.0,0.0,2014-12-01,7-55-Bew-RueA-J-d-2020-12.xlsx,7-55-Bew-RueA-J
326,Moldova,2.0,2.0,0.0,2.0,2.0,0.0,0.0,0.0,0.0,0.0,0.0,0.0,2014-12-01,7-55-Bew-RueA-J-d-2020-12.xlsx,7-55-Bew-RueA-J
327,Montenegro,1.0,1.0,0.0,1.0,1.0,0.0,0.0,0.0,0.0,0.0,0.0,0.0,2014-12-01,7-55-Bew-RueA-J-d-2020-12.xlsx,7-55-Bew-RueA-J
328,Niederlande,1.0,1.0,0.0,1.0,1.0,0.0,0.0,1.0,0.0,0.0,0.0,0.0,2014-12-01,7-55-Bew-RueA-J-d-2020-12.xlsx,7-55-Bew-RueA-J
329,Polen,4.0,4.0,0.0,4.0,4.0,0.0,0.0,4.0,0.0,0.0,0.0,0.0,2014-12-01,7-55-Bew-RueA-J-d-2020-12.xlsx,7-55-Bew-RueA-J
330,Portugal,1.0,1.0,0.0,1.0,1.0,0.0,0.0,0.0,0.0,0.0,0.0,0.0,2014-12-01,7-55-Bew-RueA-J-d-2020-12.xlsx,7-55-Bew-RueA-J
331,Rumänien,38.0,38.0,0.0,31.0,31.0,0.0,1.0,31.0,0.0,0.0,0.0,0.0,2014-12-01,7-55-Bew-RueA-J-d-2020-12.xlsx,7-55-Bew-RueA-J
332,Russland,5.0,5.0,0.0,5.0,5.0,0.0,4.0,1.0,0.0,0.0,0.0,0.0,2014-12-01,7-55-Bew-RueA-J-d-2020-12.xlsx,7-55-Bew-RueA-J
333,Serbien,2.0,2.0,0.0,2.0,2.0,0.0,0.0,1.0,0.0,0.0,0.0,0.0,2014-12-01,7-55-Bew-RueA-J-d-2020-12.xlsx,7-55-Bew-RueA-J
334,Slowakische Republik,9.0,9.0,0.0,9.0,9.0,0.0,0.0,1.0,0.0,0.0,0.0,0.0,2014-12-01,7-55-Bew-RueA-J-d-2020-12.xlsx,7-55-Bew-RueA-J
335,Spanien,4.0,4.0,0.0,3.0,3.0,0.0,1.0,3.0,0.0,0.0,0.0,0.0,2014-12-01,7-55-Bew-RueA-J-d-2020-12.xlsx,7-55-Bew-RueA-J
336,Tschechische Republik,1.0,1.0,0.0,1.0,1.0,0.0,0.0,1.0,0.0,0.0,0.0,0.0,2014-12-01,7-55-Bew-RueA-J-d-2020-12.xlsx,7-55-Bew-RueA-J
337,Türkei,3.0,3.0,0.0,3.0,2.0,1.0,1.0,1.0,0.0,0.0,0.0,0.0,2014-12-01,7-55-Bew-RueA-J-d-2020-12.xlsx,7-55-Bew-RueA-J
338,Ukraine,5.0,5.0,0.0,5.0,5.0,0.0,1.0,3.0,0.0,0.0,0.0,0.0,2014-12-01,7-55-Bew-RueA-J-d-2020-12.xlsx,7-55-Bew-RueA-J
339,Ungarn,7.0,7.0,0.0,7.0,7.0,0.0,0.0,7.0,0.0,0.0,0.0,0.0,2014-12-01,7-55-Bew-RueA-J-d-2020-12.xlsx,7-55-Bew-RueA-J
340,Total Europa,109.0,109.0,0.0,97.0,89.0,5.0,10.0,64.0,0.0,0.0,0.0,0.0,2014-12-01,7-55-Bew-RueA-J-d-2020-12.xlsx,7-55-Bew-RueA-J
341,Staatenlos,1.0,1.0,0.0,1.0,1.0,0.0,0.0,1.0,0.0,0.0,0.0,0.0,2014-12-01,7-55-Bew-RueA-J-d-2020-12.xlsx,7-55-Bew-RueA-J
342,Ohne Nationalität,3.0,2.0,1.0,2.0,2.0,0.0,7.0,2.0,1.0,1.0,0.0,0.0,2014-12-01,7-55-Bew-RueA-J-d-2020-12.xlsx,7-55-Bew-RueA-J
343,Staat unbekannt,23.0,22.0,1.0,21.0,18.0,3.0,7.0,7.0,1.0,1.0,0.0,1.0,2014-12-01,7-55-Bew-RueA-J-d-2020-12.xlsx,7-55-Bew-RueA-J
344,Total Herkunft unbek.,27.0,25.0,2.0,24.0,21.0,3.0,14.0,10.0,2.0,2.0,0.0,1.0,2014-12-01,7-55-Bew-RueA-J-d-2020-12.xlsx,7-55-Bew-RueA-J
345,Herkunft unbekannt,18.0,18.0,0.0,16.0,14.0,2.0,5.0,8.0,0.0,0.0,0.0,0.0,2015-12-01,7-55-Bew-RueA-J-d-2020-12.xlsx,7-55-Bew-RueA-J
346,Ägypten,8.0,8.0,0.0,10.0,6.0,0.0,1.0,0.0,0.0,0.0,0.0,0.0,2015-12-01,7-55-Bew-RueA-J-d-2020-12.xlsx,7-55-Bew-RueA-J
347,Algerien,7.0,7.0,0.0,8.0,7.0,1.0,0.0,6.0,0.0,0.0,0.0,0.0,2015-12-01,7-55-Bew-RueA-J-d-2020-12.xlsx,7-55-Bew-RueA-J
348,Angola,1.0,0.0,1.0,0.0,0.0,0.0,0.0,0.0,1.0,0.0,1.0,0.0,2015-12-01,7-55-Bew-RueA-J-d-2020-12.xlsx,7-55-Bew-RueA-J
349,Äthiopien,20.0,15.0,5.0,15.0,15.0,0.0,9.0,1.0,5.0,5.0,0.0,4.0,2015-12-01,7-55-Bew-RueA-J-d-2020-12.xlsx,7-55-Bew-RueA-J
350,Burkina Faso,0.0,0.0,0.0,1.0,1.0,0.0,1.0,1.0,0.0,0.0,0.0,0.0,2015-12-01,7-55-Bew-RueA-J-d-2020-12.xlsx,7-55-Bew-RueA-J
351,Côte d'Ivoire,3.0,3.0,0.0,3.0,3.0,0.0,1.0,2.0,0.0,0.0,0.0,0.0,2015-12-01,7-55-Bew-RueA-J-d-2020-12.xlsx,7-55-Bew-RueA-J
352,Eritrea,88.0,87.0,1.0,84.0,80.0,4.0,69.0,15.0,1.0,1.0,0.0,1.0,2015-12-01,7-55-Bew-RueA-J-d-2020-12.xlsx,7-55-Bew-RueA-J
353,Gambia,20.0,20.0,0.0,16.0,13.0,3.0,5.0,12.0,0.0,0.0,0.0,0.0,2015-12-01,7-55-Bew-RueA-J-d-2020-12.xlsx,7-55-Bew-RueA-J
354,Ghana,4.0,4.0,0.0,4.0,2.0,2.0,0.0,1.0,0.0,0.0,0.0,0.0,2015-12-01,7-55-Bew-RueA-J-d-2020-12.xlsx,7-55-Bew-RueA-J
355,Guinea,11.0,11.0,0.0,13.0,8.0,5.0,2.0,7.0,0.0,0.0,0.0,0.0,2015-12-01,7-55-Bew-RueA-J-d-2020-12.xlsx,7-55-Bew-RueA-J
356,Guinea-Bissau,6.0,6.0,0.0,5.0,4.0,1.0,1.0,1.0,0.0,0.0,0.0,0.0,2015-12-01,7-55-Bew-RueA-J-d-2020-12.xlsx,7-55-Bew-RueA-J
357,Kamerun,1.0,1.0,0.0,1.0,1.0,0.0,0.0,2.0,0.0,0.0,0.0,0.0,2015-12-01,7-55-Bew-RueA-J-d-2020-12.xlsx,7-55-Bew-RueA-J
358,Kongo DR,1.0,1.0,0.0,1.0,1.0,0.0,1.0,0.0,0.0,0.0,0.0,0.0,2015-12-01,7-55-Bew-RueA-J-d-2020-12.xlsx,7-55-Bew-RueA-J
359,Liberia,2.0,2.0,0.0,3.0,3.0,0.0,1.0,2.0,0.0,0.0,0.0,0.0,2015-12-01,7-55-Bew-RueA-J-d-2020-12.xlsx,7-55-Bew-RueA-J
360,Libyen,2.0,1.0,1.0,1.0,1.0,0.0,0.0,0.0,1.0,1.0,0.0,0.0,2015-12-01,7-55-Bew-RueA-J-d-2020-12.xlsx,7-55-Bew-RueA-J
361,Mali,12.0,12.0,0.0,14.0,12.0,1.0,6.0,7.0,0.0,0.0,0.0,0.0,2015-12-01,7-55-Bew-RueA-J-d-2020-12.xlsx,7-55-Bew-RueA-J
362,Marokko,6.0,6.0,0.0,6.0,4.0,2.0,1.0,0.0,0.0,0.0,0.0,0.0,2015-12-01,7-55-Bew-RueA-J-d-2020-12.xlsx,7-55-Bew-RueA-J
363,Niger,1.0,1.0,0.0,1.0,1.0,0.0,0.0,0.0,0.0,0.0,0.0,0.0,2015-12-01,7-55-Bew-RueA-J-d-2020-12.xlsx,7-55-Bew-RueA-J
364,Nigeria,102.0,102.0,0.0,104.0,96.0,5.0,18.0,64.0,0.0,0.0,0.0,0.0,2015-12-01,7-55-Bew-RueA-J-d-2020-12.xlsx,7-55-Bew-RueA-J
365,Senegal,11.0,11.0,0.0,11.0,9.0,2.0,3.0,7.0,0.0,0.0,0.0,0.0,2015-12-01,7-55-Bew-RueA-J-d-2020-12.xlsx,7-55-Bew-RueA-J
366,Sierra Leone,2.0,2.0,0.0,2.0,2.0,0.0,0.0,1.0,0.0,0.0,0.0,0.0,2015-12-01,7-55-Bew-RueA-J-d-2020-12.xlsx,7-55-Bew-RueA-J
367,Somalia,48.0,44.0,4.0,35.0,31.0,4.0,18.0,6.0,4.0,4.0,0.0,0.0,2015-12-01,7-55-Bew-RueA-J-d-2020-12.xlsx,7-55-Bew-RueA-J
368,Sudan,5.0,5.0,0.0,4.0,4.0,0.0,5.0,3.0,0.0,0.0,0.0,0.0,2015-12-01,7-55-Bew-RueA-J-d-2020-12.xlsx,7-55-Bew-RueA-J
369,Südsudan,0.0,0.0,0.0,1.0,1.0,0.0,1.0,0.0,0.0,0.0,0.0,0.0,2015-12-01,7-55-Bew-RueA-J-d-2020-12.xlsx,7-55-Bew-RueA-J
370,Togo,3.0,3.0,0.0,2.0,2.0,0.0,1.0,1.0,0.0,0.0,0.0,0.0,2015-12-01,7-55-Bew-RueA-J-d-2020-12.xlsx,7-55-Bew-RueA-J
371,Tschad,2.0,2.0,0.0,2.0,1.0,1.0,0.0,0.0,0.0,0.0,0.0,0.0,2015-12-01,7-55-Bew-RueA-J-d-2020-12.xlsx,7-55-Bew-RueA-J
372,Tunesien,2.0,2.0,0.0,2.0,2.0,0.0,0.0,1.0,0.0,0.0,0.0,0.0,2015-12-01,7-55-Bew-RueA-J-d-2020-12.xlsx,7-55-Bew-RueA-J
373,Total Afrika,368.0,356.0,12.0,349.0,310.0,31.0,144.0,140.0,12.0,11.0,1.0,5.0,2015-12-01,7-55-Bew-RueA-J-d-2020-12.xlsx,7-55-Bew-RueA-J
374,Bolivien,2.0,2.0,0.0,2.0,2.0,0.0,0.0,2.0,0.0,0.0,0.0,0.0,2015-12-01,7-55-Bew-RueA-J-d-2020-12.xlsx,7-55-Bew-RueA-J
375,Dominikanische Republik,15.0,15.0,0.0,15.0,14.0,1.0,0.0,13.0,0.0,0.0,0.0,0.0,2015-12-01,7-55-Bew-RueA-J-d-2020-12.xlsx,7-55-Bew-RueA-J
376,Ecuador,2.0,2.0,0.0,2.0,2.0,0.0,0.0,1.0,0.0,0.0,0.0,0.0,2015-12-01,7-55-Bew-RueA-J-d-2020-12.xlsx,7-55-Bew-RueA-J
377,Haiti,4.0,4.0,0.0,0.0,0.0,0.0,0.0,0.0,0.0,0.0,0.0,0.0,2015-12-01,7-55-Bew-RueA-J-d-2020-12.xlsx,7-55-Bew-RueA-J
378,Kanada,1.0,1.0,0.0,1.0,1.0,0.0,0.0,1.0,0.0,0.0,0.0,0.0,2015-12-01,7-55-Bew-RueA-J-d-2020-12.xlsx,7-55-Bew-RueA-J
379,Kolumbien,4.0,4.0,0.0,3.0,2.0,0.0,0.0,3.0,0.0,0.0,0.0,0.0,2015-12-01,7-55-Bew-RueA-J-d-2020-12.xlsx,7-55-Bew-RueA-J
380,Kuba,1.0,1.0,0.0,1.0,1.0,0.0,0.0,0.0,0.0,0.0,0.0,0.0,2015-12-01,7-55-Bew-RueA-J-d-2020-12.xlsx,7-55-Bew-RueA-J
381,Trinidad u. Tobago,1.0,1.0,0.0,1.0,1.0,0.0,0.0,0.0,0.0,0.0,0.0,0.0,2015-12-01,7-55-Bew-RueA-J-d-2020-12.xlsx,7-55-Bew-RueA-J
382,Total Amerika,30.0,30.0,0.0,25.0,23.0,1.0,0.0,20.0,0.0,0.0,0.0,0.0,2015-12-01,7-55-Bew-RueA-J-d-2020-12.xlsx,7-55-Bew-RueA-J
383,Afghanistan,24.0,24.0,0.0,25.0,25.0,0.0,13.0,3.0,0.0,0.0,0.0,0.0,2015-12-01,7-55-Bew-RueA-J-d-2020-12.xlsx,7-55-Bew-RueA-J
384,Bangladesh,1.0,1.0,0.0,1.0,1.0,0.0,2.0,0.0,0.0,0.0,0.0,0.0,2015-12-01,7-55-Bew-RueA-J-d-2020-12.xlsx,7-55-Bew-RueA-J
385,China (Volksrepublik),10.0,10.0,0.0,10.0,10.0,0.0,4.0,6.0,0.0,0.0,0.0,0.0,2015-12-01,7-55-Bew-RueA-J-d-2020-12.xlsx,7-55-Bew-RueA-J
386,Georgien,3.0,3.0,0.0,3.0,2.0,1.0,0.0,2.0,0.0,0.0,0.0,0.0,2015-12-01,7-55-Bew-RueA-J-d-2020-12.xlsx,7-55-Bew-RueA-J
387,Irak,7.0,6.0,1.0,7.0,6.0,1.0,1.0,1.0,1.0,1.0,0.0,1.0,2015-12-01,7-55-Bew-RueA-J-d-2020-12.xlsx,7-55-Bew-RueA-J
388,Iran,3.0,3.0,0.0,2.0,2.0,0.0,4.0,1.0,0.0,0.0,0.0,0.0,2015-12-01,7-55-Bew-RueA-J-d-2020-12.xlsx,7-55-Bew-RueA-J
389,Sri Lanka,4.0,4.0,0.0,4.0,3.0,1.0,2.0,1.0,0.0,0.0,0.0,0.0,2015-12-01,7-55-Bew-RueA-J-d-2020-12.xlsx,7-55-Bew-RueA-J
390,Syrien,58.0,58.0,0.0,54.0,52.0,2.0,24.0,15.0,0.0,0.0,0.0,0.0,2015-12-01,7-55-Bew-RueA-J-d-2020-12.xlsx,7-55-Bew-RueA-J
391,Total Asien,110.0,109.0,1.0,106.0,101.0,5.0,50.0,29.0,1.0,1.0,0.0,1.0,2015-12-01,7-55-Bew-RueA-J-d-2020-12.xlsx,7-55-Bew-RueA-J
392,Belarus,1.0,1.0,0.0,1.0,1.0,0.0,0.0,1.0,0.0,0.0,0.0,0.0,2015-12-01,7-55-Bew-RueA-J-d-2020-12.xlsx,7-55-Bew-RueA-J
393,Belgien,2.0,2.0,0.0,1.0,1.0,0.0,0.0,0.0,0.0,0.0,0.0,0.0,2015-12-01,7-55-Bew-RueA-J-d-2020-12.xlsx,7-55-Bew-RueA-J
394,Bosnien u. Herzegowina,6.0,6.0,0.0,6.0,0.0,6.0,0.0,0.0,0.0,0.0,0.0,0.0,2015-12-01,7-55-Bew-RueA-J-d-2020-12.xlsx,7-55-Bew-RueA-J
395,Grossbritannien,1.0,1.0,0.0,1.0,1.0,0.0,0.0,1.0,0.0,0.0,0.0,0.0,2015-12-01,7-55-Bew-RueA-J-d-2020-12.xlsx,7-55-Bew-RueA-J
396,Kosovo,3.0,3.0,0.0,3.0,3.0,0.0,1.0,0.0,0.0,0.0,0.0,0.0,2015-12-01,7-55-Bew-RueA-J-d-2020-12.xlsx,7-55-Bew-RueA-J
397,Kroatien,2.0,2.0,0.0,1.0,1.0,0.0,0.0,4.0,0.0,0.0,0.0,0.0,2015-12-01,7-55-Bew-RueA-J-d-2020-12.xlsx,7-55-Bew-RueA-J
398,Litauen,1.0,1.0,0.0,1.0,1.0,0.0,0.0,0.0,0.0,0.0,0.0,0.0,2015-12-01,7-55-Bew-RueA-J-d-2020-12.xlsx,7-55-Bew-RueA-J
399,Mazedonien eh.Jug.Rep.,1.0,1.0,0.0,1.0,1.0,0.0,0.0,1.0,0.0,0.0,0.0,0.0,2015-12-01,7-55-Bew-RueA-J-d-2020-12.xlsx,7-55-Bew-RueA-J
400,Moldova,1.0,1.0,0.0,1.0,1.0,0.0,0.0,0.0,0.0,0.0,0.0,0.0,2015-12-01,7-55-Bew-RueA-J-d-2020-12.xlsx,7-55-Bew-RueA-J
401,Montenegro,3.0,3.0,0.0,3.0,0.0,3.0,0.0,0.0,0.0,0.0,0.0,0.0,2015-12-01,7-55-Bew-RueA-J-d-2020-12.xlsx,7-55-Bew-RueA-J
402,Niederlande,2.0,2.0,0.0,1.0,1.0,0.0,0.0,1.0,0.0,0.0,0.0,0.0,2015-12-01,7-55-Bew-RueA-J-d-2020-12.xlsx,7-55-Bew-RueA-J
403,Polen,9.0,9.0,0.0,9.0,9.0,0.0,0.0,3.0,0.0,0.0,0.0,0.0,2015-12-01,7-55-Bew-RueA-J-d-2020-12.xlsx,7-55-Bew-RueA-J
404,Rumänien,41.0,41.0,0.0,42.0,38.0,4.0,0.0,37.0,0.0,0.0,0.0,0.0,2015-12-01,7-55-Bew-RueA-J-d-2020-12.xlsx,7-55-Bew-RueA-J
405,Russland,12.0,12.0,0.0,7.0,7.0,0.0,7.0,0.0,0.0,0.0,0.0,0.0,2015-12-01,7-55-Bew-RueA-J-d-2020-12.xlsx,7-55-Bew-RueA-J
406,Serbien,3.0,3.0,0.0,3.0,2.0,1.0,0.0,1.0,0.0,0.0,0.0,0.0,2015-12-01,7-55-Bew-RueA-J-d-2020-12.xlsx,7-55-Bew-RueA-J
407,Slowakische Republik,4.0,4.0,0.0,4.0,4.0,0.0,0.0,2.0,0.0,0.0,0.0,0.0,2015-12-01,7-55-Bew-RueA-J-d-2020-12.xlsx,7-55-Bew-RueA-J
408,Slowenien,1.0,1.0,0.0,1.0,1.0,0.0,0.0,1.0,0.0,0.0,0.0,0.0,2015-12-01,7-55-Bew-RueA-J-d-2020-12.xlsx,7-55-Bew-RueA-J
409,Spanien,4.0,4.0,0.0,4.0,4.0,0.0,0.0,3.0,0.0,0.0,0.0,0.0,2015-12-01,7-55-Bew-RueA-J-d-2020-12.xlsx,7-55-Bew-RueA-J
410,Tschechische Republik,1.0,1.0,0.0,1.0,1.0,0.0,0.0,1.0,0.0,0.0,0.0,0.0,2015-12-01,7-55-Bew-RueA-J-d-2020-12.xlsx,7-55-Bew-RueA-J
411,Türkei,3.0,3.0,0.0,3.0,3.0,0.0,1.0,1.0,0.0,0.0,0.0,0.0,2015-12-01,7-55-Bew-RueA-J-d-2020-12.xlsx,7-55-Bew-RueA-J
412,Ungarn,1.0,1.0,0.0,1.0,1.0,0.0,0.0,1.0,0.0,0.0,0.0,0.0,2015-12-01,7-55-Bew-RueA-J-d-2020-12.xlsx,7-55-Bew-RueA-J
413,Total Europa,102.0,102.0,0.0,95.0,81.0,14.0,9.0,58.0,0.0,0.0,0.0,0.0,2015-12-01,7-55-Bew-RueA-J-d-2020-12.xlsx,7-55-Bew-RueA-J
414,Ohne Nationalität,5.0,5.0,0.0,5.0,5.0,0.0,4.0,2.0,0.0,0.0,0.0,0.0,2015-12-01,7-55-Bew-RueA-J-d-2020-12.xlsx,7-55-Bew-RueA-J
415,Staat unbekannt,13.0,13.0,0.0,11.0,9.0,2.0,1.0,6.0,0.0,0.0,0.0,0.0,2015-12-01,7-55-Bew-RueA-J-d-2020-12.xlsx,7-55-Bew-RueA-J
416,Total Herkunft unbek.,18.0,18.0,0.0,16.0,14.0,2.0,5.0,8.0,0.0,0.0,0.0,0.0,2015-12-01,7-55-Bew-RueA-J-d-2020-12.xlsx,7-55-Bew-RueA-J
417,Herkunft unbekannt,27.0,27.0,0.0,27.0,25.0,2.0,7.0,20.0,0.0,0.0,0.0,0.0,2019-12-01,7-55-Bew-RueA-J-d-2020-12.xlsx,7-55-Bew-RueA-J
418,Ägypten,1.0,1.0,0.0,1.0,1.0,0.0,1.0,0.0,0.0,0.0,0.0,0.0,2019-12-01,7-55-Bew-RueA-J-d-2020-12.xlsx,7-55-Bew-RueA-J
419,Algerien,8.0,8.0,0.0,9.0,5.0,4.0,0.0,7.0,0.0,0.0,0.0,0.0,2019-12-01,7-55-Bew-RueA-J-d-2020-12.xlsx,7-55-Bew-RueA-J
420,Angola,1.0,1.0,0.0,1.0,1.0,0.0,1.0,1.0,0.0,0.0,0.0,0.0,2019-12-01,7-55-Bew-RueA-J-d-2020-12.xlsx,7-55-Bew-RueA-J
421,Äquatorialguinea,1.0,1.0,0.0,0.0,0.0,0.0,0.0,0.0,0.0,0.0,0.0,0.0,2019-12-01,7-55-Bew-RueA-J-d-2020-12.xlsx,7-55-Bew-RueA-J
422,Äthiopien,2.0,2.0,0.0,2.0,2.0,0.0,5.0,0.0,0.0,0.0,0.0,0.0,2019-12-01,7-55-Bew-RueA-J-d-2020-12.xlsx,7-55-Bew-RueA-J
423,Benin,1.0,1.0,0.0,1.0,0.0,1.0,0.0,0.0,0.0,0.0,0.0,0.0,2019-12-01,7-55-Bew-RueA-J-d-2020-12.xlsx,7-55-Bew-RueA-J
424,Burundi,1.0,1.0,0.0,1.0,1.0,0.0,1.0,0.0,0.0,0.0,0.0,0.0,2019-12-01,7-55-Bew-RueA-J-d-2020-12.xlsx,7-55-Bew-RueA-J
425,Côte d'Ivoire,4.0,4.0,0.0,3.0,3.0,0.0,0.0,3.0,0.0,0.0,0.0,0.0,2019-12-01,7-55-Bew-RueA-J-d-2020-12.xlsx,7-55-Bew-RueA-J
426,Eritrea,58.0,33.0,25.0,29.0,28.0,0.0,21.0,11.0,25.0,25.0,0.0,11.0,2019-12-01,7-55-Bew-RueA-J-d-2020-12.xlsx,7-55-Bew-RueA-J
427,Gabun,1.0,1.0,0.0,1.0,1.0,0.0,0.0,0.0,0.0,0.0,0.0,0.0,2019-12-01,7-55-Bew-RueA-J-d-2020-12.xlsx,7-55-Bew-RueA-J
428,Gambia,20.0,20.0,0.0,15.0,14.0,0.0,2.0,12.0,0.0,0.0,0.0,0.0,2019-12-01,7-55-Bew-RueA-J-d-2020-12.xlsx,7-55-Bew-RueA-J
429,Ghana,1.0,1.0,0.0,1.0,1.0,0.0,2.0,2.0,0.0,0.0,0.0,0.0,2019-12-01,7-55-Bew-RueA-J-d-2020-12.xlsx,7-55-Bew-RueA-J
430,Guinea,14.0,14.0,0.0,12.0,9.0,2.0,1.0,10.0,0.0,0.0,0.0,0.0,2019-12-01,7-55-Bew-RueA-J-d-2020-12.xlsx,7-55-Bew-RueA-J
431,Guinea-Bissau,3.0,3.0,0.0,3.0,2.0,1.0,0.0,2.0,0.0,0.0,0.0,0.0,2019-12-01,7-55-Bew-RueA-J-d-2020-12.xlsx,7-55-Bew-RueA-J
432,Kamerun,5.0,4.0,1.0,2.0,2.0,0.0,2.0,0.0,1.0,1.0,0.0,0.0,2019-12-01,7-55-Bew-RueA-J-d-2020-12.xlsx,7-55-Bew-RueA-J
433,Kenia,1.0,1.0,0.0,2.0,1.0,0.0,1.0,1.0,0.0,0.0,0.0,0.0,2019-12-01,7-55-Bew-RueA-J-d-2020-12.xlsx,7-55-Bew-RueA-J
434,Kongo DR,2.0,2.0,0.0,3.0,2.0,0.0,0.0,0.0,0.0,0.0,0.0,0.0,2019-12-01,7-55-Bew-RueA-J-d-2020-12.xlsx,7-55-Bew-RueA-J
435,Liberia,1.0,1.0,0.0,1.0,0.0,1.0,0.0,0.0,0.0,0.0,0.0,0.0,2019-12-01,7-55-Bew-RueA-J-d-2020-12.xlsx,7-55-Bew-RueA-J
436,Mali,4.0,4.0,0.0,5.0,5.0,0.0,0.0,4.0,0.0,0.0,0.0,0.0,2019-12-01,7-55-Bew-RueA-J-d-2020-12.xlsx,7-55-Bew-RueA-J
437,Marokko,10.0,8.0,2.0,8.0,7.0,1.0,6.0,3.0,2.0,1.0,1.0,1.0,2019-12-01,7-55-Bew-RueA-J-d-2020-12.xlsx,7-55-Bew-RueA-J
438,Mauretanien,2.0,2.0,0.0,2.0,2.0,0.0,0.0,2.0,0.0,0.0,0.0,0.0,2019-12-01,7-55-Bew-RueA-J-d-2020-12.xlsx,7-55-Bew-RueA-J
439,Nigeria,93.0,93.0,0.0,88.0,68.0,9.0,7.0,63.0,0.0,0.0,0.0,0.0,2019-12-01,7-55-Bew-RueA-J-d-2020-12.xlsx,7-55-Bew-RueA-J
440,Senegal,6.0,6.0,0.0,6.0,5.0,1.0,0.0,3.0,0.0,0.0,0.0,0.0,2019-12-01,7-55-Bew-RueA-J-d-2020-12.xlsx,7-55-Bew-RueA-J
441,Sierra Leone,1.0,1.0,0.0,0.0,0.0,0.0,0.0,0.0,0.0,0.0,0.0,0.0,2019-12-01,7-55-Bew-RueA-J-d-2020-12.xlsx,7-55-Bew-RueA-J
442,Somalia,49.0,43.0,6.0,29.0,24.0,1.0,33.0,11.0,6.0,2.0,4.0,0.0,2019-12-01,7-55-Bew-RueA-J-d-2020-12.xlsx,7-55-Bew-RueA-J
443,Sudan,5.0,5.0,0.0,5.0,4.0,1.0,3.0,2.0,0.0,0.0,0.0,0.0,2019-12-01,7-55-Bew-RueA-J-d-2020-12.xlsx,7-55-Bew-RueA-J
444,Südsudan,1.0,1.0,0.0,1.0,1.0,0.0,1.0,0.0,0.0,0.0,0.0,0.0,2019-12-01,7-55-Bew-RueA-J-d-2020-12.xlsx,7-55-Bew-RueA-J
445,Tansania,0.0,0.0,0.0,0.0,0.0,0.0,0.0,1.0,0.0,0.0,0.0,0.0,2019-12-01,7-55-Bew-RueA-J-d-2020-12.xlsx,7-55-Bew-RueA-J
446,Togo,1.0,1.0,0.0,1.0,1.0,0.0,0.0,0.0,0.0,0.0,0.0,0.0,2019-12-01,7-55-Bew-RueA-J-d-2020-12.xlsx,7-55-Bew-RueA-J
447,Tschad,5.0,5.0,0.0,0.0,0.0,0.0,0.0,0.0,0.0,0.0,0.0,0.0,2019-12-01,7-55-Bew-RueA-J-d-2020-12.xlsx,7-55-Bew-RueA-J
448,Tunesien,2.0,2.0,0.0,2.0,2.0,0.0,0.0,1.0,0.0,0.0,0.0,0.0,2019-12-01,7-55-Bew-RueA-J-d-2020-12.xlsx,7-55-Bew-RueA-J
449,Zentralafr. Republik,1.0,1.0,0.0,1.0,1.0,0.0,1.0,1.0,0.0,0.0,0.0,0.0,2019-12-01,7-55-Bew-RueA-J-d-2020-12.xlsx,7-55-Bew-RueA-J
450,Zimbabwe,1.0,1.0,0.0,1.0,0.0,1.0,0.0,0.0,0.0,0.0,0.0,0.0,2019-12-01,7-55-Bew-RueA-J-d-2020-12.xlsx,7-55-Bew-RueA-J
451,Total Afrika,306.0,272.0,34.0,236.0,193.0,23.0,88.0,140.0,34.0,29.0,5.0,12.0,2019-12-01,7-55-Bew-RueA-J-d-2020-12.xlsx,7-55-Bew-RueA-J
452,Chile,1.0,1.0,0.0,1.0,1.0,0.0,0.0,1.0,0.0,0.0,0.0,0.0,2019-12-01,7-55-Bew-RueA-J-d-2020-12.xlsx,7-55-Bew-RueA-J
453,Dominikanische Republik,24.0,24.0,0.0,22.0,16.0,5.0,0.0,14.0,0.0,0.0,0.0,0.0,2019-12-01,7-55-Bew-RueA-J-d-2020-12.xlsx,7-55-Bew-RueA-J
454,Ecuador,2.0,2.0,0.0,2.0,1.0,1.0,0.0,1.0,0.0,0.0,0.0,0.0,2019-12-01,7-55-Bew-RueA-J-d-2020-12.xlsx,7-55-Bew-RueA-J
455,Kolumbien,4.0,4.0,0.0,4.0,2.0,2.0,0.0,2.0,0.0,0.0,0.0,0.0,2019-12-01,7-55-Bew-RueA-J-d-2020-12.xlsx,7-55-Bew-RueA-J
456,Kuba,1.0,1.0,0.0,1.0,1.0,0.0,0.0,1.0,0.0,0.0,0.0,0.0,2019-12-01,7-55-Bew-RueA-J-d-2020-12.xlsx,7-55-Bew-RueA-J
457,Mexiko,1.0,1.0,0.0,1.0,1.0,0.0,0.0,0.0,0.0,0.0,0.0,0.0,2019-12-01,7-55-Bew-RueA-J-d-2020-12.xlsx,7-55-Bew-RueA-J
458,Peru,0.0,0.0,0.0,0.0,0.0,0.0,0.0,1.0,0.0,0.0,0.0,0.0,2019-12-01,7-55-Bew-RueA-J-d-2020-12.xlsx,7-55-Bew-RueA-J
459,Venezuela,2.0,2.0,0.0,2.0,1.0,1.0,0.0,1.0,0.0,0.0,0.0,0.0,2019-12-01,7-55-Bew-RueA-J-d-2020-12.xlsx,7-55-Bew-RueA-J
460,Total Amerika,35.0,35.0,0.0,33.0,23.0,9.0,0.0,21.0,0.0,0.0,0.0,0.0,2019-12-01,7-55-Bew-RueA-J-d-2020-12.xlsx,7-55-Bew-RueA-J
461,Afghanistan,93.0,90.0,3.0,97.0,87.0,8.0,72.0,10.0,3.0,3.0,0.0,1.0,2019-12-01,7-55-Bew-RueA-J-d-2020-12.xlsx,7-55-Bew-RueA-J
462,China (Volksrepublik),9.0,9.0,0.0,9.0,7.0,2.0,1.0,5.0,0.0,0.0,0.0,0.0,2019-12-01,7-55-Bew-RueA-J-d-2020-12.xlsx,7-55-Bew-RueA-J
463,Georgien,2.0,2.0,0.0,1.0,0.0,1.0,3.0,0.0,0.0,0.0,0.0,0.0,2019-12-01,7-55-Bew-RueA-J-d-2020-12.xlsx,7-55-Bew-RueA-J
464,Irak,79.0,78.0,1.0,76.0,71.0,3.0,59.0,13.0,1.0,1.0,0.0,0.0,2019-12-01,7-55-Bew-RueA-J-d-2020-12.xlsx,7-55-Bew-RueA-J
465,Iran,20.0,20.0,0.0,21.0,20.0,0.0,22.0,5.0,0.0,0.0,0.0,0.0,2019-12-01,7-55-Bew-RueA-J-d-2020-12.xlsx,7-55-Bew-RueA-J
466,Jemen,1.0,1.0,0.0,1.0,1.0,0.0,0.0,0.0,0.0,0.0,0.0,0.0,2019-12-01,7-55-Bew-RueA-J-d-2020-12.xlsx,7-55-Bew-RueA-J
467,Libanon,1.0,0.0,1.0,0.0,0.0,0.0,0.0,0.0,1.0,1.0,0.0,0.0,2019-12-01,7-55-Bew-RueA-J-d-2020-12.xlsx,7-55-Bew-RueA-J
468,Nepal,1.0,1.0,0.0,1.0,0.0,1.0,0.0,0.0,0.0,0.0,0.0,0.0,2019-12-01,7-55-Bew-RueA-J-d-2020-12.xlsx,7-55-Bew-RueA-J
469,Pakistan,7.0,7.0,0.0,11.0,9.0,1.0,5.0,6.0,0.0,0.0,0.0,0.0,2019-12-01,7-55-Bew-RueA-J-d-2020-12.xlsx,7-55-Bew-RueA-J
470,Sri Lanka,2.0,2.0,0.0,1.0,1.0,0.0,1.0,0.0,0.0,0.0,0.0,0.0,2019-12-01,7-55-Bew-RueA-J-d-2020-12.xlsx,7-55-Bew-RueA-J
471,Syrien,66.0,62.0,4.0,68.0,67.0,0.0,30.0,11.0,4.0,1.0,3.0,1.0,2019-12-01,7-55-Bew-RueA-J-d-2020-12.xlsx,7-55-Bew-RueA-J
472,Thailand,1.0,0.0,1.0,0.0,0.0,0.0,0.0,0.0,1.0,1.0,0.0,0.0,2019-12-01,7-55-Bew-RueA-J-d-2020-12.xlsx,7-55-Bew-RueA-J
473,Total Asien,282.0,272.0,10.0,286.0,263.0,16.0,193.0,50.0,10.0,7.0,3.0,2.0,2019-12-01,7-55-Bew-RueA-J-d-2020-12.xlsx,7-55-Bew-RueA-J
474,Albanien,3.0,2.0,1.0,2.0,2.0,0.0,0.0,2.0,1.0,1.0,0.0,1.0,2019-12-01,7-55-Bew-RueA-J-d-2020-12.xlsx,7-55-Bew-RueA-J
475,Bosnien u. Herzegowina,1.0,0.0,1.0,0.0,0.0,0.0,0.0,0.0,1.0,1.0,0.0,1.0,2019-12-01,7-55-Bew-RueA-J-d-2020-12.xlsx,7-55-Bew-RueA-J
476,Bulgarien,1.0,1.0,0.0,1.0,1.0,0.0,0.0,0.0,0.0,0.0,0.0,0.0,2019-12-01,7-55-Bew-RueA-J-d-2020-12.xlsx,7-55-Bew-RueA-J
477,Estland,1.0,1.0,0.0,1.0,0.0,1.0,0.0,0.0,0.0,0.0,0.0,0.0,2019-12-01,7-55-Bew-RueA-J-d-2020-12.xlsx,7-55-Bew-RueA-J
478,Griechenland,2.0,2.0,0.0,2.0,2.0,0.0,0.0,1.0,0.0,0.0,0.0,0.0,2019-12-01,7-55-Bew-RueA-J-d-2020-12.xlsx,7-55-Bew-RueA-J
479,Grossbritannien,4.0,4.0,0.0,3.0,1.0,2.0,0.0,0.0,0.0,0.0,0.0,0.0,2019-12-01,7-55-Bew-RueA-J-d-2020-12.xlsx,7-55-Bew-RueA-J
480,Italien,2.0,2.0,0.0,2.0,2.0,0.0,0.0,1.0,0.0,0.0,0.0,0.0,2019-12-01,7-55-Bew-RueA-J-d-2020-12.xlsx,7-55-Bew-RueA-J
481,Kosovo,2.0,2.0,0.0,3.0,3.0,0.0,1.0,2.0,0.0,0.0,0.0,0.0,2019-12-01,7-55-Bew-RueA-J-d-2020-12.xlsx,7-55-Bew-RueA-J
482,Kroatien,7.0,7.0,0.0,7.0,7.0,0.0,0.0,5.0,0.0,0.0,0.0,0.0,2019-12-01,7-55-Bew-RueA-J-d-2020-12.xlsx,7-55-Bew-RueA-J
483,Litauen,3.0,3.0,0.0,3.0,3.0,0.0,0.0,4.0,0.0,0.0,0.0,0.0,2019-12-01,7-55-Bew-RueA-J-d-2020-12.xlsx,7-55-Bew-RueA-J
484,Nordmazedonien,0.0,0.0,0.0,0.0,0.0,0.0,1.0,0.0,0.0,0.0,0.0,0.0,2019-12-01,7-55-Bew-RueA-J-d-2020-12.xlsx,7-55-Bew-RueA-J
485,Moldova,3.0,3.0,0.0,3.0,2.0,1.0,0.0,2.0,0.0,0.0,0.0,0.0,2019-12-01,7-55-Bew-RueA-J-d-2020-12.xlsx,7-55-Bew-RueA-J
486,Montenegro,1.0,1.0,0.0,1.0,1.0,0.0,0.0,1.0,0.0,0.0,0.0,0.0,2019-12-01,7-55-Bew-RueA-J-d-2020-12.xlsx,7-55-Bew-RueA-J
487,Niederlande,6.0,6.0,0.0,6.0,6.0,0.0,0.0,5.0,0.0,0.0,0.0,0.0,2019-12-01,7-55-Bew-RueA-J-d-2020-12.xlsx,7-55-Bew-RueA-J
488,Polen,13.0,13.0,0.0,13.0,12.0,0.0,0.0,9.0,0.0,0.0,0.0,0.0,2019-12-01,7-55-Bew-RueA-J-d-2020-12.xlsx,7-55-Bew-RueA-J
489,Rumänien,47.0,47.0,0.0,46.0,44.0,2.0,0.0,35.0,0.0,0.0,0.0,0.0,2019-12-01,7-55-Bew-RueA-J-d-2020-12.xlsx,7-55-Bew-RueA-J
490,Russland,5.0,5.0,0.0,7.0,7.0,0.0,4.0,5.0,0.0,0.0,0.0,0.0,2019-12-01,7-55-Bew-RueA-J-d-2020-12.xlsx,7-55-Bew-RueA-J
491,Schweden,1.0,1.0,0.0,1.0,0.0,1.0,0.0,0.0,0.0,0.0,0.0,0.0,2019-12-01,7-55-Bew-RueA-J-d-2020-12.xlsx,7-55-Bew-RueA-J
492,Serbien,5.0,4.0,1.0,3.0,3.0,0.0,0.0,1.0,1.0,1.0,0.0,0.0,2019-12-01,7-55-Bew-RueA-J-d-2020-12.xlsx,7-55-Bew-RueA-J
493,Slowakische Republik,8.0,8.0,0.0,8.0,8.0,0.0,0.0,4.0,0.0,0.0,0.0,0.0,2019-12-01,7-55-Bew-RueA-J-d-2020-12.xlsx,7-55-Bew-RueA-J
494,Slowenien,1.0,1.0,0.0,1.0,1.0,0.0,0.0,1.0,0.0,0.0,0.0,0.0,2019-12-01,7-55-Bew-RueA-J-d-2020-12.xlsx,7-55-Bew-RueA-J
495,Spanien,8.0,8.0,0.0,7.0,7.0,0.0,0.0,7.0,0.0,0.0,0.0,0.0,2019-12-01,7-55-Bew-RueA-J-d-2020-12.xlsx,7-55-Bew-RueA-J
496,Tschechische Republik,2.0,2.0,0.0,2.0,2.0,0.0,0.0,2.0,0.0,0.0,0.0,0.0,2019-12-01,7-55-Bew-RueA-J-d-2020-12.xlsx,7-55-Bew-RueA-J
497,Türkei,3.0,2.0,1.0,3.0,2.0,0.0,1.0,1.0,1.0,0.0,1.0,0.0,2019-12-01,7-55-Bew-RueA-J-d-2020-12.xlsx,7-55-Bew-RueA-J
498,Ukraine,3.0,3.0,0.0,5.0,5.0,0.0,8.0,3.0,0.0,0.0,0.0,0.0,2019-12-01,7-55-Bew-RueA-J-d-2020-12.xlsx,7-55-Bew-RueA-J
499,Ungarn,7.0,7.0,0.0,7.0,6.0,1.0,0.0,4.0,0.0,0.0,0.0,0.0,2019-12-01,7-55-Bew-RueA-J-d-2020-12.xlsx,7-55-Bew-RueA-J
500,Total Europa,139.0,135.0,4.0,137.0,127.0,8.0,15.0,95.0,4.0,3.0,1.0,2.0,2019-12-01,7-55-Bew-RueA-J-d-2020-12.xlsx,7-55-Bew-RueA-J
501,Staatenlos,4.0,4.0,0.0,4.0,4.0,0.0,2.0,1.0,0.0,0.0,0.0,0.0,2019-12-01,7-55-Bew-RueA-J-d-2020-12.xlsx,7-55-Bew-RueA-J
502,Ohne Nationalität,9.0,9.0,0.0,10.0,9.0,1.0,4.0,6.0,0.0,0.0,0.0,0.0,2019-12-01,7-55-Bew-RueA-J-d-2020-12.xlsx,7-55-Bew-RueA-J
503,Staat unbekannt,14.0,14.0,0.0,13.0,12.0,1.0,1.0,13.0,0.0,0.0,0.0,0.0,2019-12-01,7-55-Bew-RueA-J-d-2020-12.xlsx,7-55-Bew-RueA-J
504,Total Herkunft unbek.,27.0,27.0,0.0,27.0,25.0,2.0,7.0,20.0,0.0,0.0,0.0,0.0,2019-12-01,7-55-Bew-RueA-J-d-2020-12.xlsx,7-55-Bew-RueA-J
505,Herkunft unbekannt,20.0,18.0,2.0,18.0,15.0,1.0,4.0,6.0,2.0,2.0,0.0,0.0,2018-12-01,7-55-Bew-RueA-J-d-2020-12.xlsx,7-55-Bew-RueA-J
506,Ägypten,4.0,3.0,1.0,3.0,0.0,0.0,0.0,0.0,1.0,1.0,0.0,1.0,2018-12-01,7-55-Bew-RueA-J-d-2020-12.xlsx,7-55-Bew-RueA-J
507,Algerien,11.0,11.0,0.0,10.0,8.0,2.0,2.0,5.0,0.0,0.0,0.0,0.0,2018-12-01,7-55-Bew-RueA-J-d-2020-12.xlsx,7-55-Bew-RueA-J
508,Äquatorialguinea,1.0,1.0,0.0,1.0,0.0,1.0,0.0,0.0,0.0,0.0,0.0,0.0,2018-12-01,7-55-Bew-RueA-J-d-2020-12.xlsx,7-55-Bew-RueA-J
509,Äthiopien,11.0,11.0,0.0,14.0,10.0,2.0,10.0,1.0,0.0,0.0,0.0,0.0,2018-12-01,7-55-Bew-RueA-J-d-2020-12.xlsx,7-55-Bew-RueA-J
510,Burundi,1.0,1.0,0.0,1.0,1.0,0.0,1.0,1.0,0.0,0.0,0.0,0.0,2018-12-01,7-55-Bew-RueA-J-d-2020-12.xlsx,7-55-Bew-RueA-J
511,Côte d'Ivoire,1.0,1.0,0.0,1.0,1.0,0.0,0.0,1.0,0.0,0.0,0.0,0.0,2018-12-01,7-55-Bew-RueA-J-d-2020-12.xlsx,7-55-Bew-RueA-J
512,Eritrea,66.0,48.0,18.0,56.0,43.0,3.0,30.0,16.0,18.0,17.0,0.0,5.0,2018-12-01,7-55-Bew-RueA-J-d-2020-12.xlsx,7-55-Bew-RueA-J
513,Gambia,16.0,16.0,0.0,14.0,14.0,0.0,1.0,12.0,0.0,0.0,0.0,0.0,2018-12-01,7-55-Bew-RueA-J-d-2020-12.xlsx,7-55-Bew-RueA-J
514,Ghana,3.0,3.0,0.0,5.0,5.0,0.0,2.0,3.0,0.0,0.0,0.0,0.0,2018-12-01,7-55-Bew-RueA-J-d-2020-12.xlsx,7-55-Bew-RueA-J
515,Guinea,17.0,17.0,0.0,16.0,11.0,5.0,1.0,7.0,0.0,0.0,0.0,0.0,2018-12-01,7-55-Bew-RueA-J-d-2020-12.xlsx,7-55-Bew-RueA-J
516,Guinea-Bissau,4.0,4.0,0.0,6.0,4.0,2.0,0.0,2.0,0.0,0.0,0.0,0.0,2018-12-01,7-55-Bew-RueA-J-d-2020-12.xlsx,7-55-Bew-RueA-J
517,Kenia,1.0,1.0,0.0,0.0,0.0,0.0,0.0,0.0,0.0,0.0,0.0,0.0,2018-12-01,7-55-Bew-RueA-J-d-2020-12.xlsx,7-55-Bew-RueA-J
518,Kongo DR,0.0,0.0,0.0,0.0,0.0,0.0,0.0,7.0,0.0,0.0,0.0,0.0,2018-12-01,7-55-Bew-RueA-J-d-2020-12.xlsx,7-55-Bew-RueA-J
519,Liberia,0.0,0.0,0.0,1.0,1.0,0.0,3.0,0.0,0.0,0.0,0.0,0.0,2018-12-01,7-55-Bew-RueA-J-d-2020-12.xlsx,7-55-Bew-RueA-J
520,Libyen,3.0,3.0,0.0,5.0,3.0,2.0,2.0,2.0,0.0,0.0,0.0,0.0,2018-12-01,7-55-Bew-RueA-J-d-2020-12.xlsx,7-55-Bew-RueA-J
521,Mali,11.0,11.0,0.0,13.0,12.0,1.0,1.0,9.0,0.0,0.0,0.0,0.0,2018-12-01,7-55-Bew-RueA-J-d-2020-12.xlsx,7-55-Bew-RueA-J
522,Marokko,8.0,8.0,0.0,8.0,6.0,1.0,1.0,4.0,0.0,0.0,0.0,0.0,2018-12-01,7-55-Bew-RueA-J-d-2020-12.xlsx,7-55-Bew-RueA-J
523,Niger,7.0,7.0,0.0,6.0,5.0,1.0,0.0,5.0,0.0,0.0,0.0,0.0,2018-12-01,7-55-Bew-RueA-J-d-2020-12.xlsx,7-55-Bew-RueA-J
524,Nigeria,115.0,115.0,0.0,114.0,99.0,10.0,8.0,79.0,0.0,0.0,0.0,0.0,2018-12-01,7-55-Bew-RueA-J-d-2020-12.xlsx,7-55-Bew-RueA-J
525,Senegal,6.0,6.0,0.0,5.0,4.0,0.0,0.0,2.0,0.0,0.0,0.0,0.0,2018-12-01,7-55-Bew-RueA-J-d-2020-12.xlsx,7-55-Bew-RueA-J
526,Sierra Leone,3.0,3.0,0.0,3.0,2.0,1.0,0.0,1.0,0.0,0.0,0.0,0.0,2018-12-01,7-55-Bew-RueA-J-d-2020-12.xlsx,7-55-Bew-RueA-J
527,Somalia,46.0,41.0,5.0,47.0,28.0,17.0,23.0,6.0,5.0,2.0,3.0,3.0,2018-12-01,7-55-Bew-RueA-J-d-2020-12.xlsx,7-55-Bew-RueA-J
528,Sudan,6.0,6.0,0.0,5.0,4.0,1.0,0.0,3.0,0.0,0.0,0.0,0.0,2018-12-01,7-55-Bew-RueA-J-d-2020-12.xlsx,7-55-Bew-RueA-J
529,Südsudan,1.0,1.0,0.0,0.0,0.0,0.0,0.0,0.0,0.0,0.0,0.0,0.0,2018-12-01,7-55-Bew-RueA-J-d-2020-12.xlsx,7-55-Bew-RueA-J
530,Tansania,1.0,1.0,0.0,1.0,1.0,0.0,0.0,0.0,0.0,0.0,0.0,0.0,2018-12-01,7-55-Bew-RueA-J-d-2020-12.xlsx,7-55-Bew-RueA-J
531,Togo,1.0,1.0,0.0,1.0,1.0,0.0,0.0,0.0,0.0,0.0,0.0,0.0,2018-12-01,7-55-Bew-RueA-J-d-2020-12.xlsx,7-55-Bew-RueA-J
532,Tunesien,2.0,2.0,0.0,1.0,0.0,1.0,0.0,0.0,0.0,0.0,0.0,0.0,2018-12-01,7-55-Bew-RueA-J-d-2020-12.xlsx,7-55-Bew-RueA-J
533,Total Afrika,346.0,322.0,24.0,337.0,263.0,50.0,85.0,166.0,24.0,20.0,3.0,9.0,2018-12-01,7-55-Bew-RueA-J-d-2020-12.xlsx,7-55-Bew-RueA-J
534,Bolivien,2.0,2.0,0.0,2.0,2.0,0.0,0.0,2.0,0.0,0.0,0.0,0.0,2018-12-01,7-55-Bew-RueA-J-d-2020-12.xlsx,7-55-Bew-RueA-J
535,Brasilien,1.0,1.0,0.0,1.0,1.0,0.0,0.0,1.0,0.0,0.0,0.0,0.0,2018-12-01,7-55-Bew-RueA-J-d-2020-12.xlsx,7-55-Bew-RueA-J
536,Chile,1.0,1.0,0.0,1.0,1.0,0.0,0.0,0.0,0.0,0.0,0.0,0.0,2018-12-01,7-55-Bew-RueA-J-d-2020-12.xlsx,7-55-Bew-RueA-J
537,Dominikanische Republik,18.0,18.0,0.0,19.0,16.0,3.0,0.0,17.0,0.0,0.0,0.0,0.0,2018-12-01,7-55-Bew-RueA-J-d-2020-12.xlsx,7-55-Bew-RueA-J
538,Ecuador,3.0,3.0,0.0,3.0,1.0,2.0,0.0,1.0,0.0,0.0,0.0,0.0,2018-12-01,7-55-Bew-RueA-J-d-2020-12.xlsx,7-55-Bew-RueA-J
539,Kolumbien,4.0,4.0,0.0,4.0,4.0,0.0,0.0,4.0,0.0,0.0,0.0,0.0,2018-12-01,7-55-Bew-RueA-J-d-2020-12.xlsx,7-55-Bew-RueA-J
540,Mexiko,0.0,0.0,0.0,0.0,0.0,0.0,1.0,0.0,0.0,0.0,0.0,0.0,2018-12-01,7-55-Bew-RueA-J-d-2020-12.xlsx,7-55-Bew-RueA-J
541,Peru,1.0,1.0,0.0,1.0,1.0,0.0,0.0,0.0,0.0,0.0,0.0,0.0,2018-12-01,7-55-Bew-RueA-J-d-2020-12.xlsx,7-55-Bew-RueA-J
542,Venezuela,1.0,1.0,0.0,1.0,1.0,0.0,0.0,1.0,0.0,0.0,0.0,0.0,2018-12-01,7-55-Bew-RueA-J-d-2020-12.xlsx,7-55-Bew-RueA-J
543,Total Amerika,31.0,31.0,0.0,32.0,27.0,5.0,1.0,26.0,0.0,0.0,0.0,0.0,2018-12-01,7-55-Bew-RueA-J-d-2020-12.xlsx,7-55-Bew-RueA-J
544,Afghanistan,107.0,103.0,4.0,86.0,82.0,3.0,78.0,20.0,4.0,4.0,0.0,1.0,2018-12-01,7-55-Bew-RueA-J-d-2020-12.xlsx,7-55-Bew-RueA-J
545,Armenien,0.0,0.0,0.0,0.0,0.0,0.0,0.0,1.0,0.0,0.0,0.0,0.0,2018-12-01,7-55-Bew-RueA-J-d-2020-12.xlsx,7-55-Bew-RueA-J
546,Bangladesh,1.0,1.0,0.0,1.0,1.0,0.0,0.0,1.0,0.0,0.0,0.0,0.0,2018-12-01,7-55-Bew-RueA-J-d-2020-12.xlsx,7-55-Bew-RueA-J
547,China (Volksrepublik),8.0,8.0,0.0,7.0,7.0,0.0,1.0,8.0,0.0,0.0,0.0,0.0,2018-12-01,7-55-Bew-RueA-J-d-2020-12.xlsx,7-55-Bew-RueA-J
548,Georgien,3.0,3.0,0.0,3.0,3.0,0.0,4.0,2.0,0.0,0.0,0.0,0.0,2018-12-01,7-55-Bew-RueA-J-d-2020-12.xlsx,7-55-Bew-RueA-J
549,Irak,29.0,28.0,1.0,33.0,31.0,0.0,16.0,9.0,1.0,1.0,0.0,1.0,2018-12-01,7-55-Bew-RueA-J-d-2020-12.xlsx,7-55-Bew-RueA-J
550,Iran,15.0,14.0,1.0,15.0,15.0,0.0,12.0,7.0,1.0,1.0,0.0,1.0,2018-12-01,7-55-Bew-RueA-J-d-2020-12.xlsx,7-55-Bew-RueA-J
551,Jemen,1.0,1.0,0.0,1.0,1.0,0.0,1.0,0.0,0.0,0.0,0.0,0.0,2018-12-01,7-55-Bew-RueA-J-d-2020-12.xlsx,7-55-Bew-RueA-J
552,Mongolei,1.0,1.0,0.0,1.0,1.0,0.0,0.0,1.0,0.0,0.0,0.0,0.0,2018-12-01,7-55-Bew-RueA-J-d-2020-12.xlsx,7-55-Bew-RueA-J
553,Pakistan,3.0,3.0,0.0,3.0,3.0,0.0,6.0,2.0,0.0,0.0,0.0,0.0,2018-12-01,7-55-Bew-RueA-J-d-2020-12.xlsx,7-55-Bew-RueA-J
554,Saudi-Arabien,1.0,1.0,0.0,1.0,1.0,0.0,1.0,1.0,0.0,0.0,0.0,0.0,2018-12-01,7-55-Bew-RueA-J-d-2020-12.xlsx,7-55-Bew-RueA-J
555,Sri Lanka,2.0,2.0,0.0,2.0,2.0,0.0,3.0,0.0,0.0,0.0,0.0,0.0,2018-12-01,7-55-Bew-RueA-J-d-2020-12.xlsx,7-55-Bew-RueA-J
556,Syrien,46.0,45.0,1.0,41.0,39.0,0.0,38.0,5.0,1.0,1.0,0.0,0.0,2018-12-01,7-55-Bew-RueA-J-d-2020-12.xlsx,7-55-Bew-RueA-J
557,Vietnam,2.0,2.0,0.0,2.0,1.0,1.0,0.0,0.0,0.0,0.0,0.0,0.0,2018-12-01,7-55-Bew-RueA-J-d-2020-12.xlsx,7-55-Bew-RueA-J
558,Total Asien,219.0,212.0,7.0,196.0,187.0,4.0,160.0,57.0,7.0,7.0,0.0,3.0,2018-12-01,7-55-Bew-RueA-J-d-2020-12.xlsx,7-55-Bew-RueA-J
559,Albanien,2.0,2.0,0.0,2.0,2.0,0.0,0.0,1.0,0.0,0.0,0.0,0.0,2018-12-01,7-55-Bew-RueA-J-d-2020-12.xlsx,7-55-Bew-RueA-J
560,Bosnien u. Herzegowina,2.0,2.0,0.0,2.0,0.0,2.0,0.0,0.0,0.0,0.0,0.0,0.0,2018-12-01,7-55-Bew-RueA-J-d-2020-12.xlsx,7-55-Bew-RueA-J
561,Bulgarien,3.0,3.0,0.0,3.0,2.0,0.0,0.0,3.0,0.0,0.0,0.0,0.0,2018-12-01,7-55-Bew-RueA-J-d-2020-12.xlsx,7-55-Bew-RueA-J
562,Frankreich,1.0,1.0,0.0,1.0,1.0,0.0,0.0,1.0,0.0,0.0,0.0,0.0,2018-12-01,7-55-Bew-RueA-J-d-2020-12.xlsx,7-55-Bew-RueA-J
563,Grossbritannien,0.0,0.0,0.0,0.0,0.0,0.0,0.0,0.0,0.0,0.0,0.0,0.0,2018-12-01,7-55-Bew-RueA-J-d-2020-12.xlsx,7-55-Bew-RueA-J
564,Irland,1.0,1.0,0.0,1.0,1.0,0.0,0.0,1.0,0.0,0.0,0.0,0.0,2018-12-01,7-55-Bew-RueA-J-d-2020-12.xlsx,7-55-Bew-RueA-J
565,Italien,3.0,3.0,0.0,3.0,3.0,0.0,0.0,3.0,0.0,0.0,0.0,0.0,2018-12-01,7-55-Bew-RueA-J-d-2020-12.xlsx,7-55-Bew-RueA-J
566,Kosovo,2.0,2.0,0.0,1.0,1.0,0.0,0.0,2.0,0.0,0.0,0.0,0.0,2018-12-01,7-55-Bew-RueA-J-d-2020-12.xlsx,7-55-Bew-RueA-J
567,Kroatien,9.0,9.0,0.0,9.0,5.0,3.0,0.0,4.0,0.0,0.0,0.0,0.0,2018-12-01,7-55-Bew-RueA-J-d-2020-12.xlsx,7-55-Bew-RueA-J
568,Lettland,1.0,1.0,0.0,1.0,1.0,0.0,0.0,0.0,0.0,0.0,0.0,0.0,2018-12-01,7-55-Bew-RueA-J-d-2020-12.xlsx,7-55-Bew-RueA-J
569,Litauen,7.0,7.0,0.0,7.0,7.0,0.0,0.0,5.0,0.0,0.0,0.0,0.0,2018-12-01,7-55-Bew-RueA-J-d-2020-12.xlsx,7-55-Bew-RueA-J
570,Mazedonien eh.Jug.Rep.,1.0,1.0,0.0,1.0,1.0,0.0,0.0,0.0,0.0,0.0,0.0,0.0,2018-12-01,7-55-Bew-RueA-J-d-2020-12.xlsx,7-55-Bew-RueA-J
571,Moldova,1.0,1.0,0.0,1.0,1.0,0.0,0.0,1.0,0.0,0.0,0.0,0.0,2018-12-01,7-55-Bew-RueA-J-d-2020-12.xlsx,7-55-Bew-RueA-J
572,Niederlande,4.0,4.0,0.0,5.0,4.0,1.0,0.0,4.0,0.0,0.0,0.0,0.0,2018-12-01,7-55-Bew-RueA-J-d-2020-12.xlsx,7-55-Bew-RueA-J
573,Polen,13.0,13.0,0.0,13.0,13.0,0.0,0.0,10.0,0.0,0.0,0.0,0.0,2018-12-01,7-55-Bew-RueA-J-d-2020-12.xlsx,7-55-Bew-RueA-J
574,Rumänien,51.0,51.0,0.0,50.0,46.0,4.0,0.0,44.0,0.0,0.0,0.0,0.0,2018-12-01,7-55-Bew-RueA-J-d-2020-12.xlsx,7-55-Bew-RueA-J
575,Russland,7.0,7.0,0.0,5.0,5.0,0.0,3.0,6.0,0.0,0.0,0.0,0.0,2018-12-01,7-55-Bew-RueA-J-d-2020-12.xlsx,7-55-Bew-RueA-J
576,Serbien,7.0,6.0,1.0,6.0,3.0,3.0,0.0,2.0,1.0,0.0,1.0,0.0,2018-12-01,7-55-Bew-RueA-J-d-2020-12.xlsx,7-55-Bew-RueA-J
577,Slowakische Republik,3.0,3.0,0.0,4.0,4.0,0.0,0.0,4.0,0.0,0.0,0.0,0.0,2018-12-01,7-55-Bew-RueA-J-d-2020-12.xlsx,7-55-Bew-RueA-J
578,Slowenien,1.0,1.0,0.0,1.0,0.0,1.0,0.0,1.0,0.0,0.0,0.0,0.0,2018-12-01,7-55-Bew-RueA-J-d-2020-12.xlsx,7-55-Bew-RueA-J
579,Spanien,10.0,10.0,0.0,10.0,9.0,1.0,0.0,7.0,0.0,0.0,0.0,0.0,2018-12-01,7-55-Bew-RueA-J-d-2020-12.xlsx,7-55-Bew-RueA-J
580,Tschechische Republik,2.0,2.0,0.0,2.0,2.0,0.0,0.0,2.0,0.0,0.0,0.0,0.0,2018-12-01,7-55-Bew-RueA-J-d-2020-12.xlsx,7-55-Bew-RueA-J
581,Türkei,9.0,6.0,3.0,5.0,4.0,0.0,0.0,1.0,3.0,3.0,0.0,0.0,2018-12-01,7-55-Bew-RueA-J-d-2020-12.xlsx,7-55-Bew-RueA-J
582,Ukraine,3.0,3.0,0.0,1.0,1.0,0.0,2.0,1.0,0.0,0.0,0.0,0.0,2018-12-01,7-55-Bew-RueA-J-d-2020-12.xlsx,7-55-Bew-RueA-J
583,Ungarn,6.0,6.0,0.0,6.0,6.0,0.0,0.0,6.0,0.0,0.0,0.0,0.0,2018-12-01,7-55-Bew-RueA-J-d-2020-12.xlsx,7-55-Bew-RueA-J
584,Total Europa,149.0,145.0,4.0,140.0,122.0,15.0,5.0,109.0,4.0,3.0,1.0,0.0,2018-12-01,7-55-Bew-RueA-J-d-2020-12.xlsx,7-55-Bew-RueA-J
585,Staatenlos,1.0,1.0,0.0,1.0,1.0,0.0,1.0,0.0,0.0,0.0,0.0,0.0,2018-12-01,7-55-Bew-RueA-J-d-2020-12.xlsx,7-55-Bew-RueA-J
586,Ohne Nationalität,8.0,7.0,1.0,6.0,6.0,0.0,2.0,2.0,1.0,1.0,0.0,0.0,2018-12-01,7-55-Bew-RueA-J-d-2020-12.xlsx,7-55-Bew-RueA-J
587,Staat unbekannt,11.0,10.0,1.0,11.0,8.0,1.0,1.0,4.0,1.0,1.0,0.0,0.0,2018-12-01,7-55-Bew-RueA-J-d-2020-12.xlsx,7-55-Bew-RueA-J
588,Total Herkunft unbek.,20.0,18.0,2.0,18.0,15.0,1.0,4.0,6.0,2.0,2.0,0.0,0.0,2018-12-01,7-55-Bew-RueA-J-d-2020-12.xlsx,7-55-Bew-RueA-J
