,index,Angola,1,1.1,nation,1.2,1.3,0.1,0.2,0.3,0.4,0.5,0.6,0.7,Unnamed: 13,Unnamed: 14,Unnamed: 15,Unnamed: 16,datum,2,3,4,5,6,7,8,9,10,11,12,13,14,15,16
0,0,,35.0,,Herkunft unbekannt,,,,,,,,,,,,,,2016-12-01,35.0,0.0,34.0,26.0,7.0,9.0,11.0,0.0,0.0,0.0,0.0,,,,
1,2,,1.0,,Ägypten,,,,,,,,,,,,,,2016-12-01,1.0,0.0,1.0,1.0,0.0,1.0,1.0,0.0,0.0,0.0,0.0,,,,
2,3,,5.0,,Algerien,,,,,,,,,,,,,,2016-12-01,5.0,0.0,4.0,4.0,0.0,3.0,2.0,0.0,0.0,0.0,0.0,,,,
3,4,,7.0,,Äthiopien,,,,,,,,,,,,,,2016-12-01,6.0,1.0,4.0,4.0,0.0,7.0,0.0,1.0,1.0,0.0,0.0,,,,
4,5,,1.0,,Benin,,,,,,,,,,,,,,2016-12-01,1.0,0.0,1.0,1.0,0.0,0.0,1.0,0.0,0.0,0.0,0.0,,,,
5,6,,0.0,,Burundi,,,,,,,,,,,,,,2016-12-01,0.0,0.0,0.0,0.0,0.0,1.0,0.0,0.0,0.0,0.0,0.0,,,,
6,7,,4.0,,Côte d'Ivoire,,,,,,,,,,,,,,2016-12-01,4.0,0.0,4.0,3.0,1.0,1.0,2.0,0.0,0.0,0.0,0.0,,,,
7,8,,73.0,,Eritrea,,,,,,,,,,,,,,2016-12-01,68.0,5.0,91.0,86.0,2.0,59.0,28.0,5.0,5.0,0.0,1.0,,,,
8,9,,25.0,,Gambia,,,,,,,,,,,,,,2016-12-01,25.0,0.0,26.0,25.0,1.0,13.0,14.0,0.0,0.0,0.0,0.0,,,,
9,10,,5.0,,Ghana,,,,,,,,,,,,,,2016-12-01,5.0,0.0,5.0,4.0,0.0,1.0,3.0,0.0,0.0,0.0,0.0,,,,
10,11,,17.0,,Guinea,,,,,,,,,,,,,,2016-12-01,17.0,0.0,14.0,13.0,1.0,3.0,9.0,0.0,0.0,0.0,0.0,,,,
11,12,,3.0,,Guinea-Bissau,,,,,,,,,,,,,,2016-12-01,3.0,0.0,3.0,3.0,0.0,0.0,3.0,0.0,0.0,0.0,0.0,,,,
12,13,,4.0,,Kamerun,,,,,,,,,,,,,,2016-12-01,4.0,0.0,4.0,3.0,1.0,0.0,2.0,0.0,0.0,0.0,0.0,,,,
13,14,,0.0,,Kongo DR,,,,,,,,,,,,,,2016-12-01,0.0,0.0,0.0,0.0,0.0,1.0,1.0,0.0,0.0,0.0,0.0,,,,
14,15,,2.0,,Liberia,,,,,,,,,,,,,,2016-12-01,2.0,0.0,2.0,2.0,0.0,1.0,1.0,0.0,0.0,0.0,0.0,,,,
15,16,,1.0,,Libyen,,,,,,,,,,,,,,2016-12-01,1.0,0.0,1.0,1.0,0.0,1.0,0.0,0.0,0.0,0.0,0.0,,,,
16,17,,12.0,,Mali,,,,,,,,,,,,,,2016-12-01,12.0,0.0,11.0,10.0,1.0,2.0,9.0,0.0,0.0,0.0,0.0,,,,
17,18,,4.0,,Marokko,,,,,,,,,,,,,,2016-12-01,4.0,0.0,4.0,2.0,2.0,0.0,0.0,0.0,0.0,0.0,0.0,,,,
18,19,,2.0,,Niger,,,,,,,,,,,,,,2016-12-01,2.0,0.0,2.0,2.0,0.0,0.0,2.0,0.0,0.0,0.0,0.0,,,,
19,20,,151.0,,Nigeria,,,,,,,,,,,,,,2016-12-01,151.0,0.0,141.0,123.0,14.0,21.0,81.0,0.0,0.0,0.0,0.0,,,,
20,21,,10.0,,Senegal,,,,,,,,,,,,,,2016-12-01,10.0,0.0,11.0,11.0,0.0,0.0,6.0,0.0,0.0,0.0,0.0,,,,
21,22,,3.0,,Sierra Leone,,,,,,,,,,,,,,2016-12-01,3.0,0.0,3.0,3.0,0.0,0.0,3.0,0.0,0.0,0.0,0.0,,,,
22,23,,40.0,,Somalia,,,,,,,,,,,,,,2016-12-01,38.0,2.0,43.0,39.0,1.0,24.0,13.0,2.0,0.0,2.0,1.0,,,,
23,24,,3.0,,Sudan,,,,,,,,,,,,,,2016-12-01,3.0,0.0,6.0,4.0,2.0,2.0,3.0,0.0,0.0,0.0,0.0,,,,
24,25,,1.0,,Südsudan,,,,,,,,,,,,,,2016-12-01,1.0,0.0,1.0,0.0,1.0,0.0,0.0,0.0,0.0,0.0,0.0,,,,
25,26,,1.0,,Togo,,,,,,,,,,,,,,2016-12-01,1.0,0.0,2.0,2.0,0.0,0.0,2.0,0.0,0.0,0.0,0.0,,,,
26,27,,0.0,,Tschad,,,,,,,,,,,,,,2016-12-01,0.0,0.0,0.0,0.0,0.0,0.0,0.0,0.0,0.0,0.0,0.0,,,,
27,28,,1.0,,Uganda,,,,,,,,,,,,,,2016-12-01,1.0,0.0,1.0,1.0,0.0,0.0,1.0,0.0,0.0,0.0,0.0,,,,
28,31,,10.0,,Dominikanische Republik,,,,,,,,,,,,,,2016-12-01,10.0,0.0,10.0,8.0,2.0,0.0,8.0,0.0,0.0,0.0,0.0,,,,
29,32,,2.0,,Ecuador,,,,,,,,,,,,,,2016-12-01,2.0,0.0,1.0,1.0,0.0,0.0,1.0,0.0,0.0,0.0,0.0,,,,
30,33,,1.0,,Kolumbien,,,,,,,,,,,,,,2016-12-01,1.0,0.0,2.0,0.0,1.0,0.0,0.0,0.0,0.0,0.0,0.0,,,,
31,34,,1.0,,Kuba,,,,,,,,,,,,,,2016-12-01,1.0,0.0,1.0,1.0,0.0,0.0,2.0,0.0,0.0,0.0,0.0,,,,
32,35,,1.0,,Peru,,,,,,,,,,,,,,2016-12-01,1.0,0.0,1.0,1.0,0.0,0.0,1.0,0.0,0.0,0.0,0.0,,,,
33,36,,1.0,,Trinidad u. Tobago,,,,,,,,,,,,,,2016-12-01,1.0,0.0,1.0,1.0,0.0,0.0,1.0,0.0,0.0,0.0,0.0,,,,
34,37,,1.0,,USA,,,,,,,,,,,,,,2016-12-01,1.0,0.0,1.0,1.0,0.0,0.0,1.0,0.0,0.0,0.0,0.0,,,,
35,38,,1.0,,Venezuela,,,,,,,,,,,,,,2016-12-01,1.0,0.0,1.0,1.0,0.0,0.0,1.0,0.0,0.0,0.0,0.0,,,,
36,41,,20.0,,Afghanistan,,,,,,,,,,,,,,2016-12-01,20.0,0.0,20.0,20.0,0.0,22.0,10.0,0.0,0.0,0.0,0.0,,,,
37,42,,0.0,,Bangladesh,,,,,,,,,,,,,,2016-12-01,0.0,0.0,0.0,0.0,0.0,0.0,0.0,0.0,0.0,0.0,0.0,,,,
38,43,,3.0,,China (Volksrepublik),,,,,,,,,,,,,,2016-12-01,3.0,0.0,3.0,3.0,0.0,3.0,1.0,0.0,0.0,0.0,0.0,,,,
39,44,,1.0,,Georgien,,,,,,,,,,,,,,2016-12-01,1.0,0.0,1.0,1.0,0.0,1.0,1.0,0.0,0.0,0.0,0.0,,,,
40,45,,1.0,,Indien,,,,,,,,,,,,,,2016-12-01,1.0,0.0,1.0,0.0,1.0,0.0,0.0,0.0,0.0,0.0,0.0,,,,
41,46,,12.0,,Irak,,,,,,,,,,,,,,2016-12-01,12.0,0.0,14.0,13.0,0.0,7.0,3.0,0.0,0.0,0.0,0.0,,,,
42,47,,8.0,,Iran,,,,,,,,,,,,,,2016-12-01,8.0,0.0,9.0,9.0,0.0,6.0,1.0,0.0,0.0,0.0,0.0,,,,
43,48,,4.0,,Jemen,,,,,,,,,,,,,,2016-12-01,4.0,0.0,4.0,4.0,0.0,4.0,4.0,0.0,0.0,0.0,0.0,,,,
44,49,,2.0,,Jordanien,,,,,,,,,,,,,,2016-12-01,2.0,0.0,2.0,2.0,0.0,2.0,1.0,0.0,0.0,0.0,0.0,,,,
45,50,,1.0,,Laos,,,,,,,,,,,,,,2016-12-01,1.0,0.0,0.0,0.0,0.0,0.0,0.0,0.0,0.0,0.0,0.0,,,,
46,51,,1.0,,Libanon,,,,,,,,,,,,,,2016-12-01,1.0,0.0,1.0,1.0,0.0,0.0,0.0,0.0,0.0,0.0,0.0,,,,
47,52,,1.0,,Nepal,,,,,,,,,,,,,,2016-12-01,1.0,0.0,1.0,1.0,0.0,0.0,1.0,0.0,0.0,0.0,0.0,,,,
48,53,,2.0,,Pakistan,,,,,,,,,,,,,,2016-12-01,2.0,0.0,2.0,2.0,0.0,4.0,4.0,0.0,0.0,0.0,0.0,,,,
49,54,,4.0,,Sri Lanka,,,,,,,,,,,,,,2016-12-01,4.0,0.0,3.0,3.0,0.0,1.0,0.0,0.0,0.0,0.0,0.0,,,,
50,55,,42.0,,Syrien,,,,,,,,,,,,,,2016-12-01,35.0,7.0,37.0,37.0,0.0,49.0,8.0,7.0,7.0,0.0,0.0,,,,
51,58,,2.0,,Albanien,,,,,,,,,,,,,,2016-12-01,2.0,0.0,2.0,2.0,0.0,1.0,2.0,0.0,0.0,0.0,0.0,,,,
52,59,,1.0,,Belarus,,,,,,,,,,,,,,2016-12-01,1.0,0.0,1.0,1.0,0.0,0.0,0.0,0.0,0.0,0.0,0.0,,,,
53,60,,4.0,,Bosnien u. Herzegowina,,,,,,,,,,,,,,2016-12-01,4.0,0.0,1.0,1.0,0.0,0.0,1.0,0.0,0.0,0.0,0.0,,,,
54,61,,5.0,,Bulgarien,,,,,,,,,,,,,,2016-12-01,5.0,0.0,5.0,5.0,0.0,0.0,4.0,0.0,0.0,0.0,0.0,,,,
55,62,,1.0,,Dänemark,,,,,,,,,,,,,,2016-12-01,1.0,0.0,1.0,1.0,0.0,0.0,0.0,0.0,0.0,0.0,0.0,,,,
56,63,,2.0,,Estland,,,,,,,,,,,,,,2016-12-01,2.0,0.0,2.0,1.0,0.0,0.0,2.0,0.0,0.0,0.0,0.0,,,,
57,64,,1.0,,Frankreich,,,,,,,,,,,,,,2016-12-01,1.0,0.0,1.0,0.0,1.0,0.0,0.0,0.0,0.0,0.0,0.0,,,,
58,65,,5.0,,Grossbritannien,,,,,,,,,,,,,,2016-12-01,4.0,1.0,4.0,4.0,0.0,0.0,5.0,1.0,1.0,0.0,0.0,,,,
59,66,,2.0,,Kosovo,,,,,,,,,,,,,,2016-12-01,2.0,0.0,2.0,2.0,0.0,0.0,2.0,0.0,0.0,0.0,0.0,,,,
60,67,,3.0,,Kroatien,,,,,,,,,,,,,,2016-12-01,3.0,0.0,5.0,4.0,0.0,0.0,2.0,0.0,0.0,0.0,0.0,,,,
61,68,,2.0,,Lettland,,,,,,,,,,,,,,2016-12-01,2.0,0.0,2.0,2.0,0.0,0.0,1.0,0.0,0.0,0.0,0.0,,,,
62,69,,4.0,,Litauen,,,,,,,,,,,,,,2016-12-01,4.0,0.0,4.0,4.0,0.0,0.0,4.0,0.0,0.0,0.0,0.0,,,,
63,70,,1.0,,Moldova,,,,,,,,,,,,,,2016-12-01,1.0,0.0,1.0,0.0,1.0,0.0,0.0,0.0,0.0,0.0,0.0,,,,
64,71,,0.0,,Montenegro,,,,,,,,,,,,,,2016-12-01,0.0,0.0,0.0,0.0,0.0,0.0,0.0,0.0,0.0,0.0,0.0,,,,
65,72,,5.0,,Niederlande,,,,,,,,,,,,,,2016-12-01,5.0,0.0,6.0,4.0,1.0,0.0,4.0,0.0,0.0,0.0,0.0,,,,
66,73,,11.0,,Polen,,,,,,,,,,,,,,2016-12-01,11.0,0.0,11.0,11.0,0.0,1.0,9.0,0.0,0.0,0.0,0.0,,,,
67,74,,57.0,,Rumänien,,,,,,,,,,,,,,2016-12-01,57.0,0.0,56.0,52.0,4.0,0.0,45.0,0.0,0.0,0.0,0.0,,,,
68,75,,5.0,,Russland,,,,,,,,,,,,,,2016-12-01,5.0,0.0,10.0,10.0,0.0,9.0,1.0,0.0,0.0,0.0,0.0,,,,
69,76,,5.0,,Serbien,,,,,,,,,,,,,,2016-12-01,3.0,2.0,3.0,2.0,0.0,0.0,1.0,2.0,2.0,0.0,2.0,,,,
70,77,,1.0,,Slowakische Republik,,,,,,,,,,,,,,2016-12-01,1.0,0.0,1.0,1.0,0.0,0.0,2.0,0.0,0.0,0.0,0.0,,,,
71,78,,4.0,,Spanien,,,,,,,,,,,,,,2016-12-01,4.0,0.0,4.0,4.0,0.0,0.0,4.0,0.0,0.0,0.0,0.0,,,,
72,79,,1.0,,Tschechische Republik,,,,,,,,,,,,,,2016-12-01,1.0,0.0,1.0,1.0,0.0,0.0,1.0,0.0,0.0,0.0,0.0,,,,
73,80,,5.0,,Türkei,,,,,,,,,,,,,,2016-12-01,5.0,0.0,5.0,5.0,0.0,2.0,2.0,0.0,0.0,0.0,0.0,,,,
74,81,,0.0,,Ukraine,,,,,,,,,,,,,,2016-12-01,0.0,0.0,0.0,0.0,0.0,0.0,0.0,0.0,0.0,0.0,0.0,,,,
75,82,,9.0,,Ungarn,,,,,,,,,,,,,,2016-12-01,9.0,0.0,8.0,8.0,0.0,0.0,7.0,0.0,0.0,0.0,0.0,,,,
76,85,,1.0,,Staatenlos,,,,,,,,,,,,,,2016-12-01,1.0,0.0,1.0,1.0,0.0,0.0,1.0,0.0,0.0,0.0,0.0,,,,
77,86,,6.0,,Ohne Nationalität,,,,,,,,,,,,,,2016-12-01,6.0,0.0,6.0,6.0,0.0,6.0,0.0,0.0,0.0,0.0,0.0,,,,
78,87,,28.0,,Staat unbekannt,,,,,,,,,,,,,,2016-12-01,28.0,0.0,27.0,19.0,7.0,3.0,10.0,0.0,0.0,0.0,0.0,,,,
79,0,,15.0,,Herkunft unbekannt,,,,,,,,,,,,,,2020-12-01,14.0,1.0,15.0,13.0,2.0,9.0,4.0,1.0,1.0,0.0,1.0,,,,
80,2,,1.0,,Ägypten,,,,,,,,,,,,,,2020-12-01,1.0,0.0,1.0,1.0,0.0,0.0,0.0,0.0,0.0,0.0,0.0,,,,
81,3,,2.0,,Algerien,,,,,,,,,,,,,,2020-12-01,2.0,0.0,2.0,1.0,1.0,1.0,0.0,0.0,0.0,0.0,0.0,,,,
82,4,,0.0,,Angola,,,,,,,,,,,,,,2020-12-01,0.0,0.0,0.0,0.0,0.0,0.0,0.0,0.0,0.0,0.0,0.0,,,,
83,5,,1.0,,Äquatorialguinea,,,,,,,,,,,,,,2020-12-01,1.0,0.0,1.0,1.0,0.0,0.0,1.0,0.0,0.0,0.0,0.0,,,,
84,6,,4.0,,Äthiopien,,,,,,,,,,,,,,2020-12-01,3.0,1.0,3.0,3.0,0.0,1.0,3.0,1.0,1.0,0.0,0.0,,,,
85,7,,2.0,,Côte d'Ivoire,,,,,,,,,,,,,,2020-12-01,2.0,0.0,2.0,2.0,0.0,1.0,0.0,0.0,0.0,0.0,0.0,,,,
86,8,,60.0,,Eritrea,,,,,,,,,,,,,,2020-12-01,38.0,22.0,33.0,23.0,6.0,19.0,12.0,22.0,21.0,0.0,9.0,,,,
87,9,,1.0,,Gabun,,,,,,,,,,,,,,2020-12-01,1.0,0.0,0.0,0.0,0.0,0.0,0.0,0.0,0.0,0.0,0.0,,,,
88,10,,13.0,,Gambia,,,,,,,,,,,,,,2020-12-01,13.0,0.0,13.0,12.0,1.0,1.0,9.0,0.0,0.0,0.0,0.0,,,,
89,11,,0.0,,Ghana,,,,,,,,,,,,,,2020-12-01,0.0,0.0,0.0,0.0,0.0,0.0,2.0,0.0,0.0,0.0,0.0,,,,
90,12,,10.0,,Guinea,,,,,,,,,,,,,,2020-12-01,10.0,0.0,10.0,9.0,1.0,1.0,7.0,0.0,0.0,0.0,0.0,,,,
91,13,,1.0,,Guinea-Bissau,,,,,,,,,,,,,,2020-12-01,1.0,0.0,1.0,0.0,1.0,1.0,0.0,0.0,0.0,0.0,0.0,,,,
92,14,,1.0,,Kamerun,,,,,,,,,,,,,,2020-12-01,1.0,0.0,3.0,2.0,0.0,0.0,0.0,0.0,0.0,0.0,0.0,,,,
93,15,,1.0,,Kongo,,,,,,,,,,,,,,2020-12-01,0.0,1.0,0.0,0.0,0.0,0.0,0.0,1.0,1.0,0.0,1.0,,,,
94,16,,2.0,,Kongo DR,,,,,,,,,,,,,,2020-12-01,2.0,0.0,2.0,2.0,0.0,1.0,0.0,0.0,0.0,0.0,0.0,,,,
95,17,,3.0,,Liberia,,,,,,,,,,,,,,2020-12-01,3.0,0.0,3.0,2.0,1.0,0.0,0.0,0.0,0.0,0.0,0.0,,,,
96,18,,2.0,,Libyen,,,,,,,,,,,,,,2020-12-01,2.0,0.0,2.0,2.0,0.0,1.0,2.0,0.0,0.0,0.0,0.0,,,,
97,19,,1.0,,Malawi,,,,,,,,,,,,,,2020-12-01,1.0,0.0,1.0,1.0,0.0,0.0,0.0,0.0,0.0,0.0,0.0,,,,
98,20,,1.0,,Mali,,,,,,,,,,,,,,2020-12-01,1.0,0.0,1.0,1.0,0.0,0.0,2.0,0.0,0.0,0.0,0.0,,,,
99,21,,5.0,,Marokko,,,,,,,,,,,,,,2020-12-01,5.0,0.0,5.0,4.0,1.0,1.0,3.0,0.0,0.0,0.0,0.0,,,,
100,22,,1.0,,Mauretanien,,,,,,,,,,,,,,2020-12-01,1.0,0.0,1.0,1.0,0.0,0.0,0.0,0.0,0.0,0.0,0.0,,,,
101,23,,1.0,,Niger,,,,,,,,,,,,,,2020-12-01,1.0,0.0,1.0,1.0,0.0,0.0,0.0,0.0,0.0,0.0,0.0,,,,
102,24,,89.0,,Nigeria,,,,,,,,,,,,,,2020-12-01,89.0,0.0,75.0,68.0,5.0,4.0,48.0,0.0,0.0,0.0,0.0,,,,
103,25,,8.0,,Senegal,,,,,,,,,,,,,,2020-12-01,8.0,0.0,7.0,5.0,2.0,0.0,4.0,0.0,0.0,0.0,0.0,,,,
104,26,,3.0,,Sierra Leone,,,,,,,,,,,,,,2020-12-01,2.0,1.0,3.0,3.0,0.0,1.0,1.0,1.0,1.0,0.0,0.0,,,,
105,27,,65.0,,Somalia,,,,,,,,,,,,,,2020-12-01,49.0,16.0,46.0,42.0,2.0,26.0,10.0,16.0,15.0,1.0,9.0,,,,
106,28,,3.0,,Sudan,,,,,,,,,,,,,,2020-12-01,3.0,0.0,2.0,2.0,0.0,1.0,1.0,0.0,0.0,0.0,0.0,,,,
107,29,,1.0,,Südsudan,,,,,,,,,,,,,,2020-12-01,1.0,0.0,1.0,1.0,0.0,0.0,0.0,0.0,0.0,0.0,0.0,,,,
108,30,,0.0,,Togo,,,,,,,,,,,,,,2020-12-01,0.0,0.0,0.0,0.0,0.0,0.0,0.0,0.0,0.0,0.0,0.0,,,,
109,31,,2.0,,Tschad,,,,,,,,,,,,,,2020-12-01,2.0,0.0,2.0,1.0,0.0,0.0,1.0,0.0,0.0,0.0,0.0,,,,
110,32,,2.0,,Tunesien,,,,,,,,,,,,,,2020-12-01,2.0,0.0,2.0,1.0,1.0,0.0,0.0,0.0,0.0,0.0,0.0,,,,
111,33,,1.0,,Zentralafr. Republik,,,,,,,,,,,,,,2020-12-01,1.0,0.0,1.0,1.0,0.0,1.0,0.0,0.0,0.0,0.0,0.0,,,,
112,36,,1.0,,Bolivien,,,,,,,,,,,,,,2020-12-01,1.0,0.0,1.0,0.0,1.0,0.0,0.0,0.0,0.0,0.0,0.0,,,,
113,37,,9.0,,Dominikanische Republik,,,,,,,,,,,,,,2020-12-01,9.0,0.0,11.0,7.0,4.0,0.0,6.0,0.0,0.0,0.0,0.0,,,,
114,38,,1.0,,Ecuador,,,,,,,,,,,,,,2020-12-01,1.0,0.0,1.0,1.0,0.0,0.0,1.0,0.0,0.0,0.0,0.0,,,,
115,39,,0.0,,Haiti,,,,,,,,,,,,,,2020-12-01,0.0,0.0,0.0,0.0,0.0,0.0,0.0,0.0,0.0,0.0,0.0,,,,
116,40,,1.0,,Jamaika,,,,,,,,,,,,,,2020-12-01,1.0,0.0,1.0,1.0,0.0,1.0,1.0,0.0,0.0,0.0,0.0,,,,
117,41,,6.0,,Kolumbien,,,,,,,,,,,,,,2020-12-01,4.0,2.0,4.0,2.0,2.0,0.0,4.0,2.0,2.0,0.0,0.0,,,,
118,42,,1.0,,Kuba,,,,,,,,,,,,,,2020-12-01,1.0,0.0,1.0,0.0,1.0,0.0,0.0,0.0,0.0,0.0,0.0,,,,
119,43,,2.0,,Peru,,,,,,,,,,,,,,2020-12-01,2.0,0.0,2.0,2.0,0.0,0.0,1.0,0.0,0.0,0.0,0.0,,,,
120,44,,1.0,,Venezuela,,,,,,,,,,,,,,2020-12-01,1.0,0.0,1.0,0.0,1.0,0.0,0.0,0.0,0.0,0.0,0.0,,,,
121,47,,72.0,,Afghanistan,,,,,,,,,,,,,,2020-12-01,70.0,2.0,69.0,68.0,1.0,55.0,18.0,2.0,2.0,0.0,1.0,,,,
122,48,,1.0,,Armenien,,,,,,,,,,,,,,2020-12-01,1.0,0.0,1.0,1.0,0.0,0.0,0.0,0.0,0.0,0.0,0.0,,,,
123,49,,0.0,,Bangladesh,,,,,,,,,,,,,,2020-12-01,0.0,0.0,0.0,0.0,0.0,0.0,0.0,0.0,0.0,0.0,0.0,,,,
124,50,,0.0,,China (Volksrepublik),,,,,,,,,,,,,,2020-12-01,0.0,0.0,1.0,1.0,0.0,0.0,2.0,0.0,0.0,0.0,0.0,,,,
125,51,,1.0,,Georgien,,,,,,,,,,,,,,2020-12-01,1.0,0.0,1.0,1.0,0.0,0.0,1.0,0.0,0.0,0.0,0.0,,,,
126,52,,41.0,,Irak,,,,,,,,,,,,,,2020-12-01,39.0,2.0,33.0,33.0,0.0,32.0,5.0,2.0,2.0,0.0,2.0,,,,
127,53,,17.0,,Iran,,,,,,,,,,,,,,2020-12-01,17.0,0.0,17.0,17.0,0.0,10.0,5.0,0.0,0.0,0.0,0.0,,,,
128,54,,2.0,,Israel,,,,,,,,,,,,,,2020-12-01,2.0,0.0,2.0,2.0,0.0,2.0,0.0,0.0,0.0,0.0,0.0,,,,
129,55,,0.0,,Jemen,,,,,,,,,,,,,,2020-12-01,0.0,0.0,0.0,0.0,0.0,0.0,0.0,0.0,0.0,0.0,0.0,,,,
130,56,,0.0,,Libanon,,,,,,,,,,,,,,2020-12-01,0.0,0.0,0.0,0.0,0.0,0.0,0.0,0.0,0.0,0.0,0.0,,,,
131,57,,1.0,,Malediven,,,,,,,,,,,,,,2020-12-01,0.0,1.0,0.0,0.0,0.0,0.0,0.0,1.0,1.0,0.0,0.0,,,,
132,58,,0.0,,Mongolei,,,,,,,,,,,,,,2020-12-01,0.0,0.0,0.0,0.0,0.0,0.0,0.0,0.0,0.0,0.0,0.0,,,,
133,59,,2.0,,Pakistan,,,,,,,,,,,,,,2020-12-01,2.0,0.0,3.0,3.0,0.0,0.0,1.0,0.0,0.0,0.0,0.0,,,,
134,60,,2.0,,Sri Lanka,,,,,,,,,,,,,,2020-12-01,1.0,1.0,0.0,0.0,0.0,1.0,0.0,1.0,1.0,0.0,0.0,,,,
135,61,,40.0,,Syrien,,,,,,,,,,,,,,2020-12-01,36.0,4.0,38.0,35.0,2.0,50.0,6.0,4.0,4.0,0.0,0.0,,,,
136,62,,1.0,,Vietnam,,,,,,,,,,,,,,2020-12-01,1.0,0.0,1.0,0.0,1.0,0.0,0.0,0.0,0.0,0.0,0.0,,,,
137,65,,5.0,,Albanien,,,,,,,,,,,,,,2020-12-01,5.0,0.0,5.0,4.0,1.0,0.0,4.0,0.0,0.0,0.0,0.0,,,,
138,66,,1.0,,Belarus,,,,,,,,,,,,,,2020-12-01,1.0,0.0,1.0,1.0,0.0,1.0,0.0,0.0,0.0,0.0,0.0,,,,
139,67,,5.0,,Belgien,,,,,,,,,,,,,,2020-12-01,5.0,0.0,5.0,4.0,1.0,0.0,2.0,0.0,0.0,0.0,0.0,,,,
140,68,,0.0,,Bosnien u. Herzegowina,,,,,,,,,,,,,,2020-12-01,0.0,0.0,0.0,0.0,0.0,0.0,0.0,0.0,0.0,0.0,0.0,,,,
141,69,,1.0,,Bulgarien,,,,,,,,,,,,,,2020-12-01,1.0,0.0,1.0,1.0,0.0,0.0,1.0,0.0,0.0,0.0,0.0,,,,
142,70,,0.0,,Deutschland,,,,,,,,,,,,,,2020-12-01,0.0,0.0,0.0,0.0,0.0,1.0,0.0,0.0,0.0,0.0,0.0,,,,
143,71,,2.0,,Estland,,,,,,,,,,,,,,2020-12-01,2.0,0.0,2.0,2.0,0.0,0.0,0.0,0.0,0.0,0.0,0.0,,,,
144,72,,3.0,,Grossbritannien,,,,,,,,,,,,,,2020-12-01,3.0,0.0,4.0,3.0,1.0,0.0,3.0,0.0,0.0,0.0,0.0,,,,
145,73,,1.0,,Kosovo,,,,,,,,,,,,,,2020-12-01,0.0,1.0,0.0,0.0,0.0,0.0,1.0,1.0,1.0,0.0,1.0,,,,
146,74,,4.0,,Kroatien,,,,,,,,,,,,,,2020-12-01,4.0,0.0,4.0,4.0,0.0,0.0,3.0,0.0,0.0,0.0,0.0,,,,
147,75,,0.0,,Lettland,,,,,,,,,,,,,,2020-12-01,0.0,0.0,0.0,0.0,0.0,0.0,0.0,0.0,0.0,0.0,0.0,,,,
148,76,,6.0,,Litauen,,,,,,,,,,,,,,2020-12-01,6.0,0.0,6.0,6.0,0.0,0.0,4.0,0.0,0.0,0.0,0.0,,,,
149,77,,1.0,,Nordmazedonien,,,,,,,,,,,,,,2020-12-01,1.0,0.0,1.0,1.0,0.0,0.0,2.0,0.0,0.0,0.0,0.0,,,,
150,78,,0.0,,Moldova,,,,,,,,,,,,,,2020-12-01,0.0,0.0,0.0,0.0,0.0,0.0,0.0,0.0,0.0,0.0,0.0,,,,
151,79,,3.0,,Niederlande,,,,,,,,,,,,,,2020-12-01,3.0,0.0,3.0,3.0,0.0,0.0,1.0,0.0,0.0,0.0,0.0,,,,
152,80,,9.0,,Polen,,,,,,,,,,,,,,2020-12-01,9.0,0.0,9.0,9.0,0.0,0.0,9.0,0.0,0.0,0.0,0.0,,,,
153,81,,0.0,,Portugal,,,,,,,,,,,,,,2020-12-01,0.0,0.0,0.0,0.0,0.0,0.0,0.0,0.0,0.0,0.0,0.0,,,,
154,82,,29.0,,Rumänien,,,,,,,,,,,,,,2020-12-01,29.0,0.0,29.0,26.0,3.0,0.0,19.0,0.0,0.0,0.0,0.0,,,,
155,83,,11.0,,Russland,,,,,,,,,,,,,,2020-12-01,11.0,0.0,11.0,11.0,0.0,11.0,9.0,0.0,0.0,0.0,0.0,,,,
156,84,,1.0,,Schweden,,,,,,,,,,,,,,2020-12-01,1.0,0.0,1.0,0.0,0.0,0.0,0.0,0.0,0.0,0.0,0.0,,,,
157,85,,3.0,,Serbien,,,,,,,,,,,,,,2020-12-01,3.0,0.0,3.0,2.0,1.0,1.0,1.0,0.0,0.0,0.0,0.0,,,,
158,86,,7.0,,Slowakische Republik,,,,,,,,,,,,,,2020-12-01,7.0,0.0,7.0,6.0,1.0,0.0,3.0,0.0,0.0,0.0,0.0,,,,
159,87,,1.0,,Slowenien,,,,,,,,,,,,,,2020-12-01,1.0,0.0,1.0,1.0,0.0,0.0,1.0,0.0,0.0,0.0,0.0,,,,
160,88,,5.0,,Spanien,,,,,,,,,,,,,,2020-12-01,5.0,0.0,5.0,3.0,1.0,0.0,3.0,0.0,0.0,0.0,0.0,,,,
161,89,,3.0,,Tschechische Republik,,,,,,,,,,,,,,2020-12-01,3.0,0.0,3.0,3.0,0.0,0.0,2.0,0.0,0.0,0.0,0.0,,,,
162,90,,13.0,,Türkei,,,,,,,,,,,,,,2020-12-01,8.0,5.0,8.0,8.0,0.0,13.0,1.0,5.0,5.0,0.0,1.0,,,,
163,91,,2.0,,Ukraine,,,,,,,,,,,,,,2020-12-01,2.0,0.0,2.0,2.0,0.0,0.0,5.0,0.0,0.0,0.0,0.0,,,,
164,92,,3.0,,Ungarn,,,,,,,,,,,,,,2020-12-01,3.0,0.0,3.0,3.0,0.0,0.0,3.0,0.0,0.0,0.0,0.0,,,,
165,95,,6.0,,Ohne Nationalität,,,,,,,,,,,,,,2020-12-01,6.0,0.0,6.0,5.0,1.0,5.0,0.0,0.0,0.0,0.0,0.0,,,,
166,96,,9.0,,Staat unbekannt,,,,,,,,,,,,,,2020-12-01,8.0,1.0,9.0,8.0,1.0,4.0,4.0,1.0,1.0,0.0,1.0,,,,
167,0,,27.0,,Herkunft unbekannt,,,,,,,,,,,,,,2014-12-01,25.0,2.0,24.0,21.0,3.0,14.0,10.0,2.0,2.0,0.0,1.0,,,,
168,2,,9.0,,Ägypten,,,,,,,,,,,,,,2014-12-01,9.0,0.0,7.0,7.0,0.0,7.0,3.0,0.0,0.0,0.0,0.0,,,,
169,3,,13.0,,Algerien,,,,,,,,,,,,,,2014-12-01,13.0,0.0,12.0,6.0,6.0,0.0,5.0,0.0,0.0,0.0,0.0,,,,
170,4,,1.0,,Angola,,,,,,,,,,,,,,2014-12-01,1.0,0.0,1.0,1.0,0.0,0.0,0.0,0.0,0.0,0.0,0.0,,,,
171,5,,1.0,,Äquatorialguinea,,,,,,,,,,,,,,2014-12-01,1.0,0.0,1.0,1.0,0.0,0.0,1.0,0.0,0.0,0.0,0.0,,,,
172,6,,9.0,,Äthiopien,,,,,,,,,,,,,,2014-12-01,9.0,0.0,9.0,9.0,0.0,9.0,2.0,0.0,0.0,0.0,0.0,,,,
173,7,,2.0,,Burkina Faso,,,,,,,,,,,,,,2014-12-01,2.0,0.0,1.0,1.0,0.0,0.0,1.0,0.0,0.0,0.0,0.0,,,,
174,8,,6.0,,Côte d'Ivoire,,,,,,,,,,,,,,2014-12-01,6.0,0.0,4.0,4.0,0.0,1.0,5.0,0.0,0.0,0.0,0.0,,,,
175,9,,137.0,,Eritrea,,,,,,,,,,,,,,2014-12-01,131.0,6.0,90.0,90.0,0.0,57.0,14.0,6.0,6.0,0.0,3.0,,,,
176,10,,14.0,,Gambia,,,,,,,,,,,,,,2014-12-01,14.0,0.0,13.0,11.0,2.0,2.0,8.0,0.0,0.0,0.0,0.0,,,,
177,11,,1.0,,Ghana,,,,,,,,,,,,,,2014-12-01,1.0,0.0,0.0,0.0,0.0,0.0,0.0,0.0,0.0,0.0,0.0,,,,
178,12,,14.0,,Guinea,,,,,,,,,,,,,,2014-12-01,14.0,0.0,11.0,11.0,0.0,0.0,8.0,0.0,0.0,0.0,0.0,,,,
179,13,,4.0,,Guinea-Bissau,,,,,,,,,,,,,,2014-12-01,4.0,0.0,4.0,4.0,0.0,2.0,3.0,0.0,0.0,0.0,0.0,,,,
180,14,,2.0,,Kamerun,,,,,,,,,,,,,,2014-12-01,2.0,0.0,2.0,2.0,0.0,0.0,1.0,0.0,0.0,0.0,0.0,,,,
181,15,,3.0,,Kongo DR,,,,,,,,,,,,,,2014-12-01,1.0,2.0,1.0,0.0,0.0,7.0,0.0,2.0,2.0,0.0,1.0,,,,
182,16,,10.0,,Liberia,,,,,,,,,,,,,,2014-12-01,10.0,0.0,9.0,6.0,3.0,4.0,4.0,0.0,0.0,0.0,0.0,,,,
183,17,,3.0,,Libyen,,,,,,,,,,,,,,2014-12-01,3.0,0.0,3.0,3.0,0.0,2.0,0.0,0.0,0.0,0.0,0.0,,,,
184,18,,21.0,,Mali,,,,,,,,,,,,,,2014-12-01,21.0,0.0,18.0,17.0,1.0,13.0,8.0,0.0,0.0,0.0,0.0,,,,
185,19,,7.0,,Marokko,,,,,,,,,,,,,,2014-12-01,7.0,0.0,7.0,6.0,1.0,5.0,4.0,0.0,0.0,0.0,0.0,,,,
186,20,,5.0,,Mauretanien,,,,,,,,,,,,,,2014-12-01,5.0,0.0,5.0,5.0,0.0,1.0,5.0,0.0,0.0,0.0,0.0,,,,
187,21,,3.0,,Niger,,,,,,,,,,,,,,2014-12-01,3.0,0.0,3.0,3.0,0.0,2.0,1.0,0.0,0.0,0.0,0.0,,,,
188,22,,130.0,,Nigeria,,,,,,,,,,,,,,2014-12-01,130.0,0.0,113.0,95.0,18.0,26.0,52.0,0.0,0.0,0.0,0.0,,,,
189,23,,6.0,,Senegal,,,,,,,,,,,,,,2014-12-01,6.0,0.0,5.0,5.0,0.0,1.0,2.0,0.0,0.0,0.0,0.0,,,,
190,24,,4.0,,Sierra Leone,,,,,,,,,,,,,,2014-12-01,4.0,0.0,4.0,3.0,1.0,0.0,3.0,0.0,0.0,0.0,0.0,,,,
191,25,,49.0,,Somalia,,,,,,,,,,,,,,2014-12-01,45.0,4.0,36.0,30.0,6.0,27.0,3.0,4.0,4.0,0.0,0.0,,,,
192,26,,7.0,,Sudan,,,,,,,,,,,,,,2014-12-01,7.0,0.0,4.0,4.0,0.0,7.0,0.0,0.0,0.0,0.0,0.0,,,,
193,27,,1.0,,Südsudan,,,,,,,,,,,,,,2014-12-01,1.0,0.0,0.0,0.0,0.0,0.0,0.0,0.0,0.0,0.0,0.0,,,,
194,28,,1.0,,Tansania,,,,,,,,,,,,,,2014-12-01,1.0,0.0,1.0,1.0,0.0,0.0,1.0,0.0,0.0,0.0,0.0,,,,
195,29,,1.0,,Togo,,,,,,,,,,,,,,2014-12-01,1.0,0.0,1.0,1.0,0.0,1.0,1.0,0.0,0.0,0.0,0.0,,,,
196,30,,1.0,,Tschad,,,,,,,,,,,,,,2014-12-01,1.0,0.0,1.0,1.0,0.0,0.0,0.0,0.0,0.0,0.0,0.0,,,,
197,31,,0.0,,Tunesien,,,,,,,,,,,,,,2014-12-01,0.0,0.0,0.0,0.0,0.0,1.0,0.0,0.0,0.0,0.0,0.0,,,,
198,32,,2.0,,Uganda,,,,,,,,,,,,,,2014-12-01,2.0,0.0,2.0,1.0,1.0,1.0,1.0,0.0,0.0,0.0,0.0,,,,
199,33,,2.0,,Zimbabwe,,,,,,,,,,,,,,2014-12-01,2.0,0.0,2.0,1.0,1.0,0.0,1.0,0.0,0.0,0.0,0.0,,,,
200,36,,1.0,,Brasilien,,,,,,,,,,,,,,2014-12-01,1.0,0.0,1.0,0.0,1.0,0.0,0.0,0.0,0.0,0.0,0.0,,,,
201,37,,25.0,,Dominikanische Republik,,,,,,,,,,,,,,2014-12-01,25.0,0.0,25.0,20.0,5.0,0.0,16.0,0.0,0.0,0.0,0.0,,,,
202,38,,3.0,,Ecuador,,,,,,,,,,,,,,2014-12-01,3.0,0.0,3.0,2.0,1.0,0.0,0.0,0.0,0.0,0.0,0.0,,,,
203,39,,3.0,,Kolumbien,,,,,,,,,,,,,,2014-12-01,3.0,0.0,3.0,3.0,0.0,0.0,2.0,0.0,0.0,0.0,0.0,,,,
204,40,,1.0,,Kuba,,,,,,,,,,,,,,2014-12-01,1.0,0.0,1.0,1.0,0.0,0.0,1.0,0.0,0.0,0.0,0.0,,,,
205,41,,1.0,,Suriname,,,,,,,,,,,,,,2014-12-01,1.0,0.0,1.0,1.0,0.0,0.0,1.0,0.0,0.0,0.0,0.0,,,,
206,42,,2.0,,USA,,,,,,,,,,,,,,2014-12-01,2.0,0.0,2.0,2.0,0.0,1.0,2.0,0.0,0.0,0.0,0.0,,,,
207,45,,28.0,,Afghanistan,,,,,,,,,,,,,,2014-12-01,23.0,5.0,22.0,22.0,0.0,27.0,5.0,5.0,5.0,0.0,1.0,,,,
208,46,,1.0,,Bangladesh,,,,,,,,,,,,,,2014-12-01,1.0,0.0,1.0,1.0,0.0,0.0,0.0,0.0,0.0,0.0,0.0,,,,
209,47,,1.0,,China (Volksrepublik),,,,,,,,,,,,,,2014-12-01,1.0,0.0,1.0,1.0,0.0,4.0,1.0,0.0,0.0,0.0,0.0,,,,
210,48,,1.0,,Georgien,,,,,,,,,,,,,,2014-12-01,1.0,0.0,1.0,1.0,0.0,0.0,2.0,0.0,0.0,0.0,0.0,,,,
211,49,,17.0,,Irak,,,,,,,,,,,,,,2014-12-01,16.0,1.0,12.0,12.0,0.0,4.0,8.0,1.0,1.0,0.0,1.0,,,,
212,50,,16.0,,Iran,,,,,,,,,,,,,,2014-12-01,16.0,0.0,16.0,16.0,0.0,18.0,0.0,0.0,0.0,0.0,0.0,,,,
213,51,,1.0,,Libanon,,,,,,,,,,,,,,2014-12-01,1.0,0.0,1.0,1.0,0.0,0.0,1.0,0.0,0.0,0.0,0.0,,,,
214,52,,2.0,,Mongolei,,,,,,,,,,,,,,2014-12-01,2.0,0.0,2.0,2.0,0.0,0.0,0.0,0.0,0.0,0.0,0.0,,,,
215,53,,4.0,,Pakistan,,,,,,,,,,,,,,2014-12-01,4.0,0.0,4.0,4.0,0.0,0.0,1.0,0.0,0.0,0.0,0.0,,,,
216,54,,8.0,,Sri Lanka,,,,,,,,,,,,,,2014-12-01,8.0,0.0,8.0,7.0,1.0,6.0,4.0,0.0,0.0,0.0,0.0,,,,
217,55,,41.0,,Syrien,,,,,,,,,,,,,,2014-12-01,40.0,1.0,36.0,35.0,1.0,32.0,5.0,1.0,1.0,0.0,0.0,,,,
218,58,,1.0,,Belarus,,,,,,,,,,,,,,2014-12-01,1.0,0.0,1.0,1.0,0.0,0.0,1.0,0.0,0.0,0.0,0.0,,,,
219,59,,2.0,,Belgien,,,,,,,,,,,,,,2014-12-01,2.0,0.0,2.0,1.0,1.0,0.0,0.0,0.0,0.0,0.0,0.0,,,,
220,60,,1.0,,Bosnien u. Herzegowina,,,,,,,,,,,,,,2014-12-01,1.0,0.0,1.0,0.0,1.0,0.0,0.0,0.0,0.0,0.0,0.0,,,,
221,61,,3.0,,Bulgarien,,,,,,,,,,,,,,2014-12-01,3.0,0.0,3.0,3.0,0.0,0.0,0.0,0.0,0.0,0.0,0.0,,,,
222,62,,1.0,,Griechenland,,,,,,,,,,,,,,2014-12-01,1.0,0.0,1.0,0.0,1.0,0.0,0.0,0.0,0.0,0.0,0.0,,,,
223,63,,1.0,,Grossbritannien,,,,,,,,,,,,,,2014-12-01,1.0,0.0,1.0,1.0,0.0,0.0,1.0,0.0,0.0,0.0,0.0,,,,
224,64,,0.0,,Italien,,,,,,,,,,,,,,2014-12-01,0.0,0.0,0.0,0.0,0.0,2.0,0.0,0.0,0.0,0.0,0.0,,,,
225,65,,2.0,,Kosovo,,,,,,,,,,,,,,2014-12-01,2.0,0.0,2.0,0.0,0.0,0.0,0.0,0.0,0.0,0.0,0.0,,,,
226,66,,5.0,,Kroatien,,,,,,,,,,,,,,2014-12-01,5.0,0.0,2.0,1.0,0.0,0.0,2.0,0.0,0.0,0.0,0.0,,,,
227,67,,2.0,,Lettland,,,,,,,,,,,,,,2014-12-01,2.0,0.0,2.0,2.0,0.0,0.0,2.0,0.0,0.0,0.0,0.0,,,,
228,68,,6.0,,Litauen,,,,,,,,,,,,,,2014-12-01,6.0,0.0,5.0,4.0,1.0,0.0,3.0,0.0,0.0,0.0,0.0,,,,
229,69,,2.0,,Mazedonien eh.Jug.Rep.,,,,,,,,,,,,,,2014-12-01,2.0,0.0,2.0,2.0,0.0,0.0,1.0,0.0,0.0,0.0,0.0,,,,
230,70,,2.0,,Moldova,,,,,,,,,,,,,,2014-12-01,2.0,0.0,2.0,2.0,0.0,0.0,0.0,0.0,0.0,0.0,0.0,,,,
231,71,,1.0,,Montenegro,,,,,,,,,,,,,,2014-12-01,1.0,0.0,1.0,1.0,0.0,0.0,0.0,0.0,0.0,0.0,0.0,,,,
232,72,,1.0,,Niederlande,,,,,,,,,,,,,,2014-12-01,1.0,0.0,1.0,1.0,0.0,0.0,1.0,0.0,0.0,0.0,0.0,,,,
233,73,,4.0,,Polen,,,,,,,,,,,,,,2014-12-01,4.0,0.0,4.0,4.0,0.0,0.0,4.0,0.0,0.0,0.0,0.0,,,,
234,74,,1.0,,Portugal,,,,,,,,,,,,,,2014-12-01,1.0,0.0,1.0,1.0,0.0,0.0,0.0,0.0,0.0,0.0,0.0,,,,
235,75,,38.0,,Rumänien,,,,,,,,,,,,,,2014-12-01,38.0,0.0,31.0,31.0,0.0,1.0,31.0,0.0,0.0,0.0,0.0,,,,
236,76,,5.0,,Russland,,,,,,,,,,,,,,2014-12-01,5.0,0.0,5.0,5.0,0.0,4.0,1.0,0.0,0.0,0.0,0.0,,,,
237,77,,2.0,,Serbien,,,,,,,,,,,,,,2014-12-01,2.0,0.0,2.0,2.0,0.0,0.0,1.0,0.0,0.0,0.0,0.0,,,,
238,78,,9.0,,Slowakische Republik,,,,,,,,,,,,,,2014-12-01,9.0,0.0,9.0,9.0,0.0,0.0,1.0,0.0,0.0,0.0,0.0,,,,
239,79,,4.0,,Spanien,,,,,,,,,,,,,,2014-12-01,4.0,0.0,3.0,3.0,0.0,1.0,3.0,0.0,0.0,0.0,0.0,,,,
240,80,,1.0,,Tschechische Republik,,,,,,,,,,,,,,2014-12-01,1.0,0.0,1.0,1.0,0.0,0.0,1.0,0.0,0.0,0.0,0.0,,,,
241,81,,3.0,,Türkei,,,,,,,,,,,,,,2014-12-01,3.0,0.0,3.0,2.0,1.0,1.0,1.0,0.0,0.0,0.0,0.0,,,,
242,82,,5.0,,Ukraine,,,,,,,,,,,,,,2014-12-01,5.0,0.0,5.0,5.0,0.0,1.0,3.0,0.0,0.0,0.0,0.0,,,,
243,83,,7.0,,Ungarn,,,,,,,,,,,,,,2014-12-01,7.0,0.0,7.0,7.0,0.0,0.0,7.0,0.0,0.0,0.0,0.0,,,,
244,86,,1.0,,Staatenlos,,,,,,,,,,,,,,2014-12-01,1.0,0.0,1.0,1.0,0.0,0.0,1.0,0.0,0.0,0.0,0.0,,,,
245,87,,3.0,,Ohne Nationalität,,,,,,,,,,,,,,2014-12-01,2.0,1.0,2.0,2.0,0.0,7.0,2.0,1.0,1.0,0.0,0.0,,,,
246,88,,23.0,,Staat unbekannt,,,,,,,,,,,,,,2014-12-01,22.0,1.0,21.0,18.0,3.0,7.0,7.0,1.0,1.0,0.0,1.0,,,,
247,0,,18.0,,Herkunft unbekannt,,,,,,,,,,,,,,2015-12-01,18.0,0.0,16.0,14.0,2.0,5.0,8.0,0.0,0.0,0.0,0.0,,,,
248,2,,8.0,,Ägypten,,,,,,,,,,,,,,2015-12-01,8.0,0.0,10.0,6.0,0.0,1.0,0.0,0.0,0.0,0.0,0.0,,,,
249,3,,7.0,,Algerien,,,,,,,,,,,,,,2015-12-01,7.0,0.0,8.0,7.0,1.0,0.0,6.0,0.0,0.0,0.0,0.0,,,,
250,4,,1.0,,Angola,,,,,,,,,,,,,,2015-12-01,0.0,1.0,0.0,0.0,0.0,0.0,0.0,1.0,0.0,1.0,0.0,,,,
251,5,,20.0,,Äthiopien,,,,,,,,,,,,,,2015-12-01,15.0,5.0,15.0,15.0,0.0,9.0,1.0,5.0,5.0,0.0,4.0,,,,
252,6,,0.0,,Burkina Faso,,,,,,,,,,,,,,2015-12-01,0.0,0.0,1.0,1.0,0.0,1.0,1.0,0.0,0.0,0.0,0.0,,,,
253,7,,3.0,,Côte d'Ivoire,,,,,,,,,,,,,,2015-12-01,3.0,0.0,3.0,3.0,0.0,1.0,2.0,0.0,0.0,0.0,0.0,,,,
254,8,,88.0,,Eritrea,,,,,,,,,,,,,,2015-12-01,87.0,1.0,84.0,80.0,4.0,69.0,15.0,1.0,1.0,0.0,1.0,,,,
255,9,,20.0,,Gambia,,,,,,,,,,,,,,2015-12-01,20.0,0.0,16.0,13.0,3.0,5.0,12.0,0.0,0.0,0.0,0.0,,,,
256,10,,4.0,,Ghana,,,,,,,,,,,,,,2015-12-01,4.0,0.0,4.0,2.0,2.0,0.0,1.0,0.0,0.0,0.0,0.0,,,,
257,11,,11.0,,Guinea,,,,,,,,,,,,,,2015-12-01,11.0,0.0,13.0,8.0,5.0,2.0,7.0,0.0,0.0,0.0,0.0,,,,
258,12,,6.0,,Guinea-Bissau,,,,,,,,,,,,,,2015-12-01,6.0,0.0,5.0,4.0,1.0,1.0,1.0,0.0,0.0,0.0,0.0,,,,
259,13,,1.0,,Kamerun,,,,,,,,,,,,,,2015-12-01,1.0,0.0,1.0,1.0,0.0,0.0,2.0,0.0,0.0,0.0,0.0,,,,
260,14,,1.0,,Kongo DR,,,,,,,,,,,,,,2015-12-01,1.0,0.0,1.0,1.0,0.0,1.0,0.0,0.0,0.0,0.0,0.0,,,,
261,15,,2.0,,Liberia,,,,,,,,,,,,,,2015-12-01,2.0,0.0,3.0,3.0,0.0,1.0,2.0,0.0,0.0,0.0,0.0,,,,
262,16,,2.0,,Libyen,,,,,,,,,,,,,,2015-12-01,1.0,1.0,1.0,1.0,0.0,0.0,0.0,1.0,1.0,0.0,0.0,,,,
263,17,,12.0,,Mali,,,,,,,,,,,,,,2015-12-01,12.0,0.0,14.0,12.0,1.0,6.0,7.0,0.0,0.0,0.0,0.0,,,,
264,18,,6.0,,Marokko,,,,,,,,,,,,,,2015-12-01,6.0,0.0,6.0,4.0,2.0,1.0,0.0,0.0,0.0,0.0,0.0,,,,
265,19,,1.0,,Niger,,,,,,,,,,,,,,2015-12-01,1.0,0.0,1.0,1.0,0.0,0.0,0.0,0.0,0.0,0.0,0.0,,,,
266,20,,102.0,,Nigeria,,,,,,,,,,,,,,2015-12-01,102.0,0.0,104.0,96.0,5.0,18.0,64.0,0.0,0.0,0.0,0.0,,,,
267,21,,11.0,,Senegal,,,,,,,,,,,,,,2015-12-01,11.0,0.0,11.0,9.0,2.0,3.0,7.0,0.0,0.0,0.0,0.0,,,,
268,22,,2.0,,Sierra Leone,,,,,,,,,,,,,,2015-12-01,2.0,0.0,2.0,2.0,0.0,0.0,1.0,0.0,0.0,0.0,0.0,,,,
269,23,,48.0,,Somalia,,,,,,,,,,,,,,2015-12-01,44.0,4.0,35.0,31.0,4.0,18.0,6.0,4.0,4.0,0.0,0.0,,,,
270,24,,5.0,,Sudan,,,,,,,,,,,,,,2015-12-01,5.0,0.0,4.0,4.0,0.0,5.0,3.0,0.0,0.0,0.0,0.0,,,,
271,25,,0.0,,Südsudan,,,,,,,,,,,,,,2015-12-01,0.0,0.0,1.0,1.0,0.0,1.0,0.0,0.0,0.0,0.0,0.0,,,,
272,26,,3.0,,Togo,,,,,,,,,,,,,,2015-12-01,3.0,0.0,2.0,2.0,0.0,1.0,1.0,0.0,0.0,0.0,0.0,,,,
273,27,,2.0,,Tschad,,,,,,,,,,,,,,2015-12-01,2.0,0.0,2.0,1.0,1.0,0.0,0.0,0.0,0.0,0.0,0.0,,,,
274,28,,2.0,,Tunesien,,,,,,,,,,,,,,2015-12-01,2.0,0.0,2.0,2.0,0.0,0.0,1.0,0.0,0.0,0.0,0.0,,,,
275,31,,2.0,,Bolivien,,,,,,,,,,,,,,2015-12-01,2.0,0.0,2.0,2.0,0.0,0.0,2.0,0.0,0.0,0.0,0.0,,,,
276,32,,15.0,,Dominikanische Republik,,,,,,,,,,,,,,2015-12-01,15.0,0.0,15.0,14.0,1.0,0.0,13.0,0.0,0.0,0.0,0.0,,,,
277,33,,2.0,,Ecuador,,,,,,,,,,,,,,2015-12-01,2.0,0.0,2.0,2.0,0.0,0.0,1.0,0.0,0.0,0.0,0.0,,,,
278,34,,4.0,,Haiti,,,,,,,,,,,,,,2015-12-01,4.0,0.0,0.0,0.0,0.0,0.0,0.0,0.0,0.0,0.0,0.0,,,,
279,35,,1.0,,Kanada,,,,,,,,,,,,,,2015-12-01,1.0,0.0,1.0,1.0,0.0,0.0,1.0,0.0,0.0,0.0,0.0,,,,
280,36,,4.0,,Kolumbien,,,,,,,,,,,,,,2015-12-01,4.0,0.0,3.0,2.0,0.0,0.0,3.0,0.0,0.0,0.0,0.0,,,,
281,37,,1.0,,Kuba,,,,,,,,,,,,,,2015-12-01,1.0,0.0,1.0,1.0,0.0,0.0,0.0,0.0,0.0,0.0,0.0,,,,
282,38,,1.0,,Trinidad u. Tobago,,,,,,,,,,,,,,2015-12-01,1.0,0.0,1.0,1.0,0.0,0.0,0.0,0.0,0.0,0.0,0.0,,,,
283,41,,24.0,,Afghanistan,,,,,,,,,,,,,,2015-12-01,24.0,0.0,25.0,25.0,0.0,13.0,3.0,0.0,0.0,0.0,0.0,,,,
284,42,,1.0,,Bangladesh,,,,,,,,,,,,,,2015-12-01,1.0,0.0,1.0,1.0,0.0,2.0,0.0,0.0,0.0,0.0,0.0,,,,
285,43,,10.0,,China (Volksrepublik),,,,,,,,,,,,,,2015-12-01,10.0,0.0,10.0,10.0,0.0,4.0,6.0,0.0,0.0,0.0,0.0,,,,
286,44,,3.0,,Georgien,,,,,,,,,,,,,,2015-12-01,3.0,0.0,3.0,2.0,1.0,0.0,2.0,0.0,0.0,0.0,0.0,,,,
287,45,,7.0,,Irak,,,,,,,,,,,,,,2015-12-01,6.0,1.0,7.0,6.0,1.0,1.0,1.0,1.0,1.0,0.0,1.0,,,,
288,46,,3.0,,Iran,,,,,,,,,,,,,,2015-12-01,3.0,0.0,2.0,2.0,0.0,4.0,1.0,0.0,0.0,0.0,0.0,,,,
289,47,,4.0,,Sri Lanka,,,,,,,,,,,,,,2015-12-01,4.0,0.0,4.0,3.0,1.0,2.0,1.0,0.0,0.0,0.0,0.0,,,,
290,48,,58.0,,Syrien,,,,,,,,,,,,,,2015-12-01,58.0,0.0,54.0,52.0,2.0,24.0,15.0,0.0,0.0,0.0,0.0,,,,
291,51,,1.0,,Belarus,,,,,,,,,,,,,,2015-12-01,1.0,0.0,1.0,1.0,0.0,0.0,1.0,0.0,0.0,0.0,0.0,,,,
292,52,,2.0,,Belgien,,,,,,,,,,,,,,2015-12-01,2.0,0.0,1.0,1.0,0.0,0.0,0.0,0.0,0.0,0.0,0.0,,,,
293,53,,6.0,,Bosnien u. Herzegowina,,,,,,,,,,,,,,2015-12-01,6.0,0.0,6.0,0.0,6.0,0.0,0.0,0.0,0.0,0.0,0.0,,,,
294,54,,1.0,,Grossbritannien,,,,,,,,,,,,,,2015-12-01,1.0,0.0,1.0,1.0,0.0,0.0,1.0,0.0,0.0,0.0,0.0,,,,
295,55,,3.0,,Kosovo,,,,,,,,,,,,,,2015-12-01,3.0,0.0,3.0,3.0,0.0,1.0,0.0,0.0,0.0,0.0,0.0,,,,
296,56,,2.0,,Kroatien,,,,,,,,,,,,,,2015-12-01,2.0,0.0,1.0,1.0,0.0,0.0,4.0,0.0,0.0,0.0,0.0,,,,
297,57,,1.0,,Litauen,,,,,,,,,,,,,,2015-12-01,1.0,0.0,1.0,1.0,0.0,0.0,0.0,0.0,0.0,0.0,0.0,,,,
298,58,,1.0,,Mazedonien eh.Jug.Rep.,,,,,,,,,,,,,,2015-12-01,1.0,0.0,1.0,1.0,0.0,0.0,1.0,0.0,0.0,0.0,0.0,,,,
299,59,,1.0,,Moldova,,,,,,,,,,,,,,2015-12-01,1.0,0.0,1.0,1.0,0.0,0.0,0.0,0.0,0.0,0.0,0.0,,,,
300,60,,3.0,,Montenegro,,,,,,,,,,,,,,2015-12-01,3.0,0.0,3.0,0.0,3.0,0.0,0.0,0.0,0.0,0.0,0.0,,,,
301,61,,2.0,,Niederlande,,,,,,,,,,,,,,2015-12-01,2.0,0.0,1.0,1.0,0.0,0.0,1.0,0.0,0.0,0.0,0.0,,,,
302,62,,9.0,,Polen,,,,,,,,,,,,,,2015-12-01,9.0,0.0,9.0,9.0,0.0,0.0,3.0,0.0,0.0,0.0,0.0,,,,
303,63,,41.0,,Rumänien,,,,,,,,,,,,,,2015-12-01,41.0,0.0,42.0,38.0,4.0,0.0,37.0,0.0,0.0,0.0,0.0,,,,
304,64,,12.0,,Russland,,,,,,,,,,,,,,2015-12-01,12.0,0.0,7.0,7.0,0.0,7.0,0.0,0.0,0.0,0.0,0.0,,,,
305,65,,3.0,,Serbien,,,,,,,,,,,,,,2015-12-01,3.0,0.0,3.0,2.0,1.0,0.0,1.0,0.0,0.0,0.0,0.0,,,,
306,66,,4.0,,Slowakische Republik,,,,,,,,,,,,,,2015-12-01,4.0,0.0,4.0,4.0,0.0,0.0,2.0,0.0,0.0,0.0,0.0,,,,
307,67,,1.0,,Slowenien,,,,,,,,,,,,,,2015-12-01,1.0,0.0,1.0,1.0,0.0,0.0,1.0,0.0,0.0,0.0,0.0,,,,
308,68,,4.0,,Spanien,,,,,,,,,,,,,,2015-12-01,4.0,0.0,4.0,4.0,0.0,0.0,3.0,0.0,0.0,0.0,0.0,,,,
309,69,,1.0,,Tschechische Republik,,,,,,,,,,,,,,2015-12-01,1.0,0.0,1.0,1.0,0.0,0.0,1.0,0.0,0.0,0.0,0.0,,,,
310,70,,3.0,,Türkei,,,,,,,,,,,,,,2015-12-01,3.0,0.0,3.0,3.0,0.0,1.0,1.0,0.0,0.0,0.0,0.0,,,,
311,71,,1.0,,Ungarn,,,,,,,,,,,,,,2015-12-01,1.0,0.0,1.0,1.0,0.0,0.0,1.0,0.0,0.0,0.0,0.0,,,,
312,74,,5.0,,Ohne Nationalität,,,,,,,,,,,,,,2015-12-01,5.0,0.0,5.0,5.0,0.0,4.0,2.0,0.0,0.0,0.0,0.0,,,,
313,75,,13.0,,Staat unbekannt,,,,,,,,,,,,,,2015-12-01,13.0,0.0,11.0,9.0,2.0,1.0,6.0,0.0,0.0,0.0,0.0,,,,
314,0,,27.0,,Herkunft unbekannt,,,,,,,,,,,,,,2019-12-01,27.0,0.0,27.0,25.0,2.0,7.0,20.0,0.0,0.0,0.0,0.0,,,,
315,2,,1.0,,Ägypten,,,,,,,,,,,,,,2019-12-01,1.0,0.0,1.0,1.0,0.0,1.0,0.0,0.0,0.0,0.0,0.0,,,,
316,3,,8.0,,Algerien,,,,,,,,,,,,,,2019-12-01,8.0,0.0,9.0,5.0,4.0,0.0,7.0,0.0,0.0,0.0,0.0,,,,
317,4,,1.0,,Angola,,,,,,,,,,,,,,2019-12-01,1.0,0.0,1.0,1.0,0.0,1.0,1.0,0.0,0.0,0.0,0.0,,,,
318,5,,1.0,,Äquatorialguinea,,,,,,,,,,,,,,2019-12-01,1.0,0.0,0.0,0.0,0.0,0.0,0.0,0.0,0.0,0.0,0.0,,,,
319,6,,2.0,,Äthiopien,,,,,,,,,,,,,,2019-12-01,2.0,0.0,2.0,2.0,0.0,5.0,0.0,0.0,0.0,0.0,0.0,,,,
320,7,,1.0,,Benin,,,,,,,,,,,,,,2019-12-01,1.0,0.0,1.0,0.0,1.0,0.0,0.0,0.0,0.0,0.0,0.0,,,,
321,8,,1.0,,Burundi,,,,,,,,,,,,,,2019-12-01,1.0,0.0,1.0,1.0,0.0,1.0,0.0,0.0,0.0,0.0,0.0,,,,
322,9,,4.0,,Côte d'Ivoire,,,,,,,,,,,,,,2019-12-01,4.0,0.0,3.0,3.0,0.0,0.0,3.0,0.0,0.0,0.0,0.0,,,,
323,10,,58.0,,Eritrea,,,,,,,,,,,,,,2019-12-01,33.0,25.0,29.0,28.0,0.0,21.0,11.0,25.0,25.0,0.0,11.0,,,,
324,11,,1.0,,Gabun,,,,,,,,,,,,,,2019-12-01,1.0,0.0,1.0,1.0,0.0,0.0,0.0,0.0,0.0,0.0,0.0,,,,
325,12,,20.0,,Gambia,,,,,,,,,,,,,,2019-12-01,20.0,0.0,15.0,14.0,0.0,2.0,12.0,0.0,0.0,0.0,0.0,,,,
326,13,,1.0,,Ghana,,,,,,,,,,,,,,2019-12-01,1.0,0.0,1.0,1.0,0.0,2.0,2.0,0.0,0.0,0.0,0.0,,,,
327,14,,14.0,,Guinea,,,,,,,,,,,,,,2019-12-01,14.0,0.0,12.0,9.0,2.0,1.0,10.0,0.0,0.0,0.0,0.0,,,,
328,15,,3.0,,Guinea-Bissau,,,,,,,,,,,,,,2019-12-01,3.0,0.0,3.0,2.0,1.0,0.0,2.0,0.0,0.0,0.0,0.0,,,,
329,16,,5.0,,Kamerun,,,,,,,,,,,,,,2019-12-01,4.0,1.0,2.0,2.0,0.0,2.0,0.0,1.0,1.0,0.0,0.0,,,,
330,17,,1.0,,Kenia,,,,,,,,,,,,,,2019-12-01,1.0,0.0,2.0,1.0,0.0,1.0,1.0,0.0,0.0,0.0,0.0,,,,
331,18,,2.0,,Kongo DR,,,,,,,,,,,,,,2019-12-01,2.0,0.0,3.0,2.0,0.0,0.0,0.0,0.0,0.0,0.0,0.0,,,,
332,19,,1.0,,Liberia,,,,,,,,,,,,,,2019-12-01,1.0,0.0,1.0,0.0,1.0,0.0,0.0,0.0,0.0,0.0,0.0,,,,
333,20,,4.0,,Mali,,,,,,,,,,,,,,2019-12-01,4.0,0.0,5.0,5.0,0.0,0.0,4.0,0.0,0.0,0.0,0.0,,,,
334,21,,10.0,,Marokko,,,,,,,,,,,,,,2019-12-01,8.0,2.0,8.0,7.0,1.0,6.0,3.0,2.0,1.0,1.0,1.0,,,,
335,22,,2.0,,Mauretanien,,,,,,,,,,,,,,2019-12-01,2.0,0.0,2.0,2.0,0.0,0.0,2.0,0.0,0.0,0.0,0.0,,,,
336,23,,93.0,,Nigeria,,,,,,,,,,,,,,2019-12-01,93.0,0.0,88.0,68.0,9.0,7.0,63.0,0.0,0.0,0.0,0.0,,,,
337,24,,6.0,,Senegal,,,,,,,,,,,,,,2019-12-01,6.0,0.0,6.0,5.0,1.0,0.0,3.0,0.0,0.0,0.0,0.0,,,,
338,25,,1.0,,Sierra Leone,,,,,,,,,,,,,,2019-12-01,1.0,0.0,0.0,0.0,0.0,0.0,0.0,0.0,0.0,0.0,0.0,,,,
339,26,,49.0,,Somalia,,,,,,,,,,,,,,2019-12-01,43.0,6.0,29.0,24.0,1.0,33.0,11.0,6.0,2.0,4.0,0.0,,,,
340,27,,5.0,,Sudan,,,,,,,,,,,,,,2019-12-01,5.0,0.0,5.0,4.0,1.0,3.0,2.0,0.0,0.0,0.0,0.0,,,,
341,28,,1.0,,Südsudan,,,,,,,,,,,,,,2019-12-01,1.0,0.0,1.0,1.0,0.0,1.0,0.0,0.0,0.0,0.0,0.0,,,,
342,29,,0.0,,Tansania,,,,,,,,,,,,,,2019-12-01,0.0,0.0,0.0,0.0,0.0,0.0,1.0,0.0,0.0,0.0,0.0,,,,
343,30,,1.0,,Togo,,,,,,,,,,,,,,2019-12-01,1.0,0.0,1.0,1.0,0.0,0.0,0.0,0.0,0.0,0.0,0.0,,,,
344,31,,5.0,,Tschad,,,,,,,,,,,,,,2019-12-01,5.0,0.0,0.0,0.0,0.0,0.0,0.0,0.0,0.0,0.0,0.0,,,,
345,32,,2.0,,Tunesien,,,,,,,,,,,,,,2019-12-01,2.0,0.0,2.0,2.0,0.0,0.0,1.0,0.0,0.0,0.0,0.0,,,,
346,33,,1.0,,Zentralafr. Republik,,,,,,,,,,,,,,2019-12-01,1.0,0.0,1.0,1.0,0.0,1.0,1.0,0.0,0.0,0.0,0.0,,,,
347,34,,1.0,,Zimbabwe,,,,,,,,,,,,,,2019-12-01,1.0,0.0,1.0,0.0,1.0,0.0,0.0,0.0,0.0,0.0,0.0,,,,
348,37,,1.0,,Chile,,,,,,,,,,,,,,2019-12-01,1.0,0.0,1.0,1.0,0.0,0.0,1.0,0.0,0.0,0.0,0.0,,,,
349,38,,24.0,,Dominikanische Republik,,,,,,,,,,,,,,2019-12-01,24.0,0.0,22.0,16.0,5.0,0.0,14.0,0.0,0.0,0.0,0.0,,,,
350,39,,2.0,,Ecuador,,,,,,,,,,,,,,2019-12-01,2.0,0.0,2.0,1.0,1.0,0.0,1.0,0.0,0.0,0.0,0.0,,,,
351,40,,4.0,,Kolumbien,,,,,,,,,,,,,,2019-12-01,4.0,0.0,4.0,2.0,2.0,0.0,2.0,0.0,0.0,0.0,0.0,,,,
352,41,,1.0,,Kuba,,,,,,,,,,,,,,2019-12-01,1.0,0.0,1.0,1.0,0.0,0.0,1.0,0.0,0.0,0.0,0.0,,,,
353,42,,1.0,,Mexiko,,,,,,,,,,,,,,2019-12-01,1.0,0.0,1.0,1.0,0.0,0.0,0.0,0.0,0.0,0.0,0.0,,,,
354,43,,0.0,,Peru,,,,,,,,,,,,,,2019-12-01,0.0,0.0,0.0,0.0,0.0,0.0,1.0,0.0,0.0,0.0,0.0,,,,
355,44,,2.0,,Venezuela,,,,,,,,,,,,,,2019-12-01,2.0,0.0,2.0,1.0,1.0,0.0,1.0,0.0,0.0,0.0,0.0,,,,
356,47,,93.0,,Afghanistan,,,,,,,,,,,,,,2019-12-01,90.0,3.0,97.0,87.0,8.0,72.0,10.0,3.0,3.0,0.0,1.0,,,,
357,48,,9.0,,China (Volksrepublik),,,,,,,,,,,,,,2019-12-01,9.0,0.0,9.0,7.0,2.0,1.0,5.0,0.0,0.0,0.0,0.0,,,,
358,49,,2.0,,Georgien,,,,,,,,,,,,,,2019-12-01,2.0,0.0,1.0,0.0,1.0,3.0,0.0,0.0,0.0,0.0,0.0,,,,
359,50,,79.0,,Irak,,,,,,,,,,,,,,2019-12-01,78.0,1.0,76.0,71.0,3.0,59.0,13.0,1.0,1.0,0.0,0.0,,,,
360,51,,20.0,,Iran,,,,,,,,,,,,,,2019-12-01,20.0,0.0,21.0,20.0,0.0,22.0,5.0,0.0,0.0,0.0,0.0,,,,
361,52,,1.0,,Jemen,,,,,,,,,,,,,,2019-12-01,1.0,0.0,1.0,1.0,0.0,0.0,0.0,0.0,0.0,0.0,0.0,,,,
362,53,,1.0,,Libanon,,,,,,,,,,,,,,2019-12-01,0.0,1.0,0.0,0.0,0.0,0.0,0.0,1.0,1.0,0.0,0.0,,,,
363,54,,1.0,,Nepal,,,,,,,,,,,,,,2019-12-01,1.0,0.0,1.0,0.0,1.0,0.0,0.0,0.0,0.0,0.0,0.0,,,,
364,55,,7.0,,Pakistan,,,,,,,,,,,,,,2019-12-01,7.0,0.0,11.0,9.0,1.0,5.0,6.0,0.0,0.0,0.0,0.0,,,,
365,56,,2.0,,Sri Lanka,,,,,,,,,,,,,,2019-12-01,2.0,0.0,1.0,1.0,0.0,1.0,0.0,0.0,0.0,0.0,0.0,,,,
366,57,,66.0,,Syrien,,,,,,,,,,,,,,2019-12-01,62.0,4.0,68.0,67.0,0.0,30.0,11.0,4.0,1.0,3.0,1.0,,,,
367,58,,1.0,,Thailand,,,,,,,,,,,,,,2019-12-01,0.0,1.0,0.0,0.0,0.0,0.0,0.0,1.0,1.0,0.0,0.0,,,,
368,61,,3.0,,Albanien,,,,,,,,,,,,,,2019-12-01,2.0,1.0,2.0,2.0,0.0,0.0,2.0,1.0,1.0,0.0,1.0,,,,
369,62,,1.0,,Bosnien u. Herzegowina,,,,,,,,,,,,,,2019-12-01,0.0,1.0,0.0,0.0,0.0,0.0,0.0,1.0,1.0,0.0,1.0,,,,
370,63,,1.0,,Bulgarien,,,,,,,,,,,,,,2019-12-01,1.0,0.0,1.0,1.0,0.0,0.0,0.0,0.0,0.0,0.0,0.0,,,,
371,64,,1.0,,Estland,,,,,,,,,,,,,,2019-12-01,1.0,0.0,1.0,0.0,1.0,0.0,0.0,0.0,0.0,0.0,0.0,,,,
372,65,,2.0,,Griechenland,,,,,,,,,,,,,,2019-12-01,2.0,0.0,2.0,2.0,0.0,0.0,1.0,0.0,0.0,0.0,0.0,,,,
373,66,,4.0,,Grossbritannien,,,,,,,,,,,,,,2019-12-01,4.0,0.0,3.0,1.0,2.0,0.0,0.0,0.0,0.0,0.0,0.0,,,,
374,67,,2.0,,Italien,,,,,,,,,,,,,,2019-12-01,2.0,0.0,2.0,2.0,0.0,0.0,1.0,0.0,0.0,0.0,0.0,,,,
375,68,,2.0,,Kosovo,,,,,,,,,,,,,,2019-12-01,2.0,0.0,3.0,3.0,0.0,1.0,2.0,0.0,0.0,0.0,0.0,,,,
376,69,,7.0,,Kroatien,,,,,,,,,,,,,,2019-12-01,7.0,0.0,7.0,7.0,0.0,0.0,5.0,0.0,0.0,0.0,0.0,,,,
377,70,,3.0,,Litauen,,,,,,,,,,,,,,2019-12-01,3.0,0.0,3.0,3.0,0.0,0.0,4.0,0.0,0.0,0.0,0.0,,,,
378,71,,0.0,,Nordmazedonien,,,,,,,,,,,,,,2019-12-01,0.0,0.0,0.0,0.0,0.0,1.0,0.0,0.0,0.0,0.0,0.0,,,,
379,72,,3.0,,Moldova,,,,,,,,,,,,,,2019-12-01,3.0,0.0,3.0,2.0,1.0,0.0,2.0,0.0,0.0,0.0,0.0,,,,
380,73,,1.0,,Montenegro,,,,,,,,,,,,,,2019-12-01,1.0,0.0,1.0,1.0,0.0,0.0,1.0,0.0,0.0,0.0,0.0,,,,
381,74,,6.0,,Niederlande,,,,,,,,,,,,,,2019-12-01,6.0,0.0,6.0,6.0,0.0,0.0,5.0,0.0,0.0,0.0,0.0,,,,
382,75,,13.0,,Polen,,,,,,,,,,,,,,2019-12-01,13.0,0.0,13.0,12.0,0.0,0.0,9.0,0.0,0.0,0.0,0.0,,,,
383,76,,47.0,,Rumänien,,,,,,,,,,,,,,2019-12-01,47.0,0.0,46.0,44.0,2.0,0.0,35.0,0.0,0.0,0.0,0.0,,,,
384,77,,5.0,,Russland,,,,,,,,,,,,,,2019-12-01,5.0,0.0,7.0,7.0,0.0,4.0,5.0,0.0,0.0,0.0,0.0,,,,
385,78,,1.0,,Schweden,,,,,,,,,,,,,,2019-12-01,1.0,0.0,1.0,0.0,1.0,0.0,0.0,0.0,0.0,0.0,0.0,,,,
386,79,,5.0,,Serbien,,,,,,,,,,,,,,2019-12-01,4.0,1.0,3.0,3.0,0.0,0.0,1.0,1.0,1.0,0.0,0.0,,,,
387,80,,8.0,,Slowakische Republik,,,,,,,,,,,,,,2019-12-01,8.0,0.0,8.0,8.0,0.0,0.0,4.0,0.0,0.0,0.0,0.0,,,,
388,81,,1.0,,Slowenien,,,,,,,,,,,,,,2019-12-01,1.0,0.0,1.0,1.0,0.0,0.0,1.0,0.0,0.0,0.0,0.0,,,,
389,82,,8.0,,Spanien,,,,,,,,,,,,,,2019-12-01,8.0,0.0,7.0,7.0,0.0,0.0,7.0,0.0,0.0,0.0,0.0,,,,
390,83,,2.0,,Tschechische Republik,,,,,,,,,,,,,,2019-12-01,2.0,0.0,2.0,2.0,0.0,0.0,2.0,0.0,0.0,0.0,0.0,,,,
391,84,,3.0,,Türkei,,,,,,,,,,,,,,2019-12-01,2.0,1.0,3.0,2.0,0.0,1.0,1.0,1.0,0.0,1.0,0.0,,,,
392,85,,3.0,,Ukraine,,,,,,,,,,,,,,2019-12-01,3.0,0.0,5.0,5.0,0.0,8.0,3.0,0.0,0.0,0.0,0.0,,,,
393,86,,7.0,,Ungarn,,,,,,,,,,,,,,2019-12-01,7.0,0.0,7.0,6.0,1.0,0.0,4.0,0.0,0.0,0.0,0.0,,,,
394,89,,4.0,,Staatenlos,,,,,,,,,,,,,,2019-12-01,4.0,0.0,4.0,4.0,0.0,2.0,1.0,0.0,0.0,0.0,0.0,,,,
395,90,,9.0,,Ohne Nationalität,,,,,,,,,,,,,,2019-12-01,9.0,0.0,10.0,9.0,1.0,4.0,6.0,0.0,0.0,0.0,0.0,,,,
396,91,,14.0,,Staat unbekannt,,,,,,,,,,,,,,2019-12-01,14.0,0.0,13.0,12.0,1.0,1.0,13.0,0.0,0.0,0.0,0.0,,,,
397,0,,20.0,,Herkunft unbekannt,,,,,,,,,,,,,,2018-12-01,18.0,2.0,18.0,15.0,1.0,4.0,6.0,2.0,2.0,0.0,0.0,,,,
398,2,,4.0,,Ägypten,,,,,,,,,,,,,,2018-12-01,3.0,1.0,3.0,0.0,0.0,0.0,0.0,1.0,1.0,0.0,1.0,,,,
399,3,,11.0,,Algerien,,,,,,,,,,,,,,2018-12-01,11.0,0.0,10.0,8.0,2.0,2.0,5.0,0.0,0.0,0.0,0.0,,,,
400,4,,1.0,,Äquatorialguinea,,,,,,,,,,,,,,2018-12-01,1.0,0.0,1.0,0.0,1.0,0.0,0.0,0.0,0.0,0.0,0.0,,,,
401,5,,11.0,,Äthiopien,,,,,,,,,,,,,,2018-12-01,11.0,0.0,14.0,10.0,2.0,10.0,1.0,0.0,0.0,0.0,0.0,,,,
402,6,,1.0,,Burundi,,,,,,,,,,,,,,2018-12-01,1.0,0.0,1.0,1.0,0.0,1.0,1.0,0.0,0.0,0.0,0.0,,,,
403,7,,1.0,,Côte d'Ivoire,,,,,,,,,,,,,,2018-12-01,1.0,0.0,1.0,1.0,0.0,0.0,1.0,0.0,0.0,0.0,0.0,,,,
404,8,,66.0,,Eritrea,,,,,,,,,,,,,,2018-12-01,48.0,18.0,56.0,43.0,3.0,30.0,16.0,18.0,17.0,0.0,5.0,,,,
405,9,,16.0,,Gambia,,,,,,,,,,,,,,2018-12-01,16.0,0.0,14.0,14.0,0.0,1.0,12.0,0.0,0.0,0.0,0.0,,,,
406,10,,3.0,,Ghana,,,,,,,,,,,,,,2018-12-01,3.0,0.0,5.0,5.0,0.0,2.0,3.0,0.0,0.0,0.0,0.0,,,,
407,11,,17.0,,Guinea,,,,,,,,,,,,,,2018-12-01,17.0,0.0,16.0,11.0,5.0,1.0,7.0,0.0,0.0,0.0,0.0,,,,
408,12,,4.0,,Guinea-Bissau,,,,,,,,,,,,,,2018-12-01,4.0,0.0,6.0,4.0,2.0,0.0,2.0,0.0,0.0,0.0,0.0,,,,
409,13,,1.0,,Kenia,,,,,,,,,,,,,,2018-12-01,1.0,0.0,0.0,0.0,0.0,0.0,0.0,0.0,0.0,0.0,0.0,,,,
410,14,,0.0,,Kongo DR,,,,,,,,,,,,,,2018-12-01,0.0,0.0,0.0,0.0,0.0,0.0,7.0,0.0,0.0,0.0,0.0,,,,
411,15,,0.0,,Liberia,,,,,,,,,,,,,,2018-12-01,0.0,0.0,1.0,1.0,0.0,3.0,0.0,0.0,0.0,0.0,0.0,,,,
412,16,,3.0,,Libyen,,,,,,,,,,,,,,2018-12-01,3.0,0.0,5.0,3.0,2.0,2.0,2.0,0.0,0.0,0.0,0.0,,,,
413,17,,11.0,,Mali,,,,,,,,,,,,,,2018-12-01,11.0,0.0,13.0,12.0,1.0,1.0,9.0,0.0,0.0,0.0,0.0,,,,
414,18,,8.0,,Marokko,,,,,,,,,,,,,,2018-12-01,8.0,0.0,8.0,6.0,1.0,1.0,4.0,0.0,0.0,0.0,0.0,,,,
415,19,,7.0,,Niger,,,,,,,,,,,,,,2018-12-01,7.0,0.0,6.0,5.0,1.0,0.0,5.0,0.0,0.0,0.0,0.0,,,,
416,20,,115.0,,Nigeria,,,,,,,,,,,,,,2018-12-01,115.0,0.0,114.0,99.0,10.0,8.0,79.0,0.0,0.0,0.0,0.0,,,,
417,21,,6.0,,Senegal,,,,,,,,,,,,,,2018-12-01,6.0,0.0,5.0,4.0,0.0,0.0,2.0,0.0,0.0,0.0,0.0,,,,
418,22,,3.0,,Sierra Leone,,,,,,,,,,,,,,2018-12-01,3.0,0.0,3.0,2.0,1.0,0.0,1.0,0.0,0.0,0.0,0.0,,,,
419,23,,46.0,,Somalia,,,,,,,,,,,,,,2018-12-01,41.0,5.0,47.0,28.0,17.0,23.0,6.0,5.0,2.0,3.0,3.0,,,,
420,24,,6.0,,Sudan,,,,,,,,,,,,,,2018-12-01,6.0,0.0,5.0,4.0,1.0,0.0,3.0,0.0,0.0,0.0,0.0,,,,
421,25,,1.0,,Südsudan,,,,,,,,,,,,,,2018-12-01,1.0,0.0,0.0,0.0,0.0,0.0,0.0,0.0,0.0,0.0,0.0,,,,
422,26,,1.0,,Tansania,,,,,,,,,,,,,,2018-12-01,1.0,0.0,1.0,1.0,0.0,0.0,0.0,0.0,0.0,0.0,0.0,,,,
423,27,,1.0,,Togo,,,,,,,,,,,,,,2018-12-01,1.0,0.0,1.0,1.0,0.0,0.0,0.0,0.0,0.0,0.0,0.0,,,,
424,28,,2.0,,Tunesien,,,,,,,,,,,,,,2018-12-01,2.0,0.0,1.0,0.0,1.0,0.0,0.0,0.0,0.0,0.0,0.0,,,,
425,31,,2.0,,Bolivien,,,,,,,,,,,,,,2018-12-01,2.0,0.0,2.0,2.0,0.0,0.0,2.0,0.0,0.0,0.0,0.0,,,,
426,32,,1.0,,Brasilien,,,,,,,,,,,,,,2018-12-01,1.0,0.0,1.0,1.0,0.0,0.0,1.0,0.0,0.0,0.0,0.0,,,,
427,33,,1.0,,Chile,,,,,,,,,,,,,,2018-12-01,1.0,0.0,1.0,1.0,0.0,0.0,0.0,0.0,0.0,0.0,0.0,,,,
428,34,,18.0,,Dominikanische Republik,,,,,,,,,,,,,,2018-12-01,18.0,0.0,19.0,16.0,3.0,0.0,17.0,0.0,0.0,0.0,0.0,,,,
429,35,,3.0,,Ecuador,,,,,,,,,,,,,,2018-12-01,3.0,0.0,3.0,1.0,2.0,0.0,1.0,0.0,0.0,0.0,0.0,,,,
430,36,,4.0,,Kolumbien,,,,,,,,,,,,,,2018-12-01,4.0,0.0,4.0,4.0,0.0,0.0,4.0,0.0,0.0,0.0,0.0,,,,
431,37,,0.0,,Mexiko,,,,,,,,,,,,,,2018-12-01,0.0,0.0,0.0,0.0,0.0,1.0,0.0,0.0,0.0,0.0,0.0,,,,
432,38,,1.0,,Peru,,,,,,,,,,,,,,2018-12-01,1.0,0.0,1.0,1.0,0.0,0.0,0.0,0.0,0.0,0.0,0.0,,,,
433,39,,1.0,,Venezuela,,,,,,,,,,,,,,2018-12-01,1.0,0.0,1.0,1.0,0.0,0.0,1.0,0.0,0.0,0.0,0.0,,,,
434,42,,107.0,,Afghanistan,,,,,,,,,,,,,,2018-12-01,103.0,4.0,86.0,82.0,3.0,78.0,20.0,4.0,4.0,0.0,1.0,,,,
435,43,,0.0,,Armenien,,,,,,,,,,,,,,2018-12-01,0.0,0.0,0.0,0.0,0.0,0.0,1.0,0.0,0.0,0.0,0.0,,,,
436,44,,1.0,,Bangladesh,,,,,,,,,,,,,,2018-12-01,1.0,0.0,1.0,1.0,0.0,0.0,1.0,0.0,0.0,0.0,0.0,,,,
437,45,,8.0,,China (Volksrepublik),,,,,,,,,,,,,,2018-12-01,8.0,0.0,7.0,7.0,0.0,1.0,8.0,0.0,0.0,0.0,0.0,,,,
438,46,,3.0,,Georgien,,,,,,,,,,,,,,2018-12-01,3.0,0.0,3.0,3.0,0.0,4.0,2.0,0.0,0.0,0.0,0.0,,,,
439,47,,29.0,,Irak,,,,,,,,,,,,,,2018-12-01,28.0,1.0,33.0,31.0,0.0,16.0,9.0,1.0,1.0,0.0,1.0,,,,
440,48,,15.0,,Iran,,,,,,,,,,,,,,2018-12-01,14.0,1.0,15.0,15.0,0.0,12.0,7.0,1.0,1.0,0.0,1.0,,,,
441,49,,1.0,,Jemen,,,,,,,,,,,,,,2018-12-01,1.0,0.0,1.0,1.0,0.0,1.0,0.0,0.0,0.0,0.0,0.0,,,,
442,50,,1.0,,Mongolei,,,,,,,,,,,,,,2018-12-01,1.0,0.0,1.0,1.0,0.0,0.0,1.0,0.0,0.0,0.0,0.0,,,,
443,51,,3.0,,Pakistan,,,,,,,,,,,,,,2018-12-01,3.0,0.0,3.0,3.0,0.0,6.0,2.0,0.0,0.0,0.0,0.0,,,,
444,52,,1.0,,Saudi-Arabien,,,,,,,,,,,,,,2018-12-01,1.0,0.0,1.0,1.0,0.0,1.0,1.0,0.0,0.0,0.0,0.0,,,,
445,53,,2.0,,Sri Lanka,,,,,,,,,,,,,,2018-12-01,2.0,0.0,2.0,2.0,0.0,3.0,0.0,0.0,0.0,0.0,0.0,,,,
446,54,,46.0,,Syrien,,,,,,,,,,,,,,2018-12-01,45.0,1.0,41.0,39.0,0.0,38.0,5.0,1.0,1.0,0.0,0.0,,,,
447,55,,2.0,,Vietnam,,,,,,,,,,,,,,2018-12-01,2.0,0.0,2.0,1.0,1.0,0.0,0.0,0.0,0.0,0.0,0.0,,,,
448,58,,2.0,,Albanien,,,,,,,,,,,,,,2018-12-01,2.0,0.0,2.0,2.0,0.0,0.0,1.0,0.0,0.0,0.0,0.0,,,,
449,59,,2.0,,Bosnien u. Herzegowina,,,,,,,,,,,,,,2018-12-01,2.0,0.0,2.0,0.0,2.0,0.0,0.0,0.0,0.0,0.0,0.0,,,,
450,60,,3.0,,Bulgarien,,,,,,,,,,,,,,2018-12-01,3.0,0.0,3.0,2.0,0.0,0.0,3.0,0.0,0.0,0.0,0.0,,,,
451,61,,1.0,,Frankreich,,,,,,,,,,,,,,2018-12-01,1.0,0.0,1.0,1.0,0.0,0.0,1.0,0.0,0.0,0.0,0.0,,,,
452,62,,0.0,,Grossbritannien,,,,,,,,,,,,,,2018-12-01,0.0,0.0,0.0,0.0,0.0,0.0,0.0,0.0,0.0,0.0,0.0,,,,
453,63,,1.0,,Irland,,,,,,,,,,,,,,2018-12-01,1.0,0.0,1.0,1.0,0.0,0.0,1.0,0.0,0.0,0.0,0.0,,,,
454,64,,3.0,,Italien,,,,,,,,,,,,,,2018-12-01,3.0,0.0,3.0,3.0,0.0,0.0,3.0,0.0,0.0,0.0,0.0,,,,
455,65,,2.0,,Kosovo,,,,,,,,,,,,,,2018-12-01,2.0,0.0,1.0,1.0,0.0,0.0,2.0,0.0,0.0,0.0,0.0,,,,
456,66,,9.0,,Kroatien,,,,,,,,,,,,,,2018-12-01,9.0,0.0,9.0,5.0,3.0,0.0,4.0,0.0,0.0,0.0,0.0,,,,
457,67,,1.0,,Lettland,,,,,,,,,,,,,,2018-12-01,1.0,0.0,1.0,1.0,0.0,0.0,0.0,0.0,0.0,0.0,0.0,,,,
458,68,,7.0,,Litauen,,,,,,,,,,,,,,2018-12-01,7.0,0.0,7.0,7.0,0.0,0.0,5.0,0.0,0.0,0.0,0.0,,,,
459,69,,1.0,,Mazedonien eh.Jug.Rep.,,,,,,,,,,,,,,2018-12-01,1.0,0.0,1.0,1.0,0.0,0.0,0.0,0.0,0.0,0.0,0.0,,,,
460,70,,1.0,,Moldova,,,,,,,,,,,,,,2018-12-01,1.0,0.0,1.0,1.0,0.0,0.0,1.0,0.0,0.0,0.0,0.0,,,,
461,71,,4.0,,Niederlande,,,,,,,,,,,,,,2018-12-01,4.0,0.0,5.0,4.0,1.0,0.0,4.0,0.0,0.0,0.0,0.0,,,,
462,72,,13.0,,Polen,,,,,,,,,,,,,,2018-12-01,13.0,0.0,13.0,13.0,0.0,0.0,10.0,0.0,0.0,0.0,0.0,,,,
463,73,,51.0,,Rumänien,,,,,,,,,,,,,,2018-12-01,51.0,0.0,50.0,46.0,4.0,0.0,44.0,0.0,0.0,0.0,0.0,,,,
464,74,,7.0,,Russland,,,,,,,,,,,,,,2018-12-01,7.0,0.0,5.0,5.0,0.0,3.0,6.0,0.0,0.0,0.0,0.0,,,,
465,75,,7.0,,Serbien,,,,,,,,,,,,,,2018-12-01,6.0,1.0,6.0,3.0,3.0,0.0,2.0,1.0,0.0,1.0,0.0,,,,
466,76,,3.0,,Slowakische Republik,,,,,,,,,,,,,,2018-12-01,3.0,0.0,4.0,4.0,0.0,0.0,4.0,0.0,0.0,0.0,0.0,,,,
467,77,,1.0,,Slowenien,,,,,,,,,,,,,,2018-12-01,1.0,0.0,1.0,0.0,1.0,0.0,1.0,0.0,0.0,0.0,0.0,,,,
468,78,,10.0,,Spanien,,,,,,,,,,,,,,2018-12-01,10.0,0.0,10.0,9.0,1.0,0.0,7.0,0.0,0.0,0.0,0.0,,,,
469,79,,2.0,,Tschechische Republik,,,,,,,,,,,,,,2018-12-01,2.0,0.0,2.0,2.0,0.0,0.0,2.0,0.0,0.0,0.0,0.0,,,,
470,80,,9.0,,Türkei,,,,,,,,,,,,,,2018-12-01,6.0,3.0,5.0,4.0,0.0,0.0,1.0,3.0,3.0,0.0,0.0,,,,
471,81,,3.0,,Ukraine,,,,,,,,,,,,,,2018-12-01,3.0,0.0,1.0,1.0,0.0,2.0,1.0,0.0,0.0,0.0,0.0,,,,
472,82,,6.0,,Ungarn,,,,,,,,,,,,,,2018-12-01,6.0,0.0,6.0,6.0,0.0,0.0,6.0,0.0,0.0,0.0,0.0,,,,
473,85,,1.0,,Staatenlos,,,,,,,,,,,,,,2018-12-01,1.0,0.0,1.0,1.0,0.0,1.0,0.0,0.0,0.0,0.0,0.0,,,,
474,86,,8.0,,Ohne Nationalität,,,,,,,,,,,,,,2018-12-01,7.0,1.0,6.0,6.0,0.0,2.0,2.0,1.0,1.0,0.0,0.0,,,,
475,87,,11.0,,Staat unbekannt,,,,,,,,,,,,,,2018-12-01,10.0,1.0,11.0,8.0,1.0,1.0,4.0,1.0,1.0,0.0,0.0,,,,
