,index,Nation,TotalRückübernahmeverfahren,OutVerfahren,InVerfahren,Total Erledigungen (inkl. Abschreibungen),Erledigungen,,NichteintretensentscheideRüA,ÜberstellungenOutVerfahren,Total Erledigungen (inkl. Abschreibungen).1,Erledigungen.1,.1,ÜberstellungenInVerfahren,.2,.3,.4,.5,Datum,file_name
0,0,Herkunft unbekannt,17.0,16.0,1.0,16.0,10.0,5.0,0.0,14.0,1.0,1.0,0.0,1.0,,,,,2017-12-01,7-55-Bew-RueA-J-d-2020-12.xlsx
1,2,Ägypten,0.0,0.0,0.0,0.0,0.0,0.0,1.0,0.0,0.0,0.0,0.0,0.0,,,,,2017-12-01,7-55-Bew-RueA-J-d-2020-12.xlsx
2,3,Algerien,12.0,12.0,0.0,12.0,9.0,3.0,2.0,6.0,0.0,0.0,0.0,0.0,,,,,2017-12-01,7-55-Bew-RueA-J-d-2020-12.xlsx
3,4,Angola,1.0,1.0,0.0,1.0,1.0,0.0,0.0,0.0,0.0,0.0,0.0,0.0,,,,,2017-12-01,7-55-Bew-RueA-J-d-2020-12.xlsx
4,5,Äquatorialguinea,1.0,1.0,0.0,1.0,1.0,0.0,0.0,1.0,0.0,0.0,0.0,0.0,,,,,2017-12-01,7-55-Bew-RueA-J-d-2020-12.xlsx
5,6,Äthiopien,12.0,12.0,0.0,10.0,10.0,0.0,11.0,1.0,0.0,0.0,0.0,0.0,,,,,2017-12-01,7-55-Bew-RueA-J-d-2020-12.xlsx
6,7,Burkina Faso,4.0,4.0,0.0,4.0,1.0,2.0,0.0,1.0,0.0,0.0,0.0,0.0,,,,,2017-12-01,7-55-Bew-RueA-J-d-2020-12.xlsx
7,8,Côte d'Ivoire,2.0,2.0,0.0,2.0,2.0,0.0,0.0,1.0,0.0,0.0,0.0,0.0,,,,,2017-12-01,7-55-Bew-RueA-J-d-2020-12.xlsx
8,9,Eritrea,70.0,63.0,7.0,55.0,53.0,0.0,40.0,17.0,7.0,7.0,0.0,2.0,,,,,2017-12-01,7-55-Bew-RueA-J-d-2020-12.xlsx
9,10,Gambia,12.0,12.0,0.0,12.0,10.0,2.0,3.0,9.0,0.0,0.0,0.0,0.0,,,,,2017-12-01,7-55-Bew-RueA-J-d-2020-12.xlsx
10,11,Ghana,4.0,4.0,0.0,3.0,3.0,0.0,0.0,3.0,0.0,0.0,0.0,0.0,,,,,2017-12-01,7-55-Bew-RueA-J-d-2020-12.xlsx
11,12,Guinea,15.0,15.0,0.0,18.0,14.0,2.0,0.0,9.0,0.0,0.0,0.0,0.0,,,,,2017-12-01,7-55-Bew-RueA-J-d-2020-12.xlsx
12,13,Guinea-Bissau,6.0,6.0,0.0,4.0,4.0,0.0,0.0,2.0,0.0,0.0,0.0,0.0,,,,,2017-12-01,7-55-Bew-RueA-J-d-2020-12.xlsx
13,14,Kamerun,1.0,1.0,0.0,1.0,1.0,0.0,0.0,0.0,0.0,0.0,0.0,0.0,,,,,2017-12-01,7-55-Bew-RueA-J-d-2020-12.xlsx
14,15,Kongo DR,10.0,10.0,0.0,10.0,9.0,1.0,14.0,0.0,0.0,0.0,0.0,0.0,,,,,2017-12-01,7-55-Bew-RueA-J-d-2020-12.xlsx
15,16,Liberia,4.0,4.0,0.0,3.0,2.0,0.0,0.0,1.0,0.0,0.0,0.0,0.0,,,,,2017-12-01,7-55-Bew-RueA-J-d-2020-12.xlsx
16,17,Libyen,2.0,2.0,0.0,0.0,0.0,0.0,1.0,0.0,0.0,0.0,0.0,0.0,,,,,2017-12-01,7-55-Bew-RueA-J-d-2020-12.xlsx
17,18,Mali,6.0,6.0,0.0,4.0,4.0,0.0,2.0,3.0,0.0,0.0,0.0,0.0,,,,,2017-12-01,7-55-Bew-RueA-J-d-2020-12.xlsx
18,19,Marokko,14.0,14.0,0.0,14.0,11.0,2.0,2.0,9.0,0.0,0.0,0.0,0.0,,,,,2017-12-01,7-55-Bew-RueA-J-d-2020-12.xlsx
19,20,Mauretanien,1.0,1.0,0.0,1.0,1.0,0.0,1.0,1.0,0.0,0.0,0.0,0.0,,,,,2017-12-01,7-55-Bew-RueA-J-d-2020-12.xlsx
20,21,Mosambik,1.0,1.0,0.0,1.0,1.0,0.0,0.0,1.0,0.0,0.0,0.0,0.0,,,,,2017-12-01,7-55-Bew-RueA-J-d-2020-12.xlsx
21,22,Nigeria,119.0,119.0,0.0,110.0,96.0,10.0,11.0,87.0,0.0,0.0,0.0,0.0,,,,,2017-12-01,7-55-Bew-RueA-J-d-2020-12.xlsx
22,23,Senegal,9.0,9.0,0.0,9.0,8.0,1.0,1.0,4.0,0.0,0.0,0.0,0.0,,,,,2017-12-01,7-55-Bew-RueA-J-d-2020-12.xlsx
23,24,Sierra Leone,3.0,3.0,0.0,3.0,3.0,0.0,0.0,3.0,0.0,0.0,0.0,0.0,,,,,2017-12-01,7-55-Bew-RueA-J-d-2020-12.xlsx
24,25,Somalia,37.0,36.0,1.0,29.0,27.0,1.0,18.0,8.0,1.0,1.0,0.0,1.0,,,,,2017-12-01,7-55-Bew-RueA-J-d-2020-12.xlsx
25,26,Sudan,3.0,3.0,0.0,3.0,3.0,0.0,0.0,2.0,0.0,0.0,0.0,0.0,,,,,2017-12-01,7-55-Bew-RueA-J-d-2020-12.xlsx
26,27,Togo,1.0,1.0,0.0,1.0,1.0,0.0,0.0,1.0,0.0,0.0,0.0,0.0,,,,,2017-12-01,7-55-Bew-RueA-J-d-2020-12.xlsx
27,28,Tschad,1.0,1.0,0.0,1.0,0.0,1.0,0.0,0.0,0.0,0.0,0.0,0.0,,,,,2017-12-01,7-55-Bew-RueA-J-d-2020-12.xlsx
28,29,Tunesien,1.0,1.0,0.0,0.0,0.0,0.0,0.0,0.0,0.0,0.0,0.0,0.0,,,,,2017-12-01,7-55-Bew-RueA-J-d-2020-12.xlsx
29,32,Bolivien,1.0,1.0,0.0,1.0,0.0,1.0,0.0,0.0,0.0,0.0,0.0,0.0,,,,,2017-12-01,7-55-Bew-RueA-J-d-2020-12.xlsx
30,33,Brasilien,1.0,1.0,0.0,0.0,0.0,0.0,0.0,1.0,0.0,0.0,0.0,0.0,,,,,2017-12-01,7-55-Bew-RueA-J-d-2020-12.xlsx
31,34,Chile,1.0,1.0,0.0,1.0,1.0,0.0,0.0,1.0,0.0,0.0,0.0,0.0,,,,,2017-12-01,7-55-Bew-RueA-J-d-2020-12.xlsx
32,35,Dominikanische Republik,29.0,29.0,0.0,26.0,16.0,8.0,0.0,7.0,0.0,0.0,0.0,0.0,,,,,2017-12-01,7-55-Bew-RueA-J-d-2020-12.xlsx
33,36,Ecuador,1.0,1.0,0.0,2.0,2.0,0.0,0.0,1.0,0.0,0.0,0.0,0.0,,,,,2017-12-01,7-55-Bew-RueA-J-d-2020-12.xlsx
34,37,Haiti,0.0,0.0,0.0,4.0,4.0,0.0,0.0,0.0,0.0,0.0,0.0,0.0,,,,,2017-12-01,7-55-Bew-RueA-J-d-2020-12.xlsx
35,38,Honduras,1.0,1.0,0.0,1.0,0.0,1.0,0.0,0.0,0.0,0.0,0.0,0.0,,,,,2017-12-01,7-55-Bew-RueA-J-d-2020-12.xlsx
36,39,Kolumbien,2.0,2.0,0.0,2.0,1.0,1.0,0.0,0.0,0.0,0.0,0.0,0.0,,,,,2017-12-01,7-55-Bew-RueA-J-d-2020-12.xlsx
37,40,Kuba,1.0,1.0,0.0,1.0,0.0,1.0,0.0,0.0,0.0,0.0,0.0,0.0,,,,,2017-12-01,7-55-Bew-RueA-J-d-2020-12.xlsx
38,43,Afghanistan,18.0,18.0,0.0,17.0,16.0,0.0,10.0,9.0,0.0,0.0,0.0,0.0,,,,,2017-12-01,7-55-Bew-RueA-J-d-2020-12.xlsx
39,44,Armenien,1.0,1.0,0.0,1.0,1.0,0.0,0.0,0.0,0.0,0.0,0.0,0.0,,,,,2017-12-01,7-55-Bew-RueA-J-d-2020-12.xlsx
40,45,China (Volksrepublik),1.0,1.0,0.0,1.0,1.0,0.0,0.0,0.0,0.0,0.0,0.0,0.0,,,,,2017-12-01,7-55-Bew-RueA-J-d-2020-12.xlsx
41,46,Georgien,4.0,4.0,0.0,4.0,2.0,1.0,2.0,2.0,0.0,0.0,0.0,0.0,,,,,2017-12-01,7-55-Bew-RueA-J-d-2020-12.xlsx
42,47,Irak,16.0,16.0,0.0,11.0,10.0,0.0,6.0,4.0,0.0,0.0,0.0,0.0,,,,,2017-12-01,7-55-Bew-RueA-J-d-2020-12.xlsx
43,48,Iran,19.0,15.0,4.0,12.0,12.0,0.0,4.0,4.0,4.0,4.0,0.0,1.0,,,,,2017-12-01,7-55-Bew-RueA-J-d-2020-12.xlsx
44,49,Jordanien,0.0,0.0,0.0,0.0,0.0,0.0,0.0,0.0,0.0,0.0,0.0,0.0,,,,,2017-12-01,7-55-Bew-RueA-J-d-2020-12.xlsx
45,50,Laos,0.0,0.0,0.0,1.0,1.0,0.0,1.0,1.0,0.0,0.0,0.0,0.0,,,,,2017-12-01,7-55-Bew-RueA-J-d-2020-12.xlsx
46,51,Mongolei,1.0,1.0,0.0,1.0,1.0,0.0,0.0,1.0,0.0,0.0,0.0,0.0,,,,,2017-12-01,7-55-Bew-RueA-J-d-2020-12.xlsx
47,52,Pakistan,14.0,14.0,0.0,10.0,10.0,0.0,8.0,8.0,0.0,0.0,0.0,0.0,,,,,2017-12-01,7-55-Bew-RueA-J-d-2020-12.xlsx
48,53,Philippinen,1.0,1.0,0.0,1.0,0.0,1.0,0.0,0.0,0.0,0.0,0.0,0.0,,,,,2017-12-01,7-55-Bew-RueA-J-d-2020-12.xlsx
49,54,Sri Lanka,4.0,2.0,2.0,3.0,3.0,0.0,2.0,2.0,2.0,2.0,0.0,0.0,,,,,2017-12-01,7-55-Bew-RueA-J-d-2020-12.xlsx
50,55,Syrien,47.0,40.0,7.0,37.0,36.0,1.0,36.0,13.0,7.0,7.0,0.0,0.0,,,,,2017-12-01,7-55-Bew-RueA-J-d-2020-12.xlsx
51,58,Belarus,0.0,0.0,0.0,0.0,0.0,0.0,0.0,1.0,0.0,0.0,0.0,0.0,,,,,2017-12-01,7-55-Bew-RueA-J-d-2020-12.xlsx
52,59,Belgien,2.0,2.0,0.0,2.0,2.0,0.0,0.0,1.0,0.0,0.0,0.0,0.0,,,,,2017-12-01,7-55-Bew-RueA-J-d-2020-12.xlsx
53,60,Bosnien u. Herzegowina,2.0,2.0,0.0,5.0,5.0,0.0,3.0,1.0,0.0,0.0,0.0,0.0,,,,,2017-12-01,7-55-Bew-RueA-J-d-2020-12.xlsx
54,61,Bulgarien,3.0,3.0,0.0,3.0,3.0,0.0,0.0,3.0,0.0,0.0,0.0,0.0,,,,,2017-12-01,7-55-Bew-RueA-J-d-2020-12.xlsx
55,62,Dänemark,0.0,0.0,0.0,0.0,0.0,0.0,1.0,0.0,0.0,0.0,0.0,0.0,,,,,2017-12-01,7-55-Bew-RueA-J-d-2020-12.xlsx
56,63,Deutschland,1.0,1.0,0.0,1.0,1.0,0.0,0.0,1.0,0.0,0.0,0.0,0.0,,,,,2017-12-01,7-55-Bew-RueA-J-d-2020-12.xlsx
57,64,Griechenland,1.0,1.0,0.0,1.0,0.0,0.0,0.0,0.0,0.0,0.0,0.0,0.0,,,,,2017-12-01,7-55-Bew-RueA-J-d-2020-12.xlsx
58,65,Grossbritannien,1.0,1.0,0.0,1.0,1.0,0.0,0.0,0.0,0.0,0.0,0.0,0.0,,,,,2017-12-01,7-55-Bew-RueA-J-d-2020-12.xlsx
59,66,Kosovo,3.0,3.0,0.0,3.0,3.0,0.0,1.0,3.0,0.0,0.0,0.0,0.0,,,,,2017-12-01,7-55-Bew-RueA-J-d-2020-12.xlsx
60,67,Kroatien,13.0,13.0,0.0,13.0,4.0,8.0,0.0,2.0,0.0,0.0,0.0,0.0,,,,,2017-12-01,7-55-Bew-RueA-J-d-2020-12.xlsx
61,68,Litauen,4.0,4.0,0.0,4.0,4.0,0.0,0.0,4.0,0.0,0.0,0.0,0.0,,,,,2017-12-01,7-55-Bew-RueA-J-d-2020-12.xlsx
62,69,Moldova,0.0,0.0,0.0,0.0,0.0,0.0,0.0,0.0,0.0,0.0,0.0,0.0,,,,,2017-12-01,7-55-Bew-RueA-J-d-2020-12.xlsx
63,70,Niederlande,2.0,2.0,0.0,1.0,1.0,0.0,0.0,1.0,0.0,0.0,0.0,0.0,,,,,2017-12-01,7-55-Bew-RueA-J-d-2020-12.xlsx
64,71,Polen,13.0,13.0,0.0,13.0,13.0,0.0,0.0,9.0,0.0,0.0,0.0,0.0,,,,,2017-12-01,7-55-Bew-RueA-J-d-2020-12.xlsx
65,72,Portugal,1.0,1.0,0.0,1.0,1.0,0.0,0.0,0.0,0.0,0.0,0.0,0.0,,,,,2017-12-01,7-55-Bew-RueA-J-d-2020-12.xlsx
66,73,Rumänien,61.0,61.0,0.0,61.0,60.0,1.0,0.0,51.0,0.0,0.0,0.0,0.0,,,,,2017-12-01,7-55-Bew-RueA-J-d-2020-12.xlsx
67,74,Russland,4.0,3.0,1.0,3.0,3.0,0.0,3.0,0.0,1.0,1.0,0.0,0.0,,,,,2017-12-01,7-55-Bew-RueA-J-d-2020-12.xlsx
68,75,Serbien,3.0,2.0,1.0,2.0,1.0,0.0,0.0,0.0,1.0,0.0,1.0,0.0,,,,,2017-12-01,7-55-Bew-RueA-J-d-2020-12.xlsx
69,76,Slowakische Republik,9.0,9.0,0.0,8.0,8.0,0.0,0.0,6.0,0.0,0.0,0.0,0.0,,,,,2017-12-01,7-55-Bew-RueA-J-d-2020-12.xlsx
70,77,Slowenien,1.0,1.0,0.0,1.0,1.0,0.0,0.0,0.0,0.0,0.0,0.0,0.0,,,,,2017-12-01,7-55-Bew-RueA-J-d-2020-12.xlsx
71,78,Spanien,6.0,6.0,0.0,6.0,4.0,0.0,0.0,2.0,0.0,0.0,0.0,0.0,,,,,2017-12-01,7-55-Bew-RueA-J-d-2020-12.xlsx
72,79,Tschechische Republik,1.0,1.0,0.0,1.0,1.0,0.0,0.0,0.0,0.0,0.0,0.0,0.0,,,,,2017-12-01,7-55-Bew-RueA-J-d-2020-12.xlsx
73,80,Türkei,3.0,3.0,0.0,3.0,1.0,1.0,0.0,1.0,0.0,0.0,0.0,0.0,,,,,2017-12-01,7-55-Bew-RueA-J-d-2020-12.xlsx
74,81,Ukraine,1.0,1.0,0.0,1.0,1.0,0.0,0.0,0.0,0.0,0.0,0.0,0.0,,,,,2017-12-01,7-55-Bew-RueA-J-d-2020-12.xlsx
75,82,Ungarn,12.0,12.0,0.0,12.0,10.0,2.0,0.0,9.0,0.0,0.0,0.0,0.0,,,,,2017-12-01,7-55-Bew-RueA-J-d-2020-12.xlsx
76,85,Ohne Nationalität,0.0,0.0,0.0,0.0,0.0,0.0,0.0,0.0,0.0,0.0,0.0,0.0,,,,,2017-12-01,7-55-Bew-RueA-J-d-2020-12.xlsx
77,86,Staat unbekannt,17.0,16.0,1.0,16.0,10.0,5.0,0.0,14.0,1.0,1.0,0.0,1.0,,,,,2017-12-01,7-55-Bew-RueA-J-d-2020-12.xlsx
78,0,Herkunft unbekannt,35.0,35.0,0.0,34.0,26.0,7.0,9.0,11.0,0.0,0.0,0.0,0.0,,,,,2016-12-01,7-55-Bew-RueA-J-d-2020-12.xlsx
79,2,Ägypten,1.0,1.0,0.0,1.0,1.0,0.0,1.0,1.0,0.0,0.0,0.0,0.0,,,,,2016-12-01,7-55-Bew-RueA-J-d-2020-12.xlsx
80,3,Algerien,5.0,5.0,0.0,4.0,4.0,0.0,3.0,2.0,0.0,0.0,0.0,0.0,,,,,2016-12-01,7-55-Bew-RueA-J-d-2020-12.xlsx
81,4,Äthiopien,7.0,6.0,1.0,4.0,4.0,0.0,7.0,0.0,1.0,1.0,0.0,0.0,,,,,2016-12-01,7-55-Bew-RueA-J-d-2020-12.xlsx
82,5,Benin,1.0,1.0,0.0,1.0,1.0,0.0,0.0,1.0,0.0,0.0,0.0,0.0,,,,,2016-12-01,7-55-Bew-RueA-J-d-2020-12.xlsx
83,6,Burundi,0.0,0.0,0.0,0.0,0.0,0.0,1.0,0.0,0.0,0.0,0.0,0.0,,,,,2016-12-01,7-55-Bew-RueA-J-d-2020-12.xlsx
84,7,Côte d'Ivoire,4.0,4.0,0.0,4.0,3.0,1.0,1.0,2.0,0.0,0.0,0.0,0.0,,,,,2016-12-01,7-55-Bew-RueA-J-d-2020-12.xlsx
85,8,Eritrea,73.0,68.0,5.0,91.0,86.0,2.0,59.0,28.0,5.0,5.0,0.0,1.0,,,,,2016-12-01,7-55-Bew-RueA-J-d-2020-12.xlsx
86,9,Gambia,25.0,25.0,0.0,26.0,25.0,1.0,13.0,14.0,0.0,0.0,0.0,0.0,,,,,2016-12-01,7-55-Bew-RueA-J-d-2020-12.xlsx
87,10,Ghana,5.0,5.0,0.0,5.0,4.0,0.0,1.0,3.0,0.0,0.0,0.0,0.0,,,,,2016-12-01,7-55-Bew-RueA-J-d-2020-12.xlsx
88,11,Guinea,17.0,17.0,0.0,14.0,13.0,1.0,3.0,9.0,0.0,0.0,0.0,0.0,,,,,2016-12-01,7-55-Bew-RueA-J-d-2020-12.xlsx
89,12,Guinea-Bissau,3.0,3.0,0.0,3.0,3.0,0.0,0.0,3.0,0.0,0.0,0.0,0.0,,,,,2016-12-01,7-55-Bew-RueA-J-d-2020-12.xlsx
90,13,Kamerun,4.0,4.0,0.0,4.0,3.0,1.0,0.0,2.0,0.0,0.0,0.0,0.0,,,,,2016-12-01,7-55-Bew-RueA-J-d-2020-12.xlsx
91,14,Kongo DR,0.0,0.0,0.0,0.0,0.0,0.0,1.0,1.0,0.0,0.0,0.0,0.0,,,,,2016-12-01,7-55-Bew-RueA-J-d-2020-12.xlsx
92,15,Liberia,2.0,2.0,0.0,2.0,2.0,0.0,1.0,1.0,0.0,0.0,0.0,0.0,,,,,2016-12-01,7-55-Bew-RueA-J-d-2020-12.xlsx
93,16,Libyen,1.0,1.0,0.0,1.0,1.0,0.0,1.0,0.0,0.0,0.0,0.0,0.0,,,,,2016-12-01,7-55-Bew-RueA-J-d-2020-12.xlsx
94,17,Mali,12.0,12.0,0.0,11.0,10.0,1.0,2.0,9.0,0.0,0.0,0.0,0.0,,,,,2016-12-01,7-55-Bew-RueA-J-d-2020-12.xlsx
95,18,Marokko,4.0,4.0,0.0,4.0,2.0,2.0,0.0,0.0,0.0,0.0,0.0,0.0,,,,,2016-12-01,7-55-Bew-RueA-J-d-2020-12.xlsx
96,19,Niger,2.0,2.0,0.0,2.0,2.0,0.0,0.0,2.0,0.0,0.0,0.0,0.0,,,,,2016-12-01,7-55-Bew-RueA-J-d-2020-12.xlsx
97,20,Nigeria,151.0,151.0,0.0,141.0,123.0,14.0,21.0,81.0,0.0,0.0,0.0,0.0,,,,,2016-12-01,7-55-Bew-RueA-J-d-2020-12.xlsx
98,21,Senegal,10.0,10.0,0.0,11.0,11.0,0.0,0.0,6.0,0.0,0.0,0.0,0.0,,,,,2016-12-01,7-55-Bew-RueA-J-d-2020-12.xlsx
99,22,Sierra Leone,3.0,3.0,0.0,3.0,3.0,0.0,0.0,3.0,0.0,0.0,0.0,0.0,,,,,2016-12-01,7-55-Bew-RueA-J-d-2020-12.xlsx
100,23,Somalia,40.0,38.0,2.0,43.0,39.0,1.0,24.0,13.0,2.0,0.0,2.0,1.0,,,,,2016-12-01,7-55-Bew-RueA-J-d-2020-12.xlsx
101,24,Sudan,3.0,3.0,0.0,6.0,4.0,2.0,2.0,3.0,0.0,0.0,0.0,0.0,,,,,2016-12-01,7-55-Bew-RueA-J-d-2020-12.xlsx
102,25,Südsudan,1.0,1.0,0.0,1.0,0.0,1.0,0.0,0.0,0.0,0.0,0.0,0.0,,,,,2016-12-01,7-55-Bew-RueA-J-d-2020-12.xlsx
103,26,Togo,1.0,1.0,0.0,2.0,2.0,0.0,0.0,2.0,0.0,0.0,0.0,0.0,,,,,2016-12-01,7-55-Bew-RueA-J-d-2020-12.xlsx
104,27,Tschad,0.0,0.0,0.0,0.0,0.0,0.0,0.0,0.0,0.0,0.0,0.0,0.0,,,,,2016-12-01,7-55-Bew-RueA-J-d-2020-12.xlsx
105,28,Uganda,1.0,1.0,0.0,1.0,1.0,0.0,0.0,1.0,0.0,0.0,0.0,0.0,,,,,2016-12-01,7-55-Bew-RueA-J-d-2020-12.xlsx
106,31,Dominikanische Republik,10.0,10.0,0.0,10.0,8.0,2.0,0.0,8.0,0.0,0.0,0.0,0.0,,,,,2016-12-01,7-55-Bew-RueA-J-d-2020-12.xlsx
107,32,Ecuador,2.0,2.0,0.0,1.0,1.0,0.0,0.0,1.0,0.0,0.0,0.0,0.0,,,,,2016-12-01,7-55-Bew-RueA-J-d-2020-12.xlsx
108,33,Kolumbien,1.0,1.0,0.0,2.0,0.0,1.0,0.0,0.0,0.0,0.0,0.0,0.0,,,,,2016-12-01,7-55-Bew-RueA-J-d-2020-12.xlsx
109,34,Kuba,1.0,1.0,0.0,1.0,1.0,0.0,0.0,2.0,0.0,0.0,0.0,0.0,,,,,2016-12-01,7-55-Bew-RueA-J-d-2020-12.xlsx
110,35,Peru,1.0,1.0,0.0,1.0,1.0,0.0,0.0,1.0,0.0,0.0,0.0,0.0,,,,,2016-12-01,7-55-Bew-RueA-J-d-2020-12.xlsx
111,36,Trinidad u. Tobago,1.0,1.0,0.0,1.0,1.0,0.0,0.0,1.0,0.0,0.0,0.0,0.0,,,,,2016-12-01,7-55-Bew-RueA-J-d-2020-12.xlsx
112,37,USA,1.0,1.0,0.0,1.0,1.0,0.0,0.0,1.0,0.0,0.0,0.0,0.0,,,,,2016-12-01,7-55-Bew-RueA-J-d-2020-12.xlsx
113,38,Venezuela,1.0,1.0,0.0,1.0,1.0,0.0,0.0,1.0,0.0,0.0,0.0,0.0,,,,,2016-12-01,7-55-Bew-RueA-J-d-2020-12.xlsx
114,41,Afghanistan,20.0,20.0,0.0,20.0,20.0,0.0,22.0,10.0,0.0,0.0,0.0,0.0,,,,,2016-12-01,7-55-Bew-RueA-J-d-2020-12.xlsx
115,42,Bangladesh,0.0,0.0,0.0,0.0,0.0,0.0,0.0,0.0,0.0,0.0,0.0,0.0,,,,,2016-12-01,7-55-Bew-RueA-J-d-2020-12.xlsx
116,43,China (Volksrepublik),3.0,3.0,0.0,3.0,3.0,0.0,3.0,1.0,0.0,0.0,0.0,0.0,,,,,2016-12-01,7-55-Bew-RueA-J-d-2020-12.xlsx
117,44,Georgien,1.0,1.0,0.0,1.0,1.0,0.0,1.0,1.0,0.0,0.0,0.0,0.0,,,,,2016-12-01,7-55-Bew-RueA-J-d-2020-12.xlsx
118,45,Indien,1.0,1.0,0.0,1.0,0.0,1.0,0.0,0.0,0.0,0.0,0.0,0.0,,,,,2016-12-01,7-55-Bew-RueA-J-d-2020-12.xlsx
119,46,Irak,12.0,12.0,0.0,14.0,13.0,0.0,7.0,3.0,0.0,0.0,0.0,0.0,,,,,2016-12-01,7-55-Bew-RueA-J-d-2020-12.xlsx
120,47,Iran,8.0,8.0,0.0,9.0,9.0,0.0,6.0,1.0,0.0,0.0,0.0,0.0,,,,,2016-12-01,7-55-Bew-RueA-J-d-2020-12.xlsx
121,48,Jemen,4.0,4.0,0.0,4.0,4.0,0.0,4.0,4.0,0.0,0.0,0.0,0.0,,,,,2016-12-01,7-55-Bew-RueA-J-d-2020-12.xlsx
122,49,Jordanien,2.0,2.0,0.0,2.0,2.0,0.0,2.0,1.0,0.0,0.0,0.0,0.0,,,,,2016-12-01,7-55-Bew-RueA-J-d-2020-12.xlsx
123,50,Laos,1.0,1.0,0.0,0.0,0.0,0.0,0.0,0.0,0.0,0.0,0.0,0.0,,,,,2016-12-01,7-55-Bew-RueA-J-d-2020-12.xlsx
124,51,Libanon,1.0,1.0,0.0,1.0,1.0,0.0,0.0,0.0,0.0,0.0,0.0,0.0,,,,,2016-12-01,7-55-Bew-RueA-J-d-2020-12.xlsx
125,52,Nepal,1.0,1.0,0.0,1.0,1.0,0.0,0.0,1.0,0.0,0.0,0.0,0.0,,,,,2016-12-01,7-55-Bew-RueA-J-d-2020-12.xlsx
126,53,Pakistan,2.0,2.0,0.0,2.0,2.0,0.0,4.0,4.0,0.0,0.0,0.0,0.0,,,,,2016-12-01,7-55-Bew-RueA-J-d-2020-12.xlsx
127,54,Sri Lanka,4.0,4.0,0.0,3.0,3.0,0.0,1.0,0.0,0.0,0.0,0.0,0.0,,,,,2016-12-01,7-55-Bew-RueA-J-d-2020-12.xlsx
128,55,Syrien,42.0,35.0,7.0,37.0,37.0,0.0,49.0,8.0,7.0,7.0,0.0,0.0,,,,,2016-12-01,7-55-Bew-RueA-J-d-2020-12.xlsx
129,58,Albanien,2.0,2.0,0.0,2.0,2.0,0.0,1.0,2.0,0.0,0.0,0.0,0.0,,,,,2016-12-01,7-55-Bew-RueA-J-d-2020-12.xlsx
130,59,Belarus,1.0,1.0,0.0,1.0,1.0,0.0,0.0,0.0,0.0,0.0,0.0,0.0,,,,,2016-12-01,7-55-Bew-RueA-J-d-2020-12.xlsx
131,60,Bosnien u. Herzegowina,4.0,4.0,0.0,1.0,1.0,0.0,0.0,1.0,0.0,0.0,0.0,0.0,,,,,2016-12-01,7-55-Bew-RueA-J-d-2020-12.xlsx
132,61,Bulgarien,5.0,5.0,0.0,5.0,5.0,0.0,0.0,4.0,0.0,0.0,0.0,0.0,,,,,2016-12-01,7-55-Bew-RueA-J-d-2020-12.xlsx
133,62,Dänemark,1.0,1.0,0.0,1.0,1.0,0.0,0.0,0.0,0.0,0.0,0.0,0.0,,,,,2016-12-01,7-55-Bew-RueA-J-d-2020-12.xlsx
134,63,Estland,2.0,2.0,0.0,2.0,1.0,0.0,0.0,2.0,0.0,0.0,0.0,0.0,,,,,2016-12-01,7-55-Bew-RueA-J-d-2020-12.xlsx
135,64,Frankreich,1.0,1.0,0.0,1.0,0.0,1.0,0.0,0.0,0.0,0.0,0.0,0.0,,,,,2016-12-01,7-55-Bew-RueA-J-d-2020-12.xlsx
136,65,Grossbritannien,5.0,4.0,1.0,4.0,4.0,0.0,0.0,5.0,1.0,1.0,0.0,0.0,,,,,2016-12-01,7-55-Bew-RueA-J-d-2020-12.xlsx
137,66,Kosovo,2.0,2.0,0.0,2.0,2.0,0.0,0.0,2.0,0.0,0.0,0.0,0.0,,,,,2016-12-01,7-55-Bew-RueA-J-d-2020-12.xlsx
138,67,Kroatien,3.0,3.0,0.0,5.0,4.0,0.0,0.0,2.0,0.0,0.0,0.0,0.0,,,,,2016-12-01,7-55-Bew-RueA-J-d-2020-12.xlsx
139,68,Lettland,2.0,2.0,0.0,2.0,2.0,0.0,0.0,1.0,0.0,0.0,0.0,0.0,,,,,2016-12-01,7-55-Bew-RueA-J-d-2020-12.xlsx
140,69,Litauen,4.0,4.0,0.0,4.0,4.0,0.0,0.0,4.0,0.0,0.0,0.0,0.0,,,,,2016-12-01,7-55-Bew-RueA-J-d-2020-12.xlsx
141,70,Moldova,1.0,1.0,0.0,1.0,0.0,1.0,0.0,0.0,0.0,0.0,0.0,0.0,,,,,2016-12-01,7-55-Bew-RueA-J-d-2020-12.xlsx
142,71,Montenegro,0.0,0.0,0.0,0.0,0.0,0.0,0.0,0.0,0.0,0.0,0.0,0.0,,,,,2016-12-01,7-55-Bew-RueA-J-d-2020-12.xlsx
143,72,Niederlande,5.0,5.0,0.0,6.0,4.0,1.0,0.0,4.0,0.0,0.0,0.0,0.0,,,,,2016-12-01,7-55-Bew-RueA-J-d-2020-12.xlsx
144,73,Polen,11.0,11.0,0.0,11.0,11.0,0.0,1.0,9.0,0.0,0.0,0.0,0.0,,,,,2016-12-01,7-55-Bew-RueA-J-d-2020-12.xlsx
145,74,Rumänien,57.0,57.0,0.0,56.0,52.0,4.0,0.0,45.0,0.0,0.0,0.0,0.0,,,,,2016-12-01,7-55-Bew-RueA-J-d-2020-12.xlsx
146,75,Russland,5.0,5.0,0.0,10.0,10.0,0.0,9.0,1.0,0.0,0.0,0.0,0.0,,,,,2016-12-01,7-55-Bew-RueA-J-d-2020-12.xlsx
147,76,Serbien,5.0,3.0,2.0,3.0,2.0,0.0,0.0,1.0,2.0,2.0,0.0,2.0,,,,,2016-12-01,7-55-Bew-RueA-J-d-2020-12.xlsx
148,77,Slowakische Republik,1.0,1.0,0.0,1.0,1.0,0.0,0.0,2.0,0.0,0.0,0.0,0.0,,,,,2016-12-01,7-55-Bew-RueA-J-d-2020-12.xlsx
149,78,Spanien,4.0,4.0,0.0,4.0,4.0,0.0,0.0,4.0,0.0,0.0,0.0,0.0,,,,,2016-12-01,7-55-Bew-RueA-J-d-2020-12.xlsx
150,79,Tschechische Republik,1.0,1.0,0.0,1.0,1.0,0.0,0.0,1.0,0.0,0.0,0.0,0.0,,,,,2016-12-01,7-55-Bew-RueA-J-d-2020-12.xlsx
151,80,Türkei,5.0,5.0,0.0,5.0,5.0,0.0,2.0,2.0,0.0,0.0,0.0,0.0,,,,,2016-12-01,7-55-Bew-RueA-J-d-2020-12.xlsx
152,81,Ukraine,0.0,0.0,0.0,0.0,0.0,0.0,0.0,0.0,0.0,0.0,0.0,0.0,,,,,2016-12-01,7-55-Bew-RueA-J-d-2020-12.xlsx
153,82,Ungarn,9.0,9.0,0.0,8.0,8.0,0.0,0.0,7.0,0.0,0.0,0.0,0.0,,,,,2016-12-01,7-55-Bew-RueA-J-d-2020-12.xlsx
154,85,Staatenlos,1.0,1.0,0.0,1.0,1.0,0.0,0.0,1.0,0.0,0.0,0.0,0.0,,,,,2016-12-01,7-55-Bew-RueA-J-d-2020-12.xlsx
155,86,Ohne Nationalität,6.0,6.0,0.0,6.0,6.0,0.0,6.0,0.0,0.0,0.0,0.0,0.0,,,,,2016-12-01,7-55-Bew-RueA-J-d-2020-12.xlsx
156,87,Staat unbekannt,28.0,28.0,0.0,27.0,19.0,7.0,3.0,10.0,0.0,0.0,0.0,0.0,,,,,2016-12-01,7-55-Bew-RueA-J-d-2020-12.xlsx
157,0,Herkunft unbekannt,15.0,14.0,1.0,15.0,13.0,2.0,9.0,4.0,1.0,1.0,0.0,1.0,,,,,2020-12-01,7-55-Bew-RueA-J-d-2020-12.xlsx
158,2,Ägypten,1.0,1.0,0.0,1.0,1.0,0.0,0.0,0.0,0.0,0.0,0.0,0.0,,,,,2020-12-01,7-55-Bew-RueA-J-d-2020-12.xlsx
159,3,Algerien,2.0,2.0,0.0,2.0,1.0,1.0,1.0,0.0,0.0,0.0,0.0,0.0,,,,,2020-12-01,7-55-Bew-RueA-J-d-2020-12.xlsx
160,4,Angola,0.0,0.0,0.0,0.0,0.0,0.0,0.0,0.0,0.0,0.0,0.0,0.0,,,,,2020-12-01,7-55-Bew-RueA-J-d-2020-12.xlsx
161,5,Äquatorialguinea,1.0,1.0,0.0,1.0,1.0,0.0,0.0,1.0,0.0,0.0,0.0,0.0,,,,,2020-12-01,7-55-Bew-RueA-J-d-2020-12.xlsx
162,6,Äthiopien,4.0,3.0,1.0,3.0,3.0,0.0,1.0,3.0,1.0,1.0,0.0,0.0,,,,,2020-12-01,7-55-Bew-RueA-J-d-2020-12.xlsx
163,7,Côte d'Ivoire,2.0,2.0,0.0,2.0,2.0,0.0,1.0,0.0,0.0,0.0,0.0,0.0,,,,,2020-12-01,7-55-Bew-RueA-J-d-2020-12.xlsx
164,8,Eritrea,60.0,38.0,22.0,33.0,23.0,6.0,19.0,12.0,22.0,21.0,0.0,9.0,,,,,2020-12-01,7-55-Bew-RueA-J-d-2020-12.xlsx
165,9,Gabun,1.0,1.0,0.0,0.0,0.0,0.0,0.0,0.0,0.0,0.0,0.0,0.0,,,,,2020-12-01,7-55-Bew-RueA-J-d-2020-12.xlsx
166,10,Gambia,13.0,13.0,0.0,13.0,12.0,1.0,1.0,9.0,0.0,0.0,0.0,0.0,,,,,2020-12-01,7-55-Bew-RueA-J-d-2020-12.xlsx
167,11,Ghana,0.0,0.0,0.0,0.0,0.0,0.0,0.0,2.0,0.0,0.0,0.0,0.0,,,,,2020-12-01,7-55-Bew-RueA-J-d-2020-12.xlsx
168,12,Guinea,10.0,10.0,0.0,10.0,9.0,1.0,1.0,7.0,0.0,0.0,0.0,0.0,,,,,2020-12-01,7-55-Bew-RueA-J-d-2020-12.xlsx
169,13,Guinea-Bissau,1.0,1.0,0.0,1.0,0.0,1.0,1.0,0.0,0.0,0.0,0.0,0.0,,,,,2020-12-01,7-55-Bew-RueA-J-d-2020-12.xlsx
170,14,Kamerun,1.0,1.0,0.0,3.0,2.0,0.0,0.0,0.0,0.0,0.0,0.0,0.0,,,,,2020-12-01,7-55-Bew-RueA-J-d-2020-12.xlsx
171,15,Kongo,1.0,0.0,1.0,0.0,0.0,0.0,0.0,0.0,1.0,1.0,0.0,1.0,,,,,2020-12-01,7-55-Bew-RueA-J-d-2020-12.xlsx
172,16,Kongo DR,2.0,2.0,0.0,2.0,2.0,0.0,1.0,0.0,0.0,0.0,0.0,0.0,,,,,2020-12-01,7-55-Bew-RueA-J-d-2020-12.xlsx
173,17,Liberia,3.0,3.0,0.0,3.0,2.0,1.0,0.0,0.0,0.0,0.0,0.0,0.0,,,,,2020-12-01,7-55-Bew-RueA-J-d-2020-12.xlsx
174,18,Libyen,2.0,2.0,0.0,2.0,2.0,0.0,1.0,2.0,0.0,0.0,0.0,0.0,,,,,2020-12-01,7-55-Bew-RueA-J-d-2020-12.xlsx
175,19,Malawi,1.0,1.0,0.0,1.0,1.0,0.0,0.0,0.0,0.0,0.0,0.0,0.0,,,,,2020-12-01,7-55-Bew-RueA-J-d-2020-12.xlsx
176,20,Mali,1.0,1.0,0.0,1.0,1.0,0.0,0.0,2.0,0.0,0.0,0.0,0.0,,,,,2020-12-01,7-55-Bew-RueA-J-d-2020-12.xlsx
177,21,Marokko,5.0,5.0,0.0,5.0,4.0,1.0,1.0,3.0,0.0,0.0,0.0,0.0,,,,,2020-12-01,7-55-Bew-RueA-J-d-2020-12.xlsx
178,22,Mauretanien,1.0,1.0,0.0,1.0,1.0,0.0,0.0,0.0,0.0,0.0,0.0,0.0,,,,,2020-12-01,7-55-Bew-RueA-J-d-2020-12.xlsx
179,23,Niger,1.0,1.0,0.0,1.0,1.0,0.0,0.0,0.0,0.0,0.0,0.0,0.0,,,,,2020-12-01,7-55-Bew-RueA-J-d-2020-12.xlsx
180,24,Nigeria,89.0,89.0,0.0,75.0,68.0,5.0,4.0,48.0,0.0,0.0,0.0,0.0,,,,,2020-12-01,7-55-Bew-RueA-J-d-2020-12.xlsx
181,25,Senegal,8.0,8.0,0.0,7.0,5.0,2.0,0.0,4.0,0.0,0.0,0.0,0.0,,,,,2020-12-01,7-55-Bew-RueA-J-d-2020-12.xlsx
182,26,Sierra Leone,3.0,2.0,1.0,3.0,3.0,0.0,1.0,1.0,1.0,1.0,0.0,0.0,,,,,2020-12-01,7-55-Bew-RueA-J-d-2020-12.xlsx
183,27,Somalia,65.0,49.0,16.0,46.0,42.0,2.0,26.0,10.0,16.0,15.0,1.0,9.0,,,,,2020-12-01,7-55-Bew-RueA-J-d-2020-12.xlsx
184,28,Sudan,3.0,3.0,0.0,2.0,2.0,0.0,1.0,1.0,0.0,0.0,0.0,0.0,,,,,2020-12-01,7-55-Bew-RueA-J-d-2020-12.xlsx
185,29,Südsudan,1.0,1.0,0.0,1.0,1.0,0.0,0.0,0.0,0.0,0.0,0.0,0.0,,,,,2020-12-01,7-55-Bew-RueA-J-d-2020-12.xlsx
186,30,Togo,0.0,0.0,0.0,0.0,0.0,0.0,0.0,0.0,0.0,0.0,0.0,0.0,,,,,2020-12-01,7-55-Bew-RueA-J-d-2020-12.xlsx
187,31,Tschad,2.0,2.0,0.0,2.0,1.0,0.0,0.0,1.0,0.0,0.0,0.0,0.0,,,,,2020-12-01,7-55-Bew-RueA-J-d-2020-12.xlsx
188,32,Tunesien,2.0,2.0,0.0,2.0,1.0,1.0,0.0,0.0,0.0,0.0,0.0,0.0,,,,,2020-12-01,7-55-Bew-RueA-J-d-2020-12.xlsx
189,33,Zentralafr. Republik,1.0,1.0,0.0,1.0,1.0,0.0,1.0,0.0,0.0,0.0,0.0,0.0,,,,,2020-12-01,7-55-Bew-RueA-J-d-2020-12.xlsx
190,36,Bolivien,1.0,1.0,0.0,1.0,0.0,1.0,0.0,0.0,0.0,0.0,0.0,0.0,,,,,2020-12-01,7-55-Bew-RueA-J-d-2020-12.xlsx
191,37,Dominikanische Republik,9.0,9.0,0.0,11.0,7.0,4.0,0.0,6.0,0.0,0.0,0.0,0.0,,,,,2020-12-01,7-55-Bew-RueA-J-d-2020-12.xlsx
192,38,Ecuador,1.0,1.0,0.0,1.0,1.0,0.0,0.0,1.0,0.0,0.0,0.0,0.0,,,,,2020-12-01,7-55-Bew-RueA-J-d-2020-12.xlsx
193,39,Haiti,0.0,0.0,0.0,0.0,0.0,0.0,0.0,0.0,0.0,0.0,0.0,0.0,,,,,2020-12-01,7-55-Bew-RueA-J-d-2020-12.xlsx
194,40,Jamaika,1.0,1.0,0.0,1.0,1.0,0.0,1.0,1.0,0.0,0.0,0.0,0.0,,,,,2020-12-01,7-55-Bew-RueA-J-d-2020-12.xlsx
195,41,Kolumbien,6.0,4.0,2.0,4.0,2.0,2.0,0.0,4.0,2.0,2.0,0.0,0.0,,,,,2020-12-01,7-55-Bew-RueA-J-d-2020-12.xlsx
196,42,Kuba,1.0,1.0,0.0,1.0,0.0,1.0,0.0,0.0,0.0,0.0,0.0,0.0,,,,,2020-12-01,7-55-Bew-RueA-J-d-2020-12.xlsx
197,43,Peru,2.0,2.0,0.0,2.0,2.0,0.0,0.0,1.0,0.0,0.0,0.0,0.0,,,,,2020-12-01,7-55-Bew-RueA-J-d-2020-12.xlsx
198,44,Venezuela,1.0,1.0,0.0,1.0,0.0,1.0,0.0,0.0,0.0,0.0,0.0,0.0,,,,,2020-12-01,7-55-Bew-RueA-J-d-2020-12.xlsx
199,47,Afghanistan,72.0,70.0,2.0,69.0,68.0,1.0,55.0,18.0,2.0,2.0,0.0,1.0,,,,,2020-12-01,7-55-Bew-RueA-J-d-2020-12.xlsx
200,48,Armenien,1.0,1.0,0.0,1.0,1.0,0.0,0.0,0.0,0.0,0.0,0.0,0.0,,,,,2020-12-01,7-55-Bew-RueA-J-d-2020-12.xlsx
201,49,Bangladesh,0.0,0.0,0.0,0.0,0.0,0.0,0.0,0.0,0.0,0.0,0.0,0.0,,,,,2020-12-01,7-55-Bew-RueA-J-d-2020-12.xlsx
202,50,China (Volksrepublik),0.0,0.0,0.0,1.0,1.0,0.0,0.0,2.0,0.0,0.0,0.0,0.0,,,,,2020-12-01,7-55-Bew-RueA-J-d-2020-12.xlsx
203,51,Georgien,1.0,1.0,0.0,1.0,1.0,0.0,0.0,1.0,0.0,0.0,0.0,0.0,,,,,2020-12-01,7-55-Bew-RueA-J-d-2020-12.xlsx
204,52,Irak,41.0,39.0,2.0,33.0,33.0,0.0,32.0,5.0,2.0,2.0,0.0,2.0,,,,,2020-12-01,7-55-Bew-RueA-J-d-2020-12.xlsx
205,53,Iran,17.0,17.0,0.0,17.0,17.0,0.0,10.0,5.0,0.0,0.0,0.0,0.0,,,,,2020-12-01,7-55-Bew-RueA-J-d-2020-12.xlsx
206,54,Israel,2.0,2.0,0.0,2.0,2.0,0.0,2.0,0.0,0.0,0.0,0.0,0.0,,,,,2020-12-01,7-55-Bew-RueA-J-d-2020-12.xlsx
207,55,Jemen,0.0,0.0,0.0,0.0,0.0,0.0,0.0,0.0,0.0,0.0,0.0,0.0,,,,,2020-12-01,7-55-Bew-RueA-J-d-2020-12.xlsx
208,56,Libanon,0.0,0.0,0.0,0.0,0.0,0.0,0.0,0.0,0.0,0.0,0.0,0.0,,,,,2020-12-01,7-55-Bew-RueA-J-d-2020-12.xlsx
209,57,Malediven,1.0,0.0,1.0,0.0,0.0,0.0,0.0,0.0,1.0,1.0,0.0,0.0,,,,,2020-12-01,7-55-Bew-RueA-J-d-2020-12.xlsx
210,58,Mongolei,0.0,0.0,0.0,0.0,0.0,0.0,0.0,0.0,0.0,0.0,0.0,0.0,,,,,2020-12-01,7-55-Bew-RueA-J-d-2020-12.xlsx
211,59,Pakistan,2.0,2.0,0.0,3.0,3.0,0.0,0.0,1.0,0.0,0.0,0.0,0.0,,,,,2020-12-01,7-55-Bew-RueA-J-d-2020-12.xlsx
212,60,Sri Lanka,2.0,1.0,1.0,0.0,0.0,0.0,1.0,0.0,1.0,1.0,0.0,0.0,,,,,2020-12-01,7-55-Bew-RueA-J-d-2020-12.xlsx
213,61,Syrien,40.0,36.0,4.0,38.0,35.0,2.0,50.0,6.0,4.0,4.0,0.0,0.0,,,,,2020-12-01,7-55-Bew-RueA-J-d-2020-12.xlsx
214,62,Vietnam,1.0,1.0,0.0,1.0,0.0,1.0,0.0,0.0,0.0,0.0,0.0,0.0,,,,,2020-12-01,7-55-Bew-RueA-J-d-2020-12.xlsx
215,65,Albanien,5.0,5.0,0.0,5.0,4.0,1.0,0.0,4.0,0.0,0.0,0.0,0.0,,,,,2020-12-01,7-55-Bew-RueA-J-d-2020-12.xlsx
216,66,Belarus,1.0,1.0,0.0,1.0,1.0,0.0,1.0,0.0,0.0,0.0,0.0,0.0,,,,,2020-12-01,7-55-Bew-RueA-J-d-2020-12.xlsx
217,67,Belgien,5.0,5.0,0.0,5.0,4.0,1.0,0.0,2.0,0.0,0.0,0.0,0.0,,,,,2020-12-01,7-55-Bew-RueA-J-d-2020-12.xlsx
218,68,Bosnien u. Herzegowina,0.0,0.0,0.0,0.0,0.0,0.0,0.0,0.0,0.0,0.0,0.0,0.0,,,,,2020-12-01,7-55-Bew-RueA-J-d-2020-12.xlsx
219,69,Bulgarien,1.0,1.0,0.0,1.0,1.0,0.0,0.0,1.0,0.0,0.0,0.0,0.0,,,,,2020-12-01,7-55-Bew-RueA-J-d-2020-12.xlsx
220,70,Deutschland,0.0,0.0,0.0,0.0,0.0,0.0,1.0,0.0,0.0,0.0,0.0,0.0,,,,,2020-12-01,7-55-Bew-RueA-J-d-2020-12.xlsx
221,71,Estland,2.0,2.0,0.0,2.0,2.0,0.0,0.0,0.0,0.0,0.0,0.0,0.0,,,,,2020-12-01,7-55-Bew-RueA-J-d-2020-12.xlsx
222,72,Grossbritannien,3.0,3.0,0.0,4.0,3.0,1.0,0.0,3.0,0.0,0.0,0.0,0.0,,,,,2020-12-01,7-55-Bew-RueA-J-d-2020-12.xlsx
223,73,Kosovo,1.0,0.0,1.0,0.0,0.0,0.0,0.0,1.0,1.0,1.0,0.0,1.0,,,,,2020-12-01,7-55-Bew-RueA-J-d-2020-12.xlsx
224,74,Kroatien,4.0,4.0,0.0,4.0,4.0,0.0,0.0,3.0,0.0,0.0,0.0,0.0,,,,,2020-12-01,7-55-Bew-RueA-J-d-2020-12.xlsx
225,75,Lettland,0.0,0.0,0.0,0.0,0.0,0.0,0.0,0.0,0.0,0.0,0.0,0.0,,,,,2020-12-01,7-55-Bew-RueA-J-d-2020-12.xlsx
226,76,Litauen,6.0,6.0,0.0,6.0,6.0,0.0,0.0,4.0,0.0,0.0,0.0,0.0,,,,,2020-12-01,7-55-Bew-RueA-J-d-2020-12.xlsx
227,77,Nordmazedonien,1.0,1.0,0.0,1.0,1.0,0.0,0.0,2.0,0.0,0.0,0.0,0.0,,,,,2020-12-01,7-55-Bew-RueA-J-d-2020-12.xlsx
228,78,Moldova,0.0,0.0,0.0,0.0,0.0,0.0,0.0,0.0,0.0,0.0,0.0,0.0,,,,,2020-12-01,7-55-Bew-RueA-J-d-2020-12.xlsx
229,79,Niederlande,3.0,3.0,0.0,3.0,3.0,0.0,0.0,1.0,0.0,0.0,0.0,0.0,,,,,2020-12-01,7-55-Bew-RueA-J-d-2020-12.xlsx
230,80,Polen,9.0,9.0,0.0,9.0,9.0,0.0,0.0,9.0,0.0,0.0,0.0,0.0,,,,,2020-12-01,7-55-Bew-RueA-J-d-2020-12.xlsx
231,81,Portugal,0.0,0.0,0.0,0.0,0.0,0.0,0.0,0.0,0.0,0.0,0.0,0.0,,,,,2020-12-01,7-55-Bew-RueA-J-d-2020-12.xlsx
232,82,Rumänien,29.0,29.0,0.0,29.0,26.0,3.0,0.0,19.0,0.0,0.0,0.0,0.0,,,,,2020-12-01,7-55-Bew-RueA-J-d-2020-12.xlsx
233,83,Russland,11.0,11.0,0.0,11.0,11.0,0.0,11.0,9.0,0.0,0.0,0.0,0.0,,,,,2020-12-01,7-55-Bew-RueA-J-d-2020-12.xlsx
234,84,Schweden,1.0,1.0,0.0,1.0,0.0,0.0,0.0,0.0,0.0,0.0,0.0,0.0,,,,,2020-12-01,7-55-Bew-RueA-J-d-2020-12.xlsx
235,85,Serbien,3.0,3.0,0.0,3.0,2.0,1.0,1.0,1.0,0.0,0.0,0.0,0.0,,,,,2020-12-01,7-55-Bew-RueA-J-d-2020-12.xlsx
236,86,Slowakische Republik,7.0,7.0,0.0,7.0,6.0,1.0,0.0,3.0,0.0,0.0,0.0,0.0,,,,,2020-12-01,7-55-Bew-RueA-J-d-2020-12.xlsx
237,87,Slowenien,1.0,1.0,0.0,1.0,1.0,0.0,0.0,1.0,0.0,0.0,0.0,0.0,,,,,2020-12-01,7-55-Bew-RueA-J-d-2020-12.xlsx
238,88,Spanien,5.0,5.0,0.0,5.0,3.0,1.0,0.0,3.0,0.0,0.0,0.0,0.0,,,,,2020-12-01,7-55-Bew-RueA-J-d-2020-12.xlsx
239,89,Tschechische Republik,3.0,3.0,0.0,3.0,3.0,0.0,0.0,2.0,0.0,0.0,0.0,0.0,,,,,2020-12-01,7-55-Bew-RueA-J-d-2020-12.xlsx
240,90,Türkei,13.0,8.0,5.0,8.0,8.0,0.0,13.0,1.0,5.0,5.0,0.0,1.0,,,,,2020-12-01,7-55-Bew-RueA-J-d-2020-12.xlsx
241,91,Ukraine,2.0,2.0,0.0,2.0,2.0,0.0,0.0,5.0,0.0,0.0,0.0,0.0,,,,,2020-12-01,7-55-Bew-RueA-J-d-2020-12.xlsx
242,92,Ungarn,3.0,3.0,0.0,3.0,3.0,0.0,0.0,3.0,0.0,0.0,0.0,0.0,,,,,2020-12-01,7-55-Bew-RueA-J-d-2020-12.xlsx
243,95,Ohne Nationalität,6.0,6.0,0.0,6.0,5.0,1.0,5.0,0.0,0.0,0.0,0.0,0.0,,,,,2020-12-01,7-55-Bew-RueA-J-d-2020-12.xlsx
244,96,Staat unbekannt,9.0,8.0,1.0,9.0,8.0,1.0,4.0,4.0,1.0,1.0,0.0,1.0,,,,,2020-12-01,7-55-Bew-RueA-J-d-2020-12.xlsx
245,0,Herkunft unbekannt,27.0,25.0,2.0,24.0,21.0,3.0,14.0,10.0,2.0,2.0,0.0,1.0,,,,,2014-12-01,7-55-Bew-RueA-J-d-2020-12.xlsx
246,2,Ägypten,9.0,9.0,0.0,7.0,7.0,0.0,7.0,3.0,0.0,0.0,0.0,0.0,,,,,2014-12-01,7-55-Bew-RueA-J-d-2020-12.xlsx
247,3,Algerien,13.0,13.0,0.0,12.0,6.0,6.0,0.0,5.0,0.0,0.0,0.0,0.0,,,,,2014-12-01,7-55-Bew-RueA-J-d-2020-12.xlsx
248,4,Angola,1.0,1.0,0.0,1.0,1.0,0.0,0.0,0.0,0.0,0.0,0.0,0.0,,,,,2014-12-01,7-55-Bew-RueA-J-d-2020-12.xlsx
249,5,Äquatorialguinea,1.0,1.0,0.0,1.0,1.0,0.0,0.0,1.0,0.0,0.0,0.0,0.0,,,,,2014-12-01,7-55-Bew-RueA-J-d-2020-12.xlsx
250,6,Äthiopien,9.0,9.0,0.0,9.0,9.0,0.0,9.0,2.0,0.0,0.0,0.0,0.0,,,,,2014-12-01,7-55-Bew-RueA-J-d-2020-12.xlsx
251,7,Burkina Faso,2.0,2.0,0.0,1.0,1.0,0.0,0.0,1.0,0.0,0.0,0.0,0.0,,,,,2014-12-01,7-55-Bew-RueA-J-d-2020-12.xlsx
252,8,Côte d'Ivoire,6.0,6.0,0.0,4.0,4.0,0.0,1.0,5.0,0.0,0.0,0.0,0.0,,,,,2014-12-01,7-55-Bew-RueA-J-d-2020-12.xlsx
253,9,Eritrea,137.0,131.0,6.0,90.0,90.0,0.0,57.0,14.0,6.0,6.0,0.0,3.0,,,,,2014-12-01,7-55-Bew-RueA-J-d-2020-12.xlsx
254,10,Gambia,14.0,14.0,0.0,13.0,11.0,2.0,2.0,8.0,0.0,0.0,0.0,0.0,,,,,2014-12-01,7-55-Bew-RueA-J-d-2020-12.xlsx
255,11,Ghana,1.0,1.0,0.0,0.0,0.0,0.0,0.0,0.0,0.0,0.0,0.0,0.0,,,,,2014-12-01,7-55-Bew-RueA-J-d-2020-12.xlsx
256,12,Guinea,14.0,14.0,0.0,11.0,11.0,0.0,0.0,8.0,0.0,0.0,0.0,0.0,,,,,2014-12-01,7-55-Bew-RueA-J-d-2020-12.xlsx
257,13,Guinea-Bissau,4.0,4.0,0.0,4.0,4.0,0.0,2.0,3.0,0.0,0.0,0.0,0.0,,,,,2014-12-01,7-55-Bew-RueA-J-d-2020-12.xlsx
258,14,Kamerun,2.0,2.0,0.0,2.0,2.0,0.0,0.0,1.0,0.0,0.0,0.0,0.0,,,,,2014-12-01,7-55-Bew-RueA-J-d-2020-12.xlsx
259,15,Kongo DR,3.0,1.0,2.0,1.0,0.0,0.0,7.0,0.0,2.0,2.0,0.0,1.0,,,,,2014-12-01,7-55-Bew-RueA-J-d-2020-12.xlsx
260,16,Liberia,10.0,10.0,0.0,9.0,6.0,3.0,4.0,4.0,0.0,0.0,0.0,0.0,,,,,2014-12-01,7-55-Bew-RueA-J-d-2020-12.xlsx
261,17,Libyen,3.0,3.0,0.0,3.0,3.0,0.0,2.0,0.0,0.0,0.0,0.0,0.0,,,,,2014-12-01,7-55-Bew-RueA-J-d-2020-12.xlsx
262,18,Mali,21.0,21.0,0.0,18.0,17.0,1.0,13.0,8.0,0.0,0.0,0.0,0.0,,,,,2014-12-01,7-55-Bew-RueA-J-d-2020-12.xlsx
263,19,Marokko,7.0,7.0,0.0,7.0,6.0,1.0,5.0,4.0,0.0,0.0,0.0,0.0,,,,,2014-12-01,7-55-Bew-RueA-J-d-2020-12.xlsx
264,20,Mauretanien,5.0,5.0,0.0,5.0,5.0,0.0,1.0,5.0,0.0,0.0,0.0,0.0,,,,,2014-12-01,7-55-Bew-RueA-J-d-2020-12.xlsx
265,21,Niger,3.0,3.0,0.0,3.0,3.0,0.0,2.0,1.0,0.0,0.0,0.0,0.0,,,,,2014-12-01,7-55-Bew-RueA-J-d-2020-12.xlsx
266,22,Nigeria,130.0,130.0,0.0,113.0,95.0,18.0,26.0,52.0,0.0,0.0,0.0,0.0,,,,,2014-12-01,7-55-Bew-RueA-J-d-2020-12.xlsx
267,23,Senegal,6.0,6.0,0.0,5.0,5.0,0.0,1.0,2.0,0.0,0.0,0.0,0.0,,,,,2014-12-01,7-55-Bew-RueA-J-d-2020-12.xlsx
268,24,Sierra Leone,4.0,4.0,0.0,4.0,3.0,1.0,0.0,3.0,0.0,0.0,0.0,0.0,,,,,2014-12-01,7-55-Bew-RueA-J-d-2020-12.xlsx
269,25,Somalia,49.0,45.0,4.0,36.0,30.0,6.0,27.0,3.0,4.0,4.0,0.0,0.0,,,,,2014-12-01,7-55-Bew-RueA-J-d-2020-12.xlsx
270,26,Sudan,7.0,7.0,0.0,4.0,4.0,0.0,7.0,0.0,0.0,0.0,0.0,0.0,,,,,2014-12-01,7-55-Bew-RueA-J-d-2020-12.xlsx
271,27,Südsudan,1.0,1.0,0.0,0.0,0.0,0.0,0.0,0.0,0.0,0.0,0.0,0.0,,,,,2014-12-01,7-55-Bew-RueA-J-d-2020-12.xlsx
272,28,Tansania,1.0,1.0,0.0,1.0,1.0,0.0,0.0,1.0,0.0,0.0,0.0,0.0,,,,,2014-12-01,7-55-Bew-RueA-J-d-2020-12.xlsx
273,29,Togo,1.0,1.0,0.0,1.0,1.0,0.0,1.0,1.0,0.0,0.0,0.0,0.0,,,,,2014-12-01,7-55-Bew-RueA-J-d-2020-12.xlsx
274,30,Tschad,1.0,1.0,0.0,1.0,1.0,0.0,0.0,0.0,0.0,0.0,0.0,0.0,,,,,2014-12-01,7-55-Bew-RueA-J-d-2020-12.xlsx
275,31,Tunesien,0.0,0.0,0.0,0.0,0.0,0.0,1.0,0.0,0.0,0.0,0.0,0.0,,,,,2014-12-01,7-55-Bew-RueA-J-d-2020-12.xlsx
276,32,Uganda,2.0,2.0,0.0,2.0,1.0,1.0,1.0,1.0,0.0,0.0,0.0,0.0,,,,,2014-12-01,7-55-Bew-RueA-J-d-2020-12.xlsx
277,33,Zimbabwe,2.0,2.0,0.0,2.0,1.0,1.0,0.0,1.0,0.0,0.0,0.0,0.0,,,,,2014-12-01,7-55-Bew-RueA-J-d-2020-12.xlsx
278,36,Brasilien,1.0,1.0,0.0,1.0,0.0,1.0,0.0,0.0,0.0,0.0,0.0,0.0,,,,,2014-12-01,7-55-Bew-RueA-J-d-2020-12.xlsx
279,37,Dominikanische Republik,25.0,25.0,0.0,25.0,20.0,5.0,0.0,16.0,0.0,0.0,0.0,0.0,,,,,2014-12-01,7-55-Bew-RueA-J-d-2020-12.xlsx
280,38,Ecuador,3.0,3.0,0.0,3.0,2.0,1.0,0.0,0.0,0.0,0.0,0.0,0.0,,,,,2014-12-01,7-55-Bew-RueA-J-d-2020-12.xlsx
281,39,Kolumbien,3.0,3.0,0.0,3.0,3.0,0.0,0.0,2.0,0.0,0.0,0.0,0.0,,,,,2014-12-01,7-55-Bew-RueA-J-d-2020-12.xlsx
282,40,Kuba,1.0,1.0,0.0,1.0,1.0,0.0,0.0,1.0,0.0,0.0,0.0,0.0,,,,,2014-12-01,7-55-Bew-RueA-J-d-2020-12.xlsx
283,41,Suriname,1.0,1.0,0.0,1.0,1.0,0.0,0.0,1.0,0.0,0.0,0.0,0.0,,,,,2014-12-01,7-55-Bew-RueA-J-d-2020-12.xlsx
284,42,USA,2.0,2.0,0.0,2.0,2.0,0.0,1.0,2.0,0.0,0.0,0.0,0.0,,,,,2014-12-01,7-55-Bew-RueA-J-d-2020-12.xlsx
285,45,Afghanistan,28.0,23.0,5.0,22.0,22.0,0.0,27.0,5.0,5.0,5.0,0.0,1.0,,,,,2014-12-01,7-55-Bew-RueA-J-d-2020-12.xlsx
286,46,Bangladesh,1.0,1.0,0.0,1.0,1.0,0.0,0.0,0.0,0.0,0.0,0.0,0.0,,,,,2014-12-01,7-55-Bew-RueA-J-d-2020-12.xlsx
287,47,China (Volksrepublik),1.0,1.0,0.0,1.0,1.0,0.0,4.0,1.0,0.0,0.0,0.0,0.0,,,,,2014-12-01,7-55-Bew-RueA-J-d-2020-12.xlsx
288,48,Georgien,1.0,1.0,0.0,1.0,1.0,0.0,0.0,2.0,0.0,0.0,0.0,0.0,,,,,2014-12-01,7-55-Bew-RueA-J-d-2020-12.xlsx
289,49,Irak,17.0,16.0,1.0,12.0,12.0,0.0,4.0,8.0,1.0,1.0,0.0,1.0,,,,,2014-12-01,7-55-Bew-RueA-J-d-2020-12.xlsx
290,50,Iran,16.0,16.0,0.0,16.0,16.0,0.0,18.0,0.0,0.0,0.0,0.0,0.0,,,,,2014-12-01,7-55-Bew-RueA-J-d-2020-12.xlsx
291,51,Libanon,1.0,1.0,0.0,1.0,1.0,0.0,0.0,1.0,0.0,0.0,0.0,0.0,,,,,2014-12-01,7-55-Bew-RueA-J-d-2020-12.xlsx
292,52,Mongolei,2.0,2.0,0.0,2.0,2.0,0.0,0.0,0.0,0.0,0.0,0.0,0.0,,,,,2014-12-01,7-55-Bew-RueA-J-d-2020-12.xlsx
293,53,Pakistan,4.0,4.0,0.0,4.0,4.0,0.0,0.0,1.0,0.0,0.0,0.0,0.0,,,,,2014-12-01,7-55-Bew-RueA-J-d-2020-12.xlsx
294,54,Sri Lanka,8.0,8.0,0.0,8.0,7.0,1.0,6.0,4.0,0.0,0.0,0.0,0.0,,,,,2014-12-01,7-55-Bew-RueA-J-d-2020-12.xlsx
295,55,Syrien,41.0,40.0,1.0,36.0,35.0,1.0,32.0,5.0,1.0,1.0,0.0,0.0,,,,,2014-12-01,7-55-Bew-RueA-J-d-2020-12.xlsx
296,58,Belarus,1.0,1.0,0.0,1.0,1.0,0.0,0.0,1.0,0.0,0.0,0.0,0.0,,,,,2014-12-01,7-55-Bew-RueA-J-d-2020-12.xlsx
297,59,Belgien,2.0,2.0,0.0,2.0,1.0,1.0,0.0,0.0,0.0,0.0,0.0,0.0,,,,,2014-12-01,7-55-Bew-RueA-J-d-2020-12.xlsx
298,60,Bosnien u. Herzegowina,1.0,1.0,0.0,1.0,0.0,1.0,0.0,0.0,0.0,0.0,0.0,0.0,,,,,2014-12-01,7-55-Bew-RueA-J-d-2020-12.xlsx
299,61,Bulgarien,3.0,3.0,0.0,3.0,3.0,0.0,0.0,0.0,0.0,0.0,0.0,0.0,,,,,2014-12-01,7-55-Bew-RueA-J-d-2020-12.xlsx
300,62,Griechenland,1.0,1.0,0.0,1.0,0.0,1.0,0.0,0.0,0.0,0.0,0.0,0.0,,,,,2014-12-01,7-55-Bew-RueA-J-d-2020-12.xlsx
301,63,Grossbritannien,1.0,1.0,0.0,1.0,1.0,0.0,0.0,1.0,0.0,0.0,0.0,0.0,,,,,2014-12-01,7-55-Bew-RueA-J-d-2020-12.xlsx
302,64,Italien,0.0,0.0,0.0,0.0,0.0,0.0,2.0,0.0,0.0,0.0,0.0,0.0,,,,,2014-12-01,7-55-Bew-RueA-J-d-2020-12.xlsx
303,65,Kosovo,2.0,2.0,0.0,2.0,0.0,0.0,0.0,0.0,0.0,0.0,0.0,0.0,,,,,2014-12-01,7-55-Bew-RueA-J-d-2020-12.xlsx
304,66,Kroatien,5.0,5.0,0.0,2.0,1.0,0.0,0.0,2.0,0.0,0.0,0.0,0.0,,,,,2014-12-01,7-55-Bew-RueA-J-d-2020-12.xlsx
305,67,Lettland,2.0,2.0,0.0,2.0,2.0,0.0,0.0,2.0,0.0,0.0,0.0,0.0,,,,,2014-12-01,7-55-Bew-RueA-J-d-2020-12.xlsx
306,68,Litauen,6.0,6.0,0.0,5.0,4.0,1.0,0.0,3.0,0.0,0.0,0.0,0.0,,,,,2014-12-01,7-55-Bew-RueA-J-d-2020-12.xlsx
307,69,Mazedonien eh.Jug.Rep.,2.0,2.0,0.0,2.0,2.0,0.0,0.0,1.0,0.0,0.0,0.0,0.0,,,,,2014-12-01,7-55-Bew-RueA-J-d-2020-12.xlsx
308,70,Moldova,2.0,2.0,0.0,2.0,2.0,0.0,0.0,0.0,0.0,0.0,0.0,0.0,,,,,2014-12-01,7-55-Bew-RueA-J-d-2020-12.xlsx
309,71,Montenegro,1.0,1.0,0.0,1.0,1.0,0.0,0.0,0.0,0.0,0.0,0.0,0.0,,,,,2014-12-01,7-55-Bew-RueA-J-d-2020-12.xlsx
310,72,Niederlande,1.0,1.0,0.0,1.0,1.0,0.0,0.0,1.0,0.0,0.0,0.0,0.0,,,,,2014-12-01,7-55-Bew-RueA-J-d-2020-12.xlsx
311,73,Polen,4.0,4.0,0.0,4.0,4.0,0.0,0.0,4.0,0.0,0.0,0.0,0.0,,,,,2014-12-01,7-55-Bew-RueA-J-d-2020-12.xlsx
312,74,Portugal,1.0,1.0,0.0,1.0,1.0,0.0,0.0,0.0,0.0,0.0,0.0,0.0,,,,,2014-12-01,7-55-Bew-RueA-J-d-2020-12.xlsx
313,75,Rumänien,38.0,38.0,0.0,31.0,31.0,0.0,1.0,31.0,0.0,0.0,0.0,0.0,,,,,2014-12-01,7-55-Bew-RueA-J-d-2020-12.xlsx
314,76,Russland,5.0,5.0,0.0,5.0,5.0,0.0,4.0,1.0,0.0,0.0,0.0,0.0,,,,,2014-12-01,7-55-Bew-RueA-J-d-2020-12.xlsx
315,77,Serbien,2.0,2.0,0.0,2.0,2.0,0.0,0.0,1.0,0.0,0.0,0.0,0.0,,,,,2014-12-01,7-55-Bew-RueA-J-d-2020-12.xlsx
316,78,Slowakische Republik,9.0,9.0,0.0,9.0,9.0,0.0,0.0,1.0,0.0,0.0,0.0,0.0,,,,,2014-12-01,7-55-Bew-RueA-J-d-2020-12.xlsx
317,79,Spanien,4.0,4.0,0.0,3.0,3.0,0.0,1.0,3.0,0.0,0.0,0.0,0.0,,,,,2014-12-01,7-55-Bew-RueA-J-d-2020-12.xlsx
318,80,Tschechische Republik,1.0,1.0,0.0,1.0,1.0,0.0,0.0,1.0,0.0,0.0,0.0,0.0,,,,,2014-12-01,7-55-Bew-RueA-J-d-2020-12.xlsx
319,81,Türkei,3.0,3.0,0.0,3.0,2.0,1.0,1.0,1.0,0.0,0.0,0.0,0.0,,,,,2014-12-01,7-55-Bew-RueA-J-d-2020-12.xlsx
320,82,Ukraine,5.0,5.0,0.0,5.0,5.0,0.0,1.0,3.0,0.0,0.0,0.0,0.0,,,,,2014-12-01,7-55-Bew-RueA-J-d-2020-12.xlsx
321,83,Ungarn,7.0,7.0,0.0,7.0,7.0,0.0,0.0,7.0,0.0,0.0,0.0,0.0,,,,,2014-12-01,7-55-Bew-RueA-J-d-2020-12.xlsx
322,86,Staatenlos,1.0,1.0,0.0,1.0,1.0,0.0,0.0,1.0,0.0,0.0,0.0,0.0,,,,,2014-12-01,7-55-Bew-RueA-J-d-2020-12.xlsx
323,87,Ohne Nationalität,3.0,2.0,1.0,2.0,2.0,0.0,7.0,2.0,1.0,1.0,0.0,0.0,,,,,2014-12-01,7-55-Bew-RueA-J-d-2020-12.xlsx
324,88,Staat unbekannt,23.0,22.0,1.0,21.0,18.0,3.0,7.0,7.0,1.0,1.0,0.0,1.0,,,,,2014-12-01,7-55-Bew-RueA-J-d-2020-12.xlsx
325,0,Herkunft unbekannt,18.0,18.0,0.0,16.0,14.0,2.0,5.0,8.0,0.0,0.0,0.0,0.0,,,,,2015-12-01,7-55-Bew-RueA-J-d-2020-12.xlsx
326,2,Ägypten,8.0,8.0,0.0,10.0,6.0,0.0,1.0,0.0,0.0,0.0,0.0,0.0,,,,,2015-12-01,7-55-Bew-RueA-J-d-2020-12.xlsx
327,3,Algerien,7.0,7.0,0.0,8.0,7.0,1.0,0.0,6.0,0.0,0.0,0.0,0.0,,,,,2015-12-01,7-55-Bew-RueA-J-d-2020-12.xlsx
328,4,Angola,1.0,0.0,1.0,0.0,0.0,0.0,0.0,0.0,1.0,0.0,1.0,0.0,,,,,2015-12-01,7-55-Bew-RueA-J-d-2020-12.xlsx
329,5,Äthiopien,20.0,15.0,5.0,15.0,15.0,0.0,9.0,1.0,5.0,5.0,0.0,4.0,,,,,2015-12-01,7-55-Bew-RueA-J-d-2020-12.xlsx
330,6,Burkina Faso,0.0,0.0,0.0,1.0,1.0,0.0,1.0,1.0,0.0,0.0,0.0,0.0,,,,,2015-12-01,7-55-Bew-RueA-J-d-2020-12.xlsx
331,7,Côte d'Ivoire,3.0,3.0,0.0,3.0,3.0,0.0,1.0,2.0,0.0,0.0,0.0,0.0,,,,,2015-12-01,7-55-Bew-RueA-J-d-2020-12.xlsx
332,8,Eritrea,88.0,87.0,1.0,84.0,80.0,4.0,69.0,15.0,1.0,1.0,0.0,1.0,,,,,2015-12-01,7-55-Bew-RueA-J-d-2020-12.xlsx
333,9,Gambia,20.0,20.0,0.0,16.0,13.0,3.0,5.0,12.0,0.0,0.0,0.0,0.0,,,,,2015-12-01,7-55-Bew-RueA-J-d-2020-12.xlsx
334,10,Ghana,4.0,4.0,0.0,4.0,2.0,2.0,0.0,1.0,0.0,0.0,0.0,0.0,,,,,2015-12-01,7-55-Bew-RueA-J-d-2020-12.xlsx
335,11,Guinea,11.0,11.0,0.0,13.0,8.0,5.0,2.0,7.0,0.0,0.0,0.0,0.0,,,,,2015-12-01,7-55-Bew-RueA-J-d-2020-12.xlsx
336,12,Guinea-Bissau,6.0,6.0,0.0,5.0,4.0,1.0,1.0,1.0,0.0,0.0,0.0,0.0,,,,,2015-12-01,7-55-Bew-RueA-J-d-2020-12.xlsx
337,13,Kamerun,1.0,1.0,0.0,1.0,1.0,0.0,0.0,2.0,0.0,0.0,0.0,0.0,,,,,2015-12-01,7-55-Bew-RueA-J-d-2020-12.xlsx
338,14,Kongo DR,1.0,1.0,0.0,1.0,1.0,0.0,1.0,0.0,0.0,0.0,0.0,0.0,,,,,2015-12-01,7-55-Bew-RueA-J-d-2020-12.xlsx
339,15,Liberia,2.0,2.0,0.0,3.0,3.0,0.0,1.0,2.0,0.0,0.0,0.0,0.0,,,,,2015-12-01,7-55-Bew-RueA-J-d-2020-12.xlsx
340,16,Libyen,2.0,1.0,1.0,1.0,1.0,0.0,0.0,0.0,1.0,1.0,0.0,0.0,,,,,2015-12-01,7-55-Bew-RueA-J-d-2020-12.xlsx
341,17,Mali,12.0,12.0,0.0,14.0,12.0,1.0,6.0,7.0,0.0,0.0,0.0,0.0,,,,,2015-12-01,7-55-Bew-RueA-J-d-2020-12.xlsx
342,18,Marokko,6.0,6.0,0.0,6.0,4.0,2.0,1.0,0.0,0.0,0.0,0.0,0.0,,,,,2015-12-01,7-55-Bew-RueA-J-d-2020-12.xlsx
343,19,Niger,1.0,1.0,0.0,1.0,1.0,0.0,0.0,0.0,0.0,0.0,0.0,0.0,,,,,2015-12-01,7-55-Bew-RueA-J-d-2020-12.xlsx
344,20,Nigeria,102.0,102.0,0.0,104.0,96.0,5.0,18.0,64.0,0.0,0.0,0.0,0.0,,,,,2015-12-01,7-55-Bew-RueA-J-d-2020-12.xlsx
345,21,Senegal,11.0,11.0,0.0,11.0,9.0,2.0,3.0,7.0,0.0,0.0,0.0,0.0,,,,,2015-12-01,7-55-Bew-RueA-J-d-2020-12.xlsx
346,22,Sierra Leone,2.0,2.0,0.0,2.0,2.0,0.0,0.0,1.0,0.0,0.0,0.0,0.0,,,,,2015-12-01,7-55-Bew-RueA-J-d-2020-12.xlsx
347,23,Somalia,48.0,44.0,4.0,35.0,31.0,4.0,18.0,6.0,4.0,4.0,0.0,0.0,,,,,2015-12-01,7-55-Bew-RueA-J-d-2020-12.xlsx
348,24,Sudan,5.0,5.0,0.0,4.0,4.0,0.0,5.0,3.0,0.0,0.0,0.0,0.0,,,,,2015-12-01,7-55-Bew-RueA-J-d-2020-12.xlsx
349,25,Südsudan,0.0,0.0,0.0,1.0,1.0,0.0,1.0,0.0,0.0,0.0,0.0,0.0,,,,,2015-12-01,7-55-Bew-RueA-J-d-2020-12.xlsx
350,26,Togo,3.0,3.0,0.0,2.0,2.0,0.0,1.0,1.0,0.0,0.0,0.0,0.0,,,,,2015-12-01,7-55-Bew-RueA-J-d-2020-12.xlsx
351,27,Tschad,2.0,2.0,0.0,2.0,1.0,1.0,0.0,0.0,0.0,0.0,0.0,0.0,,,,,2015-12-01,7-55-Bew-RueA-J-d-2020-12.xlsx
352,28,Tunesien,2.0,2.0,0.0,2.0,2.0,0.0,0.0,1.0,0.0,0.0,0.0,0.0,,,,,2015-12-01,7-55-Bew-RueA-J-d-2020-12.xlsx
353,31,Bolivien,2.0,2.0,0.0,2.0,2.0,0.0,0.0,2.0,0.0,0.0,0.0,0.0,,,,,2015-12-01,7-55-Bew-RueA-J-d-2020-12.xlsx
354,32,Dominikanische Republik,15.0,15.0,0.0,15.0,14.0,1.0,0.0,13.0,0.0,0.0,0.0,0.0,,,,,2015-12-01,7-55-Bew-RueA-J-d-2020-12.xlsx
355,33,Ecuador,2.0,2.0,0.0,2.0,2.0,0.0,0.0,1.0,0.0,0.0,0.0,0.0,,,,,2015-12-01,7-55-Bew-RueA-J-d-2020-12.xlsx
356,34,Haiti,4.0,4.0,0.0,0.0,0.0,0.0,0.0,0.0,0.0,0.0,0.0,0.0,,,,,2015-12-01,7-55-Bew-RueA-J-d-2020-12.xlsx
357,35,Kanada,1.0,1.0,0.0,1.0,1.0,0.0,0.0,1.0,0.0,0.0,0.0,0.0,,,,,2015-12-01,7-55-Bew-RueA-J-d-2020-12.xlsx
358,36,Kolumbien,4.0,4.0,0.0,3.0,2.0,0.0,0.0,3.0,0.0,0.0,0.0,0.0,,,,,2015-12-01,7-55-Bew-RueA-J-d-2020-12.xlsx
359,37,Kuba,1.0,1.0,0.0,1.0,1.0,0.0,0.0,0.0,0.0,0.0,0.0,0.0,,,,,2015-12-01,7-55-Bew-RueA-J-d-2020-12.xlsx
360,38,Trinidad u. Tobago,1.0,1.0,0.0,1.0,1.0,0.0,0.0,0.0,0.0,0.0,0.0,0.0,,,,,2015-12-01,7-55-Bew-RueA-J-d-2020-12.xlsx
361,41,Afghanistan,24.0,24.0,0.0,25.0,25.0,0.0,13.0,3.0,0.0,0.0,0.0,0.0,,,,,2015-12-01,7-55-Bew-RueA-J-d-2020-12.xlsx
362,42,Bangladesh,1.0,1.0,0.0,1.0,1.0,0.0,2.0,0.0,0.0,0.0,0.0,0.0,,,,,2015-12-01,7-55-Bew-RueA-J-d-2020-12.xlsx
363,43,China (Volksrepublik),10.0,10.0,0.0,10.0,10.0,0.0,4.0,6.0,0.0,0.0,0.0,0.0,,,,,2015-12-01,7-55-Bew-RueA-J-d-2020-12.xlsx
364,44,Georgien,3.0,3.0,0.0,3.0,2.0,1.0,0.0,2.0,0.0,0.0,0.0,0.0,,,,,2015-12-01,7-55-Bew-RueA-J-d-2020-12.xlsx
365,45,Irak,7.0,6.0,1.0,7.0,6.0,1.0,1.0,1.0,1.0,1.0,0.0,1.0,,,,,2015-12-01,7-55-Bew-RueA-J-d-2020-12.xlsx
366,46,Iran,3.0,3.0,0.0,2.0,2.0,0.0,4.0,1.0,0.0,0.0,0.0,0.0,,,,,2015-12-01,7-55-Bew-RueA-J-d-2020-12.xlsx
367,47,Sri Lanka,4.0,4.0,0.0,4.0,3.0,1.0,2.0,1.0,0.0,0.0,0.0,0.0,,,,,2015-12-01,7-55-Bew-RueA-J-d-2020-12.xlsx
368,48,Syrien,58.0,58.0,0.0,54.0,52.0,2.0,24.0,15.0,0.0,0.0,0.0,0.0,,,,,2015-12-01,7-55-Bew-RueA-J-d-2020-12.xlsx
369,51,Belarus,1.0,1.0,0.0,1.0,1.0,0.0,0.0,1.0,0.0,0.0,0.0,0.0,,,,,2015-12-01,7-55-Bew-RueA-J-d-2020-12.xlsx
370,52,Belgien,2.0,2.0,0.0,1.0,1.0,0.0,0.0,0.0,0.0,0.0,0.0,0.0,,,,,2015-12-01,7-55-Bew-RueA-J-d-2020-12.xlsx
371,53,Bosnien u. Herzegowina,6.0,6.0,0.0,6.0,0.0,6.0,0.0,0.0,0.0,0.0,0.0,0.0,,,,,2015-12-01,7-55-Bew-RueA-J-d-2020-12.xlsx
372,54,Grossbritannien,1.0,1.0,0.0,1.0,1.0,0.0,0.0,1.0,0.0,0.0,0.0,0.0,,,,,2015-12-01,7-55-Bew-RueA-J-d-2020-12.xlsx
373,55,Kosovo,3.0,3.0,0.0,3.0,3.0,0.0,1.0,0.0,0.0,0.0,0.0,0.0,,,,,2015-12-01,7-55-Bew-RueA-J-d-2020-12.xlsx
374,56,Kroatien,2.0,2.0,0.0,1.0,1.0,0.0,0.0,4.0,0.0,0.0,0.0,0.0,,,,,2015-12-01,7-55-Bew-RueA-J-d-2020-12.xlsx
375,57,Litauen,1.0,1.0,0.0,1.0,1.0,0.0,0.0,0.0,0.0,0.0,0.0,0.0,,,,,2015-12-01,7-55-Bew-RueA-J-d-2020-12.xlsx
376,58,Mazedonien eh.Jug.Rep.,1.0,1.0,0.0,1.0,1.0,0.0,0.0,1.0,0.0,0.0,0.0,0.0,,,,,2015-12-01,7-55-Bew-RueA-J-d-2020-12.xlsx
377,59,Moldova,1.0,1.0,0.0,1.0,1.0,0.0,0.0,0.0,0.0,0.0,0.0,0.0,,,,,2015-12-01,7-55-Bew-RueA-J-d-2020-12.xlsx
378,60,Montenegro,3.0,3.0,0.0,3.0,0.0,3.0,0.0,0.0,0.0,0.0,0.0,0.0,,,,,2015-12-01,7-55-Bew-RueA-J-d-2020-12.xlsx
379,61,Niederlande,2.0,2.0,0.0,1.0,1.0,0.0,0.0,1.0,0.0,0.0,0.0,0.0,,,,,2015-12-01,7-55-Bew-RueA-J-d-2020-12.xlsx
380,62,Polen,9.0,9.0,0.0,9.0,9.0,0.0,0.0,3.0,0.0,0.0,0.0,0.0,,,,,2015-12-01,7-55-Bew-RueA-J-d-2020-12.xlsx
381,63,Rumänien,41.0,41.0,0.0,42.0,38.0,4.0,0.0,37.0,0.0,0.0,0.0,0.0,,,,,2015-12-01,7-55-Bew-RueA-J-d-2020-12.xlsx
382,64,Russland,12.0,12.0,0.0,7.0,7.0,0.0,7.0,0.0,0.0,0.0,0.0,0.0,,,,,2015-12-01,7-55-Bew-RueA-J-d-2020-12.xlsx
383,65,Serbien,3.0,3.0,0.0,3.0,2.0,1.0,0.0,1.0,0.0,0.0,0.0,0.0,,,,,2015-12-01,7-55-Bew-RueA-J-d-2020-12.xlsx
384,66,Slowakische Republik,4.0,4.0,0.0,4.0,4.0,0.0,0.0,2.0,0.0,0.0,0.0,0.0,,,,,2015-12-01,7-55-Bew-RueA-J-d-2020-12.xlsx
385,67,Slowenien,1.0,1.0,0.0,1.0,1.0,0.0,0.0,1.0,0.0,0.0,0.0,0.0,,,,,2015-12-01,7-55-Bew-RueA-J-d-2020-12.xlsx
386,68,Spanien,4.0,4.0,0.0,4.0,4.0,0.0,0.0,3.0,0.0,0.0,0.0,0.0,,,,,2015-12-01,7-55-Bew-RueA-J-d-2020-12.xlsx
387,69,Tschechische Republik,1.0,1.0,0.0,1.0,1.0,0.0,0.0,1.0,0.0,0.0,0.0,0.0,,,,,2015-12-01,7-55-Bew-RueA-J-d-2020-12.xlsx
388,70,Türkei,3.0,3.0,0.0,3.0,3.0,0.0,1.0,1.0,0.0,0.0,0.0,0.0,,,,,2015-12-01,7-55-Bew-RueA-J-d-2020-12.xlsx
389,71,Ungarn,1.0,1.0,0.0,1.0,1.0,0.0,0.0,1.0,0.0,0.0,0.0,0.0,,,,,2015-12-01,7-55-Bew-RueA-J-d-2020-12.xlsx
390,74,Ohne Nationalität,5.0,5.0,0.0,5.0,5.0,0.0,4.0,2.0,0.0,0.0,0.0,0.0,,,,,2015-12-01,7-55-Bew-RueA-J-d-2020-12.xlsx
391,75,Staat unbekannt,13.0,13.0,0.0,11.0,9.0,2.0,1.0,6.0,0.0,0.0,0.0,0.0,,,,,2015-12-01,7-55-Bew-RueA-J-d-2020-12.xlsx
392,0,Herkunft unbekannt,27.0,27.0,0.0,27.0,25.0,2.0,7.0,20.0,0.0,0.0,0.0,0.0,,,,,2019-12-01,7-55-Bew-RueA-J-d-2020-12.xlsx
393,2,Ägypten,1.0,1.0,0.0,1.0,1.0,0.0,1.0,0.0,0.0,0.0,0.0,0.0,,,,,2019-12-01,7-55-Bew-RueA-J-d-2020-12.xlsx
394,3,Algerien,8.0,8.0,0.0,9.0,5.0,4.0,0.0,7.0,0.0,0.0,0.0,0.0,,,,,2019-12-01,7-55-Bew-RueA-J-d-2020-12.xlsx
395,4,Angola,1.0,1.0,0.0,1.0,1.0,0.0,1.0,1.0,0.0,0.0,0.0,0.0,,,,,2019-12-01,7-55-Bew-RueA-J-d-2020-12.xlsx
396,5,Äquatorialguinea,1.0,1.0,0.0,0.0,0.0,0.0,0.0,0.0,0.0,0.0,0.0,0.0,,,,,2019-12-01,7-55-Bew-RueA-J-d-2020-12.xlsx
397,6,Äthiopien,2.0,2.0,0.0,2.0,2.0,0.0,5.0,0.0,0.0,0.0,0.0,0.0,,,,,2019-12-01,7-55-Bew-RueA-J-d-2020-12.xlsx
398,7,Benin,1.0,1.0,0.0,1.0,0.0,1.0,0.0,0.0,0.0,0.0,0.0,0.0,,,,,2019-12-01,7-55-Bew-RueA-J-d-2020-12.xlsx
399,8,Burundi,1.0,1.0,0.0,1.0,1.0,0.0,1.0,0.0,0.0,0.0,0.0,0.0,,,,,2019-12-01,7-55-Bew-RueA-J-d-2020-12.xlsx
400,9,Côte d'Ivoire,4.0,4.0,0.0,3.0,3.0,0.0,0.0,3.0,0.0,0.0,0.0,0.0,,,,,2019-12-01,7-55-Bew-RueA-J-d-2020-12.xlsx
401,10,Eritrea,58.0,33.0,25.0,29.0,28.0,0.0,21.0,11.0,25.0,25.0,0.0,11.0,,,,,2019-12-01,7-55-Bew-RueA-J-d-2020-12.xlsx
402,11,Gabun,1.0,1.0,0.0,1.0,1.0,0.0,0.0,0.0,0.0,0.0,0.0,0.0,,,,,2019-12-01,7-55-Bew-RueA-J-d-2020-12.xlsx
403,12,Gambia,20.0,20.0,0.0,15.0,14.0,0.0,2.0,12.0,0.0,0.0,0.0,0.0,,,,,2019-12-01,7-55-Bew-RueA-J-d-2020-12.xlsx
404,13,Ghana,1.0,1.0,0.0,1.0,1.0,0.0,2.0,2.0,0.0,0.0,0.0,0.0,,,,,2019-12-01,7-55-Bew-RueA-J-d-2020-12.xlsx
405,14,Guinea,14.0,14.0,0.0,12.0,9.0,2.0,1.0,10.0,0.0,0.0,0.0,0.0,,,,,2019-12-01,7-55-Bew-RueA-J-d-2020-12.xlsx
406,15,Guinea-Bissau,3.0,3.0,0.0,3.0,2.0,1.0,0.0,2.0,0.0,0.0,0.0,0.0,,,,,2019-12-01,7-55-Bew-RueA-J-d-2020-12.xlsx
407,16,Kamerun,5.0,4.0,1.0,2.0,2.0,0.0,2.0,0.0,1.0,1.0,0.0,0.0,,,,,2019-12-01,7-55-Bew-RueA-J-d-2020-12.xlsx
408,17,Kenia,1.0,1.0,0.0,2.0,1.0,0.0,1.0,1.0,0.0,0.0,0.0,0.0,,,,,2019-12-01,7-55-Bew-RueA-J-d-2020-12.xlsx
409,18,Kongo DR,2.0,2.0,0.0,3.0,2.0,0.0,0.0,0.0,0.0,0.0,0.0,0.0,,,,,2019-12-01,7-55-Bew-RueA-J-d-2020-12.xlsx
410,19,Liberia,1.0,1.0,0.0,1.0,0.0,1.0,0.0,0.0,0.0,0.0,0.0,0.0,,,,,2019-12-01,7-55-Bew-RueA-J-d-2020-12.xlsx
411,20,Mali,4.0,4.0,0.0,5.0,5.0,0.0,0.0,4.0,0.0,0.0,0.0,0.0,,,,,2019-12-01,7-55-Bew-RueA-J-d-2020-12.xlsx
412,21,Marokko,10.0,8.0,2.0,8.0,7.0,1.0,6.0,3.0,2.0,1.0,1.0,1.0,,,,,2019-12-01,7-55-Bew-RueA-J-d-2020-12.xlsx
413,22,Mauretanien,2.0,2.0,0.0,2.0,2.0,0.0,0.0,2.0,0.0,0.0,0.0,0.0,,,,,2019-12-01,7-55-Bew-RueA-J-d-2020-12.xlsx
414,23,Nigeria,93.0,93.0,0.0,88.0,68.0,9.0,7.0,63.0,0.0,0.0,0.0,0.0,,,,,2019-12-01,7-55-Bew-RueA-J-d-2020-12.xlsx
415,24,Senegal,6.0,6.0,0.0,6.0,5.0,1.0,0.0,3.0,0.0,0.0,0.0,0.0,,,,,2019-12-01,7-55-Bew-RueA-J-d-2020-12.xlsx
416,25,Sierra Leone,1.0,1.0,0.0,0.0,0.0,0.0,0.0,0.0,0.0,0.0,0.0,0.0,,,,,2019-12-01,7-55-Bew-RueA-J-d-2020-12.xlsx
417,26,Somalia,49.0,43.0,6.0,29.0,24.0,1.0,33.0,11.0,6.0,2.0,4.0,0.0,,,,,2019-12-01,7-55-Bew-RueA-J-d-2020-12.xlsx
418,27,Sudan,5.0,5.0,0.0,5.0,4.0,1.0,3.0,2.0,0.0,0.0,0.0,0.0,,,,,2019-12-01,7-55-Bew-RueA-J-d-2020-12.xlsx
419,28,Südsudan,1.0,1.0,0.0,1.0,1.0,0.0,1.0,0.0,0.0,0.0,0.0,0.0,,,,,2019-12-01,7-55-Bew-RueA-J-d-2020-12.xlsx
420,29,Tansania,0.0,0.0,0.0,0.0,0.0,0.0,0.0,1.0,0.0,0.0,0.0,0.0,,,,,2019-12-01,7-55-Bew-RueA-J-d-2020-12.xlsx
421,30,Togo,1.0,1.0,0.0,1.0,1.0,0.0,0.0,0.0,0.0,0.0,0.0,0.0,,,,,2019-12-01,7-55-Bew-RueA-J-d-2020-12.xlsx
422,31,Tschad,5.0,5.0,0.0,0.0,0.0,0.0,0.0,0.0,0.0,0.0,0.0,0.0,,,,,2019-12-01,7-55-Bew-RueA-J-d-2020-12.xlsx
423,32,Tunesien,2.0,2.0,0.0,2.0,2.0,0.0,0.0,1.0,0.0,0.0,0.0,0.0,,,,,2019-12-01,7-55-Bew-RueA-J-d-2020-12.xlsx
424,33,Zentralafr. Republik,1.0,1.0,0.0,1.0,1.0,0.0,1.0,1.0,0.0,0.0,0.0,0.0,,,,,2019-12-01,7-55-Bew-RueA-J-d-2020-12.xlsx
425,34,Zimbabwe,1.0,1.0,0.0,1.0,0.0,1.0,0.0,0.0,0.0,0.0,0.0,0.0,,,,,2019-12-01,7-55-Bew-RueA-J-d-2020-12.xlsx
426,37,Chile,1.0,1.0,0.0,1.0,1.0,0.0,0.0,1.0,0.0,0.0,0.0,0.0,,,,,2019-12-01,7-55-Bew-RueA-J-d-2020-12.xlsx
427,38,Dominikanische Republik,24.0,24.0,0.0,22.0,16.0,5.0,0.0,14.0,0.0,0.0,0.0,0.0,,,,,2019-12-01,7-55-Bew-RueA-J-d-2020-12.xlsx
428,39,Ecuador,2.0,2.0,0.0,2.0,1.0,1.0,0.0,1.0,0.0,0.0,0.0,0.0,,,,,2019-12-01,7-55-Bew-RueA-J-d-2020-12.xlsx
429,40,Kolumbien,4.0,4.0,0.0,4.0,2.0,2.0,0.0,2.0,0.0,0.0,0.0,0.0,,,,,2019-12-01,7-55-Bew-RueA-J-d-2020-12.xlsx
430,41,Kuba,1.0,1.0,0.0,1.0,1.0,0.0,0.0,1.0,0.0,0.0,0.0,0.0,,,,,2019-12-01,7-55-Bew-RueA-J-d-2020-12.xlsx
431,42,Mexiko,1.0,1.0,0.0,1.0,1.0,0.0,0.0,0.0,0.0,0.0,0.0,0.0,,,,,2019-12-01,7-55-Bew-RueA-J-d-2020-12.xlsx
432,43,Peru,0.0,0.0,0.0,0.0,0.0,0.0,0.0,1.0,0.0,0.0,0.0,0.0,,,,,2019-12-01,7-55-Bew-RueA-J-d-2020-12.xlsx
433,44,Venezuela,2.0,2.0,0.0,2.0,1.0,1.0,0.0,1.0,0.0,0.0,0.0,0.0,,,,,2019-12-01,7-55-Bew-RueA-J-d-2020-12.xlsx
434,47,Afghanistan,93.0,90.0,3.0,97.0,87.0,8.0,72.0,10.0,3.0,3.0,0.0,1.0,,,,,2019-12-01,7-55-Bew-RueA-J-d-2020-12.xlsx
435,48,China (Volksrepublik),9.0,9.0,0.0,9.0,7.0,2.0,1.0,5.0,0.0,0.0,0.0,0.0,,,,,2019-12-01,7-55-Bew-RueA-J-d-2020-12.xlsx
436,49,Georgien,2.0,2.0,0.0,1.0,0.0,1.0,3.0,0.0,0.0,0.0,0.0,0.0,,,,,2019-12-01,7-55-Bew-RueA-J-d-2020-12.xlsx
437,50,Irak,79.0,78.0,1.0,76.0,71.0,3.0,59.0,13.0,1.0,1.0,0.0,0.0,,,,,2019-12-01,7-55-Bew-RueA-J-d-2020-12.xlsx
438,51,Iran,20.0,20.0,0.0,21.0,20.0,0.0,22.0,5.0,0.0,0.0,0.0,0.0,,,,,2019-12-01,7-55-Bew-RueA-J-d-2020-12.xlsx
439,52,Jemen,1.0,1.0,0.0,1.0,1.0,0.0,0.0,0.0,0.0,0.0,0.0,0.0,,,,,2019-12-01,7-55-Bew-RueA-J-d-2020-12.xlsx
440,53,Libanon,1.0,0.0,1.0,0.0,0.0,0.0,0.0,0.0,1.0,1.0,0.0,0.0,,,,,2019-12-01,7-55-Bew-RueA-J-d-2020-12.xlsx
441,54,Nepal,1.0,1.0,0.0,1.0,0.0,1.0,0.0,0.0,0.0,0.0,0.0,0.0,,,,,2019-12-01,7-55-Bew-RueA-J-d-2020-12.xlsx
442,55,Pakistan,7.0,7.0,0.0,11.0,9.0,1.0,5.0,6.0,0.0,0.0,0.0,0.0,,,,,2019-12-01,7-55-Bew-RueA-J-d-2020-12.xlsx
443,56,Sri Lanka,2.0,2.0,0.0,1.0,1.0,0.0,1.0,0.0,0.0,0.0,0.0,0.0,,,,,2019-12-01,7-55-Bew-RueA-J-d-2020-12.xlsx
444,57,Syrien,66.0,62.0,4.0,68.0,67.0,0.0,30.0,11.0,4.0,1.0,3.0,1.0,,,,,2019-12-01,7-55-Bew-RueA-J-d-2020-12.xlsx
445,58,Thailand,1.0,0.0,1.0,0.0,0.0,0.0,0.0,0.0,1.0,1.0,0.0,0.0,,,,,2019-12-01,7-55-Bew-RueA-J-d-2020-12.xlsx
446,61,Albanien,3.0,2.0,1.0,2.0,2.0,0.0,0.0,2.0,1.0,1.0,0.0,1.0,,,,,2019-12-01,7-55-Bew-RueA-J-d-2020-12.xlsx
447,62,Bosnien u. Herzegowina,1.0,0.0,1.0,0.0,0.0,0.0,0.0,0.0,1.0,1.0,0.0,1.0,,,,,2019-12-01,7-55-Bew-RueA-J-d-2020-12.xlsx
448,63,Bulgarien,1.0,1.0,0.0,1.0,1.0,0.0,0.0,0.0,0.0,0.0,0.0,0.0,,,,,2019-12-01,7-55-Bew-RueA-J-d-2020-12.xlsx
449,64,Estland,1.0,1.0,0.0,1.0,0.0,1.0,0.0,0.0,0.0,0.0,0.0,0.0,,,,,2019-12-01,7-55-Bew-RueA-J-d-2020-12.xlsx
450,65,Griechenland,2.0,2.0,0.0,2.0,2.0,0.0,0.0,1.0,0.0,0.0,0.0,0.0,,,,,2019-12-01,7-55-Bew-RueA-J-d-2020-12.xlsx
451,66,Grossbritannien,4.0,4.0,0.0,3.0,1.0,2.0,0.0,0.0,0.0,0.0,0.0,0.0,,,,,2019-12-01,7-55-Bew-RueA-J-d-2020-12.xlsx
452,67,Italien,2.0,2.0,0.0,2.0,2.0,0.0,0.0,1.0,0.0,0.0,0.0,0.0,,,,,2019-12-01,7-55-Bew-RueA-J-d-2020-12.xlsx
453,68,Kosovo,2.0,2.0,0.0,3.0,3.0,0.0,1.0,2.0,0.0,0.0,0.0,0.0,,,,,2019-12-01,7-55-Bew-RueA-J-d-2020-12.xlsx
454,69,Kroatien,7.0,7.0,0.0,7.0,7.0,0.0,0.0,5.0,0.0,0.0,0.0,0.0,,,,,2019-12-01,7-55-Bew-RueA-J-d-2020-12.xlsx
455,70,Litauen,3.0,3.0,0.0,3.0,3.0,0.0,0.0,4.0,0.0,0.0,0.0,0.0,,,,,2019-12-01,7-55-Bew-RueA-J-d-2020-12.xlsx
456,71,Nordmazedonien,0.0,0.0,0.0,0.0,0.0,0.0,1.0,0.0,0.0,0.0,0.0,0.0,,,,,2019-12-01,7-55-Bew-RueA-J-d-2020-12.xlsx
457,72,Moldova,3.0,3.0,0.0,3.0,2.0,1.0,0.0,2.0,0.0,0.0,0.0,0.0,,,,,2019-12-01,7-55-Bew-RueA-J-d-2020-12.xlsx
458,73,Montenegro,1.0,1.0,0.0,1.0,1.0,0.0,0.0,1.0,0.0,0.0,0.0,0.0,,,,,2019-12-01,7-55-Bew-RueA-J-d-2020-12.xlsx
459,74,Niederlande,6.0,6.0,0.0,6.0,6.0,0.0,0.0,5.0,0.0,0.0,0.0,0.0,,,,,2019-12-01,7-55-Bew-RueA-J-d-2020-12.xlsx
460,75,Polen,13.0,13.0,0.0,13.0,12.0,0.0,0.0,9.0,0.0,0.0,0.0,0.0,,,,,2019-12-01,7-55-Bew-RueA-J-d-2020-12.xlsx
461,76,Rumänien,47.0,47.0,0.0,46.0,44.0,2.0,0.0,35.0,0.0,0.0,0.0,0.0,,,,,2019-12-01,7-55-Bew-RueA-J-d-2020-12.xlsx
462,77,Russland,5.0,5.0,0.0,7.0,7.0,0.0,4.0,5.0,0.0,0.0,0.0,0.0,,,,,2019-12-01,7-55-Bew-RueA-J-d-2020-12.xlsx
463,78,Schweden,1.0,1.0,0.0,1.0,0.0,1.0,0.0,0.0,0.0,0.0,0.0,0.0,,,,,2019-12-01,7-55-Bew-RueA-J-d-2020-12.xlsx
464,79,Serbien,5.0,4.0,1.0,3.0,3.0,0.0,0.0,1.0,1.0,1.0,0.0,0.0,,,,,2019-12-01,7-55-Bew-RueA-J-d-2020-12.xlsx
465,80,Slowakische Republik,8.0,8.0,0.0,8.0,8.0,0.0,0.0,4.0,0.0,0.0,0.0,0.0,,,,,2019-12-01,7-55-Bew-RueA-J-d-2020-12.xlsx
466,81,Slowenien,1.0,1.0,0.0,1.0,1.0,0.0,0.0,1.0,0.0,0.0,0.0,0.0,,,,,2019-12-01,7-55-Bew-RueA-J-d-2020-12.xlsx
467,82,Spanien,8.0,8.0,0.0,7.0,7.0,0.0,0.0,7.0,0.0,0.0,0.0,0.0,,,,,2019-12-01,7-55-Bew-RueA-J-d-2020-12.xlsx
468,83,Tschechische Republik,2.0,2.0,0.0,2.0,2.0,0.0,0.0,2.0,0.0,0.0,0.0,0.0,,,,,2019-12-01,7-55-Bew-RueA-J-d-2020-12.xlsx
469,84,Türkei,3.0,2.0,1.0,3.0,2.0,0.0,1.0,1.0,1.0,0.0,1.0,0.0,,,,,2019-12-01,7-55-Bew-RueA-J-d-2020-12.xlsx
470,85,Ukraine,3.0,3.0,0.0,5.0,5.0,0.0,8.0,3.0,0.0,0.0,0.0,0.0,,,,,2019-12-01,7-55-Bew-RueA-J-d-2020-12.xlsx
471,86,Ungarn,7.0,7.0,0.0,7.0,6.0,1.0,0.0,4.0,0.0,0.0,0.0,0.0,,,,,2019-12-01,7-55-Bew-RueA-J-d-2020-12.xlsx
472,89,Staatenlos,4.0,4.0,0.0,4.0,4.0,0.0,2.0,1.0,0.0,0.0,0.0,0.0,,,,,2019-12-01,7-55-Bew-RueA-J-d-2020-12.xlsx
473,90,Ohne Nationalität,9.0,9.0,0.0,10.0,9.0,1.0,4.0,6.0,0.0,0.0,0.0,0.0,,,,,2019-12-01,7-55-Bew-RueA-J-d-2020-12.xlsx
474,91,Staat unbekannt,14.0,14.0,0.0,13.0,12.0,1.0,1.0,13.0,0.0,0.0,0.0,0.0,,,,,2019-12-01,7-55-Bew-RueA-J-d-2020-12.xlsx
475,0,Herkunft unbekannt,20.0,18.0,2.0,18.0,15.0,1.0,4.0,6.0,2.0,2.0,0.0,0.0,,,,,2018-12-01,7-55-Bew-RueA-J-d-2020-12.xlsx
476,2,Ägypten,4.0,3.0,1.0,3.0,0.0,0.0,0.0,0.0,1.0,1.0,0.0,1.0,,,,,2018-12-01,7-55-Bew-RueA-J-d-2020-12.xlsx
477,3,Algerien,11.0,11.0,0.0,10.0,8.0,2.0,2.0,5.0,0.0,0.0,0.0,0.0,,,,,2018-12-01,7-55-Bew-RueA-J-d-2020-12.xlsx
478,4,Äquatorialguinea,1.0,1.0,0.0,1.0,0.0,1.0,0.0,0.0,0.0,0.0,0.0,0.0,,,,,2018-12-01,7-55-Bew-RueA-J-d-2020-12.xlsx
479,5,Äthiopien,11.0,11.0,0.0,14.0,10.0,2.0,10.0,1.0,0.0,0.0,0.0,0.0,,,,,2018-12-01,7-55-Bew-RueA-J-d-2020-12.xlsx
480,6,Burundi,1.0,1.0,0.0,1.0,1.0,0.0,1.0,1.0,0.0,0.0,0.0,0.0,,,,,2018-12-01,7-55-Bew-RueA-J-d-2020-12.xlsx
481,7,Côte d'Ivoire,1.0,1.0,0.0,1.0,1.0,0.0,0.0,1.0,0.0,0.0,0.0,0.0,,,,,2018-12-01,7-55-Bew-RueA-J-d-2020-12.xlsx
482,8,Eritrea,66.0,48.0,18.0,56.0,43.0,3.0,30.0,16.0,18.0,17.0,0.0,5.0,,,,,2018-12-01,7-55-Bew-RueA-J-d-2020-12.xlsx
483,9,Gambia,16.0,16.0,0.0,14.0,14.0,0.0,1.0,12.0,0.0,0.0,0.0,0.0,,,,,2018-12-01,7-55-Bew-RueA-J-d-2020-12.xlsx
484,10,Ghana,3.0,3.0,0.0,5.0,5.0,0.0,2.0,3.0,0.0,0.0,0.0,0.0,,,,,2018-12-01,7-55-Bew-RueA-J-d-2020-12.xlsx
485,11,Guinea,17.0,17.0,0.0,16.0,11.0,5.0,1.0,7.0,0.0,0.0,0.0,0.0,,,,,2018-12-01,7-55-Bew-RueA-J-d-2020-12.xlsx
486,12,Guinea-Bissau,4.0,4.0,0.0,6.0,4.0,2.0,0.0,2.0,0.0,0.0,0.0,0.0,,,,,2018-12-01,7-55-Bew-RueA-J-d-2020-12.xlsx
487,13,Kenia,1.0,1.0,0.0,0.0,0.0,0.0,0.0,0.0,0.0,0.0,0.0,0.0,,,,,2018-12-01,7-55-Bew-RueA-J-d-2020-12.xlsx
488,14,Kongo DR,0.0,0.0,0.0,0.0,0.0,0.0,0.0,7.0,0.0,0.0,0.0,0.0,,,,,2018-12-01,7-55-Bew-RueA-J-d-2020-12.xlsx
489,15,Liberia,0.0,0.0,0.0,1.0,1.0,0.0,3.0,0.0,0.0,0.0,0.0,0.0,,,,,2018-12-01,7-55-Bew-RueA-J-d-2020-12.xlsx
490,16,Libyen,3.0,3.0,0.0,5.0,3.0,2.0,2.0,2.0,0.0,0.0,0.0,0.0,,,,,2018-12-01,7-55-Bew-RueA-J-d-2020-12.xlsx
491,17,Mali,11.0,11.0,0.0,13.0,12.0,1.0,1.0,9.0,0.0,0.0,0.0,0.0,,,,,2018-12-01,7-55-Bew-RueA-J-d-2020-12.xlsx
492,18,Marokko,8.0,8.0,0.0,8.0,6.0,1.0,1.0,4.0,0.0,0.0,0.0,0.0,,,,,2018-12-01,7-55-Bew-RueA-J-d-2020-12.xlsx
493,19,Niger,7.0,7.0,0.0,6.0,5.0,1.0,0.0,5.0,0.0,0.0,0.0,0.0,,,,,2018-12-01,7-55-Bew-RueA-J-d-2020-12.xlsx
494,20,Nigeria,115.0,115.0,0.0,114.0,99.0,10.0,8.0,79.0,0.0,0.0,0.0,0.0,,,,,2018-12-01,7-55-Bew-RueA-J-d-2020-12.xlsx
495,21,Senegal,6.0,6.0,0.0,5.0,4.0,0.0,0.0,2.0,0.0,0.0,0.0,0.0,,,,,2018-12-01,7-55-Bew-RueA-J-d-2020-12.xlsx
496,22,Sierra Leone,3.0,3.0,0.0,3.0,2.0,1.0,0.0,1.0,0.0,0.0,0.0,0.0,,,,,2018-12-01,7-55-Bew-RueA-J-d-2020-12.xlsx
497,23,Somalia,46.0,41.0,5.0,47.0,28.0,17.0,23.0,6.0,5.0,2.0,3.0,3.0,,,,,2018-12-01,7-55-Bew-RueA-J-d-2020-12.xlsx
498,24,Sudan,6.0,6.0,0.0,5.0,4.0,1.0,0.0,3.0,0.0,0.0,0.0,0.0,,,,,2018-12-01,7-55-Bew-RueA-J-d-2020-12.xlsx
499,25,Südsudan,1.0,1.0,0.0,0.0,0.0,0.0,0.0,0.0,0.0,0.0,0.0,0.0,,,,,2018-12-01,7-55-Bew-RueA-J-d-2020-12.xlsx
500,26,Tansania,1.0,1.0,0.0,1.0,1.0,0.0,0.0,0.0,0.0,0.0,0.0,0.0,,,,,2018-12-01,7-55-Bew-RueA-J-d-2020-12.xlsx
501,27,Togo,1.0,1.0,0.0,1.0,1.0,0.0,0.0,0.0,0.0,0.0,0.0,0.0,,,,,2018-12-01,7-55-Bew-RueA-J-d-2020-12.xlsx
502,28,Tunesien,2.0,2.0,0.0,1.0,0.0,1.0,0.0,0.0,0.0,0.0,0.0,0.0,,,,,2018-12-01,7-55-Bew-RueA-J-d-2020-12.xlsx
503,31,Bolivien,2.0,2.0,0.0,2.0,2.0,0.0,0.0,2.0,0.0,0.0,0.0,0.0,,,,,2018-12-01,7-55-Bew-RueA-J-d-2020-12.xlsx
504,32,Brasilien,1.0,1.0,0.0,1.0,1.0,0.0,0.0,1.0,0.0,0.0,0.0,0.0,,,,,2018-12-01,7-55-Bew-RueA-J-d-2020-12.xlsx
505,33,Chile,1.0,1.0,0.0,1.0,1.0,0.0,0.0,0.0,0.0,0.0,0.0,0.0,,,,,2018-12-01,7-55-Bew-RueA-J-d-2020-12.xlsx
506,34,Dominikanische Republik,18.0,18.0,0.0,19.0,16.0,3.0,0.0,17.0,0.0,0.0,0.0,0.0,,,,,2018-12-01,7-55-Bew-RueA-J-d-2020-12.xlsx
507,35,Ecuador,3.0,3.0,0.0,3.0,1.0,2.0,0.0,1.0,0.0,0.0,0.0,0.0,,,,,2018-12-01,7-55-Bew-RueA-J-d-2020-12.xlsx
508,36,Kolumbien,4.0,4.0,0.0,4.0,4.0,0.0,0.0,4.0,0.0,0.0,0.0,0.0,,,,,2018-12-01,7-55-Bew-RueA-J-d-2020-12.xlsx
509,37,Mexiko,0.0,0.0,0.0,0.0,0.0,0.0,1.0,0.0,0.0,0.0,0.0,0.0,,,,,2018-12-01,7-55-Bew-RueA-J-d-2020-12.xlsx
510,38,Peru,1.0,1.0,0.0,1.0,1.0,0.0,0.0,0.0,0.0,0.0,0.0,0.0,,,,,2018-12-01,7-55-Bew-RueA-J-d-2020-12.xlsx
511,39,Venezuela,1.0,1.0,0.0,1.0,1.0,0.0,0.0,1.0,0.0,0.0,0.0,0.0,,,,,2018-12-01,7-55-Bew-RueA-J-d-2020-12.xlsx
512,42,Afghanistan,107.0,103.0,4.0,86.0,82.0,3.0,78.0,20.0,4.0,4.0,0.0,1.0,,,,,2018-12-01,7-55-Bew-RueA-J-d-2020-12.xlsx
513,43,Armenien,0.0,0.0,0.0,0.0,0.0,0.0,0.0,1.0,0.0,0.0,0.0,0.0,,,,,2018-12-01,7-55-Bew-RueA-J-d-2020-12.xlsx
514,44,Bangladesh,1.0,1.0,0.0,1.0,1.0,0.0,0.0,1.0,0.0,0.0,0.0,0.0,,,,,2018-12-01,7-55-Bew-RueA-J-d-2020-12.xlsx
515,45,China (Volksrepublik),8.0,8.0,0.0,7.0,7.0,0.0,1.0,8.0,0.0,0.0,0.0,0.0,,,,,2018-12-01,7-55-Bew-RueA-J-d-2020-12.xlsx
516,46,Georgien,3.0,3.0,0.0,3.0,3.0,0.0,4.0,2.0,0.0,0.0,0.0,0.0,,,,,2018-12-01,7-55-Bew-RueA-J-d-2020-12.xlsx
517,47,Irak,29.0,28.0,1.0,33.0,31.0,0.0,16.0,9.0,1.0,1.0,0.0,1.0,,,,,2018-12-01,7-55-Bew-RueA-J-d-2020-12.xlsx
518,48,Iran,15.0,14.0,1.0,15.0,15.0,0.0,12.0,7.0,1.0,1.0,0.0,1.0,,,,,2018-12-01,7-55-Bew-RueA-J-d-2020-12.xlsx
519,49,Jemen,1.0,1.0,0.0,1.0,1.0,0.0,1.0,0.0,0.0,0.0,0.0,0.0,,,,,2018-12-01,7-55-Bew-RueA-J-d-2020-12.xlsx
520,50,Mongolei,1.0,1.0,0.0,1.0,1.0,0.0,0.0,1.0,0.0,0.0,0.0,0.0,,,,,2018-12-01,7-55-Bew-RueA-J-d-2020-12.xlsx
521,51,Pakistan,3.0,3.0,0.0,3.0,3.0,0.0,6.0,2.0,0.0,0.0,0.0,0.0,,,,,2018-12-01,7-55-Bew-RueA-J-d-2020-12.xlsx
522,52,Saudi-Arabien,1.0,1.0,0.0,1.0,1.0,0.0,1.0,1.0,0.0,0.0,0.0,0.0,,,,,2018-12-01,7-55-Bew-RueA-J-d-2020-12.xlsx
523,53,Sri Lanka,2.0,2.0,0.0,2.0,2.0,0.0,3.0,0.0,0.0,0.0,0.0,0.0,,,,,2018-12-01,7-55-Bew-RueA-J-d-2020-12.xlsx
524,54,Syrien,46.0,45.0,1.0,41.0,39.0,0.0,38.0,5.0,1.0,1.0,0.0,0.0,,,,,2018-12-01,7-55-Bew-RueA-J-d-2020-12.xlsx
525,55,Vietnam,2.0,2.0,0.0,2.0,1.0,1.0,0.0,0.0,0.0,0.0,0.0,0.0,,,,,2018-12-01,7-55-Bew-RueA-J-d-2020-12.xlsx
526,58,Albanien,2.0,2.0,0.0,2.0,2.0,0.0,0.0,1.0,0.0,0.0,0.0,0.0,,,,,2018-12-01,7-55-Bew-RueA-J-d-2020-12.xlsx
527,59,Bosnien u. Herzegowina,2.0,2.0,0.0,2.0,0.0,2.0,0.0,0.0,0.0,0.0,0.0,0.0,,,,,2018-12-01,7-55-Bew-RueA-J-d-2020-12.xlsx
528,60,Bulgarien,3.0,3.0,0.0,3.0,2.0,0.0,0.0,3.0,0.0,0.0,0.0,0.0,,,,,2018-12-01,7-55-Bew-RueA-J-d-2020-12.xlsx
529,61,Frankreich,1.0,1.0,0.0,1.0,1.0,0.0,0.0,1.0,0.0,0.0,0.0,0.0,,,,,2018-12-01,7-55-Bew-RueA-J-d-2020-12.xlsx
530,62,Grossbritannien,0.0,0.0,0.0,0.0,0.0,0.0,0.0,0.0,0.0,0.0,0.0,0.0,,,,,2018-12-01,7-55-Bew-RueA-J-d-2020-12.xlsx
531,63,Irland,1.0,1.0,0.0,1.0,1.0,0.0,0.0,1.0,0.0,0.0,0.0,0.0,,,,,2018-12-01,7-55-Bew-RueA-J-d-2020-12.xlsx
532,64,Italien,3.0,3.0,0.0,3.0,3.0,0.0,0.0,3.0,0.0,0.0,0.0,0.0,,,,,2018-12-01,7-55-Bew-RueA-J-d-2020-12.xlsx
533,65,Kosovo,2.0,2.0,0.0,1.0,1.0,0.0,0.0,2.0,0.0,0.0,0.0,0.0,,,,,2018-12-01,7-55-Bew-RueA-J-d-2020-12.xlsx
534,66,Kroatien,9.0,9.0,0.0,9.0,5.0,3.0,0.0,4.0,0.0,0.0,0.0,0.0,,,,,2018-12-01,7-55-Bew-RueA-J-d-2020-12.xlsx
535,67,Lettland,1.0,1.0,0.0,1.0,1.0,0.0,0.0,0.0,0.0,0.0,0.0,0.0,,,,,2018-12-01,7-55-Bew-RueA-J-d-2020-12.xlsx
536,68,Litauen,7.0,7.0,0.0,7.0,7.0,0.0,0.0,5.0,0.0,0.0,0.0,0.0,,,,,2018-12-01,7-55-Bew-RueA-J-d-2020-12.xlsx
537,69,Mazedonien eh.Jug.Rep.,1.0,1.0,0.0,1.0,1.0,0.0,0.0,0.0,0.0,0.0,0.0,0.0,,,,,2018-12-01,7-55-Bew-RueA-J-d-2020-12.xlsx
538,70,Moldova,1.0,1.0,0.0,1.0,1.0,0.0,0.0,1.0,0.0,0.0,0.0,0.0,,,,,2018-12-01,7-55-Bew-RueA-J-d-2020-12.xlsx
539,71,Niederlande,4.0,4.0,0.0,5.0,4.0,1.0,0.0,4.0,0.0,0.0,0.0,0.0,,,,,2018-12-01,7-55-Bew-RueA-J-d-2020-12.xlsx
540,72,Polen,13.0,13.0,0.0,13.0,13.0,0.0,0.0,10.0,0.0,0.0,0.0,0.0,,,,,2018-12-01,7-55-Bew-RueA-J-d-2020-12.xlsx
541,73,Rumänien,51.0,51.0,0.0,50.0,46.0,4.0,0.0,44.0,0.0,0.0,0.0,0.0,,,,,2018-12-01,7-55-Bew-RueA-J-d-2020-12.xlsx
542,74,Russland,7.0,7.0,0.0,5.0,5.0,0.0,3.0,6.0,0.0,0.0,0.0,0.0,,,,,2018-12-01,7-55-Bew-RueA-J-d-2020-12.xlsx
543,75,Serbien,7.0,6.0,1.0,6.0,3.0,3.0,0.0,2.0,1.0,0.0,1.0,0.0,,,,,2018-12-01,7-55-Bew-RueA-J-d-2020-12.xlsx
544,76,Slowakische Republik,3.0,3.0,0.0,4.0,4.0,0.0,0.0,4.0,0.0,0.0,0.0,0.0,,,,,2018-12-01,7-55-Bew-RueA-J-d-2020-12.xlsx
545,77,Slowenien,1.0,1.0,0.0,1.0,0.0,1.0,0.0,1.0,0.0,0.0,0.0,0.0,,,,,2018-12-01,7-55-Bew-RueA-J-d-2020-12.xlsx
546,78,Spanien,10.0,10.0,0.0,10.0,9.0,1.0,0.0,7.0,0.0,0.0,0.0,0.0,,,,,2018-12-01,7-55-Bew-RueA-J-d-2020-12.xlsx
547,79,Tschechische Republik,2.0,2.0,0.0,2.0,2.0,0.0,0.0,2.0,0.0,0.0,0.0,0.0,,,,,2018-12-01,7-55-Bew-RueA-J-d-2020-12.xlsx
548,80,Türkei,9.0,6.0,3.0,5.0,4.0,0.0,0.0,1.0,3.0,3.0,0.0,0.0,,,,,2018-12-01,7-55-Bew-RueA-J-d-2020-12.xlsx
549,81,Ukraine,3.0,3.0,0.0,1.0,1.0,0.0,2.0,1.0,0.0,0.0,0.0,0.0,,,,,2018-12-01,7-55-Bew-RueA-J-d-2020-12.xlsx
550,82,Ungarn,6.0,6.0,0.0,6.0,6.0,0.0,0.0,6.0,0.0,0.0,0.0,0.0,,,,,2018-12-01,7-55-Bew-RueA-J-d-2020-12.xlsx
551,85,Staatenlos,1.0,1.0,0.0,1.0,1.0,0.0,1.0,0.0,0.0,0.0,0.0,0.0,,,,,2018-12-01,7-55-Bew-RueA-J-d-2020-12.xlsx
552,86,Ohne Nationalität,8.0,7.0,1.0,6.0,6.0,0.0,2.0,2.0,1.0,1.0,0.0,0.0,,,,,2018-12-01,7-55-Bew-RueA-J-d-2020-12.xlsx
553,87,Staat unbekannt,11.0,10.0,1.0,11.0,8.0,1.0,1.0,4.0,1.0,1.0,0.0,0.0,,,,,2018-12-01,7-55-Bew-RueA-J-d-2020-12.xlsx
