,Nation,TotalRückübernahmeverfahren,OutVerfahren,InVerfahren,Total Erledigungen (inkl. Abschreibungen),Erledigungen,,NichteintretensentscheideRüA,ÜberstellungenOutVerfahren,Total Erledigungen (inkl. Abschreibungen).1,Erledigungen.1,.1,ÜberstellungenInVerfahren,Datum,file_name,name_of_sem_statistics,name_of_sem_code,flow_or_stock,yearly_or_monthly
0,Herkunft unbekannt,17.0,16.0,1.0,16.0,10.0,5.0,0.0,14.0,1.0,1.0,0.0,1.0,2017-12-01,7-55-Bew-RueA-J-d-2020-12.xlsx,7-55-Bew-RueA-J,7-55,flow,yearly
1,Ägypten,0.0,0.0,0.0,0.0,0.0,0.0,1.0,0.0,0.0,0.0,0.0,0.0,2017-12-01,7-55-Bew-RueA-J-d-2020-12.xlsx,7-55-Bew-RueA-J,7-55,flow,yearly
2,Algerien,12.0,12.0,0.0,12.0,9.0,3.0,2.0,6.0,0.0,0.0,0.0,0.0,2017-12-01,7-55-Bew-RueA-J-d-2020-12.xlsx,7-55-Bew-RueA-J,7-55,flow,yearly
3,Angola,1.0,1.0,0.0,1.0,1.0,0.0,0.0,0.0,0.0,0.0,0.0,0.0,2017-12-01,7-55-Bew-RueA-J-d-2020-12.xlsx,7-55-Bew-RueA-J,7-55,flow,yearly
4,Äquatorialguinea,1.0,1.0,0.0,1.0,1.0,0.0,0.0,1.0,0.0,0.0,0.0,0.0,2017-12-01,7-55-Bew-RueA-J-d-2020-12.xlsx,7-55-Bew-RueA-J,7-55,flow,yearly
5,Äthiopien,12.0,12.0,0.0,10.0,10.0,0.0,11.0,1.0,0.0,0.0,0.0,0.0,2017-12-01,7-55-Bew-RueA-J-d-2020-12.xlsx,7-55-Bew-RueA-J,7-55,flow,yearly
6,Burkina Faso,4.0,4.0,0.0,4.0,1.0,2.0,0.0,1.0,0.0,0.0,0.0,0.0,2017-12-01,7-55-Bew-RueA-J-d-2020-12.xlsx,7-55-Bew-RueA-J,7-55,flow,yearly
7,Côte d'Ivoire,2.0,2.0,0.0,2.0,2.0,0.0,0.0,1.0,0.0,0.0,0.0,0.0,2017-12-01,7-55-Bew-RueA-J-d-2020-12.xlsx,7-55-Bew-RueA-J,7-55,flow,yearly
8,Eritrea,70.0,63.0,7.0,55.0,53.0,0.0,40.0,17.0,7.0,7.0,0.0,2.0,2017-12-01,7-55-Bew-RueA-J-d-2020-12.xlsx,7-55-Bew-RueA-J,7-55,flow,yearly
9,Gambia,12.0,12.0,0.0,12.0,10.0,2.0,3.0,9.0,0.0,0.0,0.0,0.0,2017-12-01,7-55-Bew-RueA-J-d-2020-12.xlsx,7-55-Bew-RueA-J,7-55,flow,yearly
10,Ghana,4.0,4.0,0.0,3.0,3.0,0.0,0.0,3.0,0.0,0.0,0.0,0.0,2017-12-01,7-55-Bew-RueA-J-d-2020-12.xlsx,7-55-Bew-RueA-J,7-55,flow,yearly
11,Guinea,15.0,15.0,0.0,18.0,14.0,2.0,0.0,9.0,0.0,0.0,0.0,0.0,2017-12-01,7-55-Bew-RueA-J-d-2020-12.xlsx,7-55-Bew-RueA-J,7-55,flow,yearly
12,Guinea-Bissau,6.0,6.0,0.0,4.0,4.0,0.0,0.0,2.0,0.0,0.0,0.0,0.0,2017-12-01,7-55-Bew-RueA-J-d-2020-12.xlsx,7-55-Bew-RueA-J,7-55,flow,yearly
13,Kamerun,1.0,1.0,0.0,1.0,1.0,0.0,0.0,0.0,0.0,0.0,0.0,0.0,2017-12-01,7-55-Bew-RueA-J-d-2020-12.xlsx,7-55-Bew-RueA-J,7-55,flow,yearly
14,Kongo DR,10.0,10.0,0.0,10.0,9.0,1.0,14.0,0.0,0.0,0.0,0.0,0.0,2017-12-01,7-55-Bew-RueA-J-d-2020-12.xlsx,7-55-Bew-RueA-J,7-55,flow,yearly
15,Liberia,4.0,4.0,0.0,3.0,2.0,0.0,0.0,1.0,0.0,0.0,0.0,0.0,2017-12-01,7-55-Bew-RueA-J-d-2020-12.xlsx,7-55-Bew-RueA-J,7-55,flow,yearly
16,Libyen,2.0,2.0,0.0,0.0,0.0,0.0,1.0,0.0,0.0,0.0,0.0,0.0,2017-12-01,7-55-Bew-RueA-J-d-2020-12.xlsx,7-55-Bew-RueA-J,7-55,flow,yearly
17,Mali,6.0,6.0,0.0,4.0,4.0,0.0,2.0,3.0,0.0,0.0,0.0,0.0,2017-12-01,7-55-Bew-RueA-J-d-2020-12.xlsx,7-55-Bew-RueA-J,7-55,flow,yearly
18,Marokko,14.0,14.0,0.0,14.0,11.0,2.0,2.0,9.0,0.0,0.0,0.0,0.0,2017-12-01,7-55-Bew-RueA-J-d-2020-12.xlsx,7-55-Bew-RueA-J,7-55,flow,yearly
19,Mauretanien,1.0,1.0,0.0,1.0,1.0,0.0,1.0,1.0,0.0,0.0,0.0,0.0,2017-12-01,7-55-Bew-RueA-J-d-2020-12.xlsx,7-55-Bew-RueA-J,7-55,flow,yearly
20,Mosambik,1.0,1.0,0.0,1.0,1.0,0.0,0.0,1.0,0.0,0.0,0.0,0.0,2017-12-01,7-55-Bew-RueA-J-d-2020-12.xlsx,7-55-Bew-RueA-J,7-55,flow,yearly
21,Nigeria,119.0,119.0,0.0,110.0,96.0,10.0,11.0,87.0,0.0,0.0,0.0,0.0,2017-12-01,7-55-Bew-RueA-J-d-2020-12.xlsx,7-55-Bew-RueA-J,7-55,flow,yearly
22,Senegal,9.0,9.0,0.0,9.0,8.0,1.0,1.0,4.0,0.0,0.0,0.0,0.0,2017-12-01,7-55-Bew-RueA-J-d-2020-12.xlsx,7-55-Bew-RueA-J,7-55,flow,yearly
23,Sierra Leone,3.0,3.0,0.0,3.0,3.0,0.0,0.0,3.0,0.0,0.0,0.0,0.0,2017-12-01,7-55-Bew-RueA-J-d-2020-12.xlsx,7-55-Bew-RueA-J,7-55,flow,yearly
24,Somalia,37.0,36.0,1.0,29.0,27.0,1.0,18.0,8.0,1.0,1.0,0.0,1.0,2017-12-01,7-55-Bew-RueA-J-d-2020-12.xlsx,7-55-Bew-RueA-J,7-55,flow,yearly
25,Sudan,3.0,3.0,0.0,3.0,3.0,0.0,0.0,2.0,0.0,0.0,0.0,0.0,2017-12-01,7-55-Bew-RueA-J-d-2020-12.xlsx,7-55-Bew-RueA-J,7-55,flow,yearly
26,Togo,1.0,1.0,0.0,1.0,1.0,0.0,0.0,1.0,0.0,0.0,0.0,0.0,2017-12-01,7-55-Bew-RueA-J-d-2020-12.xlsx,7-55-Bew-RueA-J,7-55,flow,yearly
27,Tschad,1.0,1.0,0.0,1.0,0.0,1.0,0.0,0.0,0.0,0.0,0.0,0.0,2017-12-01,7-55-Bew-RueA-J-d-2020-12.xlsx,7-55-Bew-RueA-J,7-55,flow,yearly
28,Tunesien,1.0,1.0,0.0,0.0,0.0,0.0,0.0,0.0,0.0,0.0,0.0,0.0,2017-12-01,7-55-Bew-RueA-J-d-2020-12.xlsx,7-55-Bew-RueA-J,7-55,flow,yearly
29,Total Afrika,352.0,344.0,8.0,312.0,275.0,25.0,107.0,170.0,8.0,8.0,0.0,3.0,2017-12-01,7-55-Bew-RueA-J-d-2020-12.xlsx,7-55-Bew-RueA-J,7-55,flow,yearly
30,Bolivien,1.0,1.0,0.0,1.0,0.0,1.0,0.0,0.0,0.0,0.0,0.0,0.0,2017-12-01,7-55-Bew-RueA-J-d-2020-12.xlsx,7-55-Bew-RueA-J,7-55,flow,yearly
31,Brasilien,1.0,1.0,0.0,0.0,0.0,0.0,0.0,1.0,0.0,0.0,0.0,0.0,2017-12-01,7-55-Bew-RueA-J-d-2020-12.xlsx,7-55-Bew-RueA-J,7-55,flow,yearly
32,Chile,1.0,1.0,0.0,1.0,1.0,0.0,0.0,1.0,0.0,0.0,0.0,0.0,2017-12-01,7-55-Bew-RueA-J-d-2020-12.xlsx,7-55-Bew-RueA-J,7-55,flow,yearly
33,Dominikanische Republik,29.0,29.0,0.0,26.0,16.0,8.0,0.0,7.0,0.0,0.0,0.0,0.0,2017-12-01,7-55-Bew-RueA-J-d-2020-12.xlsx,7-55-Bew-RueA-J,7-55,flow,yearly
34,Ecuador,1.0,1.0,0.0,2.0,2.0,0.0,0.0,1.0,0.0,0.0,0.0,0.0,2017-12-01,7-55-Bew-RueA-J-d-2020-12.xlsx,7-55-Bew-RueA-J,7-55,flow,yearly
35,Haiti,0.0,0.0,0.0,4.0,4.0,0.0,0.0,0.0,0.0,0.0,0.0,0.0,2017-12-01,7-55-Bew-RueA-J-d-2020-12.xlsx,7-55-Bew-RueA-J,7-55,flow,yearly
36,Honduras,1.0,1.0,0.0,1.0,0.0,1.0,0.0,0.0,0.0,0.0,0.0,0.0,2017-12-01,7-55-Bew-RueA-J-d-2020-12.xlsx,7-55-Bew-RueA-J,7-55,flow,yearly
37,Kolumbien,2.0,2.0,0.0,2.0,1.0,1.0,0.0,0.0,0.0,0.0,0.0,0.0,2017-12-01,7-55-Bew-RueA-J-d-2020-12.xlsx,7-55-Bew-RueA-J,7-55,flow,yearly
38,Kuba,1.0,1.0,0.0,1.0,0.0,1.0,0.0,0.0,0.0,0.0,0.0,0.0,2017-12-01,7-55-Bew-RueA-J-d-2020-12.xlsx,7-55-Bew-RueA-J,7-55,flow,yearly
39,Total Amerika,37.0,37.0,0.0,38.0,24.0,12.0,0.0,10.0,0.0,0.0,0.0,0.0,2017-12-01,7-55-Bew-RueA-J-d-2020-12.xlsx,7-55-Bew-RueA-J,7-55,flow,yearly
40,Afghanistan,18.0,18.0,0.0,17.0,16.0,0.0,10.0,9.0,0.0,0.0,0.0,0.0,2017-12-01,7-55-Bew-RueA-J-d-2020-12.xlsx,7-55-Bew-RueA-J,7-55,flow,yearly
41,Armenien,1.0,1.0,0.0,1.0,1.0,0.0,0.0,0.0,0.0,0.0,0.0,0.0,2017-12-01,7-55-Bew-RueA-J-d-2020-12.xlsx,7-55-Bew-RueA-J,7-55,flow,yearly
42,China (Volksrepublik),1.0,1.0,0.0,1.0,1.0,0.0,0.0,0.0,0.0,0.0,0.0,0.0,2017-12-01,7-55-Bew-RueA-J-d-2020-12.xlsx,7-55-Bew-RueA-J,7-55,flow,yearly
43,Georgien,4.0,4.0,0.0,4.0,2.0,1.0,2.0,2.0,0.0,0.0,0.0,0.0,2017-12-01,7-55-Bew-RueA-J-d-2020-12.xlsx,7-55-Bew-RueA-J,7-55,flow,yearly
44,Irak,16.0,16.0,0.0,11.0,10.0,0.0,6.0,4.0,0.0,0.0,0.0,0.0,2017-12-01,7-55-Bew-RueA-J-d-2020-12.xlsx,7-55-Bew-RueA-J,7-55,flow,yearly
45,Iran,19.0,15.0,4.0,12.0,12.0,0.0,4.0,4.0,4.0,4.0,0.0,1.0,2017-12-01,7-55-Bew-RueA-J-d-2020-12.xlsx,7-55-Bew-RueA-J,7-55,flow,yearly
46,Jordanien,0.0,0.0,0.0,0.0,0.0,0.0,0.0,0.0,0.0,0.0,0.0,0.0,2017-12-01,7-55-Bew-RueA-J-d-2020-12.xlsx,7-55-Bew-RueA-J,7-55,flow,yearly
47,Laos,0.0,0.0,0.0,1.0,1.0,0.0,1.0,1.0,0.0,0.0,0.0,0.0,2017-12-01,7-55-Bew-RueA-J-d-2020-12.xlsx,7-55-Bew-RueA-J,7-55,flow,yearly
48,Mongolei,1.0,1.0,0.0,1.0,1.0,0.0,0.0,1.0,0.0,0.0,0.0,0.0,2017-12-01,7-55-Bew-RueA-J-d-2020-12.xlsx,7-55-Bew-RueA-J,7-55,flow,yearly
49,Pakistan,14.0,14.0,0.0,10.0,10.0,0.0,8.0,8.0,0.0,0.0,0.0,0.0,2017-12-01,7-55-Bew-RueA-J-d-2020-12.xlsx,7-55-Bew-RueA-J,7-55,flow,yearly
50,Philippinen,1.0,1.0,0.0,1.0,0.0,1.0,0.0,0.0,0.0,0.0,0.0,0.0,2017-12-01,7-55-Bew-RueA-J-d-2020-12.xlsx,7-55-Bew-RueA-J,7-55,flow,yearly
51,Sri Lanka,4.0,2.0,2.0,3.0,3.0,0.0,2.0,2.0,2.0,2.0,0.0,0.0,2017-12-01,7-55-Bew-RueA-J-d-2020-12.xlsx,7-55-Bew-RueA-J,7-55,flow,yearly
52,Syrien,47.0,40.0,7.0,37.0,36.0,1.0,36.0,13.0,7.0,7.0,0.0,0.0,2017-12-01,7-55-Bew-RueA-J-d-2020-12.xlsx,7-55-Bew-RueA-J,7-55,flow,yearly
53,Total Asien,126.0,113.0,13.0,99.0,93.0,3.0,69.0,44.0,13.0,13.0,0.0,1.0,2017-12-01,7-55-Bew-RueA-J-d-2020-12.xlsx,7-55-Bew-RueA-J,7-55,flow,yearly
54,Belarus,0.0,0.0,0.0,0.0,0.0,0.0,0.0,1.0,0.0,0.0,0.0,0.0,2017-12-01,7-55-Bew-RueA-J-d-2020-12.xlsx,7-55-Bew-RueA-J,7-55,flow,yearly
55,Belgien,2.0,2.0,0.0,2.0,2.0,0.0,0.0,1.0,0.0,0.0,0.0,0.0,2017-12-01,7-55-Bew-RueA-J-d-2020-12.xlsx,7-55-Bew-RueA-J,7-55,flow,yearly
56,Bosnien u. Herzegowina,2.0,2.0,0.0,5.0,5.0,0.0,3.0,1.0,0.0,0.0,0.0,0.0,2017-12-01,7-55-Bew-RueA-J-d-2020-12.xlsx,7-55-Bew-RueA-J,7-55,flow,yearly
57,Bulgarien,3.0,3.0,0.0,3.0,3.0,0.0,0.0,3.0,0.0,0.0,0.0,0.0,2017-12-01,7-55-Bew-RueA-J-d-2020-12.xlsx,7-55-Bew-RueA-J,7-55,flow,yearly
58,Dänemark,0.0,0.0,0.0,0.0,0.0,0.0,1.0,0.0,0.0,0.0,0.0,0.0,2017-12-01,7-55-Bew-RueA-J-d-2020-12.xlsx,7-55-Bew-RueA-J,7-55,flow,yearly
59,Deutschland,1.0,1.0,0.0,1.0,1.0,0.0,0.0,1.0,0.0,0.0,0.0,0.0,2017-12-01,7-55-Bew-RueA-J-d-2020-12.xlsx,7-55-Bew-RueA-J,7-55,flow,yearly
60,Griechenland,1.0,1.0,0.0,1.0,0.0,0.0,0.0,0.0,0.0,0.0,0.0,0.0,2017-12-01,7-55-Bew-RueA-J-d-2020-12.xlsx,7-55-Bew-RueA-J,7-55,flow,yearly
61,Grossbritannien,1.0,1.0,0.0,1.0,1.0,0.0,0.0,0.0,0.0,0.0,0.0,0.0,2017-12-01,7-55-Bew-RueA-J-d-2020-12.xlsx,7-55-Bew-RueA-J,7-55,flow,yearly
62,Kosovo,3.0,3.0,0.0,3.0,3.0,0.0,1.0,3.0,0.0,0.0,0.0,0.0,2017-12-01,7-55-Bew-RueA-J-d-2020-12.xlsx,7-55-Bew-RueA-J,7-55,flow,yearly
63,Kroatien,13.0,13.0,0.0,13.0,4.0,8.0,0.0,2.0,0.0,0.0,0.0,0.0,2017-12-01,7-55-Bew-RueA-J-d-2020-12.xlsx,7-55-Bew-RueA-J,7-55,flow,yearly
64,Litauen,4.0,4.0,0.0,4.0,4.0,0.0,0.0,4.0,0.0,0.0,0.0,0.0,2017-12-01,7-55-Bew-RueA-J-d-2020-12.xlsx,7-55-Bew-RueA-J,7-55,flow,yearly
65,Moldova,0.0,0.0,0.0,0.0,0.0,0.0,0.0,0.0,0.0,0.0,0.0,0.0,2017-12-01,7-55-Bew-RueA-J-d-2020-12.xlsx,7-55-Bew-RueA-J,7-55,flow,yearly
66,Niederlande,2.0,2.0,0.0,1.0,1.0,0.0,0.0,1.0,0.0,0.0,0.0,0.0,2017-12-01,7-55-Bew-RueA-J-d-2020-12.xlsx,7-55-Bew-RueA-J,7-55,flow,yearly
67,Polen,13.0,13.0,0.0,13.0,13.0,0.0,0.0,9.0,0.0,0.0,0.0,0.0,2017-12-01,7-55-Bew-RueA-J-d-2020-12.xlsx,7-55-Bew-RueA-J,7-55,flow,yearly
68,Portugal,1.0,1.0,0.0,1.0,1.0,0.0,0.0,0.0,0.0,0.0,0.0,0.0,2017-12-01,7-55-Bew-RueA-J-d-2020-12.xlsx,7-55-Bew-RueA-J,7-55,flow,yearly
69,Rumänien,61.0,61.0,0.0,61.0,60.0,1.0,0.0,51.0,0.0,0.0,0.0,0.0,2017-12-01,7-55-Bew-RueA-J-d-2020-12.xlsx,7-55-Bew-RueA-J,7-55,flow,yearly
70,Russland,4.0,3.0,1.0,3.0,3.0,0.0,3.0,0.0,1.0,1.0,0.0,0.0,2017-12-01,7-55-Bew-RueA-J-d-2020-12.xlsx,7-55-Bew-RueA-J,7-55,flow,yearly
71,Serbien,3.0,2.0,1.0,2.0,1.0,0.0,0.0,0.0,1.0,0.0,1.0,0.0,2017-12-01,7-55-Bew-RueA-J-d-2020-12.xlsx,7-55-Bew-RueA-J,7-55,flow,yearly
72,Slowakische Republik,9.0,9.0,0.0,8.0,8.0,0.0,0.0,6.0,0.0,0.0,0.0,0.0,2017-12-01,7-55-Bew-RueA-J-d-2020-12.xlsx,7-55-Bew-RueA-J,7-55,flow,yearly
73,Slowenien,1.0,1.0,0.0,1.0,1.0,0.0,0.0,0.0,0.0,0.0,0.0,0.0,2017-12-01,7-55-Bew-RueA-J-d-2020-12.xlsx,7-55-Bew-RueA-J,7-55,flow,yearly
74,Spanien,6.0,6.0,0.0,6.0,4.0,0.0,0.0,2.0,0.0,0.0,0.0,0.0,2017-12-01,7-55-Bew-RueA-J-d-2020-12.xlsx,7-55-Bew-RueA-J,7-55,flow,yearly
75,Tschechische Republik,1.0,1.0,0.0,1.0,1.0,0.0,0.0,0.0,0.0,0.0,0.0,0.0,2017-12-01,7-55-Bew-RueA-J-d-2020-12.xlsx,7-55-Bew-RueA-J,7-55,flow,yearly
76,Türkei,3.0,3.0,0.0,3.0,1.0,1.0,0.0,1.0,0.0,0.0,0.0,0.0,2017-12-01,7-55-Bew-RueA-J-d-2020-12.xlsx,7-55-Bew-RueA-J,7-55,flow,yearly
77,Ukraine,1.0,1.0,0.0,1.0,1.0,0.0,0.0,0.0,0.0,0.0,0.0,0.0,2017-12-01,7-55-Bew-RueA-J-d-2020-12.xlsx,7-55-Bew-RueA-J,7-55,flow,yearly
78,Ungarn,12.0,12.0,0.0,12.0,10.0,2.0,0.0,9.0,0.0,0.0,0.0,0.0,2017-12-01,7-55-Bew-RueA-J-d-2020-12.xlsx,7-55-Bew-RueA-J,7-55,flow,yearly
79,Total Europa,147.0,145.0,2.0,146.0,128.0,12.0,8.0,95.0,2.0,1.0,1.0,0.0,2017-12-01,7-55-Bew-RueA-J-d-2020-12.xlsx,7-55-Bew-RueA-J,7-55,flow,yearly
80,Ohne Nationalität,0.0,0.0,0.0,0.0,0.0,0.0,0.0,0.0,0.0,0.0,0.0,0.0,2017-12-01,7-55-Bew-RueA-J-d-2020-12.xlsx,7-55-Bew-RueA-J,7-55,flow,yearly
81,Staat unbekannt,17.0,16.0,1.0,16.0,10.0,5.0,0.0,14.0,1.0,1.0,0.0,1.0,2017-12-01,7-55-Bew-RueA-J-d-2020-12.xlsx,7-55-Bew-RueA-J,7-55,flow,yearly
82,Total Herkunft unbek.,17.0,16.0,1.0,16.0,10.0,5.0,0.0,14.0,1.0,1.0,0.0,1.0,2017-12-01,7-55-Bew-RueA-J-d-2020-12.xlsx,7-55-Bew-RueA-J,7-55,flow,yearly
83,Herkunft unbekannt,35.0,35.0,0.0,34.0,26.0,7.0,9.0,11.0,0.0,0.0,0.0,0.0,2016-12-01,7-55-Bew-RueA-J-d-2020-12.xlsx,7-55-Bew-RueA-J,7-55,flow,yearly
84,Ägypten,1.0,1.0,0.0,1.0,1.0,0.0,1.0,1.0,0.0,0.0,0.0,0.0,2016-12-01,7-55-Bew-RueA-J-d-2020-12.xlsx,7-55-Bew-RueA-J,7-55,flow,yearly
85,Algerien,5.0,5.0,0.0,4.0,4.0,0.0,3.0,2.0,0.0,0.0,0.0,0.0,2016-12-01,7-55-Bew-RueA-J-d-2020-12.xlsx,7-55-Bew-RueA-J,7-55,flow,yearly
86,Äthiopien,7.0,6.0,1.0,4.0,4.0,0.0,7.0,0.0,1.0,1.0,0.0,0.0,2016-12-01,7-55-Bew-RueA-J-d-2020-12.xlsx,7-55-Bew-RueA-J,7-55,flow,yearly
87,Benin,1.0,1.0,0.0,1.0,1.0,0.0,0.0,1.0,0.0,0.0,0.0,0.0,2016-12-01,7-55-Bew-RueA-J-d-2020-12.xlsx,7-55-Bew-RueA-J,7-55,flow,yearly
88,Burundi,0.0,0.0,0.0,0.0,0.0,0.0,1.0,0.0,0.0,0.0,0.0,0.0,2016-12-01,7-55-Bew-RueA-J-d-2020-12.xlsx,7-55-Bew-RueA-J,7-55,flow,yearly
89,Côte d'Ivoire,4.0,4.0,0.0,4.0,3.0,1.0,1.0,2.0,0.0,0.0,0.0,0.0,2016-12-01,7-55-Bew-RueA-J-d-2020-12.xlsx,7-55-Bew-RueA-J,7-55,flow,yearly
90,Eritrea,73.0,68.0,5.0,91.0,86.0,2.0,59.0,28.0,5.0,5.0,0.0,1.0,2016-12-01,7-55-Bew-RueA-J-d-2020-12.xlsx,7-55-Bew-RueA-J,7-55,flow,yearly
91,Gambia,25.0,25.0,0.0,26.0,25.0,1.0,13.0,14.0,0.0,0.0,0.0,0.0,2016-12-01,7-55-Bew-RueA-J-d-2020-12.xlsx,7-55-Bew-RueA-J,7-55,flow,yearly
92,Ghana,5.0,5.0,0.0,5.0,4.0,0.0,1.0,3.0,0.0,0.0,0.0,0.0,2016-12-01,7-55-Bew-RueA-J-d-2020-12.xlsx,7-55-Bew-RueA-J,7-55,flow,yearly
93,Guinea,17.0,17.0,0.0,14.0,13.0,1.0,3.0,9.0,0.0,0.0,0.0,0.0,2016-12-01,7-55-Bew-RueA-J-d-2020-12.xlsx,7-55-Bew-RueA-J,7-55,flow,yearly
94,Guinea-Bissau,3.0,3.0,0.0,3.0,3.0,0.0,0.0,3.0,0.0,0.0,0.0,0.0,2016-12-01,7-55-Bew-RueA-J-d-2020-12.xlsx,7-55-Bew-RueA-J,7-55,flow,yearly
95,Kamerun,4.0,4.0,0.0,4.0,3.0,1.0,0.0,2.0,0.0,0.0,0.0,0.0,2016-12-01,7-55-Bew-RueA-J-d-2020-12.xlsx,7-55-Bew-RueA-J,7-55,flow,yearly
96,Kongo DR,0.0,0.0,0.0,0.0,0.0,0.0,1.0,1.0,0.0,0.0,0.0,0.0,2016-12-01,7-55-Bew-RueA-J-d-2020-12.xlsx,7-55-Bew-RueA-J,7-55,flow,yearly
97,Liberia,2.0,2.0,0.0,2.0,2.0,0.0,1.0,1.0,0.0,0.0,0.0,0.0,2016-12-01,7-55-Bew-RueA-J-d-2020-12.xlsx,7-55-Bew-RueA-J,7-55,flow,yearly
98,Libyen,1.0,1.0,0.0,1.0,1.0,0.0,1.0,0.0,0.0,0.0,0.0,0.0,2016-12-01,7-55-Bew-RueA-J-d-2020-12.xlsx,7-55-Bew-RueA-J,7-55,flow,yearly
99,Mali,12.0,12.0,0.0,11.0,10.0,1.0,2.0,9.0,0.0,0.0,0.0,0.0,2016-12-01,7-55-Bew-RueA-J-d-2020-12.xlsx,7-55-Bew-RueA-J,7-55,flow,yearly
100,Marokko,4.0,4.0,0.0,4.0,2.0,2.0,0.0,0.0,0.0,0.0,0.0,0.0,2016-12-01,7-55-Bew-RueA-J-d-2020-12.xlsx,7-55-Bew-RueA-J,7-55,flow,yearly
101,Niger,2.0,2.0,0.0,2.0,2.0,0.0,0.0,2.0,0.0,0.0,0.0,0.0,2016-12-01,7-55-Bew-RueA-J-d-2020-12.xlsx,7-55-Bew-RueA-J,7-55,flow,yearly
102,Nigeria,151.0,151.0,0.0,141.0,123.0,14.0,21.0,81.0,0.0,0.0,0.0,0.0,2016-12-01,7-55-Bew-RueA-J-d-2020-12.xlsx,7-55-Bew-RueA-J,7-55,flow,yearly
103,Senegal,10.0,10.0,0.0,11.0,11.0,0.0,0.0,6.0,0.0,0.0,0.0,0.0,2016-12-01,7-55-Bew-RueA-J-d-2020-12.xlsx,7-55-Bew-RueA-J,7-55,flow,yearly
104,Sierra Leone,3.0,3.0,0.0,3.0,3.0,0.0,0.0,3.0,0.0,0.0,0.0,0.0,2016-12-01,7-55-Bew-RueA-J-d-2020-12.xlsx,7-55-Bew-RueA-J,7-55,flow,yearly
105,Somalia,40.0,38.0,2.0,43.0,39.0,1.0,24.0,13.0,2.0,0.0,2.0,1.0,2016-12-01,7-55-Bew-RueA-J-d-2020-12.xlsx,7-55-Bew-RueA-J,7-55,flow,yearly
106,Sudan,3.0,3.0,0.0,6.0,4.0,2.0,2.0,3.0,0.0,0.0,0.0,0.0,2016-12-01,7-55-Bew-RueA-J-d-2020-12.xlsx,7-55-Bew-RueA-J,7-55,flow,yearly
107,Südsudan,1.0,1.0,0.0,1.0,0.0,1.0,0.0,0.0,0.0,0.0,0.0,0.0,2016-12-01,7-55-Bew-RueA-J-d-2020-12.xlsx,7-55-Bew-RueA-J,7-55,flow,yearly
108,Togo,1.0,1.0,0.0,2.0,2.0,0.0,0.0,2.0,0.0,0.0,0.0,0.0,2016-12-01,7-55-Bew-RueA-J-d-2020-12.xlsx,7-55-Bew-RueA-J,7-55,flow,yearly
109,Tschad,0.0,0.0,0.0,0.0,0.0,0.0,0.0,0.0,0.0,0.0,0.0,0.0,2016-12-01,7-55-Bew-RueA-J-d-2020-12.xlsx,7-55-Bew-RueA-J,7-55,flow,yearly
110,Uganda,1.0,1.0,0.0,1.0,1.0,0.0,0.0,1.0,0.0,0.0,0.0,0.0,2016-12-01,7-55-Bew-RueA-J-d-2020-12.xlsx,7-55-Bew-RueA-J,7-55,flow,yearly
111,Total Afrika,376.0,368.0,8.0,385.0,347.0,27.0,141.0,187.0,8.0,6.0,2.0,2.0,2016-12-01,7-55-Bew-RueA-J-d-2020-12.xlsx,7-55-Bew-RueA-J,7-55,flow,yearly
112,Dominikanische Republik,10.0,10.0,0.0,10.0,8.0,2.0,0.0,8.0,0.0,0.0,0.0,0.0,2016-12-01,7-55-Bew-RueA-J-d-2020-12.xlsx,7-55-Bew-RueA-J,7-55,flow,yearly
113,Ecuador,2.0,2.0,0.0,1.0,1.0,0.0,0.0,1.0,0.0,0.0,0.0,0.0,2016-12-01,7-55-Bew-RueA-J-d-2020-12.xlsx,7-55-Bew-RueA-J,7-55,flow,yearly
114,Kolumbien,1.0,1.0,0.0,2.0,0.0,1.0,0.0,0.0,0.0,0.0,0.0,0.0,2016-12-01,7-55-Bew-RueA-J-d-2020-12.xlsx,7-55-Bew-RueA-J,7-55,flow,yearly
115,Kuba,1.0,1.0,0.0,1.0,1.0,0.0,0.0,2.0,0.0,0.0,0.0,0.0,2016-12-01,7-55-Bew-RueA-J-d-2020-12.xlsx,7-55-Bew-RueA-J,7-55,flow,yearly
116,Peru,1.0,1.0,0.0,1.0,1.0,0.0,0.0,1.0,0.0,0.0,0.0,0.0,2016-12-01,7-55-Bew-RueA-J-d-2020-12.xlsx,7-55-Bew-RueA-J,7-55,flow,yearly
117,Trinidad u. Tobago,1.0,1.0,0.0,1.0,1.0,0.0,0.0,1.0,0.0,0.0,0.0,0.0,2016-12-01,7-55-Bew-RueA-J-d-2020-12.xlsx,7-55-Bew-RueA-J,7-55,flow,yearly
118,USA,1.0,1.0,0.0,1.0,1.0,0.0,0.0,1.0,0.0,0.0,0.0,0.0,2016-12-01,7-55-Bew-RueA-J-d-2020-12.xlsx,7-55-Bew-RueA-J,7-55,flow,yearly
119,Venezuela,1.0,1.0,0.0,1.0,1.0,0.0,0.0,1.0,0.0,0.0,0.0,0.0,2016-12-01,7-55-Bew-RueA-J-d-2020-12.xlsx,7-55-Bew-RueA-J,7-55,flow,yearly
120,Total Amerika,18.0,18.0,0.0,18.0,14.0,3.0,0.0,15.0,0.0,0.0,0.0,0.0,2016-12-01,7-55-Bew-RueA-J-d-2020-12.xlsx,7-55-Bew-RueA-J,7-55,flow,yearly
121,Afghanistan,20.0,20.0,0.0,20.0,20.0,0.0,22.0,10.0,0.0,0.0,0.0,0.0,2016-12-01,7-55-Bew-RueA-J-d-2020-12.xlsx,7-55-Bew-RueA-J,7-55,flow,yearly
122,Bangladesh,0.0,0.0,0.0,0.0,0.0,0.0,0.0,0.0,0.0,0.0,0.0,0.0,2016-12-01,7-55-Bew-RueA-J-d-2020-12.xlsx,7-55-Bew-RueA-J,7-55,flow,yearly
123,China (Volksrepublik),3.0,3.0,0.0,3.0,3.0,0.0,3.0,1.0,0.0,0.0,0.0,0.0,2016-12-01,7-55-Bew-RueA-J-d-2020-12.xlsx,7-55-Bew-RueA-J,7-55,flow,yearly
124,Georgien,1.0,1.0,0.0,1.0,1.0,0.0,1.0,1.0,0.0,0.0,0.0,0.0,2016-12-01,7-55-Bew-RueA-J-d-2020-12.xlsx,7-55-Bew-RueA-J,7-55,flow,yearly
125,Indien,1.0,1.0,0.0,1.0,0.0,1.0,0.0,0.0,0.0,0.0,0.0,0.0,2016-12-01,7-55-Bew-RueA-J-d-2020-12.xlsx,7-55-Bew-RueA-J,7-55,flow,yearly
126,Irak,12.0,12.0,0.0,14.0,13.0,0.0,7.0,3.0,0.0,0.0,0.0,0.0,2016-12-01,7-55-Bew-RueA-J-d-2020-12.xlsx,7-55-Bew-RueA-J,7-55,flow,yearly
127,Iran,8.0,8.0,0.0,9.0,9.0,0.0,6.0,1.0,0.0,0.0,0.0,0.0,2016-12-01,7-55-Bew-RueA-J-d-2020-12.xlsx,7-55-Bew-RueA-J,7-55,flow,yearly
128,Jemen,4.0,4.0,0.0,4.0,4.0,0.0,4.0,4.0,0.0,0.0,0.0,0.0,2016-12-01,7-55-Bew-RueA-J-d-2020-12.xlsx,7-55-Bew-RueA-J,7-55,flow,yearly
129,Jordanien,2.0,2.0,0.0,2.0,2.0,0.0,2.0,1.0,0.0,0.0,0.0,0.0,2016-12-01,7-55-Bew-RueA-J-d-2020-12.xlsx,7-55-Bew-RueA-J,7-55,flow,yearly
130,Laos,1.0,1.0,0.0,0.0,0.0,0.0,0.0,0.0,0.0,0.0,0.0,0.0,2016-12-01,7-55-Bew-RueA-J-d-2020-12.xlsx,7-55-Bew-RueA-J,7-55,flow,yearly
131,Libanon,1.0,1.0,0.0,1.0,1.0,0.0,0.0,0.0,0.0,0.0,0.0,0.0,2016-12-01,7-55-Bew-RueA-J-d-2020-12.xlsx,7-55-Bew-RueA-J,7-55,flow,yearly
132,Nepal,1.0,1.0,0.0,1.0,1.0,0.0,0.0,1.0,0.0,0.0,0.0,0.0,2016-12-01,7-55-Bew-RueA-J-d-2020-12.xlsx,7-55-Bew-RueA-J,7-55,flow,yearly
133,Pakistan,2.0,2.0,0.0,2.0,2.0,0.0,4.0,4.0,0.0,0.0,0.0,0.0,2016-12-01,7-55-Bew-RueA-J-d-2020-12.xlsx,7-55-Bew-RueA-J,7-55,flow,yearly
134,Sri Lanka,4.0,4.0,0.0,3.0,3.0,0.0,1.0,0.0,0.0,0.0,0.0,0.0,2016-12-01,7-55-Bew-RueA-J-d-2020-12.xlsx,7-55-Bew-RueA-J,7-55,flow,yearly
135,Syrien,42.0,35.0,7.0,37.0,37.0,0.0,49.0,8.0,7.0,7.0,0.0,0.0,2016-12-01,7-55-Bew-RueA-J-d-2020-12.xlsx,7-55-Bew-RueA-J,7-55,flow,yearly
136,Total Asien,102.0,95.0,7.0,98.0,96.0,1.0,99.0,34.0,7.0,7.0,0.0,0.0,2016-12-01,7-55-Bew-RueA-J-d-2020-12.xlsx,7-55-Bew-RueA-J,7-55,flow,yearly
137,Albanien,2.0,2.0,0.0,2.0,2.0,0.0,1.0,2.0,0.0,0.0,0.0,0.0,2016-12-01,7-55-Bew-RueA-J-d-2020-12.xlsx,7-55-Bew-RueA-J,7-55,flow,yearly
138,Belarus,1.0,1.0,0.0,1.0,1.0,0.0,0.0,0.0,0.0,0.0,0.0,0.0,2016-12-01,7-55-Bew-RueA-J-d-2020-12.xlsx,7-55-Bew-RueA-J,7-55,flow,yearly
139,Bosnien u. Herzegowina,4.0,4.0,0.0,1.0,1.0,0.0,0.0,1.0,0.0,0.0,0.0,0.0,2016-12-01,7-55-Bew-RueA-J-d-2020-12.xlsx,7-55-Bew-RueA-J,7-55,flow,yearly
140,Bulgarien,5.0,5.0,0.0,5.0,5.0,0.0,0.0,4.0,0.0,0.0,0.0,0.0,2016-12-01,7-55-Bew-RueA-J-d-2020-12.xlsx,7-55-Bew-RueA-J,7-55,flow,yearly
141,Dänemark,1.0,1.0,0.0,1.0,1.0,0.0,0.0,0.0,0.0,0.0,0.0,0.0,2016-12-01,7-55-Bew-RueA-J-d-2020-12.xlsx,7-55-Bew-RueA-J,7-55,flow,yearly
142,Estland,2.0,2.0,0.0,2.0,1.0,0.0,0.0,2.0,0.0,0.0,0.0,0.0,2016-12-01,7-55-Bew-RueA-J-d-2020-12.xlsx,7-55-Bew-RueA-J,7-55,flow,yearly
143,Frankreich,1.0,1.0,0.0,1.0,0.0,1.0,0.0,0.0,0.0,0.0,0.0,0.0,2016-12-01,7-55-Bew-RueA-J-d-2020-12.xlsx,7-55-Bew-RueA-J,7-55,flow,yearly
144,Grossbritannien,5.0,4.0,1.0,4.0,4.0,0.0,0.0,5.0,1.0,1.0,0.0,0.0,2016-12-01,7-55-Bew-RueA-J-d-2020-12.xlsx,7-55-Bew-RueA-J,7-55,flow,yearly
145,Kosovo,2.0,2.0,0.0,2.0,2.0,0.0,0.0,2.0,0.0,0.0,0.0,0.0,2016-12-01,7-55-Bew-RueA-J-d-2020-12.xlsx,7-55-Bew-RueA-J,7-55,flow,yearly
146,Kroatien,3.0,3.0,0.0,5.0,4.0,0.0,0.0,2.0,0.0,0.0,0.0,0.0,2016-12-01,7-55-Bew-RueA-J-d-2020-12.xlsx,7-55-Bew-RueA-J,7-55,flow,yearly
147,Lettland,2.0,2.0,0.0,2.0,2.0,0.0,0.0,1.0,0.0,0.0,0.0,0.0,2016-12-01,7-55-Bew-RueA-J-d-2020-12.xlsx,7-55-Bew-RueA-J,7-55,flow,yearly
148,Litauen,4.0,4.0,0.0,4.0,4.0,0.0,0.0,4.0,0.0,0.0,0.0,0.0,2016-12-01,7-55-Bew-RueA-J-d-2020-12.xlsx,7-55-Bew-RueA-J,7-55,flow,yearly
149,Moldova,1.0,1.0,0.0,1.0,0.0,1.0,0.0,0.0,0.0,0.0,0.0,0.0,2016-12-01,7-55-Bew-RueA-J-d-2020-12.xlsx,7-55-Bew-RueA-J,7-55,flow,yearly
150,Montenegro,0.0,0.0,0.0,0.0,0.0,0.0,0.0,0.0,0.0,0.0,0.0,0.0,2016-12-01,7-55-Bew-RueA-J-d-2020-12.xlsx,7-55-Bew-RueA-J,7-55,flow,yearly
151,Niederlande,5.0,5.0,0.0,6.0,4.0,1.0,0.0,4.0,0.0,0.0,0.0,0.0,2016-12-01,7-55-Bew-RueA-J-d-2020-12.xlsx,7-55-Bew-RueA-J,7-55,flow,yearly
152,Polen,11.0,11.0,0.0,11.0,11.0,0.0,1.0,9.0,0.0,0.0,0.0,0.0,2016-12-01,7-55-Bew-RueA-J-d-2020-12.xlsx,7-55-Bew-RueA-J,7-55,flow,yearly
153,Rumänien,57.0,57.0,0.0,56.0,52.0,4.0,0.0,45.0,0.0,0.0,0.0,0.0,2016-12-01,7-55-Bew-RueA-J-d-2020-12.xlsx,7-55-Bew-RueA-J,7-55,flow,yearly
154,Russland,5.0,5.0,0.0,10.0,10.0,0.0,9.0,1.0,0.0,0.0,0.0,0.0,2016-12-01,7-55-Bew-RueA-J-d-2020-12.xlsx,7-55-Bew-RueA-J,7-55,flow,yearly
155,Serbien,5.0,3.0,2.0,3.0,2.0,0.0,0.0,1.0,2.0,2.0,0.0,2.0,2016-12-01,7-55-Bew-RueA-J-d-2020-12.xlsx,7-55-Bew-RueA-J,7-55,flow,yearly
156,Slowakische Republik,1.0,1.0,0.0,1.0,1.0,0.0,0.0,2.0,0.0,0.0,0.0,0.0,2016-12-01,7-55-Bew-RueA-J-d-2020-12.xlsx,7-55-Bew-RueA-J,7-55,flow,yearly
157,Spanien,4.0,4.0,0.0,4.0,4.0,0.0,0.0,4.0,0.0,0.0,0.0,0.0,2016-12-01,7-55-Bew-RueA-J-d-2020-12.xlsx,7-55-Bew-RueA-J,7-55,flow,yearly
158,Tschechische Republik,1.0,1.0,0.0,1.0,1.0,0.0,0.0,1.0,0.0,0.0,0.0,0.0,2016-12-01,7-55-Bew-RueA-J-d-2020-12.xlsx,7-55-Bew-RueA-J,7-55,flow,yearly
159,Türkei,5.0,5.0,0.0,5.0,5.0,0.0,2.0,2.0,0.0,0.0,0.0,0.0,2016-12-01,7-55-Bew-RueA-J-d-2020-12.xlsx,7-55-Bew-RueA-J,7-55,flow,yearly
160,Ukraine,0.0,0.0,0.0,0.0,0.0,0.0,0.0,0.0,0.0,0.0,0.0,0.0,2016-12-01,7-55-Bew-RueA-J-d-2020-12.xlsx,7-55-Bew-RueA-J,7-55,flow,yearly
161,Ungarn,9.0,9.0,0.0,8.0,8.0,0.0,0.0,7.0,0.0,0.0,0.0,0.0,2016-12-01,7-55-Bew-RueA-J-d-2020-12.xlsx,7-55-Bew-RueA-J,7-55,flow,yearly
162,Total Europa,136.0,133.0,3.0,136.0,125.0,7.0,13.0,99.0,3.0,3.0,0.0,2.0,2016-12-01,7-55-Bew-RueA-J-d-2020-12.xlsx,7-55-Bew-RueA-J,7-55,flow,yearly
163,Staatenlos,1.0,1.0,0.0,1.0,1.0,0.0,0.0,1.0,0.0,0.0,0.0,0.0,2016-12-01,7-55-Bew-RueA-J-d-2020-12.xlsx,7-55-Bew-RueA-J,7-55,flow,yearly
164,Ohne Nationalität,6.0,6.0,0.0,6.0,6.0,0.0,6.0,0.0,0.0,0.0,0.0,0.0,2016-12-01,7-55-Bew-RueA-J-d-2020-12.xlsx,7-55-Bew-RueA-J,7-55,flow,yearly
165,Staat unbekannt,28.0,28.0,0.0,27.0,19.0,7.0,3.0,10.0,0.0,0.0,0.0,0.0,2016-12-01,7-55-Bew-RueA-J-d-2020-12.xlsx,7-55-Bew-RueA-J,7-55,flow,yearly
166,Total Herkunft unbek.,35.0,35.0,0.0,34.0,26.0,7.0,9.0,11.0,0.0,0.0,0.0,0.0,2016-12-01,7-55-Bew-RueA-J-d-2020-12.xlsx,7-55-Bew-RueA-J,7-55,flow,yearly
167,Herkunft unbekannt,15.0,14.0,1.0,15.0,13.0,2.0,9.0,4.0,1.0,1.0,0.0,1.0,2020-12-01,7-55-Bew-RueA-J-d-2020-12.xlsx,7-55-Bew-RueA-J,7-55,flow,yearly
168,Ägypten,1.0,1.0,0.0,1.0,1.0,0.0,0.0,0.0,0.0,0.0,0.0,0.0,2020-12-01,7-55-Bew-RueA-J-d-2020-12.xlsx,7-55-Bew-RueA-J,7-55,flow,yearly
169,Algerien,2.0,2.0,0.0,2.0,1.0,1.0,1.0,0.0,0.0,0.0,0.0,0.0,2020-12-01,7-55-Bew-RueA-J-d-2020-12.xlsx,7-55-Bew-RueA-J,7-55,flow,yearly
170,Angola,0.0,0.0,0.0,0.0,0.0,0.0,0.0,0.0,0.0,0.0,0.0,0.0,2020-12-01,7-55-Bew-RueA-J-d-2020-12.xlsx,7-55-Bew-RueA-J,7-55,flow,yearly
171,Äquatorialguinea,1.0,1.0,0.0,1.0,1.0,0.0,0.0,1.0,0.0,0.0,0.0,0.0,2020-12-01,7-55-Bew-RueA-J-d-2020-12.xlsx,7-55-Bew-RueA-J,7-55,flow,yearly
172,Äthiopien,4.0,3.0,1.0,3.0,3.0,0.0,1.0,3.0,1.0,1.0,0.0,0.0,2020-12-01,7-55-Bew-RueA-J-d-2020-12.xlsx,7-55-Bew-RueA-J,7-55,flow,yearly
173,Côte d'Ivoire,2.0,2.0,0.0,2.0,2.0,0.0,1.0,0.0,0.0,0.0,0.0,0.0,2020-12-01,7-55-Bew-RueA-J-d-2020-12.xlsx,7-55-Bew-RueA-J,7-55,flow,yearly
174,Eritrea,60.0,38.0,22.0,33.0,23.0,6.0,19.0,12.0,22.0,21.0,0.0,9.0,2020-12-01,7-55-Bew-RueA-J-d-2020-12.xlsx,7-55-Bew-RueA-J,7-55,flow,yearly
175,Gabun,1.0,1.0,0.0,0.0,0.0,0.0,0.0,0.0,0.0,0.0,0.0,0.0,2020-12-01,7-55-Bew-RueA-J-d-2020-12.xlsx,7-55-Bew-RueA-J,7-55,flow,yearly
176,Gambia,13.0,13.0,0.0,13.0,12.0,1.0,1.0,9.0,0.0,0.0,0.0,0.0,2020-12-01,7-55-Bew-RueA-J-d-2020-12.xlsx,7-55-Bew-RueA-J,7-55,flow,yearly
177,Ghana,0.0,0.0,0.0,0.0,0.0,0.0,0.0,2.0,0.0,0.0,0.0,0.0,2020-12-01,7-55-Bew-RueA-J-d-2020-12.xlsx,7-55-Bew-RueA-J,7-55,flow,yearly
178,Guinea,10.0,10.0,0.0,10.0,9.0,1.0,1.0,7.0,0.0,0.0,0.0,0.0,2020-12-01,7-55-Bew-RueA-J-d-2020-12.xlsx,7-55-Bew-RueA-J,7-55,flow,yearly
179,Guinea-Bissau,1.0,1.0,0.0,1.0,0.0,1.0,1.0,0.0,0.0,0.0,0.0,0.0,2020-12-01,7-55-Bew-RueA-J-d-2020-12.xlsx,7-55-Bew-RueA-J,7-55,flow,yearly
180,Kamerun,1.0,1.0,0.0,3.0,2.0,0.0,0.0,0.0,0.0,0.0,0.0,0.0,2020-12-01,7-55-Bew-RueA-J-d-2020-12.xlsx,7-55-Bew-RueA-J,7-55,flow,yearly
181,Kongo,1.0,0.0,1.0,0.0,0.0,0.0,0.0,0.0,1.0,1.0,0.0,1.0,2020-12-01,7-55-Bew-RueA-J-d-2020-12.xlsx,7-55-Bew-RueA-J,7-55,flow,yearly
182,Kongo DR,2.0,2.0,0.0,2.0,2.0,0.0,1.0,0.0,0.0,0.0,0.0,0.0,2020-12-01,7-55-Bew-RueA-J-d-2020-12.xlsx,7-55-Bew-RueA-J,7-55,flow,yearly
183,Liberia,3.0,3.0,0.0,3.0,2.0,1.0,0.0,0.0,0.0,0.0,0.0,0.0,2020-12-01,7-55-Bew-RueA-J-d-2020-12.xlsx,7-55-Bew-RueA-J,7-55,flow,yearly
184,Libyen,2.0,2.0,0.0,2.0,2.0,0.0,1.0,2.0,0.0,0.0,0.0,0.0,2020-12-01,7-55-Bew-RueA-J-d-2020-12.xlsx,7-55-Bew-RueA-J,7-55,flow,yearly
185,Malawi,1.0,1.0,0.0,1.0,1.0,0.0,0.0,0.0,0.0,0.0,0.0,0.0,2020-12-01,7-55-Bew-RueA-J-d-2020-12.xlsx,7-55-Bew-RueA-J,7-55,flow,yearly
186,Mali,1.0,1.0,0.0,1.0,1.0,0.0,0.0,2.0,0.0,0.0,0.0,0.0,2020-12-01,7-55-Bew-RueA-J-d-2020-12.xlsx,7-55-Bew-RueA-J,7-55,flow,yearly
187,Marokko,5.0,5.0,0.0,5.0,4.0,1.0,1.0,3.0,0.0,0.0,0.0,0.0,2020-12-01,7-55-Bew-RueA-J-d-2020-12.xlsx,7-55-Bew-RueA-J,7-55,flow,yearly
188,Mauretanien,1.0,1.0,0.0,1.0,1.0,0.0,0.0,0.0,0.0,0.0,0.0,0.0,2020-12-01,7-55-Bew-RueA-J-d-2020-12.xlsx,7-55-Bew-RueA-J,7-55,flow,yearly
189,Niger,1.0,1.0,0.0,1.0,1.0,0.0,0.0,0.0,0.0,0.0,0.0,0.0,2020-12-01,7-55-Bew-RueA-J-d-2020-12.xlsx,7-55-Bew-RueA-J,7-55,flow,yearly
190,Nigeria,89.0,89.0,0.0,75.0,68.0,5.0,4.0,48.0,0.0,0.0,0.0,0.0,2020-12-01,7-55-Bew-RueA-J-d-2020-12.xlsx,7-55-Bew-RueA-J,7-55,flow,yearly
191,Senegal,8.0,8.0,0.0,7.0,5.0,2.0,0.0,4.0,0.0,0.0,0.0,0.0,2020-12-01,7-55-Bew-RueA-J-d-2020-12.xlsx,7-55-Bew-RueA-J,7-55,flow,yearly
192,Sierra Leone,3.0,2.0,1.0,3.0,3.0,0.0,1.0,1.0,1.0,1.0,0.0,0.0,2020-12-01,7-55-Bew-RueA-J-d-2020-12.xlsx,7-55-Bew-RueA-J,7-55,flow,yearly
193,Somalia,65.0,49.0,16.0,46.0,42.0,2.0,26.0,10.0,16.0,15.0,1.0,9.0,2020-12-01,7-55-Bew-RueA-J-d-2020-12.xlsx,7-55-Bew-RueA-J,7-55,flow,yearly
194,Sudan,3.0,3.0,0.0,2.0,2.0,0.0,1.0,1.0,0.0,0.0,0.0,0.0,2020-12-01,7-55-Bew-RueA-J-d-2020-12.xlsx,7-55-Bew-RueA-J,7-55,flow,yearly
195,Südsudan,1.0,1.0,0.0,1.0,1.0,0.0,0.0,0.0,0.0,0.0,0.0,0.0,2020-12-01,7-55-Bew-RueA-J-d-2020-12.xlsx,7-55-Bew-RueA-J,7-55,flow,yearly
196,Togo,0.0,0.0,0.0,0.0,0.0,0.0,0.0,0.0,0.0,0.0,0.0,0.0,2020-12-01,7-55-Bew-RueA-J-d-2020-12.xlsx,7-55-Bew-RueA-J,7-55,flow,yearly
197,Tschad,2.0,2.0,0.0,2.0,1.0,0.0,0.0,1.0,0.0,0.0,0.0,0.0,2020-12-01,7-55-Bew-RueA-J-d-2020-12.xlsx,7-55-Bew-RueA-J,7-55,flow,yearly
198,Tunesien,2.0,2.0,0.0,2.0,1.0,1.0,0.0,0.0,0.0,0.0,0.0,0.0,2020-12-01,7-55-Bew-RueA-J-d-2020-12.xlsx,7-55-Bew-RueA-J,7-55,flow,yearly
199,Zentralafr. Republik,1.0,1.0,0.0,1.0,1.0,0.0,1.0,0.0,0.0,0.0,0.0,0.0,2020-12-01,7-55-Bew-RueA-J-d-2020-12.xlsx,7-55-Bew-RueA-J,7-55,flow,yearly
200,Total Afrika,287.0,246.0,41.0,224.0,192.0,22.0,61.0,106.0,41.0,39.0,1.0,19.0,2020-12-01,7-55-Bew-RueA-J-d-2020-12.xlsx,7-55-Bew-RueA-J,7-55,flow,yearly
201,Bolivien,1.0,1.0,0.0,1.0,0.0,1.0,0.0,0.0,0.0,0.0,0.0,0.0,2020-12-01,7-55-Bew-RueA-J-d-2020-12.xlsx,7-55-Bew-RueA-J,7-55,flow,yearly
202,Dominikanische Republik,9.0,9.0,0.0,11.0,7.0,4.0,0.0,6.0,0.0,0.0,0.0,0.0,2020-12-01,7-55-Bew-RueA-J-d-2020-12.xlsx,7-55-Bew-RueA-J,7-55,flow,yearly
203,Ecuador,1.0,1.0,0.0,1.0,1.0,0.0,0.0,1.0,0.0,0.0,0.0,0.0,2020-12-01,7-55-Bew-RueA-J-d-2020-12.xlsx,7-55-Bew-RueA-J,7-55,flow,yearly
204,Haiti,0.0,0.0,0.0,0.0,0.0,0.0,0.0,0.0,0.0,0.0,0.0,0.0,2020-12-01,7-55-Bew-RueA-J-d-2020-12.xlsx,7-55-Bew-RueA-J,7-55,flow,yearly
205,Jamaika,1.0,1.0,0.0,1.0,1.0,0.0,1.0,1.0,0.0,0.0,0.0,0.0,2020-12-01,7-55-Bew-RueA-J-d-2020-12.xlsx,7-55-Bew-RueA-J,7-55,flow,yearly
206,Kolumbien,6.0,4.0,2.0,4.0,2.0,2.0,0.0,4.0,2.0,2.0,0.0,0.0,2020-12-01,7-55-Bew-RueA-J-d-2020-12.xlsx,7-55-Bew-RueA-J,7-55,flow,yearly
207,Kuba,1.0,1.0,0.0,1.0,0.0,1.0,0.0,0.0,0.0,0.0,0.0,0.0,2020-12-01,7-55-Bew-RueA-J-d-2020-12.xlsx,7-55-Bew-RueA-J,7-55,flow,yearly
208,Peru,2.0,2.0,0.0,2.0,2.0,0.0,0.0,1.0,0.0,0.0,0.0,0.0,2020-12-01,7-55-Bew-RueA-J-d-2020-12.xlsx,7-55-Bew-RueA-J,7-55,flow,yearly
209,Venezuela,1.0,1.0,0.0,1.0,0.0,1.0,0.0,0.0,0.0,0.0,0.0,0.0,2020-12-01,7-55-Bew-RueA-J-d-2020-12.xlsx,7-55-Bew-RueA-J,7-55,flow,yearly
210,Total Amerika,22.0,20.0,2.0,22.0,13.0,9.0,1.0,13.0,2.0,2.0,0.0,0.0,2020-12-01,7-55-Bew-RueA-J-d-2020-12.xlsx,7-55-Bew-RueA-J,7-55,flow,yearly
211,Afghanistan,72.0,70.0,2.0,69.0,68.0,1.0,55.0,18.0,2.0,2.0,0.0,1.0,2020-12-01,7-55-Bew-RueA-J-d-2020-12.xlsx,7-55-Bew-RueA-J,7-55,flow,yearly
212,Armenien,1.0,1.0,0.0,1.0,1.0,0.0,0.0,0.0,0.0,0.0,0.0,0.0,2020-12-01,7-55-Bew-RueA-J-d-2020-12.xlsx,7-55-Bew-RueA-J,7-55,flow,yearly
213,Bangladesh,0.0,0.0,0.0,0.0,0.0,0.0,0.0,0.0,0.0,0.0,0.0,0.0,2020-12-01,7-55-Bew-RueA-J-d-2020-12.xlsx,7-55-Bew-RueA-J,7-55,flow,yearly
214,China (Volksrepublik),0.0,0.0,0.0,1.0,1.0,0.0,0.0,2.0,0.0,0.0,0.0,0.0,2020-12-01,7-55-Bew-RueA-J-d-2020-12.xlsx,7-55-Bew-RueA-J,7-55,flow,yearly
215,Georgien,1.0,1.0,0.0,1.0,1.0,0.0,0.0,1.0,0.0,0.0,0.0,0.0,2020-12-01,7-55-Bew-RueA-J-d-2020-12.xlsx,7-55-Bew-RueA-J,7-55,flow,yearly
216,Irak,41.0,39.0,2.0,33.0,33.0,0.0,32.0,5.0,2.0,2.0,0.0,2.0,2020-12-01,7-55-Bew-RueA-J-d-2020-12.xlsx,7-55-Bew-RueA-J,7-55,flow,yearly
217,Iran,17.0,17.0,0.0,17.0,17.0,0.0,10.0,5.0,0.0,0.0,0.0,0.0,2020-12-01,7-55-Bew-RueA-J-d-2020-12.xlsx,7-55-Bew-RueA-J,7-55,flow,yearly
218,Israel,2.0,2.0,0.0,2.0,2.0,0.0,2.0,0.0,0.0,0.0,0.0,0.0,2020-12-01,7-55-Bew-RueA-J-d-2020-12.xlsx,7-55-Bew-RueA-J,7-55,flow,yearly
219,Jemen,0.0,0.0,0.0,0.0,0.0,0.0,0.0,0.0,0.0,0.0,0.0,0.0,2020-12-01,7-55-Bew-RueA-J-d-2020-12.xlsx,7-55-Bew-RueA-J,7-55,flow,yearly
220,Libanon,0.0,0.0,0.0,0.0,0.0,0.0,0.0,0.0,0.0,0.0,0.0,0.0,2020-12-01,7-55-Bew-RueA-J-d-2020-12.xlsx,7-55-Bew-RueA-J,7-55,flow,yearly
221,Malediven,1.0,0.0,1.0,0.0,0.0,0.0,0.0,0.0,1.0,1.0,0.0,0.0,2020-12-01,7-55-Bew-RueA-J-d-2020-12.xlsx,7-55-Bew-RueA-J,7-55,flow,yearly
222,Mongolei,0.0,0.0,0.0,0.0,0.0,0.0,0.0,0.0,0.0,0.0,0.0,0.0,2020-12-01,7-55-Bew-RueA-J-d-2020-12.xlsx,7-55-Bew-RueA-J,7-55,flow,yearly
223,Pakistan,2.0,2.0,0.0,3.0,3.0,0.0,0.0,1.0,0.0,0.0,0.0,0.0,2020-12-01,7-55-Bew-RueA-J-d-2020-12.xlsx,7-55-Bew-RueA-J,7-55,flow,yearly
224,Sri Lanka,2.0,1.0,1.0,0.0,0.0,0.0,1.0,0.0,1.0,1.0,0.0,0.0,2020-12-01,7-55-Bew-RueA-J-d-2020-12.xlsx,7-55-Bew-RueA-J,7-55,flow,yearly
225,Syrien,40.0,36.0,4.0,38.0,35.0,2.0,50.0,6.0,4.0,4.0,0.0,0.0,2020-12-01,7-55-Bew-RueA-J-d-2020-12.xlsx,7-55-Bew-RueA-J,7-55,flow,yearly
226,Vietnam,1.0,1.0,0.0,1.0,0.0,1.0,0.0,0.0,0.0,0.0,0.0,0.0,2020-12-01,7-55-Bew-RueA-J-d-2020-12.xlsx,7-55-Bew-RueA-J,7-55,flow,yearly
227,Total Asien,180.0,170.0,10.0,166.0,161.0,4.0,150.0,38.0,10.0,10.0,0.0,3.0,2020-12-01,7-55-Bew-RueA-J-d-2020-12.xlsx,7-55-Bew-RueA-J,7-55,flow,yearly
228,Albanien,5.0,5.0,0.0,5.0,4.0,1.0,0.0,4.0,0.0,0.0,0.0,0.0,2020-12-01,7-55-Bew-RueA-J-d-2020-12.xlsx,7-55-Bew-RueA-J,7-55,flow,yearly
229,Belarus,1.0,1.0,0.0,1.0,1.0,0.0,1.0,0.0,0.0,0.0,0.0,0.0,2020-12-01,7-55-Bew-RueA-J-d-2020-12.xlsx,7-55-Bew-RueA-J,7-55,flow,yearly
230,Belgien,5.0,5.0,0.0,5.0,4.0,1.0,0.0,2.0,0.0,0.0,0.0,0.0,2020-12-01,7-55-Bew-RueA-J-d-2020-12.xlsx,7-55-Bew-RueA-J,7-55,flow,yearly
231,Bosnien u. Herzegowina,0.0,0.0,0.0,0.0,0.0,0.0,0.0,0.0,0.0,0.0,0.0,0.0,2020-12-01,7-55-Bew-RueA-J-d-2020-12.xlsx,7-55-Bew-RueA-J,7-55,flow,yearly
232,Bulgarien,1.0,1.0,0.0,1.0,1.0,0.0,0.0,1.0,0.0,0.0,0.0,0.0,2020-12-01,7-55-Bew-RueA-J-d-2020-12.xlsx,7-55-Bew-RueA-J,7-55,flow,yearly
233,Deutschland,0.0,0.0,0.0,0.0,0.0,0.0,1.0,0.0,0.0,0.0,0.0,0.0,2020-12-01,7-55-Bew-RueA-J-d-2020-12.xlsx,7-55-Bew-RueA-J,7-55,flow,yearly
234,Estland,2.0,2.0,0.0,2.0,2.0,0.0,0.0,0.0,0.0,0.0,0.0,0.0,2020-12-01,7-55-Bew-RueA-J-d-2020-12.xlsx,7-55-Bew-RueA-J,7-55,flow,yearly
235,Grossbritannien,3.0,3.0,0.0,4.0,3.0,1.0,0.0,3.0,0.0,0.0,0.0,0.0,2020-12-01,7-55-Bew-RueA-J-d-2020-12.xlsx,7-55-Bew-RueA-J,7-55,flow,yearly
236,Kosovo,1.0,0.0,1.0,0.0,0.0,0.0,0.0,1.0,1.0,1.0,0.0,1.0,2020-12-01,7-55-Bew-RueA-J-d-2020-12.xlsx,7-55-Bew-RueA-J,7-55,flow,yearly
237,Kroatien,4.0,4.0,0.0,4.0,4.0,0.0,0.0,3.0,0.0,0.0,0.0,0.0,2020-12-01,7-55-Bew-RueA-J-d-2020-12.xlsx,7-55-Bew-RueA-J,7-55,flow,yearly
238,Lettland,0.0,0.0,0.0,0.0,0.0,0.0,0.0,0.0,0.0,0.0,0.0,0.0,2020-12-01,7-55-Bew-RueA-J-d-2020-12.xlsx,7-55-Bew-RueA-J,7-55,flow,yearly
239,Litauen,6.0,6.0,0.0,6.0,6.0,0.0,0.0,4.0,0.0,0.0,0.0,0.0,2020-12-01,7-55-Bew-RueA-J-d-2020-12.xlsx,7-55-Bew-RueA-J,7-55,flow,yearly
240,Nordmazedonien,1.0,1.0,0.0,1.0,1.0,0.0,0.0,2.0,0.0,0.0,0.0,0.0,2020-12-01,7-55-Bew-RueA-J-d-2020-12.xlsx,7-55-Bew-RueA-J,7-55,flow,yearly
241,Moldova,0.0,0.0,0.0,0.0,0.0,0.0,0.0,0.0,0.0,0.0,0.0,0.0,2020-12-01,7-55-Bew-RueA-J-d-2020-12.xlsx,7-55-Bew-RueA-J,7-55,flow,yearly
242,Niederlande,3.0,3.0,0.0,3.0,3.0,0.0,0.0,1.0,0.0,0.0,0.0,0.0,2020-12-01,7-55-Bew-RueA-J-d-2020-12.xlsx,7-55-Bew-RueA-J,7-55,flow,yearly
243,Polen,9.0,9.0,0.0,9.0,9.0,0.0,0.0,9.0,0.0,0.0,0.0,0.0,2020-12-01,7-55-Bew-RueA-J-d-2020-12.xlsx,7-55-Bew-RueA-J,7-55,flow,yearly
244,Portugal,0.0,0.0,0.0,0.0,0.0,0.0,0.0,0.0,0.0,0.0,0.0,0.0,2020-12-01,7-55-Bew-RueA-J-d-2020-12.xlsx,7-55-Bew-RueA-J,7-55,flow,yearly
245,Rumänien,29.0,29.0,0.0,29.0,26.0,3.0,0.0,19.0,0.0,0.0,0.0,0.0,2020-12-01,7-55-Bew-RueA-J-d-2020-12.xlsx,7-55-Bew-RueA-J,7-55,flow,yearly
246,Russland,11.0,11.0,0.0,11.0,11.0,0.0,11.0,9.0,0.0,0.0,0.0,0.0,2020-12-01,7-55-Bew-RueA-J-d-2020-12.xlsx,7-55-Bew-RueA-J,7-55,flow,yearly
247,Schweden,1.0,1.0,0.0,1.0,0.0,0.0,0.0,0.0,0.0,0.0,0.0,0.0,2020-12-01,7-55-Bew-RueA-J-d-2020-12.xlsx,7-55-Bew-RueA-J,7-55,flow,yearly
248,Serbien,3.0,3.0,0.0,3.0,2.0,1.0,1.0,1.0,0.0,0.0,0.0,0.0,2020-12-01,7-55-Bew-RueA-J-d-2020-12.xlsx,7-55-Bew-RueA-J,7-55,flow,yearly
249,Slowakische Republik,7.0,7.0,0.0,7.0,6.0,1.0,0.0,3.0,0.0,0.0,0.0,0.0,2020-12-01,7-55-Bew-RueA-J-d-2020-12.xlsx,7-55-Bew-RueA-J,7-55,flow,yearly
250,Slowenien,1.0,1.0,0.0,1.0,1.0,0.0,0.0,1.0,0.0,0.0,0.0,0.0,2020-12-01,7-55-Bew-RueA-J-d-2020-12.xlsx,7-55-Bew-RueA-J,7-55,flow,yearly
251,Spanien,5.0,5.0,0.0,5.0,3.0,1.0,0.0,3.0,0.0,0.0,0.0,0.0,2020-12-01,7-55-Bew-RueA-J-d-2020-12.xlsx,7-55-Bew-RueA-J,7-55,flow,yearly
252,Tschechische Republik,3.0,3.0,0.0,3.0,3.0,0.0,0.0,2.0,0.0,0.0,0.0,0.0,2020-12-01,7-55-Bew-RueA-J-d-2020-12.xlsx,7-55-Bew-RueA-J,7-55,flow,yearly
253,Türkei,13.0,8.0,5.0,8.0,8.0,0.0,13.0,1.0,5.0,5.0,0.0,1.0,2020-12-01,7-55-Bew-RueA-J-d-2020-12.xlsx,7-55-Bew-RueA-J,7-55,flow,yearly
254,Ukraine,2.0,2.0,0.0,2.0,2.0,0.0,0.0,5.0,0.0,0.0,0.0,0.0,2020-12-01,7-55-Bew-RueA-J-d-2020-12.xlsx,7-55-Bew-RueA-J,7-55,flow,yearly
255,Ungarn,3.0,3.0,0.0,3.0,3.0,0.0,0.0,3.0,0.0,0.0,0.0,0.0,2020-12-01,7-55-Bew-RueA-J-d-2020-12.xlsx,7-55-Bew-RueA-J,7-55,flow,yearly
256,Total Europa,119.0,113.0,6.0,114.0,103.0,9.0,27.0,77.0,6.0,6.0,0.0,2.0,2020-12-01,7-55-Bew-RueA-J-d-2020-12.xlsx,7-55-Bew-RueA-J,7-55,flow,yearly
257,Ohne Nationalität,6.0,6.0,0.0,6.0,5.0,1.0,5.0,0.0,0.0,0.0,0.0,0.0,2020-12-01,7-55-Bew-RueA-J-d-2020-12.xlsx,7-55-Bew-RueA-J,7-55,flow,yearly
258,Staat unbekannt,9.0,8.0,1.0,9.0,8.0,1.0,4.0,4.0,1.0,1.0,0.0,1.0,2020-12-01,7-55-Bew-RueA-J-d-2020-12.xlsx,7-55-Bew-RueA-J,7-55,flow,yearly
259,Total Herkunft unbek.,15.0,14.0,1.0,15.0,13.0,2.0,9.0,4.0,1.0,1.0,0.0,1.0,2020-12-01,7-55-Bew-RueA-J-d-2020-12.xlsx,7-55-Bew-RueA-J,7-55,flow,yearly
260,Herkunft unbekannt,27.0,25.0,2.0,24.0,21.0,3.0,14.0,10.0,2.0,2.0,0.0,1.0,2014-12-01,7-55-Bew-RueA-J-d-2020-12.xlsx,7-55-Bew-RueA-J,7-55,flow,yearly
261,Ägypten,9.0,9.0,0.0,7.0,7.0,0.0,7.0,3.0,0.0,0.0,0.0,0.0,2014-12-01,7-55-Bew-RueA-J-d-2020-12.xlsx,7-55-Bew-RueA-J,7-55,flow,yearly
262,Algerien,13.0,13.0,0.0,12.0,6.0,6.0,0.0,5.0,0.0,0.0,0.0,0.0,2014-12-01,7-55-Bew-RueA-J-d-2020-12.xlsx,7-55-Bew-RueA-J,7-55,flow,yearly
263,Angola,1.0,1.0,0.0,1.0,1.0,0.0,0.0,0.0,0.0,0.0,0.0,0.0,2014-12-01,7-55-Bew-RueA-J-d-2020-12.xlsx,7-55-Bew-RueA-J,7-55,flow,yearly
264,Äquatorialguinea,1.0,1.0,0.0,1.0,1.0,0.0,0.0,1.0,0.0,0.0,0.0,0.0,2014-12-01,7-55-Bew-RueA-J-d-2020-12.xlsx,7-55-Bew-RueA-J,7-55,flow,yearly
265,Äthiopien,9.0,9.0,0.0,9.0,9.0,0.0,9.0,2.0,0.0,0.0,0.0,0.0,2014-12-01,7-55-Bew-RueA-J-d-2020-12.xlsx,7-55-Bew-RueA-J,7-55,flow,yearly
266,Burkina Faso,2.0,2.0,0.0,1.0,1.0,0.0,0.0,1.0,0.0,0.0,0.0,0.0,2014-12-01,7-55-Bew-RueA-J-d-2020-12.xlsx,7-55-Bew-RueA-J,7-55,flow,yearly
267,Côte d'Ivoire,6.0,6.0,0.0,4.0,4.0,0.0,1.0,5.0,0.0,0.0,0.0,0.0,2014-12-01,7-55-Bew-RueA-J-d-2020-12.xlsx,7-55-Bew-RueA-J,7-55,flow,yearly
268,Eritrea,137.0,131.0,6.0,90.0,90.0,0.0,57.0,14.0,6.0,6.0,0.0,3.0,2014-12-01,7-55-Bew-RueA-J-d-2020-12.xlsx,7-55-Bew-RueA-J,7-55,flow,yearly
269,Gambia,14.0,14.0,0.0,13.0,11.0,2.0,2.0,8.0,0.0,0.0,0.0,0.0,2014-12-01,7-55-Bew-RueA-J-d-2020-12.xlsx,7-55-Bew-RueA-J,7-55,flow,yearly
270,Ghana,1.0,1.0,0.0,0.0,0.0,0.0,0.0,0.0,0.0,0.0,0.0,0.0,2014-12-01,7-55-Bew-RueA-J-d-2020-12.xlsx,7-55-Bew-RueA-J,7-55,flow,yearly
271,Guinea,14.0,14.0,0.0,11.0,11.0,0.0,0.0,8.0,0.0,0.0,0.0,0.0,2014-12-01,7-55-Bew-RueA-J-d-2020-12.xlsx,7-55-Bew-RueA-J,7-55,flow,yearly
272,Guinea-Bissau,4.0,4.0,0.0,4.0,4.0,0.0,2.0,3.0,0.0,0.0,0.0,0.0,2014-12-01,7-55-Bew-RueA-J-d-2020-12.xlsx,7-55-Bew-RueA-J,7-55,flow,yearly
273,Kamerun,2.0,2.0,0.0,2.0,2.0,0.0,0.0,1.0,0.0,0.0,0.0,0.0,2014-12-01,7-55-Bew-RueA-J-d-2020-12.xlsx,7-55-Bew-RueA-J,7-55,flow,yearly
274,Kongo DR,3.0,1.0,2.0,1.0,0.0,0.0,7.0,0.0,2.0,2.0,0.0,1.0,2014-12-01,7-55-Bew-RueA-J-d-2020-12.xlsx,7-55-Bew-RueA-J,7-55,flow,yearly
275,Liberia,10.0,10.0,0.0,9.0,6.0,3.0,4.0,4.0,0.0,0.0,0.0,0.0,2014-12-01,7-55-Bew-RueA-J-d-2020-12.xlsx,7-55-Bew-RueA-J,7-55,flow,yearly
276,Libyen,3.0,3.0,0.0,3.0,3.0,0.0,2.0,0.0,0.0,0.0,0.0,0.0,2014-12-01,7-55-Bew-RueA-J-d-2020-12.xlsx,7-55-Bew-RueA-J,7-55,flow,yearly
277,Mali,21.0,21.0,0.0,18.0,17.0,1.0,13.0,8.0,0.0,0.0,0.0,0.0,2014-12-01,7-55-Bew-RueA-J-d-2020-12.xlsx,7-55-Bew-RueA-J,7-55,flow,yearly
278,Marokko,7.0,7.0,0.0,7.0,6.0,1.0,5.0,4.0,0.0,0.0,0.0,0.0,2014-12-01,7-55-Bew-RueA-J-d-2020-12.xlsx,7-55-Bew-RueA-J,7-55,flow,yearly
279,Mauretanien,5.0,5.0,0.0,5.0,5.0,0.0,1.0,5.0,0.0,0.0,0.0,0.0,2014-12-01,7-55-Bew-RueA-J-d-2020-12.xlsx,7-55-Bew-RueA-J,7-55,flow,yearly
280,Niger,3.0,3.0,0.0,3.0,3.0,0.0,2.0,1.0,0.0,0.0,0.0,0.0,2014-12-01,7-55-Bew-RueA-J-d-2020-12.xlsx,7-55-Bew-RueA-J,7-55,flow,yearly
281,Nigeria,130.0,130.0,0.0,113.0,95.0,18.0,26.0,52.0,0.0,0.0,0.0,0.0,2014-12-01,7-55-Bew-RueA-J-d-2020-12.xlsx,7-55-Bew-RueA-J,7-55,flow,yearly
282,Senegal,6.0,6.0,0.0,5.0,5.0,0.0,1.0,2.0,0.0,0.0,0.0,0.0,2014-12-01,7-55-Bew-RueA-J-d-2020-12.xlsx,7-55-Bew-RueA-J,7-55,flow,yearly
283,Sierra Leone,4.0,4.0,0.0,4.0,3.0,1.0,0.0,3.0,0.0,0.0,0.0,0.0,2014-12-01,7-55-Bew-RueA-J-d-2020-12.xlsx,7-55-Bew-RueA-J,7-55,flow,yearly
284,Somalia,49.0,45.0,4.0,36.0,30.0,6.0,27.0,3.0,4.0,4.0,0.0,0.0,2014-12-01,7-55-Bew-RueA-J-d-2020-12.xlsx,7-55-Bew-RueA-J,7-55,flow,yearly
285,Sudan,7.0,7.0,0.0,4.0,4.0,0.0,7.0,0.0,0.0,0.0,0.0,0.0,2014-12-01,7-55-Bew-RueA-J-d-2020-12.xlsx,7-55-Bew-RueA-J,7-55,flow,yearly
286,Südsudan,1.0,1.0,0.0,0.0,0.0,0.0,0.0,0.0,0.0,0.0,0.0,0.0,2014-12-01,7-55-Bew-RueA-J-d-2020-12.xlsx,7-55-Bew-RueA-J,7-55,flow,yearly
287,Tansania,1.0,1.0,0.0,1.0,1.0,0.0,0.0,1.0,0.0,0.0,0.0,0.0,2014-12-01,7-55-Bew-RueA-J-d-2020-12.xlsx,7-55-Bew-RueA-J,7-55,flow,yearly
288,Togo,1.0,1.0,0.0,1.0,1.0,0.0,1.0,1.0,0.0,0.0,0.0,0.0,2014-12-01,7-55-Bew-RueA-J-d-2020-12.xlsx,7-55-Bew-RueA-J,7-55,flow,yearly
289,Tschad,1.0,1.0,0.0,1.0,1.0,0.0,0.0,0.0,0.0,0.0,0.0,0.0,2014-12-01,7-55-Bew-RueA-J-d-2020-12.xlsx,7-55-Bew-RueA-J,7-55,flow,yearly
290,Tunesien,0.0,0.0,0.0,0.0,0.0,0.0,1.0,0.0,0.0,0.0,0.0,0.0,2014-12-01,7-55-Bew-RueA-J-d-2020-12.xlsx,7-55-Bew-RueA-J,7-55,flow,yearly
291,Uganda,2.0,2.0,0.0,2.0,1.0,1.0,1.0,1.0,0.0,0.0,0.0,0.0,2014-12-01,7-55-Bew-RueA-J-d-2020-12.xlsx,7-55-Bew-RueA-J,7-55,flow,yearly
292,Zimbabwe,2.0,2.0,0.0,2.0,1.0,1.0,0.0,1.0,0.0,0.0,0.0,0.0,2014-12-01,7-55-Bew-RueA-J-d-2020-12.xlsx,7-55-Bew-RueA-J,7-55,flow,yearly
293,Total Afrika,469.0,457.0,12.0,370.0,329.0,40.0,176.0,137.0,12.0,12.0,0.0,4.0,2014-12-01,7-55-Bew-RueA-J-d-2020-12.xlsx,7-55-Bew-RueA-J,7-55,flow,yearly
294,Brasilien,1.0,1.0,0.0,1.0,0.0,1.0,0.0,0.0,0.0,0.0,0.0,0.0,2014-12-01,7-55-Bew-RueA-J-d-2020-12.xlsx,7-55-Bew-RueA-J,7-55,flow,yearly
295,Dominikanische Republik,25.0,25.0,0.0,25.0,20.0,5.0,0.0,16.0,0.0,0.0,0.0,0.0,2014-12-01,7-55-Bew-RueA-J-d-2020-12.xlsx,7-55-Bew-RueA-J,7-55,flow,yearly
296,Ecuador,3.0,3.0,0.0,3.0,2.0,1.0,0.0,0.0,0.0,0.0,0.0,0.0,2014-12-01,7-55-Bew-RueA-J-d-2020-12.xlsx,7-55-Bew-RueA-J,7-55,flow,yearly
297,Kolumbien,3.0,3.0,0.0,3.0,3.0,0.0,0.0,2.0,0.0,0.0,0.0,0.0,2014-12-01,7-55-Bew-RueA-J-d-2020-12.xlsx,7-55-Bew-RueA-J,7-55,flow,yearly
298,Kuba,1.0,1.0,0.0,1.0,1.0,0.0,0.0,1.0,0.0,0.0,0.0,0.0,2014-12-01,7-55-Bew-RueA-J-d-2020-12.xlsx,7-55-Bew-RueA-J,7-55,flow,yearly
299,Suriname,1.0,1.0,0.0,1.0,1.0,0.0,0.0,1.0,0.0,0.0,0.0,0.0,2014-12-01,7-55-Bew-RueA-J-d-2020-12.xlsx,7-55-Bew-RueA-J,7-55,flow,yearly
300,USA,2.0,2.0,0.0,2.0,2.0,0.0,1.0,2.0,0.0,0.0,0.0,0.0,2014-12-01,7-55-Bew-RueA-J-d-2020-12.xlsx,7-55-Bew-RueA-J,7-55,flow,yearly
301,Total Amerika,36.0,36.0,0.0,36.0,29.0,7.0,1.0,22.0,0.0,0.0,0.0,0.0,2014-12-01,7-55-Bew-RueA-J-d-2020-12.xlsx,7-55-Bew-RueA-J,7-55,flow,yearly
302,Afghanistan,28.0,23.0,5.0,22.0,22.0,0.0,27.0,5.0,5.0,5.0,0.0,1.0,2014-12-01,7-55-Bew-RueA-J-d-2020-12.xlsx,7-55-Bew-RueA-J,7-55,flow,yearly
303,Bangladesh,1.0,1.0,0.0,1.0,1.0,0.0,0.0,0.0,0.0,0.0,0.0,0.0,2014-12-01,7-55-Bew-RueA-J-d-2020-12.xlsx,7-55-Bew-RueA-J,7-55,flow,yearly
304,China (Volksrepublik),1.0,1.0,0.0,1.0,1.0,0.0,4.0,1.0,0.0,0.0,0.0,0.0,2014-12-01,7-55-Bew-RueA-J-d-2020-12.xlsx,7-55-Bew-RueA-J,7-55,flow,yearly
305,Georgien,1.0,1.0,0.0,1.0,1.0,0.0,0.0,2.0,0.0,0.0,0.0,0.0,2014-12-01,7-55-Bew-RueA-J-d-2020-12.xlsx,7-55-Bew-RueA-J,7-55,flow,yearly
306,Irak,17.0,16.0,1.0,12.0,12.0,0.0,4.0,8.0,1.0,1.0,0.0,1.0,2014-12-01,7-55-Bew-RueA-J-d-2020-12.xlsx,7-55-Bew-RueA-J,7-55,flow,yearly
307,Iran,16.0,16.0,0.0,16.0,16.0,0.0,18.0,0.0,0.0,0.0,0.0,0.0,2014-12-01,7-55-Bew-RueA-J-d-2020-12.xlsx,7-55-Bew-RueA-J,7-55,flow,yearly
308,Libanon,1.0,1.0,0.0,1.0,1.0,0.0,0.0,1.0,0.0,0.0,0.0,0.0,2014-12-01,7-55-Bew-RueA-J-d-2020-12.xlsx,7-55-Bew-RueA-J,7-55,flow,yearly
309,Mongolei,2.0,2.0,0.0,2.0,2.0,0.0,0.0,0.0,0.0,0.0,0.0,0.0,2014-12-01,7-55-Bew-RueA-J-d-2020-12.xlsx,7-55-Bew-RueA-J,7-55,flow,yearly
310,Pakistan,4.0,4.0,0.0,4.0,4.0,0.0,0.0,1.0,0.0,0.0,0.0,0.0,2014-12-01,7-55-Bew-RueA-J-d-2020-12.xlsx,7-55-Bew-RueA-J,7-55,flow,yearly
311,Sri Lanka,8.0,8.0,0.0,8.0,7.0,1.0,6.0,4.0,0.0,0.0,0.0,0.0,2014-12-01,7-55-Bew-RueA-J-d-2020-12.xlsx,7-55-Bew-RueA-J,7-55,flow,yearly
312,Syrien,41.0,40.0,1.0,36.0,35.0,1.0,32.0,5.0,1.0,1.0,0.0,0.0,2014-12-01,7-55-Bew-RueA-J-d-2020-12.xlsx,7-55-Bew-RueA-J,7-55,flow,yearly
313,Total Asien,120.0,113.0,7.0,104.0,102.0,2.0,91.0,27.0,7.0,7.0,0.0,2.0,2014-12-01,7-55-Bew-RueA-J-d-2020-12.xlsx,7-55-Bew-RueA-J,7-55,flow,yearly
314,Belarus,1.0,1.0,0.0,1.0,1.0,0.0,0.0,1.0,0.0,0.0,0.0,0.0,2014-12-01,7-55-Bew-RueA-J-d-2020-12.xlsx,7-55-Bew-RueA-J,7-55,flow,yearly
315,Belgien,2.0,2.0,0.0,2.0,1.0,1.0,0.0,0.0,0.0,0.0,0.0,0.0,2014-12-01,7-55-Bew-RueA-J-d-2020-12.xlsx,7-55-Bew-RueA-J,7-55,flow,yearly
316,Bosnien u. Herzegowina,1.0,1.0,0.0,1.0,0.0,1.0,0.0,0.0,0.0,0.0,0.0,0.0,2014-12-01,7-55-Bew-RueA-J-d-2020-12.xlsx,7-55-Bew-RueA-J,7-55,flow,yearly
317,Bulgarien,3.0,3.0,0.0,3.0,3.0,0.0,0.0,0.0,0.0,0.0,0.0,0.0,2014-12-01,7-55-Bew-RueA-J-d-2020-12.xlsx,7-55-Bew-RueA-J,7-55,flow,yearly
318,Griechenland,1.0,1.0,0.0,1.0,0.0,1.0,0.0,0.0,0.0,0.0,0.0,0.0,2014-12-01,7-55-Bew-RueA-J-d-2020-12.xlsx,7-55-Bew-RueA-J,7-55,flow,yearly
319,Grossbritannien,1.0,1.0,0.0,1.0,1.0,0.0,0.0,1.0,0.0,0.0,0.0,0.0,2014-12-01,7-55-Bew-RueA-J-d-2020-12.xlsx,7-55-Bew-RueA-J,7-55,flow,yearly
320,Italien,0.0,0.0,0.0,0.0,0.0,0.0,2.0,0.0,0.0,0.0,0.0,0.0,2014-12-01,7-55-Bew-RueA-J-d-2020-12.xlsx,7-55-Bew-RueA-J,7-55,flow,yearly
321,Kosovo,2.0,2.0,0.0,2.0,0.0,0.0,0.0,0.0,0.0,0.0,0.0,0.0,2014-12-01,7-55-Bew-RueA-J-d-2020-12.xlsx,7-55-Bew-RueA-J,7-55,flow,yearly
322,Kroatien,5.0,5.0,0.0,2.0,1.0,0.0,0.0,2.0,0.0,0.0,0.0,0.0,2014-12-01,7-55-Bew-RueA-J-d-2020-12.xlsx,7-55-Bew-RueA-J,7-55,flow,yearly
323,Lettland,2.0,2.0,0.0,2.0,2.0,0.0,0.0,2.0,0.0,0.0,0.0,0.0,2014-12-01,7-55-Bew-RueA-J-d-2020-12.xlsx,7-55-Bew-RueA-J,7-55,flow,yearly
324,Litauen,6.0,6.0,0.0,5.0,4.0,1.0,0.0,3.0,0.0,0.0,0.0,0.0,2014-12-01,7-55-Bew-RueA-J-d-2020-12.xlsx,7-55-Bew-RueA-J,7-55,flow,yearly
325,Mazedonien eh.Jug.Rep.,2.0,2.0,0.0,2.0,2.0,0.0,0.0,1.0,0.0,0.0,0.0,0.0,2014-12-01,7-55-Bew-RueA-J-d-2020-12.xlsx,7-55-Bew-RueA-J,7-55,flow,yearly
326,Moldova,2.0,2.0,0.0,2.0,2.0,0.0,0.0,0.0,0.0,0.0,0.0,0.0,2014-12-01,7-55-Bew-RueA-J-d-2020-12.xlsx,7-55-Bew-RueA-J,7-55,flow,yearly
327,Montenegro,1.0,1.0,0.0,1.0,1.0,0.0,0.0,0.0,0.0,0.0,0.0,0.0,2014-12-01,7-55-Bew-RueA-J-d-2020-12.xlsx,7-55-Bew-RueA-J,7-55,flow,yearly
328,Niederlande,1.0,1.0,0.0,1.0,1.0,0.0,0.0,1.0,0.0,0.0,0.0,0.0,2014-12-01,7-55-Bew-RueA-J-d-2020-12.xlsx,7-55-Bew-RueA-J,7-55,flow,yearly
329,Polen,4.0,4.0,0.0,4.0,4.0,0.0,0.0,4.0,0.0,0.0,0.0,0.0,2014-12-01,7-55-Bew-RueA-J-d-2020-12.xlsx,7-55-Bew-RueA-J,7-55,flow,yearly
330,Portugal,1.0,1.0,0.0,1.0,1.0,0.0,0.0,0.0,0.0,0.0,0.0,0.0,2014-12-01,7-55-Bew-RueA-J-d-2020-12.xlsx,7-55-Bew-RueA-J,7-55,flow,yearly
331,Rumänien,38.0,38.0,0.0,31.0,31.0,0.0,1.0,31.0,0.0,0.0,0.0,0.0,2014-12-01,7-55-Bew-RueA-J-d-2020-12.xlsx,7-55-Bew-RueA-J,7-55,flow,yearly
332,Russland,5.0,5.0,0.0,5.0,5.0,0.0,4.0,1.0,0.0,0.0,0.0,0.0,2014-12-01,7-55-Bew-RueA-J-d-2020-12.xlsx,7-55-Bew-RueA-J,7-55,flow,yearly
333,Serbien,2.0,2.0,0.0,2.0,2.0,0.0,0.0,1.0,0.0,0.0,0.0,0.0,2014-12-01,7-55-Bew-RueA-J-d-2020-12.xlsx,7-55-Bew-RueA-J,7-55,flow,yearly
334,Slowakische Republik,9.0,9.0,0.0,9.0,9.0,0.0,0.0,1.0,0.0,0.0,0.0,0.0,2014-12-01,7-55-Bew-RueA-J-d-2020-12.xlsx,7-55-Bew-RueA-J,7-55,flow,yearly
335,Spanien,4.0,4.0,0.0,3.0,3.0,0.0,1.0,3.0,0.0,0.0,0.0,0.0,2014-12-01,7-55-Bew-RueA-J-d-2020-12.xlsx,7-55-Bew-RueA-J,7-55,flow,yearly
336,Tschechische Republik,1.0,1.0,0.0,1.0,1.0,0.0,0.0,1.0,0.0,0.0,0.0,0.0,2014-12-01,7-55-Bew-RueA-J-d-2020-12.xlsx,7-55-Bew-RueA-J,7-55,flow,yearly
337,Türkei,3.0,3.0,0.0,3.0,2.0,1.0,1.0,1.0,0.0,0.0,0.0,0.0,2014-12-01,7-55-Bew-RueA-J-d-2020-12.xlsx,7-55-Bew-RueA-J,7-55,flow,yearly
338,Ukraine,5.0,5.0,0.0,5.0,5.0,0.0,1.0,3.0,0.0,0.0,0.0,0.0,2014-12-01,7-55-Bew-RueA-J-d-2020-12.xlsx,7-55-Bew-RueA-J,7-55,flow,yearly
339,Ungarn,7.0,7.0,0.0,7.0,7.0,0.0,0.0,7.0,0.0,0.0,0.0,0.0,2014-12-01,7-55-Bew-RueA-J-d-2020-12.xlsx,7-55-Bew-RueA-J,7-55,flow,yearly
340,Total Europa,109.0,109.0,0.0,97.0,89.0,5.0,10.0,64.0,0.0,0.0,0.0,0.0,2014-12-01,7-55-Bew-RueA-J-d-2020-12.xlsx,7-55-Bew-RueA-J,7-55,flow,yearly
341,Staatenlos,1.0,1.0,0.0,1.0,1.0,0.0,0.0,1.0,0.0,0.0,0.0,0.0,2014-12-01,7-55-Bew-RueA-J-d-2020-12.xlsx,7-55-Bew-RueA-J,7-55,flow,yearly
342,Ohne Nationalität,3.0,2.0,1.0,2.0,2.0,0.0,7.0,2.0,1.0,1.0,0.0,0.0,2014-12-01,7-55-Bew-RueA-J-d-2020-12.xlsx,7-55-Bew-RueA-J,7-55,flow,yearly
343,Staat unbekannt,23.0,22.0,1.0,21.0,18.0,3.0,7.0,7.0,1.0,1.0,0.0,1.0,2014-12-01,7-55-Bew-RueA-J-d-2020-12.xlsx,7-55-Bew-RueA-J,7-55,flow,yearly
344,Total Herkunft unbek.,27.0,25.0,2.0,24.0,21.0,3.0,14.0,10.0,2.0,2.0,0.0,1.0,2014-12-01,7-55-Bew-RueA-J-d-2020-12.xlsx,7-55-Bew-RueA-J,7-55,flow,yearly
345,Herkunft unbekannt,18.0,18.0,0.0,16.0,14.0,2.0,5.0,8.0,0.0,0.0,0.0,0.0,2015-12-01,7-55-Bew-RueA-J-d-2020-12.xlsx,7-55-Bew-RueA-J,7-55,flow,yearly
346,Ägypten,8.0,8.0,0.0,10.0,6.0,0.0,1.0,0.0,0.0,0.0,0.0,0.0,2015-12-01,7-55-Bew-RueA-J-d-2020-12.xlsx,7-55-Bew-RueA-J,7-55,flow,yearly
347,Algerien,7.0,7.0,0.0,8.0,7.0,1.0,0.0,6.0,0.0,0.0,0.0,0.0,2015-12-01,7-55-Bew-RueA-J-d-2020-12.xlsx,7-55-Bew-RueA-J,7-55,flow,yearly
348,Angola,1.0,0.0,1.0,0.0,0.0,0.0,0.0,0.0,1.0,0.0,1.0,0.0,2015-12-01,7-55-Bew-RueA-J-d-2020-12.xlsx,7-55-Bew-RueA-J,7-55,flow,yearly
349,Äthiopien,20.0,15.0,5.0,15.0,15.0,0.0,9.0,1.0,5.0,5.0,0.0,4.0,2015-12-01,7-55-Bew-RueA-J-d-2020-12.xlsx,7-55-Bew-RueA-J,7-55,flow,yearly
350,Burkina Faso,0.0,0.0,0.0,1.0,1.0,0.0,1.0,1.0,0.0,0.0,0.0,0.0,2015-12-01,7-55-Bew-RueA-J-d-2020-12.xlsx,7-55-Bew-RueA-J,7-55,flow,yearly
351,Côte d'Ivoire,3.0,3.0,0.0,3.0,3.0,0.0,1.0,2.0,0.0,0.0,0.0,0.0,2015-12-01,7-55-Bew-RueA-J-d-2020-12.xlsx,7-55-Bew-RueA-J,7-55,flow,yearly
352,Eritrea,88.0,87.0,1.0,84.0,80.0,4.0,69.0,15.0,1.0,1.0,0.0,1.0,2015-12-01,7-55-Bew-RueA-J-d-2020-12.xlsx,7-55-Bew-RueA-J,7-55,flow,yearly
353,Gambia,20.0,20.0,0.0,16.0,13.0,3.0,5.0,12.0,0.0,0.0,0.0,0.0,2015-12-01,7-55-Bew-RueA-J-d-2020-12.xlsx,7-55-Bew-RueA-J,7-55,flow,yearly
354,Ghana,4.0,4.0,0.0,4.0,2.0,2.0,0.0,1.0,0.0,0.0,0.0,0.0,2015-12-01,7-55-Bew-RueA-J-d-2020-12.xlsx,7-55-Bew-RueA-J,7-55,flow,yearly
355,Guinea,11.0,11.0,0.0,13.0,8.0,5.0,2.0,7.0,0.0,0.0,0.0,0.0,2015-12-01,7-55-Bew-RueA-J-d-2020-12.xlsx,7-55-Bew-RueA-J,7-55,flow,yearly
356,Guinea-Bissau,6.0,6.0,0.0,5.0,4.0,1.0,1.0,1.0,0.0,0.0,0.0,0.0,2015-12-01,7-55-Bew-RueA-J-d-2020-12.xlsx,7-55-Bew-RueA-J,7-55,flow,yearly
357,Kamerun,1.0,1.0,0.0,1.0,1.0,0.0,0.0,2.0,0.0,0.0,0.0,0.0,2015-12-01,7-55-Bew-RueA-J-d-2020-12.xlsx,7-55-Bew-RueA-J,7-55,flow,yearly
358,Kongo DR,1.0,1.0,0.0,1.0,1.0,0.0,1.0,0.0,0.0,0.0,0.0,0.0,2015-12-01,7-55-Bew-RueA-J-d-2020-12.xlsx,7-55-Bew-RueA-J,7-55,flow,yearly
359,Liberia,2.0,2.0,0.0,3.0,3.0,0.0,1.0,2.0,0.0,0.0,0.0,0.0,2015-12-01,7-55-Bew-RueA-J-d-2020-12.xlsx,7-55-Bew-RueA-J,7-55,flow,yearly
360,Libyen,2.0,1.0,1.0,1.0,1.0,0.0,0.0,0.0,1.0,1.0,0.0,0.0,2015-12-01,7-55-Bew-RueA-J-d-2020-12.xlsx,7-55-Bew-RueA-J,7-55,flow,yearly
361,Mali,12.0,12.0,0.0,14.0,12.0,1.0,6.0,7.0,0.0,0.0,0.0,0.0,2015-12-01,7-55-Bew-RueA-J-d-2020-12.xlsx,7-55-Bew-RueA-J,7-55,flow,yearly
362,Marokko,6.0,6.0,0.0,6.0,4.0,2.0,1.0,0.0,0.0,0.0,0.0,0.0,2015-12-01,7-55-Bew-RueA-J-d-2020-12.xlsx,7-55-Bew-RueA-J,7-55,flow,yearly
363,Niger,1.0,1.0,0.0,1.0,1.0,0.0,0.0,0.0,0.0,0.0,0.0,0.0,2015-12-01,7-55-Bew-RueA-J-d-2020-12.xlsx,7-55-Bew-RueA-J,7-55,flow,yearly
364,Nigeria,102.0,102.0,0.0,104.0,96.0,5.0,18.0,64.0,0.0,0.0,0.0,0.0,2015-12-01,7-55-Bew-RueA-J-d-2020-12.xlsx,7-55-Bew-RueA-J,7-55,flow,yearly
365,Senegal,11.0,11.0,0.0,11.0,9.0,2.0,3.0,7.0,0.0,0.0,0.0,0.0,2015-12-01,7-55-Bew-RueA-J-d-2020-12.xlsx,7-55-Bew-RueA-J,7-55,flow,yearly
366,Sierra Leone,2.0,2.0,0.0,2.0,2.0,0.0,0.0,1.0,0.0,0.0,0.0,0.0,2015-12-01,7-55-Bew-RueA-J-d-2020-12.xlsx,7-55-Bew-RueA-J,7-55,flow,yearly
367,Somalia,48.0,44.0,4.0,35.0,31.0,4.0,18.0,6.0,4.0,4.0,0.0,0.0,2015-12-01,7-55-Bew-RueA-J-d-2020-12.xlsx,7-55-Bew-RueA-J,7-55,flow,yearly
368,Sudan,5.0,5.0,0.0,4.0,4.0,0.0,5.0,3.0,0.0,0.0,0.0,0.0,2015-12-01,7-55-Bew-RueA-J-d-2020-12.xlsx,7-55-Bew-RueA-J,7-55,flow,yearly
369,Südsudan,0.0,0.0,0.0,1.0,1.0,0.0,1.0,0.0,0.0,0.0,0.0,0.0,2015-12-01,7-55-Bew-RueA-J-d-2020-12.xlsx,7-55-Bew-RueA-J,7-55,flow,yearly
370,Togo,3.0,3.0,0.0,2.0,2.0,0.0,1.0,1.0,0.0,0.0,0.0,0.0,2015-12-01,7-55-Bew-RueA-J-d-2020-12.xlsx,7-55-Bew-RueA-J,7-55,flow,yearly
371,Tschad,2.0,2.0,0.0,2.0,1.0,1.0,0.0,0.0,0.0,0.0,0.0,0.0,2015-12-01,7-55-Bew-RueA-J-d-2020-12.xlsx,7-55-Bew-RueA-J,7-55,flow,yearly
372,Tunesien,2.0,2.0,0.0,2.0,2.0,0.0,0.0,1.0,0.0,0.0,0.0,0.0,2015-12-01,7-55-Bew-RueA-J-d-2020-12.xlsx,7-55-Bew-RueA-J,7-55,flow,yearly
373,Total Afrika,368.0,356.0,12.0,349.0,310.0,31.0,144.0,140.0,12.0,11.0,1.0,5.0,2015-12-01,7-55-Bew-RueA-J-d-2020-12.xlsx,7-55-Bew-RueA-J,7-55,flow,yearly
374,Bolivien,2.0,2.0,0.0,2.0,2.0,0.0,0.0,2.0,0.0,0.0,0.0,0.0,2015-12-01,7-55-Bew-RueA-J-d-2020-12.xlsx,7-55-Bew-RueA-J,7-55,flow,yearly
375,Dominikanische Republik,15.0,15.0,0.0,15.0,14.0,1.0,0.0,13.0,0.0,0.0,0.0,0.0,2015-12-01,7-55-Bew-RueA-J-d-2020-12.xlsx,7-55-Bew-RueA-J,7-55,flow,yearly
376,Ecuador,2.0,2.0,0.0,2.0,2.0,0.0,0.0,1.0,0.0,0.0,0.0,0.0,2015-12-01,7-55-Bew-RueA-J-d-2020-12.xlsx,7-55-Bew-RueA-J,7-55,flow,yearly
377,Haiti,4.0,4.0,0.0,0.0,0.0,0.0,0.0,0.0,0.0,0.0,0.0,0.0,2015-12-01,7-55-Bew-RueA-J-d-2020-12.xlsx,7-55-Bew-RueA-J,7-55,flow,yearly
378,Kanada,1.0,1.0,0.0,1.0,1.0,0.0,0.0,1.0,0.0,0.0,0.0,0.0,2015-12-01,7-55-Bew-RueA-J-d-2020-12.xlsx,7-55-Bew-RueA-J,7-55,flow,yearly
379,Kolumbien,4.0,4.0,0.0,3.0,2.0,0.0,0.0,3.0,0.0,0.0,0.0,0.0,2015-12-01,7-55-Bew-RueA-J-d-2020-12.xlsx,7-55-Bew-RueA-J,7-55,flow,yearly
380,Kuba,1.0,1.0,0.0,1.0,1.0,0.0,0.0,0.0,0.0,0.0,0.0,0.0,2015-12-01,7-55-Bew-RueA-J-d-2020-12.xlsx,7-55-Bew-RueA-J,7-55,flow,yearly
381,Trinidad u. Tobago,1.0,1.0,0.0,1.0,1.0,0.0,0.0,0.0,0.0,0.0,0.0,0.0,2015-12-01,7-55-Bew-RueA-J-d-2020-12.xlsx,7-55-Bew-RueA-J,7-55,flow,yearly
382,Total Amerika,30.0,30.0,0.0,25.0,23.0,1.0,0.0,20.0,0.0,0.0,0.0,0.0,2015-12-01,7-55-Bew-RueA-J-d-2020-12.xlsx,7-55-Bew-RueA-J,7-55,flow,yearly
383,Afghanistan,24.0,24.0,0.0,25.0,25.0,0.0,13.0,3.0,0.0,0.0,0.0,0.0,2015-12-01,7-55-Bew-RueA-J-d-2020-12.xlsx,7-55-Bew-RueA-J,7-55,flow,yearly
384,Bangladesh,1.0,1.0,0.0,1.0,1.0,0.0,2.0,0.0,0.0,0.0,0.0,0.0,2015-12-01,7-55-Bew-RueA-J-d-2020-12.xlsx,7-55-Bew-RueA-J,7-55,flow,yearly
385,China (Volksrepublik),10.0,10.0,0.0,10.0,10.0,0.0,4.0,6.0,0.0,0.0,0.0,0.0,2015-12-01,7-55-Bew-RueA-J-d-2020-12.xlsx,7-55-Bew-RueA-J,7-55,flow,yearly
386,Georgien,3.0,3.0,0.0,3.0,2.0,1.0,0.0,2.0,0.0,0.0,0.0,0.0,2015-12-01,7-55-Bew-RueA-J-d-2020-12.xlsx,7-55-Bew-RueA-J,7-55,flow,yearly
387,Irak,7.0,6.0,1.0,7.0,6.0,1.0,1.0,1.0,1.0,1.0,0.0,1.0,2015-12-01,7-55-Bew-RueA-J-d-2020-12.xlsx,7-55-Bew-RueA-J,7-55,flow,yearly
388,Iran,3.0,3.0,0.0,2.0,2.0,0.0,4.0,1.0,0.0,0.0,0.0,0.0,2015-12-01,7-55-Bew-RueA-J-d-2020-12.xlsx,7-55-Bew-RueA-J,7-55,flow,yearly
389,Sri Lanka,4.0,4.0,0.0,4.0,3.0,1.0,2.0,1.0,0.0,0.0,0.0,0.0,2015-12-01,7-55-Bew-RueA-J-d-2020-12.xlsx,7-55-Bew-RueA-J,7-55,flow,yearly
390,Syrien,58.0,58.0,0.0,54.0,52.0,2.0,24.0,15.0,0.0,0.0,0.0,0.0,2015-12-01,7-55-Bew-RueA-J-d-2020-12.xlsx,7-55-Bew-RueA-J,7-55,flow,yearly
391,Total Asien,110.0,109.0,1.0,106.0,101.0,5.0,50.0,29.0,1.0,1.0,0.0,1.0,2015-12-01,7-55-Bew-RueA-J-d-2020-12.xlsx,7-55-Bew-RueA-J,7-55,flow,yearly
392,Belarus,1.0,1.0,0.0,1.0,1.0,0.0,0.0,1.0,0.0,0.0,0.0,0.0,2015-12-01,7-55-Bew-RueA-J-d-2020-12.xlsx,7-55-Bew-RueA-J,7-55,flow,yearly
393,Belgien,2.0,2.0,0.0,1.0,1.0,0.0,0.0,0.0,0.0,0.0,0.0,0.0,2015-12-01,7-55-Bew-RueA-J-d-2020-12.xlsx,7-55-Bew-RueA-J,7-55,flow,yearly
394,Bosnien u. Herzegowina,6.0,6.0,0.0,6.0,0.0,6.0,0.0,0.0,0.0,0.0,0.0,0.0,2015-12-01,7-55-Bew-RueA-J-d-2020-12.xlsx,7-55-Bew-RueA-J,7-55,flow,yearly
395,Grossbritannien,1.0,1.0,0.0,1.0,1.0,0.0,0.0,1.0,0.0,0.0,0.0,0.0,2015-12-01,7-55-Bew-RueA-J-d-2020-12.xlsx,7-55-Bew-RueA-J,7-55,flow,yearly
396,Kosovo,3.0,3.0,0.0,3.0,3.0,0.0,1.0,0.0,0.0,0.0,0.0,0.0,2015-12-01,7-55-Bew-RueA-J-d-2020-12.xlsx,7-55-Bew-RueA-J,7-55,flow,yearly
397,Kroatien,2.0,2.0,0.0,1.0,1.0,0.0,0.0,4.0,0.0,0.0,0.0,0.0,2015-12-01,7-55-Bew-RueA-J-d-2020-12.xlsx,7-55-Bew-RueA-J,7-55,flow,yearly
398,Litauen,1.0,1.0,0.0,1.0,1.0,0.0,0.0,0.0,0.0,0.0,0.0,0.0,2015-12-01,7-55-Bew-RueA-J-d-2020-12.xlsx,7-55-Bew-RueA-J,7-55,flow,yearly
399,Mazedonien eh.Jug.Rep.,1.0,1.0,0.0,1.0,1.0,0.0,0.0,1.0,0.0,0.0,0.0,0.0,2015-12-01,7-55-Bew-RueA-J-d-2020-12.xlsx,7-55-Bew-RueA-J,7-55,flow,yearly
400,Moldova,1.0,1.0,0.0,1.0,1.0,0.0,0.0,0.0,0.0,0.0,0.0,0.0,2015-12-01,7-55-Bew-RueA-J-d-2020-12.xlsx,7-55-Bew-RueA-J,7-55,flow,yearly
401,Montenegro,3.0,3.0,0.0,3.0,0.0,3.0,0.0,0.0,0.0,0.0,0.0,0.0,2015-12-01,7-55-Bew-RueA-J-d-2020-12.xlsx,7-55-Bew-RueA-J,7-55,flow,yearly
402,Niederlande,2.0,2.0,0.0,1.0,1.0,0.0,0.0,1.0,0.0,0.0,0.0,0.0,2015-12-01,7-55-Bew-RueA-J-d-2020-12.xlsx,7-55-Bew-RueA-J,7-55,flow,yearly
403,Polen,9.0,9.0,0.0,9.0,9.0,0.0,0.0,3.0,0.0,0.0,0.0,0.0,2015-12-01,7-55-Bew-RueA-J-d-2020-12.xlsx,7-55-Bew-RueA-J,7-55,flow,yearly
404,Rumänien,41.0,41.0,0.0,42.0,38.0,4.0,0.0,37.0,0.0,0.0,0.0,0.0,2015-12-01,7-55-Bew-RueA-J-d-2020-12.xlsx,7-55-Bew-RueA-J,7-55,flow,yearly
405,Russland,12.0,12.0,0.0,7.0,7.0,0.0,7.0,0.0,0.0,0.0,0.0,0.0,2015-12-01,7-55-Bew-RueA-J-d-2020-12.xlsx,7-55-Bew-RueA-J,7-55,flow,yearly
406,Serbien,3.0,3.0,0.0,3.0,2.0,1.0,0.0,1.0,0.0,0.0,0.0,0.0,2015-12-01,7-55-Bew-RueA-J-d-2020-12.xlsx,7-55-Bew-RueA-J,7-55,flow,yearly
407,Slowakische Republik,4.0,4.0,0.0,4.0,4.0,0.0,0.0,2.0,0.0,0.0,0.0,0.0,2015-12-01,7-55-Bew-RueA-J-d-2020-12.xlsx,7-55-Bew-RueA-J,7-55,flow,yearly
408,Slowenien,1.0,1.0,0.0,1.0,1.0,0.0,0.0,1.0,0.0,0.0,0.0,0.0,2015-12-01,7-55-Bew-RueA-J-d-2020-12.xlsx,7-55-Bew-RueA-J,7-55,flow,yearly
409,Spanien,4.0,4.0,0.0,4.0,4.0,0.0,0.0,3.0,0.0,0.0,0.0,0.0,2015-12-01,7-55-Bew-RueA-J-d-2020-12.xlsx,7-55-Bew-RueA-J,7-55,flow,yearly
410,Tschechische Republik,1.0,1.0,0.0,1.0,1.0,0.0,0.0,1.0,0.0,0.0,0.0,0.0,2015-12-01,7-55-Bew-RueA-J-d-2020-12.xlsx,7-55-Bew-RueA-J,7-55,flow,yearly
411,Türkei,3.0,3.0,0.0,3.0,3.0,0.0,1.0,1.0,0.0,0.0,0.0,0.0,2015-12-01,7-55-Bew-RueA-J-d-2020-12.xlsx,7-55-Bew-RueA-J,7-55,flow,yearly
412,Ungarn,1.0,1.0,0.0,1.0,1.0,0.0,0.0,1.0,0.0,0.0,0.0,0.0,2015-12-01,7-55-Bew-RueA-J-d-2020-12.xlsx,7-55-Bew-RueA-J,7-55,flow,yearly
413,Total Europa,102.0,102.0,0.0,95.0,81.0,14.0,9.0,58.0,0.0,0.0,0.0,0.0,2015-12-01,7-55-Bew-RueA-J-d-2020-12.xlsx,7-55-Bew-RueA-J,7-55,flow,yearly
414,Ohne Nationalität,5.0,5.0,0.0,5.0,5.0,0.0,4.0,2.0,0.0,0.0,0.0,0.0,2015-12-01,7-55-Bew-RueA-J-d-2020-12.xlsx,7-55-Bew-RueA-J,7-55,flow,yearly
415,Staat unbekannt,13.0,13.0,0.0,11.0,9.0,2.0,1.0,6.0,0.0,0.0,0.0,0.0,2015-12-01,7-55-Bew-RueA-J-d-2020-12.xlsx,7-55-Bew-RueA-J,7-55,flow,yearly
416,Total Herkunft unbek.,18.0,18.0,0.0,16.0,14.0,2.0,5.0,8.0,0.0,0.0,0.0,0.0,2015-12-01,7-55-Bew-RueA-J-d-2020-12.xlsx,7-55-Bew-RueA-J,7-55,flow,yearly
417,Herkunft unbekannt,27.0,27.0,0.0,27.0,25.0,2.0,7.0,20.0,0.0,0.0,0.0,0.0,2019-12-01,7-55-Bew-RueA-J-d-2020-12.xlsx,7-55-Bew-RueA-J,7-55,flow,yearly
418,Ägypten,1.0,1.0,0.0,1.0,1.0,0.0,1.0,0.0,0.0,0.0,0.0,0.0,2019-12-01,7-55-Bew-RueA-J-d-2020-12.xlsx,7-55-Bew-RueA-J,7-55,flow,yearly
419,Algerien,8.0,8.0,0.0,9.0,5.0,4.0,0.0,7.0,0.0,0.0,0.0,0.0,2019-12-01,7-55-Bew-RueA-J-d-2020-12.xlsx,7-55-Bew-RueA-J,7-55,flow,yearly
420,Angola,1.0,1.0,0.0,1.0,1.0,0.0,1.0,1.0,0.0,0.0,0.0,0.0,2019-12-01,7-55-Bew-RueA-J-d-2020-12.xlsx,7-55-Bew-RueA-J,7-55,flow,yearly
421,Äquatorialguinea,1.0,1.0,0.0,0.0,0.0,0.0,0.0,0.0,0.0,0.0,0.0,0.0,2019-12-01,7-55-Bew-RueA-J-d-2020-12.xlsx,7-55-Bew-RueA-J,7-55,flow,yearly
422,Äthiopien,2.0,2.0,0.0,2.0,2.0,0.0,5.0,0.0,0.0,0.0,0.0,0.0,2019-12-01,7-55-Bew-RueA-J-d-2020-12.xlsx,7-55-Bew-RueA-J,7-55,flow,yearly
423,Benin,1.0,1.0,0.0,1.0,0.0,1.0,0.0,0.0,0.0,0.0,0.0,0.0,2019-12-01,7-55-Bew-RueA-J-d-2020-12.xlsx,7-55-Bew-RueA-J,7-55,flow,yearly
424,Burundi,1.0,1.0,0.0,1.0,1.0,0.0,1.0,0.0,0.0,0.0,0.0,0.0,2019-12-01,7-55-Bew-RueA-J-d-2020-12.xlsx,7-55-Bew-RueA-J,7-55,flow,yearly
425,Côte d'Ivoire,4.0,4.0,0.0,3.0,3.0,0.0,0.0,3.0,0.0,0.0,0.0,0.0,2019-12-01,7-55-Bew-RueA-J-d-2020-12.xlsx,7-55-Bew-RueA-J,7-55,flow,yearly
426,Eritrea,58.0,33.0,25.0,29.0,28.0,0.0,21.0,11.0,25.0,25.0,0.0,11.0,2019-12-01,7-55-Bew-RueA-J-d-2020-12.xlsx,7-55-Bew-RueA-J,7-55,flow,yearly
427,Gabun,1.0,1.0,0.0,1.0,1.0,0.0,0.0,0.0,0.0,0.0,0.0,0.0,2019-12-01,7-55-Bew-RueA-J-d-2020-12.xlsx,7-55-Bew-RueA-J,7-55,flow,yearly
428,Gambia,20.0,20.0,0.0,15.0,14.0,0.0,2.0,12.0,0.0,0.0,0.0,0.0,2019-12-01,7-55-Bew-RueA-J-d-2020-12.xlsx,7-55-Bew-RueA-J,7-55,flow,yearly
429,Ghana,1.0,1.0,0.0,1.0,1.0,0.0,2.0,2.0,0.0,0.0,0.0,0.0,2019-12-01,7-55-Bew-RueA-J-d-2020-12.xlsx,7-55-Bew-RueA-J,7-55,flow,yearly
430,Guinea,14.0,14.0,0.0,12.0,9.0,2.0,1.0,10.0,0.0,0.0,0.0,0.0,2019-12-01,7-55-Bew-RueA-J-d-2020-12.xlsx,7-55-Bew-RueA-J,7-55,flow,yearly
431,Guinea-Bissau,3.0,3.0,0.0,3.0,2.0,1.0,0.0,2.0,0.0,0.0,0.0,0.0,2019-12-01,7-55-Bew-RueA-J-d-2020-12.xlsx,7-55-Bew-RueA-J,7-55,flow,yearly
432,Kamerun,5.0,4.0,1.0,2.0,2.0,0.0,2.0,0.0,1.0,1.0,0.0,0.0,2019-12-01,7-55-Bew-RueA-J-d-2020-12.xlsx,7-55-Bew-RueA-J,7-55,flow,yearly
433,Kenia,1.0,1.0,0.0,2.0,1.0,0.0,1.0,1.0,0.0,0.0,0.0,0.0,2019-12-01,7-55-Bew-RueA-J-d-2020-12.xlsx,7-55-Bew-RueA-J,7-55,flow,yearly
434,Kongo DR,2.0,2.0,0.0,3.0,2.0,0.0,0.0,0.0,0.0,0.0,0.0,0.0,2019-12-01,7-55-Bew-RueA-J-d-2020-12.xlsx,7-55-Bew-RueA-J,7-55,flow,yearly
435,Liberia,1.0,1.0,0.0,1.0,0.0,1.0,0.0,0.0,0.0,0.0,0.0,0.0,2019-12-01,7-55-Bew-RueA-J-d-2020-12.xlsx,7-55-Bew-RueA-J,7-55,flow,yearly
436,Mali,4.0,4.0,0.0,5.0,5.0,0.0,0.0,4.0,0.0,0.0,0.0,0.0,2019-12-01,7-55-Bew-RueA-J-d-2020-12.xlsx,7-55-Bew-RueA-J,7-55,flow,yearly
437,Marokko,10.0,8.0,2.0,8.0,7.0,1.0,6.0,3.0,2.0,1.0,1.0,1.0,2019-12-01,7-55-Bew-RueA-J-d-2020-12.xlsx,7-55-Bew-RueA-J,7-55,flow,yearly
438,Mauretanien,2.0,2.0,0.0,2.0,2.0,0.0,0.0,2.0,0.0,0.0,0.0,0.0,2019-12-01,7-55-Bew-RueA-J-d-2020-12.xlsx,7-55-Bew-RueA-J,7-55,flow,yearly
439,Nigeria,93.0,93.0,0.0,88.0,68.0,9.0,7.0,63.0,0.0,0.0,0.0,0.0,2019-12-01,7-55-Bew-RueA-J-d-2020-12.xlsx,7-55-Bew-RueA-J,7-55,flow,yearly
440,Senegal,6.0,6.0,0.0,6.0,5.0,1.0,0.0,3.0,0.0,0.0,0.0,0.0,2019-12-01,7-55-Bew-RueA-J-d-2020-12.xlsx,7-55-Bew-RueA-J,7-55,flow,yearly
441,Sierra Leone,1.0,1.0,0.0,0.0,0.0,0.0,0.0,0.0,0.0,0.0,0.0,0.0,2019-12-01,7-55-Bew-RueA-J-d-2020-12.xlsx,7-55-Bew-RueA-J,7-55,flow,yearly
442,Somalia,49.0,43.0,6.0,29.0,24.0,1.0,33.0,11.0,6.0,2.0,4.0,0.0,2019-12-01,7-55-Bew-RueA-J-d-2020-12.xlsx,7-55-Bew-RueA-J,7-55,flow,yearly
443,Sudan,5.0,5.0,0.0,5.0,4.0,1.0,3.0,2.0,0.0,0.0,0.0,0.0,2019-12-01,7-55-Bew-RueA-J-d-2020-12.xlsx,7-55-Bew-RueA-J,7-55,flow,yearly
444,Südsudan,1.0,1.0,0.0,1.0,1.0,0.0,1.0,0.0,0.0,0.0,0.0,0.0,2019-12-01,7-55-Bew-RueA-J-d-2020-12.xlsx,7-55-Bew-RueA-J,7-55,flow,yearly
445,Tansania,0.0,0.0,0.0,0.0,0.0,0.0,0.0,1.0,0.0,0.0,0.0,0.0,2019-12-01,7-55-Bew-RueA-J-d-2020-12.xlsx,7-55-Bew-RueA-J,7-55,flow,yearly
446,Togo,1.0,1.0,0.0,1.0,1.0,0.0,0.0,0.0,0.0,0.0,0.0,0.0,2019-12-01,7-55-Bew-RueA-J-d-2020-12.xlsx,7-55-Bew-RueA-J,7-55,flow,yearly
447,Tschad,5.0,5.0,0.0,0.0,0.0,0.0,0.0,0.0,0.0,0.0,0.0,0.0,2019-12-01,7-55-Bew-RueA-J-d-2020-12.xlsx,7-55-Bew-RueA-J,7-55,flow,yearly
448,Tunesien,2.0,2.0,0.0,2.0,2.0,0.0,0.0,1.0,0.0,0.0,0.0,0.0,2019-12-01,7-55-Bew-RueA-J-d-2020-12.xlsx,7-55-Bew-RueA-J,7-55,flow,yearly
449,Zentralafr. Republik,1.0,1.0,0.0,1.0,1.0,0.0,1.0,1.0,0.0,0.0,0.0,0.0,2019-12-01,7-55-Bew-RueA-J-d-2020-12.xlsx,7-55-Bew-RueA-J,7-55,flow,yearly
450,Zimbabwe,1.0,1.0,0.0,1.0,0.0,1.0,0.0,0.0,0.0,0.0,0.0,0.0,2019-12-01,7-55-Bew-RueA-J-d-2020-12.xlsx,7-55-Bew-RueA-J,7-55,flow,yearly
451,Total Afrika,306.0,272.0,34.0,236.0,193.0,23.0,88.0,140.0,34.0,29.0,5.0,12.0,2019-12-01,7-55-Bew-RueA-J-d-2020-12.xlsx,7-55-Bew-RueA-J,7-55,flow,yearly
452,Chile,1.0,1.0,0.0,1.0,1.0,0.0,0.0,1.0,0.0,0.0,0.0,0.0,2019-12-01,7-55-Bew-RueA-J-d-2020-12.xlsx,7-55-Bew-RueA-J,7-55,flow,yearly
453,Dominikanische Republik,24.0,24.0,0.0,22.0,16.0,5.0,0.0,14.0,0.0,0.0,0.0,0.0,2019-12-01,7-55-Bew-RueA-J-d-2020-12.xlsx,7-55-Bew-RueA-J,7-55,flow,yearly
454,Ecuador,2.0,2.0,0.0,2.0,1.0,1.0,0.0,1.0,0.0,0.0,0.0,0.0,2019-12-01,7-55-Bew-RueA-J-d-2020-12.xlsx,7-55-Bew-RueA-J,7-55,flow,yearly
455,Kolumbien,4.0,4.0,0.0,4.0,2.0,2.0,0.0,2.0,0.0,0.0,0.0,0.0,2019-12-01,7-55-Bew-RueA-J-d-2020-12.xlsx,7-55-Bew-RueA-J,7-55,flow,yearly
456,Kuba,1.0,1.0,0.0,1.0,1.0,0.0,0.0,1.0,0.0,0.0,0.0,0.0,2019-12-01,7-55-Bew-RueA-J-d-2020-12.xlsx,7-55-Bew-RueA-J,7-55,flow,yearly
457,Mexiko,1.0,1.0,0.0,1.0,1.0,0.0,0.0,0.0,0.0,0.0,0.0,0.0,2019-12-01,7-55-Bew-RueA-J-d-2020-12.xlsx,7-55-Bew-RueA-J,7-55,flow,yearly
458,Peru,0.0,0.0,0.0,0.0,0.0,0.0,0.0,1.0,0.0,0.0,0.0,0.0,2019-12-01,7-55-Bew-RueA-J-d-2020-12.xlsx,7-55-Bew-RueA-J,7-55,flow,yearly
459,Venezuela,2.0,2.0,0.0,2.0,1.0,1.0,0.0,1.0,0.0,0.0,0.0,0.0,2019-12-01,7-55-Bew-RueA-J-d-2020-12.xlsx,7-55-Bew-RueA-J,7-55,flow,yearly
460,Total Amerika,35.0,35.0,0.0,33.0,23.0,9.0,0.0,21.0,0.0,0.0,0.0,0.0,2019-12-01,7-55-Bew-RueA-J-d-2020-12.xlsx,7-55-Bew-RueA-J,7-55,flow,yearly
461,Afghanistan,93.0,90.0,3.0,97.0,87.0,8.0,72.0,10.0,3.0,3.0,0.0,1.0,2019-12-01,7-55-Bew-RueA-J-d-2020-12.xlsx,7-55-Bew-RueA-J,7-55,flow,yearly
462,China (Volksrepublik),9.0,9.0,0.0,9.0,7.0,2.0,1.0,5.0,0.0,0.0,0.0,0.0,2019-12-01,7-55-Bew-RueA-J-d-2020-12.xlsx,7-55-Bew-RueA-J,7-55,flow,yearly
463,Georgien,2.0,2.0,0.0,1.0,0.0,1.0,3.0,0.0,0.0,0.0,0.0,0.0,2019-12-01,7-55-Bew-RueA-J-d-2020-12.xlsx,7-55-Bew-RueA-J,7-55,flow,yearly
464,Irak,79.0,78.0,1.0,76.0,71.0,3.0,59.0,13.0,1.0,1.0,0.0,0.0,2019-12-01,7-55-Bew-RueA-J-d-2020-12.xlsx,7-55-Bew-RueA-J,7-55,flow,yearly
465,Iran,20.0,20.0,0.0,21.0,20.0,0.0,22.0,5.0,0.0,0.0,0.0,0.0,2019-12-01,7-55-Bew-RueA-J-d-2020-12.xlsx,7-55-Bew-RueA-J,7-55,flow,yearly
466,Jemen,1.0,1.0,0.0,1.0,1.0,0.0,0.0,0.0,0.0,0.0,0.0,0.0,2019-12-01,7-55-Bew-RueA-J-d-2020-12.xlsx,7-55-Bew-RueA-J,7-55,flow,yearly
467,Libanon,1.0,0.0,1.0,0.0,0.0,0.0,0.0,0.0,1.0,1.0,0.0,0.0,2019-12-01,7-55-Bew-RueA-J-d-2020-12.xlsx,7-55-Bew-RueA-J,7-55,flow,yearly
468,Nepal,1.0,1.0,0.0,1.0,0.0,1.0,0.0,0.0,0.0,0.0,0.0,0.0,2019-12-01,7-55-Bew-RueA-J-d-2020-12.xlsx,7-55-Bew-RueA-J,7-55,flow,yearly
469,Pakistan,7.0,7.0,0.0,11.0,9.0,1.0,5.0,6.0,0.0,0.0,0.0,0.0,2019-12-01,7-55-Bew-RueA-J-d-2020-12.xlsx,7-55-Bew-RueA-J,7-55,flow,yearly
470,Sri Lanka,2.0,2.0,0.0,1.0,1.0,0.0,1.0,0.0,0.0,0.0,0.0,0.0,2019-12-01,7-55-Bew-RueA-J-d-2020-12.xlsx,7-55-Bew-RueA-J,7-55,flow,yearly
471,Syrien,66.0,62.0,4.0,68.0,67.0,0.0,30.0,11.0,4.0,1.0,3.0,1.0,2019-12-01,7-55-Bew-RueA-J-d-2020-12.xlsx,7-55-Bew-RueA-J,7-55,flow,yearly
472,Thailand,1.0,0.0,1.0,0.0,0.0,0.0,0.0,0.0,1.0,1.0,0.0,0.0,2019-12-01,7-55-Bew-RueA-J-d-2020-12.xlsx,7-55-Bew-RueA-J,7-55,flow,yearly
473,Total Asien,282.0,272.0,10.0,286.0,263.0,16.0,193.0,50.0,10.0,7.0,3.0,2.0,2019-12-01,7-55-Bew-RueA-J-d-2020-12.xlsx,7-55-Bew-RueA-J,7-55,flow,yearly
474,Albanien,3.0,2.0,1.0,2.0,2.0,0.0,0.0,2.0,1.0,1.0,0.0,1.0,2019-12-01,7-55-Bew-RueA-J-d-2020-12.xlsx,7-55-Bew-RueA-J,7-55,flow,yearly
475,Bosnien u. Herzegowina,1.0,0.0,1.0,0.0,0.0,0.0,0.0,0.0,1.0,1.0,0.0,1.0,2019-12-01,7-55-Bew-RueA-J-d-2020-12.xlsx,7-55-Bew-RueA-J,7-55,flow,yearly
476,Bulgarien,1.0,1.0,0.0,1.0,1.0,0.0,0.0,0.0,0.0,0.0,0.0,0.0,2019-12-01,7-55-Bew-RueA-J-d-2020-12.xlsx,7-55-Bew-RueA-J,7-55,flow,yearly
477,Estland,1.0,1.0,0.0,1.0,0.0,1.0,0.0,0.0,0.0,0.0,0.0,0.0,2019-12-01,7-55-Bew-RueA-J-d-2020-12.xlsx,7-55-Bew-RueA-J,7-55,flow,yearly
478,Griechenland,2.0,2.0,0.0,2.0,2.0,0.0,0.0,1.0,0.0,0.0,0.0,0.0,2019-12-01,7-55-Bew-RueA-J-d-2020-12.xlsx,7-55-Bew-RueA-J,7-55,flow,yearly
479,Grossbritannien,4.0,4.0,0.0,3.0,1.0,2.0,0.0,0.0,0.0,0.0,0.0,0.0,2019-12-01,7-55-Bew-RueA-J-d-2020-12.xlsx,7-55-Bew-RueA-J,7-55,flow,yearly
480,Italien,2.0,2.0,0.0,2.0,2.0,0.0,0.0,1.0,0.0,0.0,0.0,0.0,2019-12-01,7-55-Bew-RueA-J-d-2020-12.xlsx,7-55-Bew-RueA-J,7-55,flow,yearly
481,Kosovo,2.0,2.0,0.0,3.0,3.0,0.0,1.0,2.0,0.0,0.0,0.0,0.0,2019-12-01,7-55-Bew-RueA-J-d-2020-12.xlsx,7-55-Bew-RueA-J,7-55,flow,yearly
482,Kroatien,7.0,7.0,0.0,7.0,7.0,0.0,0.0,5.0,0.0,0.0,0.0,0.0,2019-12-01,7-55-Bew-RueA-J-d-2020-12.xlsx,7-55-Bew-RueA-J,7-55,flow,yearly
483,Litauen,3.0,3.0,0.0,3.0,3.0,0.0,0.0,4.0,0.0,0.0,0.0,0.0,2019-12-01,7-55-Bew-RueA-J-d-2020-12.xlsx,7-55-Bew-RueA-J,7-55,flow,yearly
484,Nordmazedonien,0.0,0.0,0.0,0.0,0.0,0.0,1.0,0.0,0.0,0.0,0.0,0.0,2019-12-01,7-55-Bew-RueA-J-d-2020-12.xlsx,7-55-Bew-RueA-J,7-55,flow,yearly
485,Moldova,3.0,3.0,0.0,3.0,2.0,1.0,0.0,2.0,0.0,0.0,0.0,0.0,2019-12-01,7-55-Bew-RueA-J-d-2020-12.xlsx,7-55-Bew-RueA-J,7-55,flow,yearly
486,Montenegro,1.0,1.0,0.0,1.0,1.0,0.0,0.0,1.0,0.0,0.0,0.0,0.0,2019-12-01,7-55-Bew-RueA-J-d-2020-12.xlsx,7-55-Bew-RueA-J,7-55,flow,yearly
487,Niederlande,6.0,6.0,0.0,6.0,6.0,0.0,0.0,5.0,0.0,0.0,0.0,0.0,2019-12-01,7-55-Bew-RueA-J-d-2020-12.xlsx,7-55-Bew-RueA-J,7-55,flow,yearly
488,Polen,13.0,13.0,0.0,13.0,12.0,0.0,0.0,9.0,0.0,0.0,0.0,0.0,2019-12-01,7-55-Bew-RueA-J-d-2020-12.xlsx,7-55-Bew-RueA-J,7-55,flow,yearly
489,Rumänien,47.0,47.0,0.0,46.0,44.0,2.0,0.0,35.0,0.0,0.0,0.0,0.0,2019-12-01,7-55-Bew-RueA-J-d-2020-12.xlsx,7-55-Bew-RueA-J,7-55,flow,yearly
490,Russland,5.0,5.0,0.0,7.0,7.0,0.0,4.0,5.0,0.0,0.0,0.0,0.0,2019-12-01,7-55-Bew-RueA-J-d-2020-12.xlsx,7-55-Bew-RueA-J,7-55,flow,yearly
491,Schweden,1.0,1.0,0.0,1.0,0.0,1.0,0.0,0.0,0.0,0.0,0.0,0.0,2019-12-01,7-55-Bew-RueA-J-d-2020-12.xlsx,7-55-Bew-RueA-J,7-55,flow,yearly
492,Serbien,5.0,4.0,1.0,3.0,3.0,0.0,0.0,1.0,1.0,1.0,0.0,0.0,2019-12-01,7-55-Bew-RueA-J-d-2020-12.xlsx,7-55-Bew-RueA-J,7-55,flow,yearly
493,Slowakische Republik,8.0,8.0,0.0,8.0,8.0,0.0,0.0,4.0,0.0,0.0,0.0,0.0,2019-12-01,7-55-Bew-RueA-J-d-2020-12.xlsx,7-55-Bew-RueA-J,7-55,flow,yearly
494,Slowenien,1.0,1.0,0.0,1.0,1.0,0.0,0.0,1.0,0.0,0.0,0.0,0.0,2019-12-01,7-55-Bew-RueA-J-d-2020-12.xlsx,7-55-Bew-RueA-J,7-55,flow,yearly
495,Spanien,8.0,8.0,0.0,7.0,7.0,0.0,0.0,7.0,0.0,0.0,0.0,0.0,2019-12-01,7-55-Bew-RueA-J-d-2020-12.xlsx,7-55-Bew-RueA-J,7-55,flow,yearly
496,Tschechische Republik,2.0,2.0,0.0,2.0,2.0,0.0,0.0,2.0,0.0,0.0,0.0,0.0,2019-12-01,7-55-Bew-RueA-J-d-2020-12.xlsx,7-55-Bew-RueA-J,7-55,flow,yearly
497,Türkei,3.0,2.0,1.0,3.0,2.0,0.0,1.0,1.0,1.0,0.0,1.0,0.0,2019-12-01,7-55-Bew-RueA-J-d-2020-12.xlsx,7-55-Bew-RueA-J,7-55,flow,yearly
498,Ukraine,3.0,3.0,0.0,5.0,5.0,0.0,8.0,3.0,0.0,0.0,0.0,0.0,2019-12-01,7-55-Bew-RueA-J-d-2020-12.xlsx,7-55-Bew-RueA-J,7-55,flow,yearly
499,Ungarn,7.0,7.0,0.0,7.0,6.0,1.0,0.0,4.0,0.0,0.0,0.0,0.0,2019-12-01,7-55-Bew-RueA-J-d-2020-12.xlsx,7-55-Bew-RueA-J,7-55,flow,yearly
500,Total Europa,139.0,135.0,4.0,137.0,127.0,8.0,15.0,95.0,4.0,3.0,1.0,2.0,2019-12-01,7-55-Bew-RueA-J-d-2020-12.xlsx,7-55-Bew-RueA-J,7-55,flow,yearly
501,Staatenlos,4.0,4.0,0.0,4.0,4.0,0.0,2.0,1.0,0.0,0.0,0.0,0.0,2019-12-01,7-55-Bew-RueA-J-d-2020-12.xlsx,7-55-Bew-RueA-J,7-55,flow,yearly
502,Ohne Nationalität,9.0,9.0,0.0,10.0,9.0,1.0,4.0,6.0,0.0,0.0,0.0,0.0,2019-12-01,7-55-Bew-RueA-J-d-2020-12.xlsx,7-55-Bew-RueA-J,7-55,flow,yearly
503,Staat unbekannt,14.0,14.0,0.0,13.0,12.0,1.0,1.0,13.0,0.0,0.0,0.0,0.0,2019-12-01,7-55-Bew-RueA-J-d-2020-12.xlsx,7-55-Bew-RueA-J,7-55,flow,yearly
504,Total Herkunft unbek.,27.0,27.0,0.0,27.0,25.0,2.0,7.0,20.0,0.0,0.0,0.0,0.0,2019-12-01,7-55-Bew-RueA-J-d-2020-12.xlsx,7-55-Bew-RueA-J,7-55,flow,yearly
505,Herkunft unbekannt,20.0,18.0,2.0,18.0,15.0,1.0,4.0,6.0,2.0,2.0,0.0,0.0,2018-12-01,7-55-Bew-RueA-J-d-2020-12.xlsx,7-55-Bew-RueA-J,7-55,flow,yearly
506,Ägypten,4.0,3.0,1.0,3.0,0.0,0.0,0.0,0.0,1.0,1.0,0.0,1.0,2018-12-01,7-55-Bew-RueA-J-d-2020-12.xlsx,7-55-Bew-RueA-J,7-55,flow,yearly
507,Algerien,11.0,11.0,0.0,10.0,8.0,2.0,2.0,5.0,0.0,0.0,0.0,0.0,2018-12-01,7-55-Bew-RueA-J-d-2020-12.xlsx,7-55-Bew-RueA-J,7-55,flow,yearly
508,Äquatorialguinea,1.0,1.0,0.0,1.0,0.0,1.0,0.0,0.0,0.0,0.0,0.0,0.0,2018-12-01,7-55-Bew-RueA-J-d-2020-12.xlsx,7-55-Bew-RueA-J,7-55,flow,yearly
509,Äthiopien,11.0,11.0,0.0,14.0,10.0,2.0,10.0,1.0,0.0,0.0,0.0,0.0,2018-12-01,7-55-Bew-RueA-J-d-2020-12.xlsx,7-55-Bew-RueA-J,7-55,flow,yearly
510,Burundi,1.0,1.0,0.0,1.0,1.0,0.0,1.0,1.0,0.0,0.0,0.0,0.0,2018-12-01,7-55-Bew-RueA-J-d-2020-12.xlsx,7-55-Bew-RueA-J,7-55,flow,yearly
511,Côte d'Ivoire,1.0,1.0,0.0,1.0,1.0,0.0,0.0,1.0,0.0,0.0,0.0,0.0,2018-12-01,7-55-Bew-RueA-J-d-2020-12.xlsx,7-55-Bew-RueA-J,7-55,flow,yearly
512,Eritrea,66.0,48.0,18.0,56.0,43.0,3.0,30.0,16.0,18.0,17.0,0.0,5.0,2018-12-01,7-55-Bew-RueA-J-d-2020-12.xlsx,7-55-Bew-RueA-J,7-55,flow,yearly
513,Gambia,16.0,16.0,0.0,14.0,14.0,0.0,1.0,12.0,0.0,0.0,0.0,0.0,2018-12-01,7-55-Bew-RueA-J-d-2020-12.xlsx,7-55-Bew-RueA-J,7-55,flow,yearly
514,Ghana,3.0,3.0,0.0,5.0,5.0,0.0,2.0,3.0,0.0,0.0,0.0,0.0,2018-12-01,7-55-Bew-RueA-J-d-2020-12.xlsx,7-55-Bew-RueA-J,7-55,flow,yearly
515,Guinea,17.0,17.0,0.0,16.0,11.0,5.0,1.0,7.0,0.0,0.0,0.0,0.0,2018-12-01,7-55-Bew-RueA-J-d-2020-12.xlsx,7-55-Bew-RueA-J,7-55,flow,yearly
516,Guinea-Bissau,4.0,4.0,0.0,6.0,4.0,2.0,0.0,2.0,0.0,0.0,0.0,0.0,2018-12-01,7-55-Bew-RueA-J-d-2020-12.xlsx,7-55-Bew-RueA-J,7-55,flow,yearly
517,Kenia,1.0,1.0,0.0,0.0,0.0,0.0,0.0,0.0,0.0,0.0,0.0,0.0,2018-12-01,7-55-Bew-RueA-J-d-2020-12.xlsx,7-55-Bew-RueA-J,7-55,flow,yearly
518,Kongo DR,0.0,0.0,0.0,0.0,0.0,0.0,0.0,7.0,0.0,0.0,0.0,0.0,2018-12-01,7-55-Bew-RueA-J-d-2020-12.xlsx,7-55-Bew-RueA-J,7-55,flow,yearly
519,Liberia,0.0,0.0,0.0,1.0,1.0,0.0,3.0,0.0,0.0,0.0,0.0,0.0,2018-12-01,7-55-Bew-RueA-J-d-2020-12.xlsx,7-55-Bew-RueA-J,7-55,flow,yearly
520,Libyen,3.0,3.0,0.0,5.0,3.0,2.0,2.0,2.0,0.0,0.0,0.0,0.0,2018-12-01,7-55-Bew-RueA-J-d-2020-12.xlsx,7-55-Bew-RueA-J,7-55,flow,yearly
521,Mali,11.0,11.0,0.0,13.0,12.0,1.0,1.0,9.0,0.0,0.0,0.0,0.0,2018-12-01,7-55-Bew-RueA-J-d-2020-12.xlsx,7-55-Bew-RueA-J,7-55,flow,yearly
522,Marokko,8.0,8.0,0.0,8.0,6.0,1.0,1.0,4.0,0.0,0.0,0.0,0.0,2018-12-01,7-55-Bew-RueA-J-d-2020-12.xlsx,7-55-Bew-RueA-J,7-55,flow,yearly
523,Niger,7.0,7.0,0.0,6.0,5.0,1.0,0.0,5.0,0.0,0.0,0.0,0.0,2018-12-01,7-55-Bew-RueA-J-d-2020-12.xlsx,7-55-Bew-RueA-J,7-55,flow,yearly
524,Nigeria,115.0,115.0,0.0,114.0,99.0,10.0,8.0,79.0,0.0,0.0,0.0,0.0,2018-12-01,7-55-Bew-RueA-J-d-2020-12.xlsx,7-55-Bew-RueA-J,7-55,flow,yearly
525,Senegal,6.0,6.0,0.0,5.0,4.0,0.0,0.0,2.0,0.0,0.0,0.0,0.0,2018-12-01,7-55-Bew-RueA-J-d-2020-12.xlsx,7-55-Bew-RueA-J,7-55,flow,yearly
526,Sierra Leone,3.0,3.0,0.0,3.0,2.0,1.0,0.0,1.0,0.0,0.0,0.0,0.0,2018-12-01,7-55-Bew-RueA-J-d-2020-12.xlsx,7-55-Bew-RueA-J,7-55,flow,yearly
527,Somalia,46.0,41.0,5.0,47.0,28.0,17.0,23.0,6.0,5.0,2.0,3.0,3.0,2018-12-01,7-55-Bew-RueA-J-d-2020-12.xlsx,7-55-Bew-RueA-J,7-55,flow,yearly
528,Sudan,6.0,6.0,0.0,5.0,4.0,1.0,0.0,3.0,0.0,0.0,0.0,0.0,2018-12-01,7-55-Bew-RueA-J-d-2020-12.xlsx,7-55-Bew-RueA-J,7-55,flow,yearly
529,Südsudan,1.0,1.0,0.0,0.0,0.0,0.0,0.0,0.0,0.0,0.0,0.0,0.0,2018-12-01,7-55-Bew-RueA-J-d-2020-12.xlsx,7-55-Bew-RueA-J,7-55,flow,yearly
530,Tansania,1.0,1.0,0.0,1.0,1.0,0.0,0.0,0.0,0.0,0.0,0.0,0.0,2018-12-01,7-55-Bew-RueA-J-d-2020-12.xlsx,7-55-Bew-RueA-J,7-55,flow,yearly
531,Togo,1.0,1.0,0.0,1.0,1.0,0.0,0.0,0.0,0.0,0.0,0.0,0.0,2018-12-01,7-55-Bew-RueA-J-d-2020-12.xlsx,7-55-Bew-RueA-J,7-55,flow,yearly
532,Tunesien,2.0,2.0,0.0,1.0,0.0,1.0,0.0,0.0,0.0,0.0,0.0,0.0,2018-12-01,7-55-Bew-RueA-J-d-2020-12.xlsx,7-55-Bew-RueA-J,7-55,flow,yearly
533,Total Afrika,346.0,322.0,24.0,337.0,263.0,50.0,85.0,166.0,24.0,20.0,3.0,9.0,2018-12-01,7-55-Bew-RueA-J-d-2020-12.xlsx,7-55-Bew-RueA-J,7-55,flow,yearly
534,Bolivien,2.0,2.0,0.0,2.0,2.0,0.0,0.0,2.0,0.0,0.0,0.0,0.0,2018-12-01,7-55-Bew-RueA-J-d-2020-12.xlsx,7-55-Bew-RueA-J,7-55,flow,yearly
535,Brasilien,1.0,1.0,0.0,1.0,1.0,0.0,0.0,1.0,0.0,0.0,0.0,0.0,2018-12-01,7-55-Bew-RueA-J-d-2020-12.xlsx,7-55-Bew-RueA-J,7-55,flow,yearly
536,Chile,1.0,1.0,0.0,1.0,1.0,0.0,0.0,0.0,0.0,0.0,0.0,0.0,2018-12-01,7-55-Bew-RueA-J-d-2020-12.xlsx,7-55-Bew-RueA-J,7-55,flow,yearly
537,Dominikanische Republik,18.0,18.0,0.0,19.0,16.0,3.0,0.0,17.0,0.0,0.0,0.0,0.0,2018-12-01,7-55-Bew-RueA-J-d-2020-12.xlsx,7-55-Bew-RueA-J,7-55,flow,yearly
538,Ecuador,3.0,3.0,0.0,3.0,1.0,2.0,0.0,1.0,0.0,0.0,0.0,0.0,2018-12-01,7-55-Bew-RueA-J-d-2020-12.xlsx,7-55-Bew-RueA-J,7-55,flow,yearly
539,Kolumbien,4.0,4.0,0.0,4.0,4.0,0.0,0.0,4.0,0.0,0.0,0.0,0.0,2018-12-01,7-55-Bew-RueA-J-d-2020-12.xlsx,7-55-Bew-RueA-J,7-55,flow,yearly
540,Mexiko,0.0,0.0,0.0,0.0,0.0,0.0,1.0,0.0,0.0,0.0,0.0,0.0,2018-12-01,7-55-Bew-RueA-J-d-2020-12.xlsx,7-55-Bew-RueA-J,7-55,flow,yearly
541,Peru,1.0,1.0,0.0,1.0,1.0,0.0,0.0,0.0,0.0,0.0,0.0,0.0,2018-12-01,7-55-Bew-RueA-J-d-2020-12.xlsx,7-55-Bew-RueA-J,7-55,flow,yearly
542,Venezuela,1.0,1.0,0.0,1.0,1.0,0.0,0.0,1.0,0.0,0.0,0.0,0.0,2018-12-01,7-55-Bew-RueA-J-d-2020-12.xlsx,7-55-Bew-RueA-J,7-55,flow,yearly
543,Total Amerika,31.0,31.0,0.0,32.0,27.0,5.0,1.0,26.0,0.0,0.0,0.0,0.0,2018-12-01,7-55-Bew-RueA-J-d-2020-12.xlsx,7-55-Bew-RueA-J,7-55,flow,yearly
544,Afghanistan,107.0,103.0,4.0,86.0,82.0,3.0,78.0,20.0,4.0,4.0,0.0,1.0,2018-12-01,7-55-Bew-RueA-J-d-2020-12.xlsx,7-55-Bew-RueA-J,7-55,flow,yearly
545,Armenien,0.0,0.0,0.0,0.0,0.0,0.0,0.0,1.0,0.0,0.0,0.0,0.0,2018-12-01,7-55-Bew-RueA-J-d-2020-12.xlsx,7-55-Bew-RueA-J,7-55,flow,yearly
546,Bangladesh,1.0,1.0,0.0,1.0,1.0,0.0,0.0,1.0,0.0,0.0,0.0,0.0,2018-12-01,7-55-Bew-RueA-J-d-2020-12.xlsx,7-55-Bew-RueA-J,7-55,flow,yearly
547,China (Volksrepublik),8.0,8.0,0.0,7.0,7.0,0.0,1.0,8.0,0.0,0.0,0.0,0.0,2018-12-01,7-55-Bew-RueA-J-d-2020-12.xlsx,7-55-Bew-RueA-J,7-55,flow,yearly
548,Georgien,3.0,3.0,0.0,3.0,3.0,0.0,4.0,2.0,0.0,0.0,0.0,0.0,2018-12-01,7-55-Bew-RueA-J-d-2020-12.xlsx,7-55-Bew-RueA-J,7-55,flow,yearly
549,Irak,29.0,28.0,1.0,33.0,31.0,0.0,16.0,9.0,1.0,1.0,0.0,1.0,2018-12-01,7-55-Bew-RueA-J-d-2020-12.xlsx,7-55-Bew-RueA-J,7-55,flow,yearly
550,Iran,15.0,14.0,1.0,15.0,15.0,0.0,12.0,7.0,1.0,1.0,0.0,1.0,2018-12-01,7-55-Bew-RueA-J-d-2020-12.xlsx,7-55-Bew-RueA-J,7-55,flow,yearly
551,Jemen,1.0,1.0,0.0,1.0,1.0,0.0,1.0,0.0,0.0,0.0,0.0,0.0,2018-12-01,7-55-Bew-RueA-J-d-2020-12.xlsx,7-55-Bew-RueA-J,7-55,flow,yearly
552,Mongolei,1.0,1.0,0.0,1.0,1.0,0.0,0.0,1.0,0.0,0.0,0.0,0.0,2018-12-01,7-55-Bew-RueA-J-d-2020-12.xlsx,7-55-Bew-RueA-J,7-55,flow,yearly
553,Pakistan,3.0,3.0,0.0,3.0,3.0,0.0,6.0,2.0,0.0,0.0,0.0,0.0,2018-12-01,7-55-Bew-RueA-J-d-2020-12.xlsx,7-55-Bew-RueA-J,7-55,flow,yearly
554,Saudi-Arabien,1.0,1.0,0.0,1.0,1.0,0.0,1.0,1.0,0.0,0.0,0.0,0.0,2018-12-01,7-55-Bew-RueA-J-d-2020-12.xlsx,7-55-Bew-RueA-J,7-55,flow,yearly
555,Sri Lanka,2.0,2.0,0.0,2.0,2.0,0.0,3.0,0.0,0.0,0.0,0.0,0.0,2018-12-01,7-55-Bew-RueA-J-d-2020-12.xlsx,7-55-Bew-RueA-J,7-55,flow,yearly
556,Syrien,46.0,45.0,1.0,41.0,39.0,0.0,38.0,5.0,1.0,1.0,0.0,0.0,2018-12-01,7-55-Bew-RueA-J-d-2020-12.xlsx,7-55-Bew-RueA-J,7-55,flow,yearly
557,Vietnam,2.0,2.0,0.0,2.0,1.0,1.0,0.0,0.0,0.0,0.0,0.0,0.0,2018-12-01,7-55-Bew-RueA-J-d-2020-12.xlsx,7-55-Bew-RueA-J,7-55,flow,yearly
558,Total Asien,219.0,212.0,7.0,196.0,187.0,4.0,160.0,57.0,7.0,7.0,0.0,3.0,2018-12-01,7-55-Bew-RueA-J-d-2020-12.xlsx,7-55-Bew-RueA-J,7-55,flow,yearly
559,Albanien,2.0,2.0,0.0,2.0,2.0,0.0,0.0,1.0,0.0,0.0,0.0,0.0,2018-12-01,7-55-Bew-RueA-J-d-2020-12.xlsx,7-55-Bew-RueA-J,7-55,flow,yearly
560,Bosnien u. Herzegowina,2.0,2.0,0.0,2.0,0.0,2.0,0.0,0.0,0.0,0.0,0.0,0.0,2018-12-01,7-55-Bew-RueA-J-d-2020-12.xlsx,7-55-Bew-RueA-J,7-55,flow,yearly
561,Bulgarien,3.0,3.0,0.0,3.0,2.0,0.0,0.0,3.0,0.0,0.0,0.0,0.0,2018-12-01,7-55-Bew-RueA-J-d-2020-12.xlsx,7-55-Bew-RueA-J,7-55,flow,yearly
562,Frankreich,1.0,1.0,0.0,1.0,1.0,0.0,0.0,1.0,0.0,0.0,0.0,0.0,2018-12-01,7-55-Bew-RueA-J-d-2020-12.xlsx,7-55-Bew-RueA-J,7-55,flow,yearly
563,Grossbritannien,0.0,0.0,0.0,0.0,0.0,0.0,0.0,0.0,0.0,0.0,0.0,0.0,2018-12-01,7-55-Bew-RueA-J-d-2020-12.xlsx,7-55-Bew-RueA-J,7-55,flow,yearly
564,Irland,1.0,1.0,0.0,1.0,1.0,0.0,0.0,1.0,0.0,0.0,0.0,0.0,2018-12-01,7-55-Bew-RueA-J-d-2020-12.xlsx,7-55-Bew-RueA-J,7-55,flow,yearly
565,Italien,3.0,3.0,0.0,3.0,3.0,0.0,0.0,3.0,0.0,0.0,0.0,0.0,2018-12-01,7-55-Bew-RueA-J-d-2020-12.xlsx,7-55-Bew-RueA-J,7-55,flow,yearly
566,Kosovo,2.0,2.0,0.0,1.0,1.0,0.0,0.0,2.0,0.0,0.0,0.0,0.0,2018-12-01,7-55-Bew-RueA-J-d-2020-12.xlsx,7-55-Bew-RueA-J,7-55,flow,yearly
567,Kroatien,9.0,9.0,0.0,9.0,5.0,3.0,0.0,4.0,0.0,0.0,0.0,0.0,2018-12-01,7-55-Bew-RueA-J-d-2020-12.xlsx,7-55-Bew-RueA-J,7-55,flow,yearly
568,Lettland,1.0,1.0,0.0,1.0,1.0,0.0,0.0,0.0,0.0,0.0,0.0,0.0,2018-12-01,7-55-Bew-RueA-J-d-2020-12.xlsx,7-55-Bew-RueA-J,7-55,flow,yearly
569,Litauen,7.0,7.0,0.0,7.0,7.0,0.0,0.0,5.0,0.0,0.0,0.0,0.0,2018-12-01,7-55-Bew-RueA-J-d-2020-12.xlsx,7-55-Bew-RueA-J,7-55,flow,yearly
570,Mazedonien eh.Jug.Rep.,1.0,1.0,0.0,1.0,1.0,0.0,0.0,0.0,0.0,0.0,0.0,0.0,2018-12-01,7-55-Bew-RueA-J-d-2020-12.xlsx,7-55-Bew-RueA-J,7-55,flow,yearly
571,Moldova,1.0,1.0,0.0,1.0,1.0,0.0,0.0,1.0,0.0,0.0,0.0,0.0,2018-12-01,7-55-Bew-RueA-J-d-2020-12.xlsx,7-55-Bew-RueA-J,7-55,flow,yearly
572,Niederlande,4.0,4.0,0.0,5.0,4.0,1.0,0.0,4.0,0.0,0.0,0.0,0.0,2018-12-01,7-55-Bew-RueA-J-d-2020-12.xlsx,7-55-Bew-RueA-J,7-55,flow,yearly
573,Polen,13.0,13.0,0.0,13.0,13.0,0.0,0.0,10.0,0.0,0.0,0.0,0.0,2018-12-01,7-55-Bew-RueA-J-d-2020-12.xlsx,7-55-Bew-RueA-J,7-55,flow,yearly
574,Rumänien,51.0,51.0,0.0,50.0,46.0,4.0,0.0,44.0,0.0,0.0,0.0,0.0,2018-12-01,7-55-Bew-RueA-J-d-2020-12.xlsx,7-55-Bew-RueA-J,7-55,flow,yearly
575,Russland,7.0,7.0,0.0,5.0,5.0,0.0,3.0,6.0,0.0,0.0,0.0,0.0,2018-12-01,7-55-Bew-RueA-J-d-2020-12.xlsx,7-55-Bew-RueA-J,7-55,flow,yearly
576,Serbien,7.0,6.0,1.0,6.0,3.0,3.0,0.0,2.0,1.0,0.0,1.0,0.0,2018-12-01,7-55-Bew-RueA-J-d-2020-12.xlsx,7-55-Bew-RueA-J,7-55,flow,yearly
577,Slowakische Republik,3.0,3.0,0.0,4.0,4.0,0.0,0.0,4.0,0.0,0.0,0.0,0.0,2018-12-01,7-55-Bew-RueA-J-d-2020-12.xlsx,7-55-Bew-RueA-J,7-55,flow,yearly
578,Slowenien,1.0,1.0,0.0,1.0,0.0,1.0,0.0,1.0,0.0,0.0,0.0,0.0,2018-12-01,7-55-Bew-RueA-J-d-2020-12.xlsx,7-55-Bew-RueA-J,7-55,flow,yearly
579,Spanien,10.0,10.0,0.0,10.0,9.0,1.0,0.0,7.0,0.0,0.0,0.0,0.0,2018-12-01,7-55-Bew-RueA-J-d-2020-12.xlsx,7-55-Bew-RueA-J,7-55,flow,yearly
580,Tschechische Republik,2.0,2.0,0.0,2.0,2.0,0.0,0.0,2.0,0.0,0.0,0.0,0.0,2018-12-01,7-55-Bew-RueA-J-d-2020-12.xlsx,7-55-Bew-RueA-J,7-55,flow,yearly
581,Türkei,9.0,6.0,3.0,5.0,4.0,0.0,0.0,1.0,3.0,3.0,0.0,0.0,2018-12-01,7-55-Bew-RueA-J-d-2020-12.xlsx,7-55-Bew-RueA-J,7-55,flow,yearly
582,Ukraine,3.0,3.0,0.0,1.0,1.0,0.0,2.0,1.0,0.0,0.0,0.0,0.0,2018-12-01,7-55-Bew-RueA-J-d-2020-12.xlsx,7-55-Bew-RueA-J,7-55,flow,yearly
583,Ungarn,6.0,6.0,0.0,6.0,6.0,0.0,0.0,6.0,0.0,0.0,0.0,0.0,2018-12-01,7-55-Bew-RueA-J-d-2020-12.xlsx,7-55-Bew-RueA-J,7-55,flow,yearly
584,Total Europa,149.0,145.0,4.0,140.0,122.0,15.0,5.0,109.0,4.0,3.0,1.0,0.0,2018-12-01,7-55-Bew-RueA-J-d-2020-12.xlsx,7-55-Bew-RueA-J,7-55,flow,yearly
585,Staatenlos,1.0,1.0,0.0,1.0,1.0,0.0,1.0,0.0,0.0,0.0,0.0,0.0,2018-12-01,7-55-Bew-RueA-J-d-2020-12.xlsx,7-55-Bew-RueA-J,7-55,flow,yearly
586,Ohne Nationalität,8.0,7.0,1.0,6.0,6.0,0.0,2.0,2.0,1.0,1.0,0.0,0.0,2018-12-01,7-55-Bew-RueA-J-d-2020-12.xlsx,7-55-Bew-RueA-J,7-55,flow,yearly
587,Staat unbekannt,11.0,10.0,1.0,11.0,8.0,1.0,1.0,4.0,1.0,1.0,0.0,0.0,2018-12-01,7-55-Bew-RueA-J-d-2020-12.xlsx,7-55-Bew-RueA-J,7-55,flow,yearly
588,Total Herkunft unbek.,20.0,18.0,2.0,18.0,15.0,1.0,4.0,6.0,2.0,2.0,0.0,0.0,2018-12-01,7-55-Bew-RueA-J-d-2020-12.xlsx,7-55-Bew-RueA-J,7-55,flow,yearly
