,Nation,TotalRückübernahmeverfahren,OutVerfahren,InVerfahren,Total Erledigungen (inkl. Abschreibungen),Erledigungen,,NichteintretensentscheideRüA,ÜberstellungenOutVerfahren,Total Erledigungen (inkl. Abschreibungen).1,Erledigungen.1,.1,ÜberstellungenInVerfahren,.2,.3,.4,.5,Datum,file_name
0,Herkunft unbekannt,17.0,16.0,1.0,16.0,10.0,5.0,0.0,14.0,1.0,1.0,0.0,1.0,,,,,2017-12-01,7-55-Bew-RueA-J-d-2020-12.xlsx
1,Ägypten,0.0,0.0,0.0,0.0,0.0,0.0,1.0,0.0,0.0,0.0,0.0,0.0,,,,,2017-12-01,7-55-Bew-RueA-J-d-2020-12.xlsx
2,Algerien,12.0,12.0,0.0,12.0,9.0,3.0,2.0,6.0,0.0,0.0,0.0,0.0,,,,,2017-12-01,7-55-Bew-RueA-J-d-2020-12.xlsx
3,Angola,1.0,1.0,0.0,1.0,1.0,0.0,0.0,0.0,0.0,0.0,0.0,0.0,,,,,2017-12-01,7-55-Bew-RueA-J-d-2020-12.xlsx
4,Äquatorialguinea,1.0,1.0,0.0,1.0,1.0,0.0,0.0,1.0,0.0,0.0,0.0,0.0,,,,,2017-12-01,7-55-Bew-RueA-J-d-2020-12.xlsx
5,Äthiopien,12.0,12.0,0.0,10.0,10.0,0.0,11.0,1.0,0.0,0.0,0.0,0.0,,,,,2017-12-01,7-55-Bew-RueA-J-d-2020-12.xlsx
6,Burkina Faso,4.0,4.0,0.0,4.0,1.0,2.0,0.0,1.0,0.0,0.0,0.0,0.0,,,,,2017-12-01,7-55-Bew-RueA-J-d-2020-12.xlsx
7,Côte d'Ivoire,2.0,2.0,0.0,2.0,2.0,0.0,0.0,1.0,0.0,0.0,0.0,0.0,,,,,2017-12-01,7-55-Bew-RueA-J-d-2020-12.xlsx
8,Eritrea,70.0,63.0,7.0,55.0,53.0,0.0,40.0,17.0,7.0,7.0,0.0,2.0,,,,,2017-12-01,7-55-Bew-RueA-J-d-2020-12.xlsx
9,Gambia,12.0,12.0,0.0,12.0,10.0,2.0,3.0,9.0,0.0,0.0,0.0,0.0,,,,,2017-12-01,7-55-Bew-RueA-J-d-2020-12.xlsx
10,Ghana,4.0,4.0,0.0,3.0,3.0,0.0,0.0,3.0,0.0,0.0,0.0,0.0,,,,,2017-12-01,7-55-Bew-RueA-J-d-2020-12.xlsx
11,Guinea,15.0,15.0,0.0,18.0,14.0,2.0,0.0,9.0,0.0,0.0,0.0,0.0,,,,,2017-12-01,7-55-Bew-RueA-J-d-2020-12.xlsx
12,Guinea-Bissau,6.0,6.0,0.0,4.0,4.0,0.0,0.0,2.0,0.0,0.0,0.0,0.0,,,,,2017-12-01,7-55-Bew-RueA-J-d-2020-12.xlsx
13,Kamerun,1.0,1.0,0.0,1.0,1.0,0.0,0.0,0.0,0.0,0.0,0.0,0.0,,,,,2017-12-01,7-55-Bew-RueA-J-d-2020-12.xlsx
14,Kongo DR,10.0,10.0,0.0,10.0,9.0,1.0,14.0,0.0,0.0,0.0,0.0,0.0,,,,,2017-12-01,7-55-Bew-RueA-J-d-2020-12.xlsx
15,Liberia,4.0,4.0,0.0,3.0,2.0,0.0,0.0,1.0,0.0,0.0,0.0,0.0,,,,,2017-12-01,7-55-Bew-RueA-J-d-2020-12.xlsx
16,Libyen,2.0,2.0,0.0,0.0,0.0,0.0,1.0,0.0,0.0,0.0,0.0,0.0,,,,,2017-12-01,7-55-Bew-RueA-J-d-2020-12.xlsx
17,Mali,6.0,6.0,0.0,4.0,4.0,0.0,2.0,3.0,0.0,0.0,0.0,0.0,,,,,2017-12-01,7-55-Bew-RueA-J-d-2020-12.xlsx
18,Marokko,14.0,14.0,0.0,14.0,11.0,2.0,2.0,9.0,0.0,0.0,0.0,0.0,,,,,2017-12-01,7-55-Bew-RueA-J-d-2020-12.xlsx
19,Mauretanien,1.0,1.0,0.0,1.0,1.0,0.0,1.0,1.0,0.0,0.0,0.0,0.0,,,,,2017-12-01,7-55-Bew-RueA-J-d-2020-12.xlsx
20,Mosambik,1.0,1.0,0.0,1.0,1.0,0.0,0.0,1.0,0.0,0.0,0.0,0.0,,,,,2017-12-01,7-55-Bew-RueA-J-d-2020-12.xlsx
21,Nigeria,119.0,119.0,0.0,110.0,96.0,10.0,11.0,87.0,0.0,0.0,0.0,0.0,,,,,2017-12-01,7-55-Bew-RueA-J-d-2020-12.xlsx
22,Senegal,9.0,9.0,0.0,9.0,8.0,1.0,1.0,4.0,0.0,0.0,0.0,0.0,,,,,2017-12-01,7-55-Bew-RueA-J-d-2020-12.xlsx
23,Sierra Leone,3.0,3.0,0.0,3.0,3.0,0.0,0.0,3.0,0.0,0.0,0.0,0.0,,,,,2017-12-01,7-55-Bew-RueA-J-d-2020-12.xlsx
24,Somalia,37.0,36.0,1.0,29.0,27.0,1.0,18.0,8.0,1.0,1.0,0.0,1.0,,,,,2017-12-01,7-55-Bew-RueA-J-d-2020-12.xlsx
25,Sudan,3.0,3.0,0.0,3.0,3.0,0.0,0.0,2.0,0.0,0.0,0.0,0.0,,,,,2017-12-01,7-55-Bew-RueA-J-d-2020-12.xlsx
26,Togo,1.0,1.0,0.0,1.0,1.0,0.0,0.0,1.0,0.0,0.0,0.0,0.0,,,,,2017-12-01,7-55-Bew-RueA-J-d-2020-12.xlsx
27,Tschad,1.0,1.0,0.0,1.0,0.0,1.0,0.0,0.0,0.0,0.0,0.0,0.0,,,,,2017-12-01,7-55-Bew-RueA-J-d-2020-12.xlsx
28,Tunesien,1.0,1.0,0.0,0.0,0.0,0.0,0.0,0.0,0.0,0.0,0.0,0.0,,,,,2017-12-01,7-55-Bew-RueA-J-d-2020-12.xlsx
29,Total Afrika,352.0,344.0,8.0,312.0,275.0,25.0,107.0,170.0,8.0,8.0,0.0,3.0,,,,,2017-12-01,7-55-Bew-RueA-J-d-2020-12.xlsx
30,Bolivien,1.0,1.0,0.0,1.0,0.0,1.0,0.0,0.0,0.0,0.0,0.0,0.0,,,,,2017-12-01,7-55-Bew-RueA-J-d-2020-12.xlsx
31,Brasilien,1.0,1.0,0.0,0.0,0.0,0.0,0.0,1.0,0.0,0.0,0.0,0.0,,,,,2017-12-01,7-55-Bew-RueA-J-d-2020-12.xlsx
32,Chile,1.0,1.0,0.0,1.0,1.0,0.0,0.0,1.0,0.0,0.0,0.0,0.0,,,,,2017-12-01,7-55-Bew-RueA-J-d-2020-12.xlsx
33,Dominikanische Republik,29.0,29.0,0.0,26.0,16.0,8.0,0.0,7.0,0.0,0.0,0.0,0.0,,,,,2017-12-01,7-55-Bew-RueA-J-d-2020-12.xlsx
34,Ecuador,1.0,1.0,0.0,2.0,2.0,0.0,0.0,1.0,0.0,0.0,0.0,0.0,,,,,2017-12-01,7-55-Bew-RueA-J-d-2020-12.xlsx
35,Haiti,0.0,0.0,0.0,4.0,4.0,0.0,0.0,0.0,0.0,0.0,0.0,0.0,,,,,2017-12-01,7-55-Bew-RueA-J-d-2020-12.xlsx
36,Honduras,1.0,1.0,0.0,1.0,0.0,1.0,0.0,0.0,0.0,0.0,0.0,0.0,,,,,2017-12-01,7-55-Bew-RueA-J-d-2020-12.xlsx
37,Kolumbien,2.0,2.0,0.0,2.0,1.0,1.0,0.0,0.0,0.0,0.0,0.0,0.0,,,,,2017-12-01,7-55-Bew-RueA-J-d-2020-12.xlsx
38,Kuba,1.0,1.0,0.0,1.0,0.0,1.0,0.0,0.0,0.0,0.0,0.0,0.0,,,,,2017-12-01,7-55-Bew-RueA-J-d-2020-12.xlsx
39,Total Amerika,37.0,37.0,0.0,38.0,24.0,12.0,0.0,10.0,0.0,0.0,0.0,0.0,,,,,2017-12-01,7-55-Bew-RueA-J-d-2020-12.xlsx
40,Afghanistan,18.0,18.0,0.0,17.0,16.0,0.0,10.0,9.0,0.0,0.0,0.0,0.0,,,,,2017-12-01,7-55-Bew-RueA-J-d-2020-12.xlsx
41,Armenien,1.0,1.0,0.0,1.0,1.0,0.0,0.0,0.0,0.0,0.0,0.0,0.0,,,,,2017-12-01,7-55-Bew-RueA-J-d-2020-12.xlsx
42,China (Volksrepublik),1.0,1.0,0.0,1.0,1.0,0.0,0.0,0.0,0.0,0.0,0.0,0.0,,,,,2017-12-01,7-55-Bew-RueA-J-d-2020-12.xlsx
43,Georgien,4.0,4.0,0.0,4.0,2.0,1.0,2.0,2.0,0.0,0.0,0.0,0.0,,,,,2017-12-01,7-55-Bew-RueA-J-d-2020-12.xlsx
44,Irak,16.0,16.0,0.0,11.0,10.0,0.0,6.0,4.0,0.0,0.0,0.0,0.0,,,,,2017-12-01,7-55-Bew-RueA-J-d-2020-12.xlsx
45,Iran,19.0,15.0,4.0,12.0,12.0,0.0,4.0,4.0,4.0,4.0,0.0,1.0,,,,,2017-12-01,7-55-Bew-RueA-J-d-2020-12.xlsx
46,Jordanien,0.0,0.0,0.0,0.0,0.0,0.0,0.0,0.0,0.0,0.0,0.0,0.0,,,,,2017-12-01,7-55-Bew-RueA-J-d-2020-12.xlsx
47,Laos,0.0,0.0,0.0,1.0,1.0,0.0,1.0,1.0,0.0,0.0,0.0,0.0,,,,,2017-12-01,7-55-Bew-RueA-J-d-2020-12.xlsx
48,Mongolei,1.0,1.0,0.0,1.0,1.0,0.0,0.0,1.0,0.0,0.0,0.0,0.0,,,,,2017-12-01,7-55-Bew-RueA-J-d-2020-12.xlsx
49,Pakistan,14.0,14.0,0.0,10.0,10.0,0.0,8.0,8.0,0.0,0.0,0.0,0.0,,,,,2017-12-01,7-55-Bew-RueA-J-d-2020-12.xlsx
50,Philippinen,1.0,1.0,0.0,1.0,0.0,1.0,0.0,0.0,0.0,0.0,0.0,0.0,,,,,2017-12-01,7-55-Bew-RueA-J-d-2020-12.xlsx
51,Sri Lanka,4.0,2.0,2.0,3.0,3.0,0.0,2.0,2.0,2.0,2.0,0.0,0.0,,,,,2017-12-01,7-55-Bew-RueA-J-d-2020-12.xlsx
52,Syrien,47.0,40.0,7.0,37.0,36.0,1.0,36.0,13.0,7.0,7.0,0.0,0.0,,,,,2017-12-01,7-55-Bew-RueA-J-d-2020-12.xlsx
53,Total Asien,126.0,113.0,13.0,99.0,93.0,3.0,69.0,44.0,13.0,13.0,0.0,1.0,,,,,2017-12-01,7-55-Bew-RueA-J-d-2020-12.xlsx
54,Belarus,0.0,0.0,0.0,0.0,0.0,0.0,0.0,1.0,0.0,0.0,0.0,0.0,,,,,2017-12-01,7-55-Bew-RueA-J-d-2020-12.xlsx
55,Belgien,2.0,2.0,0.0,2.0,2.0,0.0,0.0,1.0,0.0,0.0,0.0,0.0,,,,,2017-12-01,7-55-Bew-RueA-J-d-2020-12.xlsx
56,Bosnien u. Herzegowina,2.0,2.0,0.0,5.0,5.0,0.0,3.0,1.0,0.0,0.0,0.0,0.0,,,,,2017-12-01,7-55-Bew-RueA-J-d-2020-12.xlsx
57,Bulgarien,3.0,3.0,0.0,3.0,3.0,0.0,0.0,3.0,0.0,0.0,0.0,0.0,,,,,2017-12-01,7-55-Bew-RueA-J-d-2020-12.xlsx
58,Dänemark,0.0,0.0,0.0,0.0,0.0,0.0,1.0,0.0,0.0,0.0,0.0,0.0,,,,,2017-12-01,7-55-Bew-RueA-J-d-2020-12.xlsx
59,Deutschland,1.0,1.0,0.0,1.0,1.0,0.0,0.0,1.0,0.0,0.0,0.0,0.0,,,,,2017-12-01,7-55-Bew-RueA-J-d-2020-12.xlsx
60,Griechenland,1.0,1.0,0.0,1.0,0.0,0.0,0.0,0.0,0.0,0.0,0.0,0.0,,,,,2017-12-01,7-55-Bew-RueA-J-d-2020-12.xlsx
61,Grossbritannien,1.0,1.0,0.0,1.0,1.0,0.0,0.0,0.0,0.0,0.0,0.0,0.0,,,,,2017-12-01,7-55-Bew-RueA-J-d-2020-12.xlsx
62,Kosovo,3.0,3.0,0.0,3.0,3.0,0.0,1.0,3.0,0.0,0.0,0.0,0.0,,,,,2017-12-01,7-55-Bew-RueA-J-d-2020-12.xlsx
63,Kroatien,13.0,13.0,0.0,13.0,4.0,8.0,0.0,2.0,0.0,0.0,0.0,0.0,,,,,2017-12-01,7-55-Bew-RueA-J-d-2020-12.xlsx
64,Litauen,4.0,4.0,0.0,4.0,4.0,0.0,0.0,4.0,0.0,0.0,0.0,0.0,,,,,2017-12-01,7-55-Bew-RueA-J-d-2020-12.xlsx
65,Moldova,0.0,0.0,0.0,0.0,0.0,0.0,0.0,0.0,0.0,0.0,0.0,0.0,,,,,2017-12-01,7-55-Bew-RueA-J-d-2020-12.xlsx
66,Niederlande,2.0,2.0,0.0,1.0,1.0,0.0,0.0,1.0,0.0,0.0,0.0,0.0,,,,,2017-12-01,7-55-Bew-RueA-J-d-2020-12.xlsx
67,Polen,13.0,13.0,0.0,13.0,13.0,0.0,0.0,9.0,0.0,0.0,0.0,0.0,,,,,2017-12-01,7-55-Bew-RueA-J-d-2020-12.xlsx
68,Portugal,1.0,1.0,0.0,1.0,1.0,0.0,0.0,0.0,0.0,0.0,0.0,0.0,,,,,2017-12-01,7-55-Bew-RueA-J-d-2020-12.xlsx
69,Rumänien,61.0,61.0,0.0,61.0,60.0,1.0,0.0,51.0,0.0,0.0,0.0,0.0,,,,,2017-12-01,7-55-Bew-RueA-J-d-2020-12.xlsx
70,Russland,4.0,3.0,1.0,3.0,3.0,0.0,3.0,0.0,1.0,1.0,0.0,0.0,,,,,2017-12-01,7-55-Bew-RueA-J-d-2020-12.xlsx
71,Serbien,3.0,2.0,1.0,2.0,1.0,0.0,0.0,0.0,1.0,0.0,1.0,0.0,,,,,2017-12-01,7-55-Bew-RueA-J-d-2020-12.xlsx
72,Slowakische Republik,9.0,9.0,0.0,8.0,8.0,0.0,0.0,6.0,0.0,0.0,0.0,0.0,,,,,2017-12-01,7-55-Bew-RueA-J-d-2020-12.xlsx
73,Slowenien,1.0,1.0,0.0,1.0,1.0,0.0,0.0,0.0,0.0,0.0,0.0,0.0,,,,,2017-12-01,7-55-Bew-RueA-J-d-2020-12.xlsx
74,Spanien,6.0,6.0,0.0,6.0,4.0,0.0,0.0,2.0,0.0,0.0,0.0,0.0,,,,,2017-12-01,7-55-Bew-RueA-J-d-2020-12.xlsx
75,Tschechische Republik,1.0,1.0,0.0,1.0,1.0,0.0,0.0,0.0,0.0,0.0,0.0,0.0,,,,,2017-12-01,7-55-Bew-RueA-J-d-2020-12.xlsx
76,Türkei,3.0,3.0,0.0,3.0,1.0,1.0,0.0,1.0,0.0,0.0,0.0,0.0,,,,,2017-12-01,7-55-Bew-RueA-J-d-2020-12.xlsx
77,Ukraine,1.0,1.0,0.0,1.0,1.0,0.0,0.0,0.0,0.0,0.0,0.0,0.0,,,,,2017-12-01,7-55-Bew-RueA-J-d-2020-12.xlsx
78,Ungarn,12.0,12.0,0.0,12.0,10.0,2.0,0.0,9.0,0.0,0.0,0.0,0.0,,,,,2017-12-01,7-55-Bew-RueA-J-d-2020-12.xlsx
79,Total Europa,147.0,145.0,2.0,146.0,128.0,12.0,8.0,95.0,2.0,1.0,1.0,0.0,,,,,2017-12-01,7-55-Bew-RueA-J-d-2020-12.xlsx
80,Ohne Nationalität,0.0,0.0,0.0,0.0,0.0,0.0,0.0,0.0,0.0,0.0,0.0,0.0,,,,,2017-12-01,7-55-Bew-RueA-J-d-2020-12.xlsx
81,Staat unbekannt,17.0,16.0,1.0,16.0,10.0,5.0,0.0,14.0,1.0,1.0,0.0,1.0,,,,,2017-12-01,7-55-Bew-RueA-J-d-2020-12.xlsx
82,Total Herkunft unbek.,17.0,16.0,1.0,16.0,10.0,5.0,0.0,14.0,1.0,1.0,0.0,1.0,,,,,2017-12-01,7-55-Bew-RueA-J-d-2020-12.xlsx
83,Herkunft unbekannt,35.0,35.0,0.0,34.0,26.0,7.0,9.0,11.0,0.0,0.0,0.0,0.0,,,,,2016-12-01,7-55-Bew-RueA-J-d-2020-12.xlsx
84,Ägypten,1.0,1.0,0.0,1.0,1.0,0.0,1.0,1.0,0.0,0.0,0.0,0.0,,,,,2016-12-01,7-55-Bew-RueA-J-d-2020-12.xlsx
85,Algerien,5.0,5.0,0.0,4.0,4.0,0.0,3.0,2.0,0.0,0.0,0.0,0.0,,,,,2016-12-01,7-55-Bew-RueA-J-d-2020-12.xlsx
86,Äthiopien,7.0,6.0,1.0,4.0,4.0,0.0,7.0,0.0,1.0,1.0,0.0,0.0,,,,,2016-12-01,7-55-Bew-RueA-J-d-2020-12.xlsx
87,Benin,1.0,1.0,0.0,1.0,1.0,0.0,0.0,1.0,0.0,0.0,0.0,0.0,,,,,2016-12-01,7-55-Bew-RueA-J-d-2020-12.xlsx
88,Burundi,0.0,0.0,0.0,0.0,0.0,0.0,1.0,0.0,0.0,0.0,0.0,0.0,,,,,2016-12-01,7-55-Bew-RueA-J-d-2020-12.xlsx
89,Côte d'Ivoire,4.0,4.0,0.0,4.0,3.0,1.0,1.0,2.0,0.0,0.0,0.0,0.0,,,,,2016-12-01,7-55-Bew-RueA-J-d-2020-12.xlsx
90,Eritrea,73.0,68.0,5.0,91.0,86.0,2.0,59.0,28.0,5.0,5.0,0.0,1.0,,,,,2016-12-01,7-55-Bew-RueA-J-d-2020-12.xlsx
91,Gambia,25.0,25.0,0.0,26.0,25.0,1.0,13.0,14.0,0.0,0.0,0.0,0.0,,,,,2016-12-01,7-55-Bew-RueA-J-d-2020-12.xlsx
92,Ghana,5.0,5.0,0.0,5.0,4.0,0.0,1.0,3.0,0.0,0.0,0.0,0.0,,,,,2016-12-01,7-55-Bew-RueA-J-d-2020-12.xlsx
93,Guinea,17.0,17.0,0.0,14.0,13.0,1.0,3.0,9.0,0.0,0.0,0.0,0.0,,,,,2016-12-01,7-55-Bew-RueA-J-d-2020-12.xlsx
94,Guinea-Bissau,3.0,3.0,0.0,3.0,3.0,0.0,0.0,3.0,0.0,0.0,0.0,0.0,,,,,2016-12-01,7-55-Bew-RueA-J-d-2020-12.xlsx
95,Kamerun,4.0,4.0,0.0,4.0,3.0,1.0,0.0,2.0,0.0,0.0,0.0,0.0,,,,,2016-12-01,7-55-Bew-RueA-J-d-2020-12.xlsx
96,Kongo DR,0.0,0.0,0.0,0.0,0.0,0.0,1.0,1.0,0.0,0.0,0.0,0.0,,,,,2016-12-01,7-55-Bew-RueA-J-d-2020-12.xlsx
97,Liberia,2.0,2.0,0.0,2.0,2.0,0.0,1.0,1.0,0.0,0.0,0.0,0.0,,,,,2016-12-01,7-55-Bew-RueA-J-d-2020-12.xlsx
98,Libyen,1.0,1.0,0.0,1.0,1.0,0.0,1.0,0.0,0.0,0.0,0.0,0.0,,,,,2016-12-01,7-55-Bew-RueA-J-d-2020-12.xlsx
99,Mali,12.0,12.0,0.0,11.0,10.0,1.0,2.0,9.0,0.0,0.0,0.0,0.0,,,,,2016-12-01,7-55-Bew-RueA-J-d-2020-12.xlsx
100,Marokko,4.0,4.0,0.0,4.0,2.0,2.0,0.0,0.0,0.0,0.0,0.0,0.0,,,,,2016-12-01,7-55-Bew-RueA-J-d-2020-12.xlsx
101,Niger,2.0,2.0,0.0,2.0,2.0,0.0,0.0,2.0,0.0,0.0,0.0,0.0,,,,,2016-12-01,7-55-Bew-RueA-J-d-2020-12.xlsx
102,Nigeria,151.0,151.0,0.0,141.0,123.0,14.0,21.0,81.0,0.0,0.0,0.0,0.0,,,,,2016-12-01,7-55-Bew-RueA-J-d-2020-12.xlsx
103,Senegal,10.0,10.0,0.0,11.0,11.0,0.0,0.0,6.0,0.0,0.0,0.0,0.0,,,,,2016-12-01,7-55-Bew-RueA-J-d-2020-12.xlsx
104,Sierra Leone,3.0,3.0,0.0,3.0,3.0,0.0,0.0,3.0,0.0,0.0,0.0,0.0,,,,,2016-12-01,7-55-Bew-RueA-J-d-2020-12.xlsx
105,Somalia,40.0,38.0,2.0,43.0,39.0,1.0,24.0,13.0,2.0,0.0,2.0,1.0,,,,,2016-12-01,7-55-Bew-RueA-J-d-2020-12.xlsx
106,Sudan,3.0,3.0,0.0,6.0,4.0,2.0,2.0,3.0,0.0,0.0,0.0,0.0,,,,,2016-12-01,7-55-Bew-RueA-J-d-2020-12.xlsx
107,Südsudan,1.0,1.0,0.0,1.0,0.0,1.0,0.0,0.0,0.0,0.0,0.0,0.0,,,,,2016-12-01,7-55-Bew-RueA-J-d-2020-12.xlsx
108,Togo,1.0,1.0,0.0,2.0,2.0,0.0,0.0,2.0,0.0,0.0,0.0,0.0,,,,,2016-12-01,7-55-Bew-RueA-J-d-2020-12.xlsx
109,Tschad,0.0,0.0,0.0,0.0,0.0,0.0,0.0,0.0,0.0,0.0,0.0,0.0,,,,,2016-12-01,7-55-Bew-RueA-J-d-2020-12.xlsx
110,Uganda,1.0,1.0,0.0,1.0,1.0,0.0,0.0,1.0,0.0,0.0,0.0,0.0,,,,,2016-12-01,7-55-Bew-RueA-J-d-2020-12.xlsx
111,Total Afrika,376.0,368.0,8.0,385.0,347.0,27.0,141.0,187.0,8.0,6.0,2.0,2.0,,,,,2016-12-01,7-55-Bew-RueA-J-d-2020-12.xlsx
112,Dominikanische Republik,10.0,10.0,0.0,10.0,8.0,2.0,0.0,8.0,0.0,0.0,0.0,0.0,,,,,2016-12-01,7-55-Bew-RueA-J-d-2020-12.xlsx
113,Ecuador,2.0,2.0,0.0,1.0,1.0,0.0,0.0,1.0,0.0,0.0,0.0,0.0,,,,,2016-12-01,7-55-Bew-RueA-J-d-2020-12.xlsx
114,Kolumbien,1.0,1.0,0.0,2.0,0.0,1.0,0.0,0.0,0.0,0.0,0.0,0.0,,,,,2016-12-01,7-55-Bew-RueA-J-d-2020-12.xlsx
115,Kuba,1.0,1.0,0.0,1.0,1.0,0.0,0.0,2.0,0.0,0.0,0.0,0.0,,,,,2016-12-01,7-55-Bew-RueA-J-d-2020-12.xlsx
116,Peru,1.0,1.0,0.0,1.0,1.0,0.0,0.0,1.0,0.0,0.0,0.0,0.0,,,,,2016-12-01,7-55-Bew-RueA-J-d-2020-12.xlsx
117,Trinidad u. Tobago,1.0,1.0,0.0,1.0,1.0,0.0,0.0,1.0,0.0,0.0,0.0,0.0,,,,,2016-12-01,7-55-Bew-RueA-J-d-2020-12.xlsx
118,USA,1.0,1.0,0.0,1.0,1.0,0.0,0.0,1.0,0.0,0.0,0.0,0.0,,,,,2016-12-01,7-55-Bew-RueA-J-d-2020-12.xlsx
119,Venezuela,1.0,1.0,0.0,1.0,1.0,0.0,0.0,1.0,0.0,0.0,0.0,0.0,,,,,2016-12-01,7-55-Bew-RueA-J-d-2020-12.xlsx
120,Total Amerika,18.0,18.0,0.0,18.0,14.0,3.0,0.0,15.0,0.0,0.0,0.0,0.0,,,,,2016-12-01,7-55-Bew-RueA-J-d-2020-12.xlsx
121,Afghanistan,20.0,20.0,0.0,20.0,20.0,0.0,22.0,10.0,0.0,0.0,0.0,0.0,,,,,2016-12-01,7-55-Bew-RueA-J-d-2020-12.xlsx
122,Bangladesh,0.0,0.0,0.0,0.0,0.0,0.0,0.0,0.0,0.0,0.0,0.0,0.0,,,,,2016-12-01,7-55-Bew-RueA-J-d-2020-12.xlsx
123,China (Volksrepublik),3.0,3.0,0.0,3.0,3.0,0.0,3.0,1.0,0.0,0.0,0.0,0.0,,,,,2016-12-01,7-55-Bew-RueA-J-d-2020-12.xlsx
124,Georgien,1.0,1.0,0.0,1.0,1.0,0.0,1.0,1.0,0.0,0.0,0.0,0.0,,,,,2016-12-01,7-55-Bew-RueA-J-d-2020-12.xlsx
125,Indien,1.0,1.0,0.0,1.0,0.0,1.0,0.0,0.0,0.0,0.0,0.0,0.0,,,,,2016-12-01,7-55-Bew-RueA-J-d-2020-12.xlsx
126,Irak,12.0,12.0,0.0,14.0,13.0,0.0,7.0,3.0,0.0,0.0,0.0,0.0,,,,,2016-12-01,7-55-Bew-RueA-J-d-2020-12.xlsx
127,Iran,8.0,8.0,0.0,9.0,9.0,0.0,6.0,1.0,0.0,0.0,0.0,0.0,,,,,2016-12-01,7-55-Bew-RueA-J-d-2020-12.xlsx
128,Jemen,4.0,4.0,0.0,4.0,4.0,0.0,4.0,4.0,0.0,0.0,0.0,0.0,,,,,2016-12-01,7-55-Bew-RueA-J-d-2020-12.xlsx
129,Jordanien,2.0,2.0,0.0,2.0,2.0,0.0,2.0,1.0,0.0,0.0,0.0,0.0,,,,,2016-12-01,7-55-Bew-RueA-J-d-2020-12.xlsx
130,Laos,1.0,1.0,0.0,0.0,0.0,0.0,0.0,0.0,0.0,0.0,0.0,0.0,,,,,2016-12-01,7-55-Bew-RueA-J-d-2020-12.xlsx
131,Libanon,1.0,1.0,0.0,1.0,1.0,0.0,0.0,0.0,0.0,0.0,0.0,0.0,,,,,2016-12-01,7-55-Bew-RueA-J-d-2020-12.xlsx
132,Nepal,1.0,1.0,0.0,1.0,1.0,0.0,0.0,1.0,0.0,0.0,0.0,0.0,,,,,2016-12-01,7-55-Bew-RueA-J-d-2020-12.xlsx
133,Pakistan,2.0,2.0,0.0,2.0,2.0,0.0,4.0,4.0,0.0,0.0,0.0,0.0,,,,,2016-12-01,7-55-Bew-RueA-J-d-2020-12.xlsx
134,Sri Lanka,4.0,4.0,0.0,3.0,3.0,0.0,1.0,0.0,0.0,0.0,0.0,0.0,,,,,2016-12-01,7-55-Bew-RueA-J-d-2020-12.xlsx
135,Syrien,42.0,35.0,7.0,37.0,37.0,0.0,49.0,8.0,7.0,7.0,0.0,0.0,,,,,2016-12-01,7-55-Bew-RueA-J-d-2020-12.xlsx
136,Total Asien,102.0,95.0,7.0,98.0,96.0,1.0,99.0,34.0,7.0,7.0,0.0,0.0,,,,,2016-12-01,7-55-Bew-RueA-J-d-2020-12.xlsx
137,Albanien,2.0,2.0,0.0,2.0,2.0,0.0,1.0,2.0,0.0,0.0,0.0,0.0,,,,,2016-12-01,7-55-Bew-RueA-J-d-2020-12.xlsx
138,Belarus,1.0,1.0,0.0,1.0,1.0,0.0,0.0,0.0,0.0,0.0,0.0,0.0,,,,,2016-12-01,7-55-Bew-RueA-J-d-2020-12.xlsx
139,Bosnien u. Herzegowina,4.0,4.0,0.0,1.0,1.0,0.0,0.0,1.0,0.0,0.0,0.0,0.0,,,,,2016-12-01,7-55-Bew-RueA-J-d-2020-12.xlsx
140,Bulgarien,5.0,5.0,0.0,5.0,5.0,0.0,0.0,4.0,0.0,0.0,0.0,0.0,,,,,2016-12-01,7-55-Bew-RueA-J-d-2020-12.xlsx
141,Dänemark,1.0,1.0,0.0,1.0,1.0,0.0,0.0,0.0,0.0,0.0,0.0,0.0,,,,,2016-12-01,7-55-Bew-RueA-J-d-2020-12.xlsx
142,Estland,2.0,2.0,0.0,2.0,1.0,0.0,0.0,2.0,0.0,0.0,0.0,0.0,,,,,2016-12-01,7-55-Bew-RueA-J-d-2020-12.xlsx
143,Frankreich,1.0,1.0,0.0,1.0,0.0,1.0,0.0,0.0,0.0,0.0,0.0,0.0,,,,,2016-12-01,7-55-Bew-RueA-J-d-2020-12.xlsx
144,Grossbritannien,5.0,4.0,1.0,4.0,4.0,0.0,0.0,5.0,1.0,1.0,0.0,0.0,,,,,2016-12-01,7-55-Bew-RueA-J-d-2020-12.xlsx
145,Kosovo,2.0,2.0,0.0,2.0,2.0,0.0,0.0,2.0,0.0,0.0,0.0,0.0,,,,,2016-12-01,7-55-Bew-RueA-J-d-2020-12.xlsx
146,Kroatien,3.0,3.0,0.0,5.0,4.0,0.0,0.0,2.0,0.0,0.0,0.0,0.0,,,,,2016-12-01,7-55-Bew-RueA-J-d-2020-12.xlsx
147,Lettland,2.0,2.0,0.0,2.0,2.0,0.0,0.0,1.0,0.0,0.0,0.0,0.0,,,,,2016-12-01,7-55-Bew-RueA-J-d-2020-12.xlsx
148,Litauen,4.0,4.0,0.0,4.0,4.0,0.0,0.0,4.0,0.0,0.0,0.0,0.0,,,,,2016-12-01,7-55-Bew-RueA-J-d-2020-12.xlsx
149,Moldova,1.0,1.0,0.0,1.0,0.0,1.0,0.0,0.0,0.0,0.0,0.0,0.0,,,,,2016-12-01,7-55-Bew-RueA-J-d-2020-12.xlsx
150,Montenegro,0.0,0.0,0.0,0.0,0.0,0.0,0.0,0.0,0.0,0.0,0.0,0.0,,,,,2016-12-01,7-55-Bew-RueA-J-d-2020-12.xlsx
151,Niederlande,5.0,5.0,0.0,6.0,4.0,1.0,0.0,4.0,0.0,0.0,0.0,0.0,,,,,2016-12-01,7-55-Bew-RueA-J-d-2020-12.xlsx
152,Polen,11.0,11.0,0.0,11.0,11.0,0.0,1.0,9.0,0.0,0.0,0.0,0.0,,,,,2016-12-01,7-55-Bew-RueA-J-d-2020-12.xlsx
153,Rumänien,57.0,57.0,0.0,56.0,52.0,4.0,0.0,45.0,0.0,0.0,0.0,0.0,,,,,2016-12-01,7-55-Bew-RueA-J-d-2020-12.xlsx
154,Russland,5.0,5.0,0.0,10.0,10.0,0.0,9.0,1.0,0.0,0.0,0.0,0.0,,,,,2016-12-01,7-55-Bew-RueA-J-d-2020-12.xlsx
155,Serbien,5.0,3.0,2.0,3.0,2.0,0.0,0.0,1.0,2.0,2.0,0.0,2.0,,,,,2016-12-01,7-55-Bew-RueA-J-d-2020-12.xlsx
156,Slowakische Republik,1.0,1.0,0.0,1.0,1.0,0.0,0.0,2.0,0.0,0.0,0.0,0.0,,,,,2016-12-01,7-55-Bew-RueA-J-d-2020-12.xlsx
157,Spanien,4.0,4.0,0.0,4.0,4.0,0.0,0.0,4.0,0.0,0.0,0.0,0.0,,,,,2016-12-01,7-55-Bew-RueA-J-d-2020-12.xlsx
158,Tschechische Republik,1.0,1.0,0.0,1.0,1.0,0.0,0.0,1.0,0.0,0.0,0.0,0.0,,,,,2016-12-01,7-55-Bew-RueA-J-d-2020-12.xlsx
159,Türkei,5.0,5.0,0.0,5.0,5.0,0.0,2.0,2.0,0.0,0.0,0.0,0.0,,,,,2016-12-01,7-55-Bew-RueA-J-d-2020-12.xlsx
160,Ukraine,0.0,0.0,0.0,0.0,0.0,0.0,0.0,0.0,0.0,0.0,0.0,0.0,,,,,2016-12-01,7-55-Bew-RueA-J-d-2020-12.xlsx
161,Ungarn,9.0,9.0,0.0,8.0,8.0,0.0,0.0,7.0,0.0,0.0,0.0,0.0,,,,,2016-12-01,7-55-Bew-RueA-J-d-2020-12.xlsx
162,Total Europa,136.0,133.0,3.0,136.0,125.0,7.0,13.0,99.0,3.0,3.0,0.0,2.0,,,,,2016-12-01,7-55-Bew-RueA-J-d-2020-12.xlsx
163,Staatenlos,1.0,1.0,0.0,1.0,1.0,0.0,0.0,1.0,0.0,0.0,0.0,0.0,,,,,2016-12-01,7-55-Bew-RueA-J-d-2020-12.xlsx
164,Ohne Nationalität,6.0,6.0,0.0,6.0,6.0,0.0,6.0,0.0,0.0,0.0,0.0,0.0,,,,,2016-12-01,7-55-Bew-RueA-J-d-2020-12.xlsx
165,Staat unbekannt,28.0,28.0,0.0,27.0,19.0,7.0,3.0,10.0,0.0,0.0,0.0,0.0,,,,,2016-12-01,7-55-Bew-RueA-J-d-2020-12.xlsx
166,Total Herkunft unbek.,35.0,35.0,0.0,34.0,26.0,7.0,9.0,11.0,0.0,0.0,0.0,0.0,,,,,2016-12-01,7-55-Bew-RueA-J-d-2020-12.xlsx
167,Herkunft unbekannt,15.0,14.0,1.0,15.0,13.0,2.0,9.0,4.0,1.0,1.0,0.0,1.0,,,,,2020-12-01,7-55-Bew-RueA-J-d-2020-12.xlsx
168,Ägypten,1.0,1.0,0.0,1.0,1.0,0.0,0.0,0.0,0.0,0.0,0.0,0.0,,,,,2020-12-01,7-55-Bew-RueA-J-d-2020-12.xlsx
169,Algerien,2.0,2.0,0.0,2.0,1.0,1.0,1.0,0.0,0.0,0.0,0.0,0.0,,,,,2020-12-01,7-55-Bew-RueA-J-d-2020-12.xlsx
170,Angola,0.0,0.0,0.0,0.0,0.0,0.0,0.0,0.0,0.0,0.0,0.0,0.0,,,,,2020-12-01,7-55-Bew-RueA-J-d-2020-12.xlsx
171,Äquatorialguinea,1.0,1.0,0.0,1.0,1.0,0.0,0.0,1.0,0.0,0.0,0.0,0.0,,,,,2020-12-01,7-55-Bew-RueA-J-d-2020-12.xlsx
172,Äthiopien,4.0,3.0,1.0,3.0,3.0,0.0,1.0,3.0,1.0,1.0,0.0,0.0,,,,,2020-12-01,7-55-Bew-RueA-J-d-2020-12.xlsx
173,Côte d'Ivoire,2.0,2.0,0.0,2.0,2.0,0.0,1.0,0.0,0.0,0.0,0.0,0.0,,,,,2020-12-01,7-55-Bew-RueA-J-d-2020-12.xlsx
174,Eritrea,60.0,38.0,22.0,33.0,23.0,6.0,19.0,12.0,22.0,21.0,0.0,9.0,,,,,2020-12-01,7-55-Bew-RueA-J-d-2020-12.xlsx
175,Gabun,1.0,1.0,0.0,0.0,0.0,0.0,0.0,0.0,0.0,0.0,0.0,0.0,,,,,2020-12-01,7-55-Bew-RueA-J-d-2020-12.xlsx
176,Gambia,13.0,13.0,0.0,13.0,12.0,1.0,1.0,9.0,0.0,0.0,0.0,0.0,,,,,2020-12-01,7-55-Bew-RueA-J-d-2020-12.xlsx
177,Ghana,0.0,0.0,0.0,0.0,0.0,0.0,0.0,2.0,0.0,0.0,0.0,0.0,,,,,2020-12-01,7-55-Bew-RueA-J-d-2020-12.xlsx
178,Guinea,10.0,10.0,0.0,10.0,9.0,1.0,1.0,7.0,0.0,0.0,0.0,0.0,,,,,2020-12-01,7-55-Bew-RueA-J-d-2020-12.xlsx
179,Guinea-Bissau,1.0,1.0,0.0,1.0,0.0,1.0,1.0,0.0,0.0,0.0,0.0,0.0,,,,,2020-12-01,7-55-Bew-RueA-J-d-2020-12.xlsx
180,Kamerun,1.0,1.0,0.0,3.0,2.0,0.0,0.0,0.0,0.0,0.0,0.0,0.0,,,,,2020-12-01,7-55-Bew-RueA-J-d-2020-12.xlsx
181,Kongo,1.0,0.0,1.0,0.0,0.0,0.0,0.0,0.0,1.0,1.0,0.0,1.0,,,,,2020-12-01,7-55-Bew-RueA-J-d-2020-12.xlsx
182,Kongo DR,2.0,2.0,0.0,2.0,2.0,0.0,1.0,0.0,0.0,0.0,0.0,0.0,,,,,2020-12-01,7-55-Bew-RueA-J-d-2020-12.xlsx
183,Liberia,3.0,3.0,0.0,3.0,2.0,1.0,0.0,0.0,0.0,0.0,0.0,0.0,,,,,2020-12-01,7-55-Bew-RueA-J-d-2020-12.xlsx
184,Libyen,2.0,2.0,0.0,2.0,2.0,0.0,1.0,2.0,0.0,0.0,0.0,0.0,,,,,2020-12-01,7-55-Bew-RueA-J-d-2020-12.xlsx
185,Malawi,1.0,1.0,0.0,1.0,1.0,0.0,0.0,0.0,0.0,0.0,0.0,0.0,,,,,2020-12-01,7-55-Bew-RueA-J-d-2020-12.xlsx
186,Mali,1.0,1.0,0.0,1.0,1.0,0.0,0.0,2.0,0.0,0.0,0.0,0.0,,,,,2020-12-01,7-55-Bew-RueA-J-d-2020-12.xlsx
187,Marokko,5.0,5.0,0.0,5.0,4.0,1.0,1.0,3.0,0.0,0.0,0.0,0.0,,,,,2020-12-01,7-55-Bew-RueA-J-d-2020-12.xlsx
188,Mauretanien,1.0,1.0,0.0,1.0,1.0,0.0,0.0,0.0,0.0,0.0,0.0,0.0,,,,,2020-12-01,7-55-Bew-RueA-J-d-2020-12.xlsx
189,Niger,1.0,1.0,0.0,1.0,1.0,0.0,0.0,0.0,0.0,0.0,0.0,0.0,,,,,2020-12-01,7-55-Bew-RueA-J-d-2020-12.xlsx
190,Nigeria,89.0,89.0,0.0,75.0,68.0,5.0,4.0,48.0,0.0,0.0,0.0,0.0,,,,,2020-12-01,7-55-Bew-RueA-J-d-2020-12.xlsx
191,Senegal,8.0,8.0,0.0,7.0,5.0,2.0,0.0,4.0,0.0,0.0,0.0,0.0,,,,,2020-12-01,7-55-Bew-RueA-J-d-2020-12.xlsx
192,Sierra Leone,3.0,2.0,1.0,3.0,3.0,0.0,1.0,1.0,1.0,1.0,0.0,0.0,,,,,2020-12-01,7-55-Bew-RueA-J-d-2020-12.xlsx
193,Somalia,65.0,49.0,16.0,46.0,42.0,2.0,26.0,10.0,16.0,15.0,1.0,9.0,,,,,2020-12-01,7-55-Bew-RueA-J-d-2020-12.xlsx
194,Sudan,3.0,3.0,0.0,2.0,2.0,0.0,1.0,1.0,0.0,0.0,0.0,0.0,,,,,2020-12-01,7-55-Bew-RueA-J-d-2020-12.xlsx
195,Südsudan,1.0,1.0,0.0,1.0,1.0,0.0,0.0,0.0,0.0,0.0,0.0,0.0,,,,,2020-12-01,7-55-Bew-RueA-J-d-2020-12.xlsx
196,Togo,0.0,0.0,0.0,0.0,0.0,0.0,0.0,0.0,0.0,0.0,0.0,0.0,,,,,2020-12-01,7-55-Bew-RueA-J-d-2020-12.xlsx
197,Tschad,2.0,2.0,0.0,2.0,1.0,0.0,0.0,1.0,0.0,0.0,0.0,0.0,,,,,2020-12-01,7-55-Bew-RueA-J-d-2020-12.xlsx
198,Tunesien,2.0,2.0,0.0,2.0,1.0,1.0,0.0,0.0,0.0,0.0,0.0,0.0,,,,,2020-12-01,7-55-Bew-RueA-J-d-2020-12.xlsx
199,Zentralafr. Republik,1.0,1.0,0.0,1.0,1.0,0.0,1.0,0.0,0.0,0.0,0.0,0.0,,,,,2020-12-01,7-55-Bew-RueA-J-d-2020-12.xlsx
200,Total Afrika,287.0,246.0,41.0,224.0,192.0,22.0,61.0,106.0,41.0,39.0,1.0,19.0,,,,,2020-12-01,7-55-Bew-RueA-J-d-2020-12.xlsx
201,Bolivien,1.0,1.0,0.0,1.0,0.0,1.0,0.0,0.0,0.0,0.0,0.0,0.0,,,,,2020-12-01,7-55-Bew-RueA-J-d-2020-12.xlsx
202,Dominikanische Republik,9.0,9.0,0.0,11.0,7.0,4.0,0.0,6.0,0.0,0.0,0.0,0.0,,,,,2020-12-01,7-55-Bew-RueA-J-d-2020-12.xlsx
203,Ecuador,1.0,1.0,0.0,1.0,1.0,0.0,0.0,1.0,0.0,0.0,0.0,0.0,,,,,2020-12-01,7-55-Bew-RueA-J-d-2020-12.xlsx
204,Haiti,0.0,0.0,0.0,0.0,0.0,0.0,0.0,0.0,0.0,0.0,0.0,0.0,,,,,2020-12-01,7-55-Bew-RueA-J-d-2020-12.xlsx
205,Jamaika,1.0,1.0,0.0,1.0,1.0,0.0,1.0,1.0,0.0,0.0,0.0,0.0,,,,,2020-12-01,7-55-Bew-RueA-J-d-2020-12.xlsx
206,Kolumbien,6.0,4.0,2.0,4.0,2.0,2.0,0.0,4.0,2.0,2.0,0.0,0.0,,,,,2020-12-01,7-55-Bew-RueA-J-d-2020-12.xlsx
207,Kuba,1.0,1.0,0.0,1.0,0.0,1.0,0.0,0.0,0.0,0.0,0.0,0.0,,,,,2020-12-01,7-55-Bew-RueA-J-d-2020-12.xlsx
208,Peru,2.0,2.0,0.0,2.0,2.0,0.0,0.0,1.0,0.0,0.0,0.0,0.0,,,,,2020-12-01,7-55-Bew-RueA-J-d-2020-12.xlsx
209,Venezuela,1.0,1.0,0.0,1.0,0.0,1.0,0.0,0.0,0.0,0.0,0.0,0.0,,,,,2020-12-01,7-55-Bew-RueA-J-d-2020-12.xlsx
210,Total Amerika,22.0,20.0,2.0,22.0,13.0,9.0,1.0,13.0,2.0,2.0,0.0,0.0,,,,,2020-12-01,7-55-Bew-RueA-J-d-2020-12.xlsx
211,Afghanistan,72.0,70.0,2.0,69.0,68.0,1.0,55.0,18.0,2.0,2.0,0.0,1.0,,,,,2020-12-01,7-55-Bew-RueA-J-d-2020-12.xlsx
212,Armenien,1.0,1.0,0.0,1.0,1.0,0.0,0.0,0.0,0.0,0.0,0.0,0.0,,,,,2020-12-01,7-55-Bew-RueA-J-d-2020-12.xlsx
213,Bangladesh,0.0,0.0,0.0,0.0,0.0,0.0,0.0,0.0,0.0,0.0,0.0,0.0,,,,,2020-12-01,7-55-Bew-RueA-J-d-2020-12.xlsx
214,China (Volksrepublik),0.0,0.0,0.0,1.0,1.0,0.0,0.0,2.0,0.0,0.0,0.0,0.0,,,,,2020-12-01,7-55-Bew-RueA-J-d-2020-12.xlsx
215,Georgien,1.0,1.0,0.0,1.0,1.0,0.0,0.0,1.0,0.0,0.0,0.0,0.0,,,,,2020-12-01,7-55-Bew-RueA-J-d-2020-12.xlsx
216,Irak,41.0,39.0,2.0,33.0,33.0,0.0,32.0,5.0,2.0,2.0,0.0,2.0,,,,,2020-12-01,7-55-Bew-RueA-J-d-2020-12.xlsx
217,Iran,17.0,17.0,0.0,17.0,17.0,0.0,10.0,5.0,0.0,0.0,0.0,0.0,,,,,2020-12-01,7-55-Bew-RueA-J-d-2020-12.xlsx
218,Israel,2.0,2.0,0.0,2.0,2.0,0.0,2.0,0.0,0.0,0.0,0.0,0.0,,,,,2020-12-01,7-55-Bew-RueA-J-d-2020-12.xlsx
219,Jemen,0.0,0.0,0.0,0.0,0.0,0.0,0.0,0.0,0.0,0.0,0.0,0.0,,,,,2020-12-01,7-55-Bew-RueA-J-d-2020-12.xlsx
220,Libanon,0.0,0.0,0.0,0.0,0.0,0.0,0.0,0.0,0.0,0.0,0.0,0.0,,,,,2020-12-01,7-55-Bew-RueA-J-d-2020-12.xlsx
221,Malediven,1.0,0.0,1.0,0.0,0.0,0.0,0.0,0.0,1.0,1.0,0.0,0.0,,,,,2020-12-01,7-55-Bew-RueA-J-d-2020-12.xlsx
222,Mongolei,0.0,0.0,0.0,0.0,0.0,0.0,0.0,0.0,0.0,0.0,0.0,0.0,,,,,2020-12-01,7-55-Bew-RueA-J-d-2020-12.xlsx
223,Pakistan,2.0,2.0,0.0,3.0,3.0,0.0,0.0,1.0,0.0,0.0,0.0,0.0,,,,,2020-12-01,7-55-Bew-RueA-J-d-2020-12.xlsx
224,Sri Lanka,2.0,1.0,1.0,0.0,0.0,0.0,1.0,0.0,1.0,1.0,0.0,0.0,,,,,2020-12-01,7-55-Bew-RueA-J-d-2020-12.xlsx
225,Syrien,40.0,36.0,4.0,38.0,35.0,2.0,50.0,6.0,4.0,4.0,0.0,0.0,,,,,2020-12-01,7-55-Bew-RueA-J-d-2020-12.xlsx
226,Vietnam,1.0,1.0,0.0,1.0,0.0,1.0,0.0,0.0,0.0,0.0,0.0,0.0,,,,,2020-12-01,7-55-Bew-RueA-J-d-2020-12.xlsx
227,Total Asien,180.0,170.0,10.0,166.0,161.0,4.0,150.0,38.0,10.0,10.0,0.0,3.0,,,,,2020-12-01,7-55-Bew-RueA-J-d-2020-12.xlsx
228,Albanien,5.0,5.0,0.0,5.0,4.0,1.0,0.0,4.0,0.0,0.0,0.0,0.0,,,,,2020-12-01,7-55-Bew-RueA-J-d-2020-12.xlsx
229,Belarus,1.0,1.0,0.0,1.0,1.0,0.0,1.0,0.0,0.0,0.0,0.0,0.0,,,,,2020-12-01,7-55-Bew-RueA-J-d-2020-12.xlsx
230,Belgien,5.0,5.0,0.0,5.0,4.0,1.0,0.0,2.0,0.0,0.0,0.0,0.0,,,,,2020-12-01,7-55-Bew-RueA-J-d-2020-12.xlsx
231,Bosnien u. Herzegowina,0.0,0.0,0.0,0.0,0.0,0.0,0.0,0.0,0.0,0.0,0.0,0.0,,,,,2020-12-01,7-55-Bew-RueA-J-d-2020-12.xlsx
232,Bulgarien,1.0,1.0,0.0,1.0,1.0,0.0,0.0,1.0,0.0,0.0,0.0,0.0,,,,,2020-12-01,7-55-Bew-RueA-J-d-2020-12.xlsx
233,Deutschland,0.0,0.0,0.0,0.0,0.0,0.0,1.0,0.0,0.0,0.0,0.0,0.0,,,,,2020-12-01,7-55-Bew-RueA-J-d-2020-12.xlsx
234,Estland,2.0,2.0,0.0,2.0,2.0,0.0,0.0,0.0,0.0,0.0,0.0,0.0,,,,,2020-12-01,7-55-Bew-RueA-J-d-2020-12.xlsx
235,Grossbritannien,3.0,3.0,0.0,4.0,3.0,1.0,0.0,3.0,0.0,0.0,0.0,0.0,,,,,2020-12-01,7-55-Bew-RueA-J-d-2020-12.xlsx
236,Kosovo,1.0,0.0,1.0,0.0,0.0,0.0,0.0,1.0,1.0,1.0,0.0,1.0,,,,,2020-12-01,7-55-Bew-RueA-J-d-2020-12.xlsx
237,Kroatien,4.0,4.0,0.0,4.0,4.0,0.0,0.0,3.0,0.0,0.0,0.0,0.0,,,,,2020-12-01,7-55-Bew-RueA-J-d-2020-12.xlsx
238,Lettland,0.0,0.0,0.0,0.0,0.0,0.0,0.0,0.0,0.0,0.0,0.0,0.0,,,,,2020-12-01,7-55-Bew-RueA-J-d-2020-12.xlsx
239,Litauen,6.0,6.0,0.0,6.0,6.0,0.0,0.0,4.0,0.0,0.0,0.0,0.0,,,,,2020-12-01,7-55-Bew-RueA-J-d-2020-12.xlsx
240,Nordmazedonien,1.0,1.0,0.0,1.0,1.0,0.0,0.0,2.0,0.0,0.0,0.0,0.0,,,,,2020-12-01,7-55-Bew-RueA-J-d-2020-12.xlsx
241,Moldova,0.0,0.0,0.0,0.0,0.0,0.0,0.0,0.0,0.0,0.0,0.0,0.0,,,,,2020-12-01,7-55-Bew-RueA-J-d-2020-12.xlsx
242,Niederlande,3.0,3.0,0.0,3.0,3.0,0.0,0.0,1.0,0.0,0.0,0.0,0.0,,,,,2020-12-01,7-55-Bew-RueA-J-d-2020-12.xlsx
243,Polen,9.0,9.0,0.0,9.0,9.0,0.0,0.0,9.0,0.0,0.0,0.0,0.0,,,,,2020-12-01,7-55-Bew-RueA-J-d-2020-12.xlsx
244,Portugal,0.0,0.0,0.0,0.0,0.0,0.0,0.0,0.0,0.0,0.0,0.0,0.0,,,,,2020-12-01,7-55-Bew-RueA-J-d-2020-12.xlsx
245,Rumänien,29.0,29.0,0.0,29.0,26.0,3.0,0.0,19.0,0.0,0.0,0.0,0.0,,,,,2020-12-01,7-55-Bew-RueA-J-d-2020-12.xlsx
246,Russland,11.0,11.0,0.0,11.0,11.0,0.0,11.0,9.0,0.0,0.0,0.0,0.0,,,,,2020-12-01,7-55-Bew-RueA-J-d-2020-12.xlsx
247,Schweden,1.0,1.0,0.0,1.0,0.0,0.0,0.0,0.0,0.0,0.0,0.0,0.0,,,,,2020-12-01,7-55-Bew-RueA-J-d-2020-12.xlsx
248,Serbien,3.0,3.0,0.0,3.0,2.0,1.0,1.0,1.0,0.0,0.0,0.0,0.0,,,,,2020-12-01,7-55-Bew-RueA-J-d-2020-12.xlsx
249,Slowakische Republik,7.0,7.0,0.0,7.0,6.0,1.0,0.0,3.0,0.0,0.0,0.0,0.0,,,,,2020-12-01,7-55-Bew-RueA-J-d-2020-12.xlsx
250,Slowenien,1.0,1.0,0.0,1.0,1.0,0.0,0.0,1.0,0.0,0.0,0.0,0.0,,,,,2020-12-01,7-55-Bew-RueA-J-d-2020-12.xlsx
251,Spanien,5.0,5.0,0.0,5.0,3.0,1.0,0.0,3.0,0.0,0.0,0.0,0.0,,,,,2020-12-01,7-55-Bew-RueA-J-d-2020-12.xlsx
252,Tschechische Republik,3.0,3.0,0.0,3.0,3.0,0.0,0.0,2.0,0.0,0.0,0.0,0.0,,,,,2020-12-01,7-55-Bew-RueA-J-d-2020-12.xlsx
253,Türkei,13.0,8.0,5.0,8.0,8.0,0.0,13.0,1.0,5.0,5.0,0.0,1.0,,,,,2020-12-01,7-55-Bew-RueA-J-d-2020-12.xlsx
254,Ukraine,2.0,2.0,0.0,2.0,2.0,0.0,0.0,5.0,0.0,0.0,0.0,0.0,,,,,2020-12-01,7-55-Bew-RueA-J-d-2020-12.xlsx
255,Ungarn,3.0,3.0,0.0,3.0,3.0,0.0,0.0,3.0,0.0,0.0,0.0,0.0,,,,,2020-12-01,7-55-Bew-RueA-J-d-2020-12.xlsx
256,Total Europa,119.0,113.0,6.0,114.0,103.0,9.0,27.0,77.0,6.0,6.0,0.0,2.0,,,,,2020-12-01,7-55-Bew-RueA-J-d-2020-12.xlsx
257,Ohne Nationalität,6.0,6.0,0.0,6.0,5.0,1.0,5.0,0.0,0.0,0.0,0.0,0.0,,,,,2020-12-01,7-55-Bew-RueA-J-d-2020-12.xlsx
258,Staat unbekannt,9.0,8.0,1.0,9.0,8.0,1.0,4.0,4.0,1.0,1.0,0.0,1.0,,,,,2020-12-01,7-55-Bew-RueA-J-d-2020-12.xlsx
259,Total Herkunft unbek.,15.0,14.0,1.0,15.0,13.0,2.0,9.0,4.0,1.0,1.0,0.0,1.0,,,,,2020-12-01,7-55-Bew-RueA-J-d-2020-12.xlsx
260,Herkunft unbekannt,27.0,25.0,2.0,24.0,21.0,3.0,14.0,10.0,2.0,2.0,0.0,1.0,,,,,2014-12-01,7-55-Bew-RueA-J-d-2020-12.xlsx
261,Ägypten,9.0,9.0,0.0,7.0,7.0,0.0,7.0,3.0,0.0,0.0,0.0,0.0,,,,,2014-12-01,7-55-Bew-RueA-J-d-2020-12.xlsx
262,Algerien,13.0,13.0,0.0,12.0,6.0,6.0,0.0,5.0,0.0,0.0,0.0,0.0,,,,,2014-12-01,7-55-Bew-RueA-J-d-2020-12.xlsx
263,Angola,1.0,1.0,0.0,1.0,1.0,0.0,0.0,0.0,0.0,0.0,0.0,0.0,,,,,2014-12-01,7-55-Bew-RueA-J-d-2020-12.xlsx
264,Äquatorialguinea,1.0,1.0,0.0,1.0,1.0,0.0,0.0,1.0,0.0,0.0,0.0,0.0,,,,,2014-12-01,7-55-Bew-RueA-J-d-2020-12.xlsx
265,Äthiopien,9.0,9.0,0.0,9.0,9.0,0.0,9.0,2.0,0.0,0.0,0.0,0.0,,,,,2014-12-01,7-55-Bew-RueA-J-d-2020-12.xlsx
266,Burkina Faso,2.0,2.0,0.0,1.0,1.0,0.0,0.0,1.0,0.0,0.0,0.0,0.0,,,,,2014-12-01,7-55-Bew-RueA-J-d-2020-12.xlsx
267,Côte d'Ivoire,6.0,6.0,0.0,4.0,4.0,0.0,1.0,5.0,0.0,0.0,0.0,0.0,,,,,2014-12-01,7-55-Bew-RueA-J-d-2020-12.xlsx
268,Eritrea,137.0,131.0,6.0,90.0,90.0,0.0,57.0,14.0,6.0,6.0,0.0,3.0,,,,,2014-12-01,7-55-Bew-RueA-J-d-2020-12.xlsx
269,Gambia,14.0,14.0,0.0,13.0,11.0,2.0,2.0,8.0,0.0,0.0,0.0,0.0,,,,,2014-12-01,7-55-Bew-RueA-J-d-2020-12.xlsx
270,Ghana,1.0,1.0,0.0,0.0,0.0,0.0,0.0,0.0,0.0,0.0,0.0,0.0,,,,,2014-12-01,7-55-Bew-RueA-J-d-2020-12.xlsx
271,Guinea,14.0,14.0,0.0,11.0,11.0,0.0,0.0,8.0,0.0,0.0,0.0,0.0,,,,,2014-12-01,7-55-Bew-RueA-J-d-2020-12.xlsx
272,Guinea-Bissau,4.0,4.0,0.0,4.0,4.0,0.0,2.0,3.0,0.0,0.0,0.0,0.0,,,,,2014-12-01,7-55-Bew-RueA-J-d-2020-12.xlsx
273,Kamerun,2.0,2.0,0.0,2.0,2.0,0.0,0.0,1.0,0.0,0.0,0.0,0.0,,,,,2014-12-01,7-55-Bew-RueA-J-d-2020-12.xlsx
274,Kongo DR,3.0,1.0,2.0,1.0,0.0,0.0,7.0,0.0,2.0,2.0,0.0,1.0,,,,,2014-12-01,7-55-Bew-RueA-J-d-2020-12.xlsx
275,Liberia,10.0,10.0,0.0,9.0,6.0,3.0,4.0,4.0,0.0,0.0,0.0,0.0,,,,,2014-12-01,7-55-Bew-RueA-J-d-2020-12.xlsx
276,Libyen,3.0,3.0,0.0,3.0,3.0,0.0,2.0,0.0,0.0,0.0,0.0,0.0,,,,,2014-12-01,7-55-Bew-RueA-J-d-2020-12.xlsx
277,Mali,21.0,21.0,0.0,18.0,17.0,1.0,13.0,8.0,0.0,0.0,0.0,0.0,,,,,2014-12-01,7-55-Bew-RueA-J-d-2020-12.xlsx
278,Marokko,7.0,7.0,0.0,7.0,6.0,1.0,5.0,4.0,0.0,0.0,0.0,0.0,,,,,2014-12-01,7-55-Bew-RueA-J-d-2020-12.xlsx
279,Mauretanien,5.0,5.0,0.0,5.0,5.0,0.0,1.0,5.0,0.0,0.0,0.0,0.0,,,,,2014-12-01,7-55-Bew-RueA-J-d-2020-12.xlsx
280,Niger,3.0,3.0,0.0,3.0,3.0,0.0,2.0,1.0,0.0,0.0,0.0,0.0,,,,,2014-12-01,7-55-Bew-RueA-J-d-2020-12.xlsx
281,Nigeria,130.0,130.0,0.0,113.0,95.0,18.0,26.0,52.0,0.0,0.0,0.0,0.0,,,,,2014-12-01,7-55-Bew-RueA-J-d-2020-12.xlsx
282,Senegal,6.0,6.0,0.0,5.0,5.0,0.0,1.0,2.0,0.0,0.0,0.0,0.0,,,,,2014-12-01,7-55-Bew-RueA-J-d-2020-12.xlsx
283,Sierra Leone,4.0,4.0,0.0,4.0,3.0,1.0,0.0,3.0,0.0,0.0,0.0,0.0,,,,,2014-12-01,7-55-Bew-RueA-J-d-2020-12.xlsx
284,Somalia,49.0,45.0,4.0,36.0,30.0,6.0,27.0,3.0,4.0,4.0,0.0,0.0,,,,,2014-12-01,7-55-Bew-RueA-J-d-2020-12.xlsx
285,Sudan,7.0,7.0,0.0,4.0,4.0,0.0,7.0,0.0,0.0,0.0,0.0,0.0,,,,,2014-12-01,7-55-Bew-RueA-J-d-2020-12.xlsx
286,Südsudan,1.0,1.0,0.0,0.0,0.0,0.0,0.0,0.0,0.0,0.0,0.0,0.0,,,,,2014-12-01,7-55-Bew-RueA-J-d-2020-12.xlsx
287,Tansania,1.0,1.0,0.0,1.0,1.0,0.0,0.0,1.0,0.0,0.0,0.0,0.0,,,,,2014-12-01,7-55-Bew-RueA-J-d-2020-12.xlsx
288,Togo,1.0,1.0,0.0,1.0,1.0,0.0,1.0,1.0,0.0,0.0,0.0,0.0,,,,,2014-12-01,7-55-Bew-RueA-J-d-2020-12.xlsx
289,Tschad,1.0,1.0,0.0,1.0,1.0,0.0,0.0,0.0,0.0,0.0,0.0,0.0,,,,,2014-12-01,7-55-Bew-RueA-J-d-2020-12.xlsx
290,Tunesien,0.0,0.0,0.0,0.0,0.0,0.0,1.0,0.0,0.0,0.0,0.0,0.0,,,,,2014-12-01,7-55-Bew-RueA-J-d-2020-12.xlsx
291,Uganda,2.0,2.0,0.0,2.0,1.0,1.0,1.0,1.0,0.0,0.0,0.0,0.0,,,,,2014-12-01,7-55-Bew-RueA-J-d-2020-12.xlsx
292,Zimbabwe,2.0,2.0,0.0,2.0,1.0,1.0,0.0,1.0,0.0,0.0,0.0,0.0,,,,,2014-12-01,7-55-Bew-RueA-J-d-2020-12.xlsx
293,Total Afrika,469.0,457.0,12.0,370.0,329.0,40.0,176.0,137.0,12.0,12.0,0.0,4.0,,,,,2014-12-01,7-55-Bew-RueA-J-d-2020-12.xlsx
294,Brasilien,1.0,1.0,0.0,1.0,0.0,1.0,0.0,0.0,0.0,0.0,0.0,0.0,,,,,2014-12-01,7-55-Bew-RueA-J-d-2020-12.xlsx
295,Dominikanische Republik,25.0,25.0,0.0,25.0,20.0,5.0,0.0,16.0,0.0,0.0,0.0,0.0,,,,,2014-12-01,7-55-Bew-RueA-J-d-2020-12.xlsx
296,Ecuador,3.0,3.0,0.0,3.0,2.0,1.0,0.0,0.0,0.0,0.0,0.0,0.0,,,,,2014-12-01,7-55-Bew-RueA-J-d-2020-12.xlsx
297,Kolumbien,3.0,3.0,0.0,3.0,3.0,0.0,0.0,2.0,0.0,0.0,0.0,0.0,,,,,2014-12-01,7-55-Bew-RueA-J-d-2020-12.xlsx
298,Kuba,1.0,1.0,0.0,1.0,1.0,0.0,0.0,1.0,0.0,0.0,0.0,0.0,,,,,2014-12-01,7-55-Bew-RueA-J-d-2020-12.xlsx
299,Suriname,1.0,1.0,0.0,1.0,1.0,0.0,0.0,1.0,0.0,0.0,0.0,0.0,,,,,2014-12-01,7-55-Bew-RueA-J-d-2020-12.xlsx
300,USA,2.0,2.0,0.0,2.0,2.0,0.0,1.0,2.0,0.0,0.0,0.0,0.0,,,,,2014-12-01,7-55-Bew-RueA-J-d-2020-12.xlsx
301,Total Amerika,36.0,36.0,0.0,36.0,29.0,7.0,1.0,22.0,0.0,0.0,0.0,0.0,,,,,2014-12-01,7-55-Bew-RueA-J-d-2020-12.xlsx
302,Afghanistan,28.0,23.0,5.0,22.0,22.0,0.0,27.0,5.0,5.0,5.0,0.0,1.0,,,,,2014-12-01,7-55-Bew-RueA-J-d-2020-12.xlsx
303,Bangladesh,1.0,1.0,0.0,1.0,1.0,0.0,0.0,0.0,0.0,0.0,0.0,0.0,,,,,2014-12-01,7-55-Bew-RueA-J-d-2020-12.xlsx
304,China (Volksrepublik),1.0,1.0,0.0,1.0,1.0,0.0,4.0,1.0,0.0,0.0,0.0,0.0,,,,,2014-12-01,7-55-Bew-RueA-J-d-2020-12.xlsx
305,Georgien,1.0,1.0,0.0,1.0,1.0,0.0,0.0,2.0,0.0,0.0,0.0,0.0,,,,,2014-12-01,7-55-Bew-RueA-J-d-2020-12.xlsx
306,Irak,17.0,16.0,1.0,12.0,12.0,0.0,4.0,8.0,1.0,1.0,0.0,1.0,,,,,2014-12-01,7-55-Bew-RueA-J-d-2020-12.xlsx
307,Iran,16.0,16.0,0.0,16.0,16.0,0.0,18.0,0.0,0.0,0.0,0.0,0.0,,,,,2014-12-01,7-55-Bew-RueA-J-d-2020-12.xlsx
308,Libanon,1.0,1.0,0.0,1.0,1.0,0.0,0.0,1.0,0.0,0.0,0.0,0.0,,,,,2014-12-01,7-55-Bew-RueA-J-d-2020-12.xlsx
309,Mongolei,2.0,2.0,0.0,2.0,2.0,0.0,0.0,0.0,0.0,0.0,0.0,0.0,,,,,2014-12-01,7-55-Bew-RueA-J-d-2020-12.xlsx
310,Pakistan,4.0,4.0,0.0,4.0,4.0,0.0,0.0,1.0,0.0,0.0,0.0,0.0,,,,,2014-12-01,7-55-Bew-RueA-J-d-2020-12.xlsx
311,Sri Lanka,8.0,8.0,0.0,8.0,7.0,1.0,6.0,4.0,0.0,0.0,0.0,0.0,,,,,2014-12-01,7-55-Bew-RueA-J-d-2020-12.xlsx
312,Syrien,41.0,40.0,1.0,36.0,35.0,1.0,32.0,5.0,1.0,1.0,0.0,0.0,,,,,2014-12-01,7-55-Bew-RueA-J-d-2020-12.xlsx
313,Total Asien,120.0,113.0,7.0,104.0,102.0,2.0,91.0,27.0,7.0,7.0,0.0,2.0,,,,,2014-12-01,7-55-Bew-RueA-J-d-2020-12.xlsx
314,Belarus,1.0,1.0,0.0,1.0,1.0,0.0,0.0,1.0,0.0,0.0,0.0,0.0,,,,,2014-12-01,7-55-Bew-RueA-J-d-2020-12.xlsx
315,Belgien,2.0,2.0,0.0,2.0,1.0,1.0,0.0,0.0,0.0,0.0,0.0,0.0,,,,,2014-12-01,7-55-Bew-RueA-J-d-2020-12.xlsx
316,Bosnien u. Herzegowina,1.0,1.0,0.0,1.0,0.0,1.0,0.0,0.0,0.0,0.0,0.0,0.0,,,,,2014-12-01,7-55-Bew-RueA-J-d-2020-12.xlsx
317,Bulgarien,3.0,3.0,0.0,3.0,3.0,0.0,0.0,0.0,0.0,0.0,0.0,0.0,,,,,2014-12-01,7-55-Bew-RueA-J-d-2020-12.xlsx
318,Griechenland,1.0,1.0,0.0,1.0,0.0,1.0,0.0,0.0,0.0,0.0,0.0,0.0,,,,,2014-12-01,7-55-Bew-RueA-J-d-2020-12.xlsx
319,Grossbritannien,1.0,1.0,0.0,1.0,1.0,0.0,0.0,1.0,0.0,0.0,0.0,0.0,,,,,2014-12-01,7-55-Bew-RueA-J-d-2020-12.xlsx
320,Italien,0.0,0.0,0.0,0.0,0.0,0.0,2.0,0.0,0.0,0.0,0.0,0.0,,,,,2014-12-01,7-55-Bew-RueA-J-d-2020-12.xlsx
321,Kosovo,2.0,2.0,0.0,2.0,0.0,0.0,0.0,0.0,0.0,0.0,0.0,0.0,,,,,2014-12-01,7-55-Bew-RueA-J-d-2020-12.xlsx
322,Kroatien,5.0,5.0,0.0,2.0,1.0,0.0,0.0,2.0,0.0,0.0,0.0,0.0,,,,,2014-12-01,7-55-Bew-RueA-J-d-2020-12.xlsx
323,Lettland,2.0,2.0,0.0,2.0,2.0,0.0,0.0,2.0,0.0,0.0,0.0,0.0,,,,,2014-12-01,7-55-Bew-RueA-J-d-2020-12.xlsx
324,Litauen,6.0,6.0,0.0,5.0,4.0,1.0,0.0,3.0,0.0,0.0,0.0,0.0,,,,,2014-12-01,7-55-Bew-RueA-J-d-2020-12.xlsx
325,Mazedonien eh.Jug.Rep.,2.0,2.0,0.0,2.0,2.0,0.0,0.0,1.0,0.0,0.0,0.0,0.0,,,,,2014-12-01,7-55-Bew-RueA-J-d-2020-12.xlsx
326,Moldova,2.0,2.0,0.0,2.0,2.0,0.0,0.0,0.0,0.0,0.0,0.0,0.0,,,,,2014-12-01,7-55-Bew-RueA-J-d-2020-12.xlsx
327,Montenegro,1.0,1.0,0.0,1.0,1.0,0.0,0.0,0.0,0.0,0.0,0.0,0.0,,,,,2014-12-01,7-55-Bew-RueA-J-d-2020-12.xlsx
328,Niederlande,1.0,1.0,0.0,1.0,1.0,0.0,0.0,1.0,0.0,0.0,0.0,0.0,,,,,2014-12-01,7-55-Bew-RueA-J-d-2020-12.xlsx
329,Polen,4.0,4.0,0.0,4.0,4.0,0.0,0.0,4.0,0.0,0.0,0.0,0.0,,,,,2014-12-01,7-55-Bew-RueA-J-d-2020-12.xlsx
330,Portugal,1.0,1.0,0.0,1.0,1.0,0.0,0.0,0.0,0.0,0.0,0.0,0.0,,,,,2014-12-01,7-55-Bew-RueA-J-d-2020-12.xlsx
331,Rumänien,38.0,38.0,0.0,31.0,31.0,0.0,1.0,31.0,0.0,0.0,0.0,0.0,,,,,2014-12-01,7-55-Bew-RueA-J-d-2020-12.xlsx
332,Russland,5.0,5.0,0.0,5.0,5.0,0.0,4.0,1.0,0.0,0.0,0.0,0.0,,,,,2014-12-01,7-55-Bew-RueA-J-d-2020-12.xlsx
333,Serbien,2.0,2.0,0.0,2.0,2.0,0.0,0.0,1.0,0.0,0.0,0.0,0.0,,,,,2014-12-01,7-55-Bew-RueA-J-d-2020-12.xlsx
334,Slowakische Republik,9.0,9.0,0.0,9.0,9.0,0.0,0.0,1.0,0.0,0.0,0.0,0.0,,,,,2014-12-01,7-55-Bew-RueA-J-d-2020-12.xlsx
335,Spanien,4.0,4.0,0.0,3.0,3.0,0.0,1.0,3.0,0.0,0.0,0.0,0.0,,,,,2014-12-01,7-55-Bew-RueA-J-d-2020-12.xlsx
336,Tschechische Republik,1.0,1.0,0.0,1.0,1.0,0.0,0.0,1.0,0.0,0.0,0.0,0.0,,,,,2014-12-01,7-55-Bew-RueA-J-d-2020-12.xlsx
337,Türkei,3.0,3.0,0.0,3.0,2.0,1.0,1.0,1.0,0.0,0.0,0.0,0.0,,,,,2014-12-01,7-55-Bew-RueA-J-d-2020-12.xlsx
338,Ukraine,5.0,5.0,0.0,5.0,5.0,0.0,1.0,3.0,0.0,0.0,0.0,0.0,,,,,2014-12-01,7-55-Bew-RueA-J-d-2020-12.xlsx
339,Ungarn,7.0,7.0,0.0,7.0,7.0,0.0,0.0,7.0,0.0,0.0,0.0,0.0,,,,,2014-12-01,7-55-Bew-RueA-J-d-2020-12.xlsx
340,Total Europa,109.0,109.0,0.0,97.0,89.0,5.0,10.0,64.0,0.0,0.0,0.0,0.0,,,,,2014-12-01,7-55-Bew-RueA-J-d-2020-12.xlsx
341,Staatenlos,1.0,1.0,0.0,1.0,1.0,0.0,0.0,1.0,0.0,0.0,0.0,0.0,,,,,2014-12-01,7-55-Bew-RueA-J-d-2020-12.xlsx
342,Ohne Nationalität,3.0,2.0,1.0,2.0,2.0,0.0,7.0,2.0,1.0,1.0,0.0,0.0,,,,,2014-12-01,7-55-Bew-RueA-J-d-2020-12.xlsx
343,Staat unbekannt,23.0,22.0,1.0,21.0,18.0,3.0,7.0,7.0,1.0,1.0,0.0,1.0,,,,,2014-12-01,7-55-Bew-RueA-J-d-2020-12.xlsx
344,Total Herkunft unbek.,27.0,25.0,2.0,24.0,21.0,3.0,14.0,10.0,2.0,2.0,0.0,1.0,,,,,2014-12-01,7-55-Bew-RueA-J-d-2020-12.xlsx
345,Herkunft unbekannt,18.0,18.0,0.0,16.0,14.0,2.0,5.0,8.0,0.0,0.0,0.0,0.0,,,,,2015-12-01,7-55-Bew-RueA-J-d-2020-12.xlsx
346,Ägypten,8.0,8.0,0.0,10.0,6.0,0.0,1.0,0.0,0.0,0.0,0.0,0.0,,,,,2015-12-01,7-55-Bew-RueA-J-d-2020-12.xlsx
347,Algerien,7.0,7.0,0.0,8.0,7.0,1.0,0.0,6.0,0.0,0.0,0.0,0.0,,,,,2015-12-01,7-55-Bew-RueA-J-d-2020-12.xlsx
348,Angola,1.0,0.0,1.0,0.0,0.0,0.0,0.0,0.0,1.0,0.0,1.0,0.0,,,,,2015-12-01,7-55-Bew-RueA-J-d-2020-12.xlsx
349,Äthiopien,20.0,15.0,5.0,15.0,15.0,0.0,9.0,1.0,5.0,5.0,0.0,4.0,,,,,2015-12-01,7-55-Bew-RueA-J-d-2020-12.xlsx
350,Burkina Faso,0.0,0.0,0.0,1.0,1.0,0.0,1.0,1.0,0.0,0.0,0.0,0.0,,,,,2015-12-01,7-55-Bew-RueA-J-d-2020-12.xlsx
351,Côte d'Ivoire,3.0,3.0,0.0,3.0,3.0,0.0,1.0,2.0,0.0,0.0,0.0,0.0,,,,,2015-12-01,7-55-Bew-RueA-J-d-2020-12.xlsx
352,Eritrea,88.0,87.0,1.0,84.0,80.0,4.0,69.0,15.0,1.0,1.0,0.0,1.0,,,,,2015-12-01,7-55-Bew-RueA-J-d-2020-12.xlsx
353,Gambia,20.0,20.0,0.0,16.0,13.0,3.0,5.0,12.0,0.0,0.0,0.0,0.0,,,,,2015-12-01,7-55-Bew-RueA-J-d-2020-12.xlsx
354,Ghana,4.0,4.0,0.0,4.0,2.0,2.0,0.0,1.0,0.0,0.0,0.0,0.0,,,,,2015-12-01,7-55-Bew-RueA-J-d-2020-12.xlsx
355,Guinea,11.0,11.0,0.0,13.0,8.0,5.0,2.0,7.0,0.0,0.0,0.0,0.0,,,,,2015-12-01,7-55-Bew-RueA-J-d-2020-12.xlsx
356,Guinea-Bissau,6.0,6.0,0.0,5.0,4.0,1.0,1.0,1.0,0.0,0.0,0.0,0.0,,,,,2015-12-01,7-55-Bew-RueA-J-d-2020-12.xlsx
357,Kamerun,1.0,1.0,0.0,1.0,1.0,0.0,0.0,2.0,0.0,0.0,0.0,0.0,,,,,2015-12-01,7-55-Bew-RueA-J-d-2020-12.xlsx
358,Kongo DR,1.0,1.0,0.0,1.0,1.0,0.0,1.0,0.0,0.0,0.0,0.0,0.0,,,,,2015-12-01,7-55-Bew-RueA-J-d-2020-12.xlsx
359,Liberia,2.0,2.0,0.0,3.0,3.0,0.0,1.0,2.0,0.0,0.0,0.0,0.0,,,,,2015-12-01,7-55-Bew-RueA-J-d-2020-12.xlsx
360,Libyen,2.0,1.0,1.0,1.0,1.0,0.0,0.0,0.0,1.0,1.0,0.0,0.0,,,,,2015-12-01,7-55-Bew-RueA-J-d-2020-12.xlsx
361,Mali,12.0,12.0,0.0,14.0,12.0,1.0,6.0,7.0,0.0,0.0,0.0,0.0,,,,,2015-12-01,7-55-Bew-RueA-J-d-2020-12.xlsx
362,Marokko,6.0,6.0,0.0,6.0,4.0,2.0,1.0,0.0,0.0,0.0,0.0,0.0,,,,,2015-12-01,7-55-Bew-RueA-J-d-2020-12.xlsx
363,Niger,1.0,1.0,0.0,1.0,1.0,0.0,0.0,0.0,0.0,0.0,0.0,0.0,,,,,2015-12-01,7-55-Bew-RueA-J-d-2020-12.xlsx
364,Nigeria,102.0,102.0,0.0,104.0,96.0,5.0,18.0,64.0,0.0,0.0,0.0,0.0,,,,,2015-12-01,7-55-Bew-RueA-J-d-2020-12.xlsx
365,Senegal,11.0,11.0,0.0,11.0,9.0,2.0,3.0,7.0,0.0,0.0,0.0,0.0,,,,,2015-12-01,7-55-Bew-RueA-J-d-2020-12.xlsx
366,Sierra Leone,2.0,2.0,0.0,2.0,2.0,0.0,0.0,1.0,0.0,0.0,0.0,0.0,,,,,2015-12-01,7-55-Bew-RueA-J-d-2020-12.xlsx
367,Somalia,48.0,44.0,4.0,35.0,31.0,4.0,18.0,6.0,4.0,4.0,0.0,0.0,,,,,2015-12-01,7-55-Bew-RueA-J-d-2020-12.xlsx
368,Sudan,5.0,5.0,0.0,4.0,4.0,0.0,5.0,3.0,0.0,0.0,0.0,0.0,,,,,2015-12-01,7-55-Bew-RueA-J-d-2020-12.xlsx
369,Südsudan,0.0,0.0,0.0,1.0,1.0,0.0,1.0,0.0,0.0,0.0,0.0,0.0,,,,,2015-12-01,7-55-Bew-RueA-J-d-2020-12.xlsx
370,Togo,3.0,3.0,0.0,2.0,2.0,0.0,1.0,1.0,0.0,0.0,0.0,0.0,,,,,2015-12-01,7-55-Bew-RueA-J-d-2020-12.xlsx
371,Tschad,2.0,2.0,0.0,2.0,1.0,1.0,0.0,0.0,0.0,0.0,0.0,0.0,,,,,2015-12-01,7-55-Bew-RueA-J-d-2020-12.xlsx
372,Tunesien,2.0,2.0,0.0,2.0,2.0,0.0,0.0,1.0,0.0,0.0,0.0,0.0,,,,,2015-12-01,7-55-Bew-RueA-J-d-2020-12.xlsx
373,Total Afrika,368.0,356.0,12.0,349.0,310.0,31.0,144.0,140.0,12.0,11.0,1.0,5.0,,,,,2015-12-01,7-55-Bew-RueA-J-d-2020-12.xlsx
374,Bolivien,2.0,2.0,0.0,2.0,2.0,0.0,0.0,2.0,0.0,0.0,0.0,0.0,,,,,2015-12-01,7-55-Bew-RueA-J-d-2020-12.xlsx
375,Dominikanische Republik,15.0,15.0,0.0,15.0,14.0,1.0,0.0,13.0,0.0,0.0,0.0,0.0,,,,,2015-12-01,7-55-Bew-RueA-J-d-2020-12.xlsx
376,Ecuador,2.0,2.0,0.0,2.0,2.0,0.0,0.0,1.0,0.0,0.0,0.0,0.0,,,,,2015-12-01,7-55-Bew-RueA-J-d-2020-12.xlsx
377,Haiti,4.0,4.0,0.0,0.0,0.0,0.0,0.0,0.0,0.0,0.0,0.0,0.0,,,,,2015-12-01,7-55-Bew-RueA-J-d-2020-12.xlsx
378,Kanada,1.0,1.0,0.0,1.0,1.0,0.0,0.0,1.0,0.0,0.0,0.0,0.0,,,,,2015-12-01,7-55-Bew-RueA-J-d-2020-12.xlsx
379,Kolumbien,4.0,4.0,0.0,3.0,2.0,0.0,0.0,3.0,0.0,0.0,0.0,0.0,,,,,2015-12-01,7-55-Bew-RueA-J-d-2020-12.xlsx
380,Kuba,1.0,1.0,0.0,1.0,1.0,0.0,0.0,0.0,0.0,0.0,0.0,0.0,,,,,2015-12-01,7-55-Bew-RueA-J-d-2020-12.xlsx
381,Trinidad u. Tobago,1.0,1.0,0.0,1.0,1.0,0.0,0.0,0.0,0.0,0.0,0.0,0.0,,,,,2015-12-01,7-55-Bew-RueA-J-d-2020-12.xlsx
382,Total Amerika,30.0,30.0,0.0,25.0,23.0,1.0,0.0,20.0,0.0,0.0,0.0,0.0,,,,,2015-12-01,7-55-Bew-RueA-J-d-2020-12.xlsx
383,Afghanistan,24.0,24.0,0.0,25.0,25.0,0.0,13.0,3.0,0.0,0.0,0.0,0.0,,,,,2015-12-01,7-55-Bew-RueA-J-d-2020-12.xlsx
384,Bangladesh,1.0,1.0,0.0,1.0,1.0,0.0,2.0,0.0,0.0,0.0,0.0,0.0,,,,,2015-12-01,7-55-Bew-RueA-J-d-2020-12.xlsx
385,China (Volksrepublik),10.0,10.0,0.0,10.0,10.0,0.0,4.0,6.0,0.0,0.0,0.0,0.0,,,,,2015-12-01,7-55-Bew-RueA-J-d-2020-12.xlsx
386,Georgien,3.0,3.0,0.0,3.0,2.0,1.0,0.0,2.0,0.0,0.0,0.0,0.0,,,,,2015-12-01,7-55-Bew-RueA-J-d-2020-12.xlsx
387,Irak,7.0,6.0,1.0,7.0,6.0,1.0,1.0,1.0,1.0,1.0,0.0,1.0,,,,,2015-12-01,7-55-Bew-RueA-J-d-2020-12.xlsx
388,Iran,3.0,3.0,0.0,2.0,2.0,0.0,4.0,1.0,0.0,0.0,0.0,0.0,,,,,2015-12-01,7-55-Bew-RueA-J-d-2020-12.xlsx
389,Sri Lanka,4.0,4.0,0.0,4.0,3.0,1.0,2.0,1.0,0.0,0.0,0.0,0.0,,,,,2015-12-01,7-55-Bew-RueA-J-d-2020-12.xlsx
390,Syrien,58.0,58.0,0.0,54.0,52.0,2.0,24.0,15.0,0.0,0.0,0.0,0.0,,,,,2015-12-01,7-55-Bew-RueA-J-d-2020-12.xlsx
391,Total Asien,110.0,109.0,1.0,106.0,101.0,5.0,50.0,29.0,1.0,1.0,0.0,1.0,,,,,2015-12-01,7-55-Bew-RueA-J-d-2020-12.xlsx
392,Belarus,1.0,1.0,0.0,1.0,1.0,0.0,0.0,1.0,0.0,0.0,0.0,0.0,,,,,2015-12-01,7-55-Bew-RueA-J-d-2020-12.xlsx
393,Belgien,2.0,2.0,0.0,1.0,1.0,0.0,0.0,0.0,0.0,0.0,0.0,0.0,,,,,2015-12-01,7-55-Bew-RueA-J-d-2020-12.xlsx
394,Bosnien u. Herzegowina,6.0,6.0,0.0,6.0,0.0,6.0,0.0,0.0,0.0,0.0,0.0,0.0,,,,,2015-12-01,7-55-Bew-RueA-J-d-2020-12.xlsx
395,Grossbritannien,1.0,1.0,0.0,1.0,1.0,0.0,0.0,1.0,0.0,0.0,0.0,0.0,,,,,2015-12-01,7-55-Bew-RueA-J-d-2020-12.xlsx
396,Kosovo,3.0,3.0,0.0,3.0,3.0,0.0,1.0,0.0,0.0,0.0,0.0,0.0,,,,,2015-12-01,7-55-Bew-RueA-J-d-2020-12.xlsx
397,Kroatien,2.0,2.0,0.0,1.0,1.0,0.0,0.0,4.0,0.0,0.0,0.0,0.0,,,,,2015-12-01,7-55-Bew-RueA-J-d-2020-12.xlsx
398,Litauen,1.0,1.0,0.0,1.0,1.0,0.0,0.0,0.0,0.0,0.0,0.0,0.0,,,,,2015-12-01,7-55-Bew-RueA-J-d-2020-12.xlsx
399,Mazedonien eh.Jug.Rep.,1.0,1.0,0.0,1.0,1.0,0.0,0.0,1.0,0.0,0.0,0.0,0.0,,,,,2015-12-01,7-55-Bew-RueA-J-d-2020-12.xlsx
400,Moldova,1.0,1.0,0.0,1.0,1.0,0.0,0.0,0.0,0.0,0.0,0.0,0.0,,,,,2015-12-01,7-55-Bew-RueA-J-d-2020-12.xlsx
401,Montenegro,3.0,3.0,0.0,3.0,0.0,3.0,0.0,0.0,0.0,0.0,0.0,0.0,,,,,2015-12-01,7-55-Bew-RueA-J-d-2020-12.xlsx
402,Niederlande,2.0,2.0,0.0,1.0,1.0,0.0,0.0,1.0,0.0,0.0,0.0,0.0,,,,,2015-12-01,7-55-Bew-RueA-J-d-2020-12.xlsx
403,Polen,9.0,9.0,0.0,9.0,9.0,0.0,0.0,3.0,0.0,0.0,0.0,0.0,,,,,2015-12-01,7-55-Bew-RueA-J-d-2020-12.xlsx
404,Rumänien,41.0,41.0,0.0,42.0,38.0,4.0,0.0,37.0,0.0,0.0,0.0,0.0,,,,,2015-12-01,7-55-Bew-RueA-J-d-2020-12.xlsx
405,Russland,12.0,12.0,0.0,7.0,7.0,0.0,7.0,0.0,0.0,0.0,0.0,0.0,,,,,2015-12-01,7-55-Bew-RueA-J-d-2020-12.xlsx
406,Serbien,3.0,3.0,0.0,3.0,2.0,1.0,0.0,1.0,0.0,0.0,0.0,0.0,,,,,2015-12-01,7-55-Bew-RueA-J-d-2020-12.xlsx
407,Slowakische Republik,4.0,4.0,0.0,4.0,4.0,0.0,0.0,2.0,0.0,0.0,0.0,0.0,,,,,2015-12-01,7-55-Bew-RueA-J-d-2020-12.xlsx
408,Slowenien,1.0,1.0,0.0,1.0,1.0,0.0,0.0,1.0,0.0,0.0,0.0,0.0,,,,,2015-12-01,7-55-Bew-RueA-J-d-2020-12.xlsx
409,Spanien,4.0,4.0,0.0,4.0,4.0,0.0,0.0,3.0,0.0,0.0,0.0,0.0,,,,,2015-12-01,7-55-Bew-RueA-J-d-2020-12.xlsx
410,Tschechische Republik,1.0,1.0,0.0,1.0,1.0,0.0,0.0,1.0,0.0,0.0,0.0,0.0,,,,,2015-12-01,7-55-Bew-RueA-J-d-2020-12.xlsx
411,Türkei,3.0,3.0,0.0,3.0,3.0,0.0,1.0,1.0,0.0,0.0,0.0,0.0,,,,,2015-12-01,7-55-Bew-RueA-J-d-2020-12.xlsx
412,Ungarn,1.0,1.0,0.0,1.0,1.0,0.0,0.0,1.0,0.0,0.0,0.0,0.0,,,,,2015-12-01,7-55-Bew-RueA-J-d-2020-12.xlsx
413,Total Europa,102.0,102.0,0.0,95.0,81.0,14.0,9.0,58.0,0.0,0.0,0.0,0.0,,,,,2015-12-01,7-55-Bew-RueA-J-d-2020-12.xlsx
414,Ohne Nationalität,5.0,5.0,0.0,5.0,5.0,0.0,4.0,2.0,0.0,0.0,0.0,0.0,,,,,2015-12-01,7-55-Bew-RueA-J-d-2020-12.xlsx
415,Staat unbekannt,13.0,13.0,0.0,11.0,9.0,2.0,1.0,6.0,0.0,0.0,0.0,0.0,,,,,2015-12-01,7-55-Bew-RueA-J-d-2020-12.xlsx
416,Total Herkunft unbek.,18.0,18.0,0.0,16.0,14.0,2.0,5.0,8.0,0.0,0.0,0.0,0.0,,,,,2015-12-01,7-55-Bew-RueA-J-d-2020-12.xlsx
417,Herkunft unbekannt,27.0,27.0,0.0,27.0,25.0,2.0,7.0,20.0,0.0,0.0,0.0,0.0,,,,,2019-12-01,7-55-Bew-RueA-J-d-2020-12.xlsx
418,Ägypten,1.0,1.0,0.0,1.0,1.0,0.0,1.0,0.0,0.0,0.0,0.0,0.0,,,,,2019-12-01,7-55-Bew-RueA-J-d-2020-12.xlsx
419,Algerien,8.0,8.0,0.0,9.0,5.0,4.0,0.0,7.0,0.0,0.0,0.0,0.0,,,,,2019-12-01,7-55-Bew-RueA-J-d-2020-12.xlsx
420,Angola,1.0,1.0,0.0,1.0,1.0,0.0,1.0,1.0,0.0,0.0,0.0,0.0,,,,,2019-12-01,7-55-Bew-RueA-J-d-2020-12.xlsx
421,Äquatorialguinea,1.0,1.0,0.0,0.0,0.0,0.0,0.0,0.0,0.0,0.0,0.0,0.0,,,,,2019-12-01,7-55-Bew-RueA-J-d-2020-12.xlsx
422,Äthiopien,2.0,2.0,0.0,2.0,2.0,0.0,5.0,0.0,0.0,0.0,0.0,0.0,,,,,2019-12-01,7-55-Bew-RueA-J-d-2020-12.xlsx
423,Benin,1.0,1.0,0.0,1.0,0.0,1.0,0.0,0.0,0.0,0.0,0.0,0.0,,,,,2019-12-01,7-55-Bew-RueA-J-d-2020-12.xlsx
424,Burundi,1.0,1.0,0.0,1.0,1.0,0.0,1.0,0.0,0.0,0.0,0.0,0.0,,,,,2019-12-01,7-55-Bew-RueA-J-d-2020-12.xlsx
425,Côte d'Ivoire,4.0,4.0,0.0,3.0,3.0,0.0,0.0,3.0,0.0,0.0,0.0,0.0,,,,,2019-12-01,7-55-Bew-RueA-J-d-2020-12.xlsx
426,Eritrea,58.0,33.0,25.0,29.0,28.0,0.0,21.0,11.0,25.0,25.0,0.0,11.0,,,,,2019-12-01,7-55-Bew-RueA-J-d-2020-12.xlsx
427,Gabun,1.0,1.0,0.0,1.0,1.0,0.0,0.0,0.0,0.0,0.0,0.0,0.0,,,,,2019-12-01,7-55-Bew-RueA-J-d-2020-12.xlsx
428,Gambia,20.0,20.0,0.0,15.0,14.0,0.0,2.0,12.0,0.0,0.0,0.0,0.0,,,,,2019-12-01,7-55-Bew-RueA-J-d-2020-12.xlsx
429,Ghana,1.0,1.0,0.0,1.0,1.0,0.0,2.0,2.0,0.0,0.0,0.0,0.0,,,,,2019-12-01,7-55-Bew-RueA-J-d-2020-12.xlsx
430,Guinea,14.0,14.0,0.0,12.0,9.0,2.0,1.0,10.0,0.0,0.0,0.0,0.0,,,,,2019-12-01,7-55-Bew-RueA-J-d-2020-12.xlsx
431,Guinea-Bissau,3.0,3.0,0.0,3.0,2.0,1.0,0.0,2.0,0.0,0.0,0.0,0.0,,,,,2019-12-01,7-55-Bew-RueA-J-d-2020-12.xlsx
432,Kamerun,5.0,4.0,1.0,2.0,2.0,0.0,2.0,0.0,1.0,1.0,0.0,0.0,,,,,2019-12-01,7-55-Bew-RueA-J-d-2020-12.xlsx
433,Kenia,1.0,1.0,0.0,2.0,1.0,0.0,1.0,1.0,0.0,0.0,0.0,0.0,,,,,2019-12-01,7-55-Bew-RueA-J-d-2020-12.xlsx
434,Kongo DR,2.0,2.0,0.0,3.0,2.0,0.0,0.0,0.0,0.0,0.0,0.0,0.0,,,,,2019-12-01,7-55-Bew-RueA-J-d-2020-12.xlsx
435,Liberia,1.0,1.0,0.0,1.0,0.0,1.0,0.0,0.0,0.0,0.0,0.0,0.0,,,,,2019-12-01,7-55-Bew-RueA-J-d-2020-12.xlsx
436,Mali,4.0,4.0,0.0,5.0,5.0,0.0,0.0,4.0,0.0,0.0,0.0,0.0,,,,,2019-12-01,7-55-Bew-RueA-J-d-2020-12.xlsx
437,Marokko,10.0,8.0,2.0,8.0,7.0,1.0,6.0,3.0,2.0,1.0,1.0,1.0,,,,,2019-12-01,7-55-Bew-RueA-J-d-2020-12.xlsx
438,Mauretanien,2.0,2.0,0.0,2.0,2.0,0.0,0.0,2.0,0.0,0.0,0.0,0.0,,,,,2019-12-01,7-55-Bew-RueA-J-d-2020-12.xlsx
439,Nigeria,93.0,93.0,0.0,88.0,68.0,9.0,7.0,63.0,0.0,0.0,0.0,0.0,,,,,2019-12-01,7-55-Bew-RueA-J-d-2020-12.xlsx
440,Senegal,6.0,6.0,0.0,6.0,5.0,1.0,0.0,3.0,0.0,0.0,0.0,0.0,,,,,2019-12-01,7-55-Bew-RueA-J-d-2020-12.xlsx
441,Sierra Leone,1.0,1.0,0.0,0.0,0.0,0.0,0.0,0.0,0.0,0.0,0.0,0.0,,,,,2019-12-01,7-55-Bew-RueA-J-d-2020-12.xlsx
442,Somalia,49.0,43.0,6.0,29.0,24.0,1.0,33.0,11.0,6.0,2.0,4.0,0.0,,,,,2019-12-01,7-55-Bew-RueA-J-d-2020-12.xlsx
443,Sudan,5.0,5.0,0.0,5.0,4.0,1.0,3.0,2.0,0.0,0.0,0.0,0.0,,,,,2019-12-01,7-55-Bew-RueA-J-d-2020-12.xlsx
444,Südsudan,1.0,1.0,0.0,1.0,1.0,0.0,1.0,0.0,0.0,0.0,0.0,0.0,,,,,2019-12-01,7-55-Bew-RueA-J-d-2020-12.xlsx
445,Tansania,0.0,0.0,0.0,0.0,0.0,0.0,0.0,1.0,0.0,0.0,0.0,0.0,,,,,2019-12-01,7-55-Bew-RueA-J-d-2020-12.xlsx
446,Togo,1.0,1.0,0.0,1.0,1.0,0.0,0.0,0.0,0.0,0.0,0.0,0.0,,,,,2019-12-01,7-55-Bew-RueA-J-d-2020-12.xlsx
447,Tschad,5.0,5.0,0.0,0.0,0.0,0.0,0.0,0.0,0.0,0.0,0.0,0.0,,,,,2019-12-01,7-55-Bew-RueA-J-d-2020-12.xlsx
448,Tunesien,2.0,2.0,0.0,2.0,2.0,0.0,0.0,1.0,0.0,0.0,0.0,0.0,,,,,2019-12-01,7-55-Bew-RueA-J-d-2020-12.xlsx
449,Zentralafr. Republik,1.0,1.0,0.0,1.0,1.0,0.0,1.0,1.0,0.0,0.0,0.0,0.0,,,,,2019-12-01,7-55-Bew-RueA-J-d-2020-12.xlsx
450,Zimbabwe,1.0,1.0,0.0,1.0,0.0,1.0,0.0,0.0,0.0,0.0,0.0,0.0,,,,,2019-12-01,7-55-Bew-RueA-J-d-2020-12.xlsx
451,Total Afrika,306.0,272.0,34.0,236.0,193.0,23.0,88.0,140.0,34.0,29.0,5.0,12.0,,,,,2019-12-01,7-55-Bew-RueA-J-d-2020-12.xlsx
452,Chile,1.0,1.0,0.0,1.0,1.0,0.0,0.0,1.0,0.0,0.0,0.0,0.0,,,,,2019-12-01,7-55-Bew-RueA-J-d-2020-12.xlsx
453,Dominikanische Republik,24.0,24.0,0.0,22.0,16.0,5.0,0.0,14.0,0.0,0.0,0.0,0.0,,,,,2019-12-01,7-55-Bew-RueA-J-d-2020-12.xlsx
454,Ecuador,2.0,2.0,0.0,2.0,1.0,1.0,0.0,1.0,0.0,0.0,0.0,0.0,,,,,2019-12-01,7-55-Bew-RueA-J-d-2020-12.xlsx
455,Kolumbien,4.0,4.0,0.0,4.0,2.0,2.0,0.0,2.0,0.0,0.0,0.0,0.0,,,,,2019-12-01,7-55-Bew-RueA-J-d-2020-12.xlsx
456,Kuba,1.0,1.0,0.0,1.0,1.0,0.0,0.0,1.0,0.0,0.0,0.0,0.0,,,,,2019-12-01,7-55-Bew-RueA-J-d-2020-12.xlsx
457,Mexiko,1.0,1.0,0.0,1.0,1.0,0.0,0.0,0.0,0.0,0.0,0.0,0.0,,,,,2019-12-01,7-55-Bew-RueA-J-d-2020-12.xlsx
458,Peru,0.0,0.0,0.0,0.0,0.0,0.0,0.0,1.0,0.0,0.0,0.0,0.0,,,,,2019-12-01,7-55-Bew-RueA-J-d-2020-12.xlsx
459,Venezuela,2.0,2.0,0.0,2.0,1.0,1.0,0.0,1.0,0.0,0.0,0.0,0.0,,,,,2019-12-01,7-55-Bew-RueA-J-d-2020-12.xlsx
460,Total Amerika,35.0,35.0,0.0,33.0,23.0,9.0,0.0,21.0,0.0,0.0,0.0,0.0,,,,,2019-12-01,7-55-Bew-RueA-J-d-2020-12.xlsx
461,Afghanistan,93.0,90.0,3.0,97.0,87.0,8.0,72.0,10.0,3.0,3.0,0.0,1.0,,,,,2019-12-01,7-55-Bew-RueA-J-d-2020-12.xlsx
462,China (Volksrepublik),9.0,9.0,0.0,9.0,7.0,2.0,1.0,5.0,0.0,0.0,0.0,0.0,,,,,2019-12-01,7-55-Bew-RueA-J-d-2020-12.xlsx
463,Georgien,2.0,2.0,0.0,1.0,0.0,1.0,3.0,0.0,0.0,0.0,0.0,0.0,,,,,2019-12-01,7-55-Bew-RueA-J-d-2020-12.xlsx
464,Irak,79.0,78.0,1.0,76.0,71.0,3.0,59.0,13.0,1.0,1.0,0.0,0.0,,,,,2019-12-01,7-55-Bew-RueA-J-d-2020-12.xlsx
465,Iran,20.0,20.0,0.0,21.0,20.0,0.0,22.0,5.0,0.0,0.0,0.0,0.0,,,,,2019-12-01,7-55-Bew-RueA-J-d-2020-12.xlsx
466,Jemen,1.0,1.0,0.0,1.0,1.0,0.0,0.0,0.0,0.0,0.0,0.0,0.0,,,,,2019-12-01,7-55-Bew-RueA-J-d-2020-12.xlsx
467,Libanon,1.0,0.0,1.0,0.0,0.0,0.0,0.0,0.0,1.0,1.0,0.0,0.0,,,,,2019-12-01,7-55-Bew-RueA-J-d-2020-12.xlsx
468,Nepal,1.0,1.0,0.0,1.0,0.0,1.0,0.0,0.0,0.0,0.0,0.0,0.0,,,,,2019-12-01,7-55-Bew-RueA-J-d-2020-12.xlsx
469,Pakistan,7.0,7.0,0.0,11.0,9.0,1.0,5.0,6.0,0.0,0.0,0.0,0.0,,,,,2019-12-01,7-55-Bew-RueA-J-d-2020-12.xlsx
470,Sri Lanka,2.0,2.0,0.0,1.0,1.0,0.0,1.0,0.0,0.0,0.0,0.0,0.0,,,,,2019-12-01,7-55-Bew-RueA-J-d-2020-12.xlsx
471,Syrien,66.0,62.0,4.0,68.0,67.0,0.0,30.0,11.0,4.0,1.0,3.0,1.0,,,,,2019-12-01,7-55-Bew-RueA-J-d-2020-12.xlsx
472,Thailand,1.0,0.0,1.0,0.0,0.0,0.0,0.0,0.0,1.0,1.0,0.0,0.0,,,,,2019-12-01,7-55-Bew-RueA-J-d-2020-12.xlsx
473,Total Asien,282.0,272.0,10.0,286.0,263.0,16.0,193.0,50.0,10.0,7.0,3.0,2.0,,,,,2019-12-01,7-55-Bew-RueA-J-d-2020-12.xlsx
474,Albanien,3.0,2.0,1.0,2.0,2.0,0.0,0.0,2.0,1.0,1.0,0.0,1.0,,,,,2019-12-01,7-55-Bew-RueA-J-d-2020-12.xlsx
475,Bosnien u. Herzegowina,1.0,0.0,1.0,0.0,0.0,0.0,0.0,0.0,1.0,1.0,0.0,1.0,,,,,2019-12-01,7-55-Bew-RueA-J-d-2020-12.xlsx
476,Bulgarien,1.0,1.0,0.0,1.0,1.0,0.0,0.0,0.0,0.0,0.0,0.0,0.0,,,,,2019-12-01,7-55-Bew-RueA-J-d-2020-12.xlsx
477,Estland,1.0,1.0,0.0,1.0,0.0,1.0,0.0,0.0,0.0,0.0,0.0,0.0,,,,,2019-12-01,7-55-Bew-RueA-J-d-2020-12.xlsx
478,Griechenland,2.0,2.0,0.0,2.0,2.0,0.0,0.0,1.0,0.0,0.0,0.0,0.0,,,,,2019-12-01,7-55-Bew-RueA-J-d-2020-12.xlsx
479,Grossbritannien,4.0,4.0,0.0,3.0,1.0,2.0,0.0,0.0,0.0,0.0,0.0,0.0,,,,,2019-12-01,7-55-Bew-RueA-J-d-2020-12.xlsx
480,Italien,2.0,2.0,0.0,2.0,2.0,0.0,0.0,1.0,0.0,0.0,0.0,0.0,,,,,2019-12-01,7-55-Bew-RueA-J-d-2020-12.xlsx
481,Kosovo,2.0,2.0,0.0,3.0,3.0,0.0,1.0,2.0,0.0,0.0,0.0,0.0,,,,,2019-12-01,7-55-Bew-RueA-J-d-2020-12.xlsx
482,Kroatien,7.0,7.0,0.0,7.0,7.0,0.0,0.0,5.0,0.0,0.0,0.0,0.0,,,,,2019-12-01,7-55-Bew-RueA-J-d-2020-12.xlsx
483,Litauen,3.0,3.0,0.0,3.0,3.0,0.0,0.0,4.0,0.0,0.0,0.0,0.0,,,,,2019-12-01,7-55-Bew-RueA-J-d-2020-12.xlsx
484,Nordmazedonien,0.0,0.0,0.0,0.0,0.0,0.0,1.0,0.0,0.0,0.0,0.0,0.0,,,,,2019-12-01,7-55-Bew-RueA-J-d-2020-12.xlsx
485,Moldova,3.0,3.0,0.0,3.0,2.0,1.0,0.0,2.0,0.0,0.0,0.0,0.0,,,,,2019-12-01,7-55-Bew-RueA-J-d-2020-12.xlsx
486,Montenegro,1.0,1.0,0.0,1.0,1.0,0.0,0.0,1.0,0.0,0.0,0.0,0.0,,,,,2019-12-01,7-55-Bew-RueA-J-d-2020-12.xlsx
487,Niederlande,6.0,6.0,0.0,6.0,6.0,0.0,0.0,5.0,0.0,0.0,0.0,0.0,,,,,2019-12-01,7-55-Bew-RueA-J-d-2020-12.xlsx
488,Polen,13.0,13.0,0.0,13.0,12.0,0.0,0.0,9.0,0.0,0.0,0.0,0.0,,,,,2019-12-01,7-55-Bew-RueA-J-d-2020-12.xlsx
489,Rumänien,47.0,47.0,0.0,46.0,44.0,2.0,0.0,35.0,0.0,0.0,0.0,0.0,,,,,2019-12-01,7-55-Bew-RueA-J-d-2020-12.xlsx
490,Russland,5.0,5.0,0.0,7.0,7.0,0.0,4.0,5.0,0.0,0.0,0.0,0.0,,,,,2019-12-01,7-55-Bew-RueA-J-d-2020-12.xlsx
491,Schweden,1.0,1.0,0.0,1.0,0.0,1.0,0.0,0.0,0.0,0.0,0.0,0.0,,,,,2019-12-01,7-55-Bew-RueA-J-d-2020-12.xlsx
492,Serbien,5.0,4.0,1.0,3.0,3.0,0.0,0.0,1.0,1.0,1.0,0.0,0.0,,,,,2019-12-01,7-55-Bew-RueA-J-d-2020-12.xlsx
493,Slowakische Republik,8.0,8.0,0.0,8.0,8.0,0.0,0.0,4.0,0.0,0.0,0.0,0.0,,,,,2019-12-01,7-55-Bew-RueA-J-d-2020-12.xlsx
494,Slowenien,1.0,1.0,0.0,1.0,1.0,0.0,0.0,1.0,0.0,0.0,0.0,0.0,,,,,2019-12-01,7-55-Bew-RueA-J-d-2020-12.xlsx
495,Spanien,8.0,8.0,0.0,7.0,7.0,0.0,0.0,7.0,0.0,0.0,0.0,0.0,,,,,2019-12-01,7-55-Bew-RueA-J-d-2020-12.xlsx
496,Tschechische Republik,2.0,2.0,0.0,2.0,2.0,0.0,0.0,2.0,0.0,0.0,0.0,0.0,,,,,2019-12-01,7-55-Bew-RueA-J-d-2020-12.xlsx
497,Türkei,3.0,2.0,1.0,3.0,2.0,0.0,1.0,1.0,1.0,0.0,1.0,0.0,,,,,2019-12-01,7-55-Bew-RueA-J-d-2020-12.xlsx
498,Ukraine,3.0,3.0,0.0,5.0,5.0,0.0,8.0,3.0,0.0,0.0,0.0,0.0,,,,,2019-12-01,7-55-Bew-RueA-J-d-2020-12.xlsx
499,Ungarn,7.0,7.0,0.0,7.0,6.0,1.0,0.0,4.0,0.0,0.0,0.0,0.0,,,,,2019-12-01,7-55-Bew-RueA-J-d-2020-12.xlsx
500,Total Europa,139.0,135.0,4.0,137.0,127.0,8.0,15.0,95.0,4.0,3.0,1.0,2.0,,,,,2019-12-01,7-55-Bew-RueA-J-d-2020-12.xlsx
501,Staatenlos,4.0,4.0,0.0,4.0,4.0,0.0,2.0,1.0,0.0,0.0,0.0,0.0,,,,,2019-12-01,7-55-Bew-RueA-J-d-2020-12.xlsx
502,Ohne Nationalität,9.0,9.0,0.0,10.0,9.0,1.0,4.0,6.0,0.0,0.0,0.0,0.0,,,,,2019-12-01,7-55-Bew-RueA-J-d-2020-12.xlsx
503,Staat unbekannt,14.0,14.0,0.0,13.0,12.0,1.0,1.0,13.0,0.0,0.0,0.0,0.0,,,,,2019-12-01,7-55-Bew-RueA-J-d-2020-12.xlsx
504,Total Herkunft unbek.,27.0,27.0,0.0,27.0,25.0,2.0,7.0,20.0,0.0,0.0,0.0,0.0,,,,,2019-12-01,7-55-Bew-RueA-J-d-2020-12.xlsx
505,Herkunft unbekannt,20.0,18.0,2.0,18.0,15.0,1.0,4.0,6.0,2.0,2.0,0.0,0.0,,,,,2018-12-01,7-55-Bew-RueA-J-d-2020-12.xlsx
506,Ägypten,4.0,3.0,1.0,3.0,0.0,0.0,0.0,0.0,1.0,1.0,0.0,1.0,,,,,2018-12-01,7-55-Bew-RueA-J-d-2020-12.xlsx
507,Algerien,11.0,11.0,0.0,10.0,8.0,2.0,2.0,5.0,0.0,0.0,0.0,0.0,,,,,2018-12-01,7-55-Bew-RueA-J-d-2020-12.xlsx
508,Äquatorialguinea,1.0,1.0,0.0,1.0,0.0,1.0,0.0,0.0,0.0,0.0,0.0,0.0,,,,,2018-12-01,7-55-Bew-RueA-J-d-2020-12.xlsx
509,Äthiopien,11.0,11.0,0.0,14.0,10.0,2.0,10.0,1.0,0.0,0.0,0.0,0.0,,,,,2018-12-01,7-55-Bew-RueA-J-d-2020-12.xlsx
510,Burundi,1.0,1.0,0.0,1.0,1.0,0.0,1.0,1.0,0.0,0.0,0.0,0.0,,,,,2018-12-01,7-55-Bew-RueA-J-d-2020-12.xlsx
511,Côte d'Ivoire,1.0,1.0,0.0,1.0,1.0,0.0,0.0,1.0,0.0,0.0,0.0,0.0,,,,,2018-12-01,7-55-Bew-RueA-J-d-2020-12.xlsx
512,Eritrea,66.0,48.0,18.0,56.0,43.0,3.0,30.0,16.0,18.0,17.0,0.0,5.0,,,,,2018-12-01,7-55-Bew-RueA-J-d-2020-12.xlsx
513,Gambia,16.0,16.0,0.0,14.0,14.0,0.0,1.0,12.0,0.0,0.0,0.0,0.0,,,,,2018-12-01,7-55-Bew-RueA-J-d-2020-12.xlsx
514,Ghana,3.0,3.0,0.0,5.0,5.0,0.0,2.0,3.0,0.0,0.0,0.0,0.0,,,,,2018-12-01,7-55-Bew-RueA-J-d-2020-12.xlsx
515,Guinea,17.0,17.0,0.0,16.0,11.0,5.0,1.0,7.0,0.0,0.0,0.0,0.0,,,,,2018-12-01,7-55-Bew-RueA-J-d-2020-12.xlsx
516,Guinea-Bissau,4.0,4.0,0.0,6.0,4.0,2.0,0.0,2.0,0.0,0.0,0.0,0.0,,,,,2018-12-01,7-55-Bew-RueA-J-d-2020-12.xlsx
517,Kenia,1.0,1.0,0.0,0.0,0.0,0.0,0.0,0.0,0.0,0.0,0.0,0.0,,,,,2018-12-01,7-55-Bew-RueA-J-d-2020-12.xlsx
518,Kongo DR,0.0,0.0,0.0,0.0,0.0,0.0,0.0,7.0,0.0,0.0,0.0,0.0,,,,,2018-12-01,7-55-Bew-RueA-J-d-2020-12.xlsx
519,Liberia,0.0,0.0,0.0,1.0,1.0,0.0,3.0,0.0,0.0,0.0,0.0,0.0,,,,,2018-12-01,7-55-Bew-RueA-J-d-2020-12.xlsx
520,Libyen,3.0,3.0,0.0,5.0,3.0,2.0,2.0,2.0,0.0,0.0,0.0,0.0,,,,,2018-12-01,7-55-Bew-RueA-J-d-2020-12.xlsx
521,Mali,11.0,11.0,0.0,13.0,12.0,1.0,1.0,9.0,0.0,0.0,0.0,0.0,,,,,2018-12-01,7-55-Bew-RueA-J-d-2020-12.xlsx
522,Marokko,8.0,8.0,0.0,8.0,6.0,1.0,1.0,4.0,0.0,0.0,0.0,0.0,,,,,2018-12-01,7-55-Bew-RueA-J-d-2020-12.xlsx
523,Niger,7.0,7.0,0.0,6.0,5.0,1.0,0.0,5.0,0.0,0.0,0.0,0.0,,,,,2018-12-01,7-55-Bew-RueA-J-d-2020-12.xlsx
524,Nigeria,115.0,115.0,0.0,114.0,99.0,10.0,8.0,79.0,0.0,0.0,0.0,0.0,,,,,2018-12-01,7-55-Bew-RueA-J-d-2020-12.xlsx
525,Senegal,6.0,6.0,0.0,5.0,4.0,0.0,0.0,2.0,0.0,0.0,0.0,0.0,,,,,2018-12-01,7-55-Bew-RueA-J-d-2020-12.xlsx
526,Sierra Leone,3.0,3.0,0.0,3.0,2.0,1.0,0.0,1.0,0.0,0.0,0.0,0.0,,,,,2018-12-01,7-55-Bew-RueA-J-d-2020-12.xlsx
527,Somalia,46.0,41.0,5.0,47.0,28.0,17.0,23.0,6.0,5.0,2.0,3.0,3.0,,,,,2018-12-01,7-55-Bew-RueA-J-d-2020-12.xlsx
528,Sudan,6.0,6.0,0.0,5.0,4.0,1.0,0.0,3.0,0.0,0.0,0.0,0.0,,,,,2018-12-01,7-55-Bew-RueA-J-d-2020-12.xlsx
529,Südsudan,1.0,1.0,0.0,0.0,0.0,0.0,0.0,0.0,0.0,0.0,0.0,0.0,,,,,2018-12-01,7-55-Bew-RueA-J-d-2020-12.xlsx
530,Tansania,1.0,1.0,0.0,1.0,1.0,0.0,0.0,0.0,0.0,0.0,0.0,0.0,,,,,2018-12-01,7-55-Bew-RueA-J-d-2020-12.xlsx
531,Togo,1.0,1.0,0.0,1.0,1.0,0.0,0.0,0.0,0.0,0.0,0.0,0.0,,,,,2018-12-01,7-55-Bew-RueA-J-d-2020-12.xlsx
532,Tunesien,2.0,2.0,0.0,1.0,0.0,1.0,0.0,0.0,0.0,0.0,0.0,0.0,,,,,2018-12-01,7-55-Bew-RueA-J-d-2020-12.xlsx
533,Total Afrika,346.0,322.0,24.0,337.0,263.0,50.0,85.0,166.0,24.0,20.0,3.0,9.0,,,,,2018-12-01,7-55-Bew-RueA-J-d-2020-12.xlsx
534,Bolivien,2.0,2.0,0.0,2.0,2.0,0.0,0.0,2.0,0.0,0.0,0.0,0.0,,,,,2018-12-01,7-55-Bew-RueA-J-d-2020-12.xlsx
535,Brasilien,1.0,1.0,0.0,1.0,1.0,0.0,0.0,1.0,0.0,0.0,0.0,0.0,,,,,2018-12-01,7-55-Bew-RueA-J-d-2020-12.xlsx
536,Chile,1.0,1.0,0.0,1.0,1.0,0.0,0.0,0.0,0.0,0.0,0.0,0.0,,,,,2018-12-01,7-55-Bew-RueA-J-d-2020-12.xlsx
537,Dominikanische Republik,18.0,18.0,0.0,19.0,16.0,3.0,0.0,17.0,0.0,0.0,0.0,0.0,,,,,2018-12-01,7-55-Bew-RueA-J-d-2020-12.xlsx
538,Ecuador,3.0,3.0,0.0,3.0,1.0,2.0,0.0,1.0,0.0,0.0,0.0,0.0,,,,,2018-12-01,7-55-Bew-RueA-J-d-2020-12.xlsx
539,Kolumbien,4.0,4.0,0.0,4.0,4.0,0.0,0.0,4.0,0.0,0.0,0.0,0.0,,,,,2018-12-01,7-55-Bew-RueA-J-d-2020-12.xlsx
540,Mexiko,0.0,0.0,0.0,0.0,0.0,0.0,1.0,0.0,0.0,0.0,0.0,0.0,,,,,2018-12-01,7-55-Bew-RueA-J-d-2020-12.xlsx
541,Peru,1.0,1.0,0.0,1.0,1.0,0.0,0.0,0.0,0.0,0.0,0.0,0.0,,,,,2018-12-01,7-55-Bew-RueA-J-d-2020-12.xlsx
542,Venezuela,1.0,1.0,0.0,1.0,1.0,0.0,0.0,1.0,0.0,0.0,0.0,0.0,,,,,2018-12-01,7-55-Bew-RueA-J-d-2020-12.xlsx
543,Total Amerika,31.0,31.0,0.0,32.0,27.0,5.0,1.0,26.0,0.0,0.0,0.0,0.0,,,,,2018-12-01,7-55-Bew-RueA-J-d-2020-12.xlsx
544,Afghanistan,107.0,103.0,4.0,86.0,82.0,3.0,78.0,20.0,4.0,4.0,0.0,1.0,,,,,2018-12-01,7-55-Bew-RueA-J-d-2020-12.xlsx
545,Armenien,0.0,0.0,0.0,0.0,0.0,0.0,0.0,1.0,0.0,0.0,0.0,0.0,,,,,2018-12-01,7-55-Bew-RueA-J-d-2020-12.xlsx
546,Bangladesh,1.0,1.0,0.0,1.0,1.0,0.0,0.0,1.0,0.0,0.0,0.0,0.0,,,,,2018-12-01,7-55-Bew-RueA-J-d-2020-12.xlsx
547,China (Volksrepublik),8.0,8.0,0.0,7.0,7.0,0.0,1.0,8.0,0.0,0.0,0.0,0.0,,,,,2018-12-01,7-55-Bew-RueA-J-d-2020-12.xlsx
548,Georgien,3.0,3.0,0.0,3.0,3.0,0.0,4.0,2.0,0.0,0.0,0.0,0.0,,,,,2018-12-01,7-55-Bew-RueA-J-d-2020-12.xlsx
549,Irak,29.0,28.0,1.0,33.0,31.0,0.0,16.0,9.0,1.0,1.0,0.0,1.0,,,,,2018-12-01,7-55-Bew-RueA-J-d-2020-12.xlsx
550,Iran,15.0,14.0,1.0,15.0,15.0,0.0,12.0,7.0,1.0,1.0,0.0,1.0,,,,,2018-12-01,7-55-Bew-RueA-J-d-2020-12.xlsx
551,Jemen,1.0,1.0,0.0,1.0,1.0,0.0,1.0,0.0,0.0,0.0,0.0,0.0,,,,,2018-12-01,7-55-Bew-RueA-J-d-2020-12.xlsx
552,Mongolei,1.0,1.0,0.0,1.0,1.0,0.0,0.0,1.0,0.0,0.0,0.0,0.0,,,,,2018-12-01,7-55-Bew-RueA-J-d-2020-12.xlsx
553,Pakistan,3.0,3.0,0.0,3.0,3.0,0.0,6.0,2.0,0.0,0.0,0.0,0.0,,,,,2018-12-01,7-55-Bew-RueA-J-d-2020-12.xlsx
554,Saudi-Arabien,1.0,1.0,0.0,1.0,1.0,0.0,1.0,1.0,0.0,0.0,0.0,0.0,,,,,2018-12-01,7-55-Bew-RueA-J-d-2020-12.xlsx
555,Sri Lanka,2.0,2.0,0.0,2.0,2.0,0.0,3.0,0.0,0.0,0.0,0.0,0.0,,,,,2018-12-01,7-55-Bew-RueA-J-d-2020-12.xlsx
556,Syrien,46.0,45.0,1.0,41.0,39.0,0.0,38.0,5.0,1.0,1.0,0.0,0.0,,,,,2018-12-01,7-55-Bew-RueA-J-d-2020-12.xlsx
557,Vietnam,2.0,2.0,0.0,2.0,1.0,1.0,0.0,0.0,0.0,0.0,0.0,0.0,,,,,2018-12-01,7-55-Bew-RueA-J-d-2020-12.xlsx
558,Total Asien,219.0,212.0,7.0,196.0,187.0,4.0,160.0,57.0,7.0,7.0,0.0,3.0,,,,,2018-12-01,7-55-Bew-RueA-J-d-2020-12.xlsx
559,Albanien,2.0,2.0,0.0,2.0,2.0,0.0,0.0,1.0,0.0,0.0,0.0,0.0,,,,,2018-12-01,7-55-Bew-RueA-J-d-2020-12.xlsx
560,Bosnien u. Herzegowina,2.0,2.0,0.0,2.0,0.0,2.0,0.0,0.0,0.0,0.0,0.0,0.0,,,,,2018-12-01,7-55-Bew-RueA-J-d-2020-12.xlsx
561,Bulgarien,3.0,3.0,0.0,3.0,2.0,0.0,0.0,3.0,0.0,0.0,0.0,0.0,,,,,2018-12-01,7-55-Bew-RueA-J-d-2020-12.xlsx
562,Frankreich,1.0,1.0,0.0,1.0,1.0,0.0,0.0,1.0,0.0,0.0,0.0,0.0,,,,,2018-12-01,7-55-Bew-RueA-J-d-2020-12.xlsx
563,Grossbritannien,0.0,0.0,0.0,0.0,0.0,0.0,0.0,0.0,0.0,0.0,0.0,0.0,,,,,2018-12-01,7-55-Bew-RueA-J-d-2020-12.xlsx
564,Irland,1.0,1.0,0.0,1.0,1.0,0.0,0.0,1.0,0.0,0.0,0.0,0.0,,,,,2018-12-01,7-55-Bew-RueA-J-d-2020-12.xlsx
565,Italien,3.0,3.0,0.0,3.0,3.0,0.0,0.0,3.0,0.0,0.0,0.0,0.0,,,,,2018-12-01,7-55-Bew-RueA-J-d-2020-12.xlsx
566,Kosovo,2.0,2.0,0.0,1.0,1.0,0.0,0.0,2.0,0.0,0.0,0.0,0.0,,,,,2018-12-01,7-55-Bew-RueA-J-d-2020-12.xlsx
567,Kroatien,9.0,9.0,0.0,9.0,5.0,3.0,0.0,4.0,0.0,0.0,0.0,0.0,,,,,2018-12-01,7-55-Bew-RueA-J-d-2020-12.xlsx
568,Lettland,1.0,1.0,0.0,1.0,1.0,0.0,0.0,0.0,0.0,0.0,0.0,0.0,,,,,2018-12-01,7-55-Bew-RueA-J-d-2020-12.xlsx
569,Litauen,7.0,7.0,0.0,7.0,7.0,0.0,0.0,5.0,0.0,0.0,0.0,0.0,,,,,2018-12-01,7-55-Bew-RueA-J-d-2020-12.xlsx
570,Mazedonien eh.Jug.Rep.,1.0,1.0,0.0,1.0,1.0,0.0,0.0,0.0,0.0,0.0,0.0,0.0,,,,,2018-12-01,7-55-Bew-RueA-J-d-2020-12.xlsx
571,Moldova,1.0,1.0,0.0,1.0,1.0,0.0,0.0,1.0,0.0,0.0,0.0,0.0,,,,,2018-12-01,7-55-Bew-RueA-J-d-2020-12.xlsx
572,Niederlande,4.0,4.0,0.0,5.0,4.0,1.0,0.0,4.0,0.0,0.0,0.0,0.0,,,,,2018-12-01,7-55-Bew-RueA-J-d-2020-12.xlsx
573,Polen,13.0,13.0,0.0,13.0,13.0,0.0,0.0,10.0,0.0,0.0,0.0,0.0,,,,,2018-12-01,7-55-Bew-RueA-J-d-2020-12.xlsx
574,Rumänien,51.0,51.0,0.0,50.0,46.0,4.0,0.0,44.0,0.0,0.0,0.0,0.0,,,,,2018-12-01,7-55-Bew-RueA-J-d-2020-12.xlsx
575,Russland,7.0,7.0,0.0,5.0,5.0,0.0,3.0,6.0,0.0,0.0,0.0,0.0,,,,,2018-12-01,7-55-Bew-RueA-J-d-2020-12.xlsx
576,Serbien,7.0,6.0,1.0,6.0,3.0,3.0,0.0,2.0,1.0,0.0,1.0,0.0,,,,,2018-12-01,7-55-Bew-RueA-J-d-2020-12.xlsx
577,Slowakische Republik,3.0,3.0,0.0,4.0,4.0,0.0,0.0,4.0,0.0,0.0,0.0,0.0,,,,,2018-12-01,7-55-Bew-RueA-J-d-2020-12.xlsx
578,Slowenien,1.0,1.0,0.0,1.0,0.0,1.0,0.0,1.0,0.0,0.0,0.0,0.0,,,,,2018-12-01,7-55-Bew-RueA-J-d-2020-12.xlsx
579,Spanien,10.0,10.0,0.0,10.0,9.0,1.0,0.0,7.0,0.0,0.0,0.0,0.0,,,,,2018-12-01,7-55-Bew-RueA-J-d-2020-12.xlsx
580,Tschechische Republik,2.0,2.0,0.0,2.0,2.0,0.0,0.0,2.0,0.0,0.0,0.0,0.0,,,,,2018-12-01,7-55-Bew-RueA-J-d-2020-12.xlsx
581,Türkei,9.0,6.0,3.0,5.0,4.0,0.0,0.0,1.0,3.0,3.0,0.0,0.0,,,,,2018-12-01,7-55-Bew-RueA-J-d-2020-12.xlsx
582,Ukraine,3.0,3.0,0.0,1.0,1.0,0.0,2.0,1.0,0.0,0.0,0.0,0.0,,,,,2018-12-01,7-55-Bew-RueA-J-d-2020-12.xlsx
583,Ungarn,6.0,6.0,0.0,6.0,6.0,0.0,0.0,6.0,0.0,0.0,0.0,0.0,,,,,2018-12-01,7-55-Bew-RueA-J-d-2020-12.xlsx
584,Total Europa,149.0,145.0,4.0,140.0,122.0,15.0,5.0,109.0,4.0,3.0,1.0,0.0,,,,,2018-12-01,7-55-Bew-RueA-J-d-2020-12.xlsx
585,Staatenlos,1.0,1.0,0.0,1.0,1.0,0.0,1.0,0.0,0.0,0.0,0.0,0.0,,,,,2018-12-01,7-55-Bew-RueA-J-d-2020-12.xlsx
586,Ohne Nationalität,8.0,7.0,1.0,6.0,6.0,0.0,2.0,2.0,1.0,1.0,0.0,0.0,,,,,2018-12-01,7-55-Bew-RueA-J-d-2020-12.xlsx
587,Staat unbekannt,11.0,10.0,1.0,11.0,8.0,1.0,1.0,4.0,1.0,1.0,0.0,0.0,,,,,2018-12-01,7-55-Bew-RueA-J-d-2020-12.xlsx
588,Total Herkunft unbek.,20.0,18.0,2.0,18.0,15.0,1.0,4.0,6.0,2.0,2.0,0.0,0.0,,,,,2018-12-01,7-55-Bew-RueA-J-d-2020-12.xlsx
