,Nation,7-55_yearly_flow_b,7-55_yearly_flow_c,7-55_yearly_flow_d,7-55_yearly_flow_e,7-55_yearly_flow_f,7-55_yearly_flow_g,7-55_yearly_flow_h,7-55_yearly_flow_i,7-55_yearly_flow_j,7-55_yearly_flow_k,7-55_yearly_flow_l,7-55_yearly_flow_m,Datum,file_name,name_of_sem_statistics,name_of_sem_code,flow_or_stock,yearly_or_monthly
0,Herkunft unbekannt,17.0,16.0,1.0,16.0,10.0,5.0,0.0,14.0,1.0,1.0,0.0,1.0,2020-12-01,7-55-Bew-RueA-J-d-2020-12.xlsx,7-55-Bew-RueA-J,7-55,flow,yearly
1,,,,,,,,,,,,,,2020-12-01,7-55-Bew-RueA-J-d-2020-12.xlsx,7-55-Bew-RueA-J,7-55,flow,yearly
2,Ägypten,0.0,0.0,0.0,0.0,0.0,0.0,1.0,0.0,0.0,0.0,0.0,0.0,2020-12-01,7-55-Bew-RueA-J-d-2020-12.xlsx,7-55-Bew-RueA-J,7-55,flow,yearly
3,Algerien,12.0,12.0,0.0,12.0,9.0,3.0,2.0,6.0,0.0,0.0,0.0,0.0,2020-12-01,7-55-Bew-RueA-J-d-2020-12.xlsx,7-55-Bew-RueA-J,7-55,flow,yearly
4,Angola,1.0,1.0,0.0,1.0,1.0,0.0,0.0,0.0,0.0,0.0,0.0,0.0,2020-12-01,7-55-Bew-RueA-J-d-2020-12.xlsx,7-55-Bew-RueA-J,7-55,flow,yearly
5,Äquatorialguinea,1.0,1.0,0.0,1.0,1.0,0.0,0.0,1.0,0.0,0.0,0.0,0.0,2020-12-01,7-55-Bew-RueA-J-d-2020-12.xlsx,7-55-Bew-RueA-J,7-55,flow,yearly
6,Äthiopien,12.0,12.0,0.0,10.0,10.0,0.0,11.0,1.0,0.0,0.0,0.0,0.0,2020-12-01,7-55-Bew-RueA-J-d-2020-12.xlsx,7-55-Bew-RueA-J,7-55,flow,yearly
7,Burkina Faso,4.0,4.0,0.0,4.0,1.0,2.0,0.0,1.0,0.0,0.0,0.0,0.0,2020-12-01,7-55-Bew-RueA-J-d-2020-12.xlsx,7-55-Bew-RueA-J,7-55,flow,yearly
8,Côte d'Ivoire,2.0,2.0,0.0,2.0,2.0,0.0,0.0,1.0,0.0,0.0,0.0,0.0,2020-12-01,7-55-Bew-RueA-J-d-2020-12.xlsx,7-55-Bew-RueA-J,7-55,flow,yearly
9,Eritrea,70.0,63.0,7.0,55.0,53.0,0.0,40.0,17.0,7.0,7.0,0.0,2.0,2020-12-01,7-55-Bew-RueA-J-d-2020-12.xlsx,7-55-Bew-RueA-J,7-55,flow,yearly
10,Gambia,12.0,12.0,0.0,12.0,10.0,2.0,3.0,9.0,0.0,0.0,0.0,0.0,2020-12-01,7-55-Bew-RueA-J-d-2020-12.xlsx,7-55-Bew-RueA-J,7-55,flow,yearly
11,Ghana,4.0,4.0,0.0,3.0,3.0,0.0,0.0,3.0,0.0,0.0,0.0,0.0,2020-12-01,7-55-Bew-RueA-J-d-2020-12.xlsx,7-55-Bew-RueA-J,7-55,flow,yearly
12,Guinea,15.0,15.0,0.0,18.0,14.0,2.0,0.0,9.0,0.0,0.0,0.0,0.0,2020-12-01,7-55-Bew-RueA-J-d-2020-12.xlsx,7-55-Bew-RueA-J,7-55,flow,yearly
13,Guinea-Bissau,6.0,6.0,0.0,4.0,4.0,0.0,0.0,2.0,0.0,0.0,0.0,0.0,2020-12-01,7-55-Bew-RueA-J-d-2020-12.xlsx,7-55-Bew-RueA-J,7-55,flow,yearly
14,Kamerun,1.0,1.0,0.0,1.0,1.0,0.0,0.0,0.0,0.0,0.0,0.0,0.0,2020-12-01,7-55-Bew-RueA-J-d-2020-12.xlsx,7-55-Bew-RueA-J,7-55,flow,yearly
15,Kongo DR,10.0,10.0,0.0,10.0,9.0,1.0,14.0,0.0,0.0,0.0,0.0,0.0,2020-12-01,7-55-Bew-RueA-J-d-2020-12.xlsx,7-55-Bew-RueA-J,7-55,flow,yearly
16,Liberia,4.0,4.0,0.0,3.0,2.0,0.0,0.0,1.0,0.0,0.0,0.0,0.0,2020-12-01,7-55-Bew-RueA-J-d-2020-12.xlsx,7-55-Bew-RueA-J,7-55,flow,yearly
17,Libyen,2.0,2.0,0.0,0.0,0.0,0.0,1.0,0.0,0.0,0.0,0.0,0.0,2020-12-01,7-55-Bew-RueA-J-d-2020-12.xlsx,7-55-Bew-RueA-J,7-55,flow,yearly
18,Mali,6.0,6.0,0.0,4.0,4.0,0.0,2.0,3.0,0.0,0.0,0.0,0.0,2020-12-01,7-55-Bew-RueA-J-d-2020-12.xlsx,7-55-Bew-RueA-J,7-55,flow,yearly
19,Marokko,14.0,14.0,0.0,14.0,11.0,2.0,2.0,9.0,0.0,0.0,0.0,0.0,2020-12-01,7-55-Bew-RueA-J-d-2020-12.xlsx,7-55-Bew-RueA-J,7-55,flow,yearly
20,Mauretanien,1.0,1.0,0.0,1.0,1.0,0.0,1.0,1.0,0.0,0.0,0.0,0.0,2020-12-01,7-55-Bew-RueA-J-d-2020-12.xlsx,7-55-Bew-RueA-J,7-55,flow,yearly
21,Mosambik,1.0,1.0,0.0,1.0,1.0,0.0,0.0,1.0,0.0,0.0,0.0,0.0,2020-12-01,7-55-Bew-RueA-J-d-2020-12.xlsx,7-55-Bew-RueA-J,7-55,flow,yearly
22,Nigeria,119.0,119.0,0.0,110.0,96.0,10.0,11.0,87.0,0.0,0.0,0.0,0.0,2020-12-01,7-55-Bew-RueA-J-d-2020-12.xlsx,7-55-Bew-RueA-J,7-55,flow,yearly
23,Senegal,9.0,9.0,0.0,9.0,8.0,1.0,1.0,4.0,0.0,0.0,0.0,0.0,2020-12-01,7-55-Bew-RueA-J-d-2020-12.xlsx,7-55-Bew-RueA-J,7-55,flow,yearly
24,Sierra Leone,3.0,3.0,0.0,3.0,3.0,0.0,0.0,3.0,0.0,0.0,0.0,0.0,2020-12-01,7-55-Bew-RueA-J-d-2020-12.xlsx,7-55-Bew-RueA-J,7-55,flow,yearly
25,Somalia,37.0,36.0,1.0,29.0,27.0,1.0,18.0,8.0,1.0,1.0,0.0,1.0,2020-12-01,7-55-Bew-RueA-J-d-2020-12.xlsx,7-55-Bew-RueA-J,7-55,flow,yearly
26,Sudan,3.0,3.0,0.0,3.0,3.0,0.0,0.0,2.0,0.0,0.0,0.0,0.0,2020-12-01,7-55-Bew-RueA-J-d-2020-12.xlsx,7-55-Bew-RueA-J,7-55,flow,yearly
27,Togo,1.0,1.0,0.0,1.0,1.0,0.0,0.0,1.0,0.0,0.0,0.0,0.0,2020-12-01,7-55-Bew-RueA-J-d-2020-12.xlsx,7-55-Bew-RueA-J,7-55,flow,yearly
28,Tschad,1.0,1.0,0.0,1.0,0.0,1.0,0.0,0.0,0.0,0.0,0.0,0.0,2020-12-01,7-55-Bew-RueA-J-d-2020-12.xlsx,7-55-Bew-RueA-J,7-55,flow,yearly
29,Tunesien,1.0,1.0,0.0,0.0,0.0,0.0,0.0,0.0,0.0,0.0,0.0,0.0,2020-12-01,7-55-Bew-RueA-J-d-2020-12.xlsx,7-55-Bew-RueA-J,7-55,flow,yearly
30,Total Afrika,352.0,344.0,8.0,312.0,275.0,25.0,107.0,170.0,8.0,8.0,0.0,3.0,2020-12-01,7-55-Bew-RueA-J-d-2020-12.xlsx,7-55-Bew-RueA-J,7-55,flow,yearly
31,,,,,,,,,,,,,,2020-12-01,7-55-Bew-RueA-J-d-2020-12.xlsx,7-55-Bew-RueA-J,7-55,flow,yearly
32,Bolivien,1.0,1.0,0.0,1.0,0.0,1.0,0.0,0.0,0.0,0.0,0.0,0.0,2020-12-01,7-55-Bew-RueA-J-d-2020-12.xlsx,7-55-Bew-RueA-J,7-55,flow,yearly
33,Brasilien,1.0,1.0,0.0,0.0,0.0,0.0,0.0,1.0,0.0,0.0,0.0,0.0,2020-12-01,7-55-Bew-RueA-J-d-2020-12.xlsx,7-55-Bew-RueA-J,7-55,flow,yearly
34,Chile,1.0,1.0,0.0,1.0,1.0,0.0,0.0,1.0,0.0,0.0,0.0,0.0,2020-12-01,7-55-Bew-RueA-J-d-2020-12.xlsx,7-55-Bew-RueA-J,7-55,flow,yearly
35,Dominikanische Republik,29.0,29.0,0.0,26.0,16.0,8.0,0.0,7.0,0.0,0.0,0.0,0.0,2020-12-01,7-55-Bew-RueA-J-d-2020-12.xlsx,7-55-Bew-RueA-J,7-55,flow,yearly
36,Ecuador,1.0,1.0,0.0,2.0,2.0,0.0,0.0,1.0,0.0,0.0,0.0,0.0,2020-12-01,7-55-Bew-RueA-J-d-2020-12.xlsx,7-55-Bew-RueA-J,7-55,flow,yearly
37,Haiti,0.0,0.0,0.0,4.0,4.0,0.0,0.0,0.0,0.0,0.0,0.0,0.0,2020-12-01,7-55-Bew-RueA-J-d-2020-12.xlsx,7-55-Bew-RueA-J,7-55,flow,yearly
38,Honduras,1.0,1.0,0.0,1.0,0.0,1.0,0.0,0.0,0.0,0.0,0.0,0.0,2020-12-01,7-55-Bew-RueA-J-d-2020-12.xlsx,7-55-Bew-RueA-J,7-55,flow,yearly
39,Kolumbien,2.0,2.0,0.0,2.0,1.0,1.0,0.0,0.0,0.0,0.0,0.0,0.0,2020-12-01,7-55-Bew-RueA-J-d-2020-12.xlsx,7-55-Bew-RueA-J,7-55,flow,yearly
40,Kuba,1.0,1.0,0.0,1.0,0.0,1.0,0.0,0.0,0.0,0.0,0.0,0.0,2020-12-01,7-55-Bew-RueA-J-d-2020-12.xlsx,7-55-Bew-RueA-J,7-55,flow,yearly
41,Total Amerika,37.0,37.0,0.0,38.0,24.0,12.0,0.0,10.0,0.0,0.0,0.0,0.0,2020-12-01,7-55-Bew-RueA-J-d-2020-12.xlsx,7-55-Bew-RueA-J,7-55,flow,yearly
42,,,,,,,,,,,,,,2020-12-01,7-55-Bew-RueA-J-d-2020-12.xlsx,7-55-Bew-RueA-J,7-55,flow,yearly
43,Afghanistan,18.0,18.0,0.0,17.0,16.0,0.0,10.0,9.0,0.0,0.0,0.0,0.0,2020-12-01,7-55-Bew-RueA-J-d-2020-12.xlsx,7-55-Bew-RueA-J,7-55,flow,yearly
44,Armenien,1.0,1.0,0.0,1.0,1.0,0.0,0.0,0.0,0.0,0.0,0.0,0.0,2020-12-01,7-55-Bew-RueA-J-d-2020-12.xlsx,7-55-Bew-RueA-J,7-55,flow,yearly
45,China (Volksrepublik),1.0,1.0,0.0,1.0,1.0,0.0,0.0,0.0,0.0,0.0,0.0,0.0,2020-12-01,7-55-Bew-RueA-J-d-2020-12.xlsx,7-55-Bew-RueA-J,7-55,flow,yearly
46,Georgien,4.0,4.0,0.0,4.0,2.0,1.0,2.0,2.0,0.0,0.0,0.0,0.0,2020-12-01,7-55-Bew-RueA-J-d-2020-12.xlsx,7-55-Bew-RueA-J,7-55,flow,yearly
47,Irak,16.0,16.0,0.0,11.0,10.0,0.0,6.0,4.0,0.0,0.0,0.0,0.0,2020-12-01,7-55-Bew-RueA-J-d-2020-12.xlsx,7-55-Bew-RueA-J,7-55,flow,yearly
48,Iran,19.0,15.0,4.0,12.0,12.0,0.0,4.0,4.0,4.0,4.0,0.0,1.0,2020-12-01,7-55-Bew-RueA-J-d-2020-12.xlsx,7-55-Bew-RueA-J,7-55,flow,yearly
49,Jordanien,0.0,0.0,0.0,0.0,0.0,0.0,0.0,0.0,0.0,0.0,0.0,0.0,2020-12-01,7-55-Bew-RueA-J-d-2020-12.xlsx,7-55-Bew-RueA-J,7-55,flow,yearly
50,Laos,0.0,0.0,0.0,1.0,1.0,0.0,1.0,1.0,0.0,0.0,0.0,0.0,2020-12-01,7-55-Bew-RueA-J-d-2020-12.xlsx,7-55-Bew-RueA-J,7-55,flow,yearly
51,Mongolei,1.0,1.0,0.0,1.0,1.0,0.0,0.0,1.0,0.0,0.0,0.0,0.0,2020-12-01,7-55-Bew-RueA-J-d-2020-12.xlsx,7-55-Bew-RueA-J,7-55,flow,yearly
52,Pakistan,14.0,14.0,0.0,10.0,10.0,0.0,8.0,8.0,0.0,0.0,0.0,0.0,2020-12-01,7-55-Bew-RueA-J-d-2020-12.xlsx,7-55-Bew-RueA-J,7-55,flow,yearly
53,Philippinen,1.0,1.0,0.0,1.0,0.0,1.0,0.0,0.0,0.0,0.0,0.0,0.0,2020-12-01,7-55-Bew-RueA-J-d-2020-12.xlsx,7-55-Bew-RueA-J,7-55,flow,yearly
54,Sri Lanka,4.0,2.0,2.0,3.0,3.0,0.0,2.0,2.0,2.0,2.0,0.0,0.0,2020-12-01,7-55-Bew-RueA-J-d-2020-12.xlsx,7-55-Bew-RueA-J,7-55,flow,yearly
55,Syrien,47.0,40.0,7.0,37.0,36.0,1.0,36.0,13.0,7.0,7.0,0.0,0.0,2020-12-01,7-55-Bew-RueA-J-d-2020-12.xlsx,7-55-Bew-RueA-J,7-55,flow,yearly
56,Total Asien,126.0,113.0,13.0,99.0,93.0,3.0,69.0,44.0,13.0,13.0,0.0,1.0,2020-12-01,7-55-Bew-RueA-J-d-2020-12.xlsx,7-55-Bew-RueA-J,7-55,flow,yearly
57,,,,,,,,,,,,,,2020-12-01,7-55-Bew-RueA-J-d-2020-12.xlsx,7-55-Bew-RueA-J,7-55,flow,yearly
58,Belarus,0.0,0.0,0.0,0.0,0.0,0.0,0.0,1.0,0.0,0.0,0.0,0.0,2020-12-01,7-55-Bew-RueA-J-d-2020-12.xlsx,7-55-Bew-RueA-J,7-55,flow,yearly
59,Belgien,2.0,2.0,0.0,2.0,2.0,0.0,0.0,1.0,0.0,0.0,0.0,0.0,2020-12-01,7-55-Bew-RueA-J-d-2020-12.xlsx,7-55-Bew-RueA-J,7-55,flow,yearly
60,Bosnien u. Herzegowina,2.0,2.0,0.0,5.0,5.0,0.0,3.0,1.0,0.0,0.0,0.0,0.0,2020-12-01,7-55-Bew-RueA-J-d-2020-12.xlsx,7-55-Bew-RueA-J,7-55,flow,yearly
61,Bulgarien,3.0,3.0,0.0,3.0,3.0,0.0,0.0,3.0,0.0,0.0,0.0,0.0,2020-12-01,7-55-Bew-RueA-J-d-2020-12.xlsx,7-55-Bew-RueA-J,7-55,flow,yearly
62,Dänemark,0.0,0.0,0.0,0.0,0.0,0.0,1.0,0.0,0.0,0.0,0.0,0.0,2020-12-01,7-55-Bew-RueA-J-d-2020-12.xlsx,7-55-Bew-RueA-J,7-55,flow,yearly
63,Deutschland,1.0,1.0,0.0,1.0,1.0,0.0,0.0,1.0,0.0,0.0,0.0,0.0,2020-12-01,7-55-Bew-RueA-J-d-2020-12.xlsx,7-55-Bew-RueA-J,7-55,flow,yearly
64,Griechenland,1.0,1.0,0.0,1.0,0.0,0.0,0.0,0.0,0.0,0.0,0.0,0.0,2020-12-01,7-55-Bew-RueA-J-d-2020-12.xlsx,7-55-Bew-RueA-J,7-55,flow,yearly
65,Grossbritannien,1.0,1.0,0.0,1.0,1.0,0.0,0.0,0.0,0.0,0.0,0.0,0.0,2020-12-01,7-55-Bew-RueA-J-d-2020-12.xlsx,7-55-Bew-RueA-J,7-55,flow,yearly
66,Kosovo,3.0,3.0,0.0,3.0,3.0,0.0,1.0,3.0,0.0,0.0,0.0,0.0,2020-12-01,7-55-Bew-RueA-J-d-2020-12.xlsx,7-55-Bew-RueA-J,7-55,flow,yearly
67,Kroatien,13.0,13.0,0.0,13.0,4.0,8.0,0.0,2.0,0.0,0.0,0.0,0.0,2020-12-01,7-55-Bew-RueA-J-d-2020-12.xlsx,7-55-Bew-RueA-J,7-55,flow,yearly
68,Litauen,4.0,4.0,0.0,4.0,4.0,0.0,0.0,4.0,0.0,0.0,0.0,0.0,2020-12-01,7-55-Bew-RueA-J-d-2020-12.xlsx,7-55-Bew-RueA-J,7-55,flow,yearly
69,Moldova,0.0,0.0,0.0,0.0,0.0,0.0,0.0,0.0,0.0,0.0,0.0,0.0,2020-12-01,7-55-Bew-RueA-J-d-2020-12.xlsx,7-55-Bew-RueA-J,7-55,flow,yearly
70,Niederlande,2.0,2.0,0.0,1.0,1.0,0.0,0.0,1.0,0.0,0.0,0.0,0.0,2020-12-01,7-55-Bew-RueA-J-d-2020-12.xlsx,7-55-Bew-RueA-J,7-55,flow,yearly
71,Polen,13.0,13.0,0.0,13.0,13.0,0.0,0.0,9.0,0.0,0.0,0.0,0.0,2020-12-01,7-55-Bew-RueA-J-d-2020-12.xlsx,7-55-Bew-RueA-J,7-55,flow,yearly
72,Portugal,1.0,1.0,0.0,1.0,1.0,0.0,0.0,0.0,0.0,0.0,0.0,0.0,2020-12-01,7-55-Bew-RueA-J-d-2020-12.xlsx,7-55-Bew-RueA-J,7-55,flow,yearly
73,Rumänien,61.0,61.0,0.0,61.0,60.0,1.0,0.0,51.0,0.0,0.0,0.0,0.0,2020-12-01,7-55-Bew-RueA-J-d-2020-12.xlsx,7-55-Bew-RueA-J,7-55,flow,yearly
74,Russland,4.0,3.0,1.0,3.0,3.0,0.0,3.0,0.0,1.0,1.0,0.0,0.0,2020-12-01,7-55-Bew-RueA-J-d-2020-12.xlsx,7-55-Bew-RueA-J,7-55,flow,yearly
75,Serbien,3.0,2.0,1.0,2.0,1.0,0.0,0.0,0.0,1.0,0.0,1.0,0.0,2020-12-01,7-55-Bew-RueA-J-d-2020-12.xlsx,7-55-Bew-RueA-J,7-55,flow,yearly
76,Slowakische Republik,9.0,9.0,0.0,8.0,8.0,0.0,0.0,6.0,0.0,0.0,0.0,0.0,2020-12-01,7-55-Bew-RueA-J-d-2020-12.xlsx,7-55-Bew-RueA-J,7-55,flow,yearly
77,Slowenien,1.0,1.0,0.0,1.0,1.0,0.0,0.0,0.0,0.0,0.0,0.0,0.0,2020-12-01,7-55-Bew-RueA-J-d-2020-12.xlsx,7-55-Bew-RueA-J,7-55,flow,yearly
78,Spanien,6.0,6.0,0.0,6.0,4.0,0.0,0.0,2.0,0.0,0.0,0.0,0.0,2020-12-01,7-55-Bew-RueA-J-d-2020-12.xlsx,7-55-Bew-RueA-J,7-55,flow,yearly
79,Tschechische Republik,1.0,1.0,0.0,1.0,1.0,0.0,0.0,0.0,0.0,0.0,0.0,0.0,2020-12-01,7-55-Bew-RueA-J-d-2020-12.xlsx,7-55-Bew-RueA-J,7-55,flow,yearly
80,Türkei,3.0,3.0,0.0,3.0,1.0,1.0,0.0,1.0,0.0,0.0,0.0,0.0,2020-12-01,7-55-Bew-RueA-J-d-2020-12.xlsx,7-55-Bew-RueA-J,7-55,flow,yearly
81,Ukraine,1.0,1.0,0.0,1.0,1.0,0.0,0.0,0.0,0.0,0.0,0.0,0.0,2020-12-01,7-55-Bew-RueA-J-d-2020-12.xlsx,7-55-Bew-RueA-J,7-55,flow,yearly
82,Ungarn,12.0,12.0,0.0,12.0,10.0,2.0,0.0,9.0,0.0,0.0,0.0,0.0,2020-12-01,7-55-Bew-RueA-J-d-2020-12.xlsx,7-55-Bew-RueA-J,7-55,flow,yearly
83,Total Europa,147.0,145.0,2.0,146.0,128.0,12.0,8.0,95.0,2.0,1.0,1.0,0.0,2020-12-01,7-55-Bew-RueA-J-d-2020-12.xlsx,7-55-Bew-RueA-J,7-55,flow,yearly
84,,,,,,,,,,,,,,2020-12-01,7-55-Bew-RueA-J-d-2020-12.xlsx,7-55-Bew-RueA-J,7-55,flow,yearly
85,Ohne Nationalität,0.0,0.0,0.0,0.0,0.0,0.0,0.0,0.0,0.0,0.0,0.0,0.0,2020-12-01,7-55-Bew-RueA-J-d-2020-12.xlsx,7-55-Bew-RueA-J,7-55,flow,yearly
86,Staat unbekannt,17.0,16.0,1.0,16.0,10.0,5.0,0.0,14.0,1.0,1.0,0.0,1.0,2020-12-01,7-55-Bew-RueA-J-d-2020-12.xlsx,7-55-Bew-RueA-J,7-55,flow,yearly
87,Total Herkunft unbek.,17.0,16.0,1.0,16.0,10.0,5.0,0.0,14.0,1.0,1.0,0.0,1.0,2020-12-01,7-55-Bew-RueA-J-d-2020-12.xlsx,7-55-Bew-RueA-J,7-55,flow,yearly
88,Herkunft unbekannt,35.0,35.0,0.0,34.0,26.0,7.0,9.0,11.0,0.0,0.0,0.0,0.0,2020-12-01,7-55-Bew-RueA-J-d-2020-12.xlsx,7-55-Bew-RueA-J,7-55,flow,yearly
89,,,,,,,,,,,,,,2020-12-01,7-55-Bew-RueA-J-d-2020-12.xlsx,7-55-Bew-RueA-J,7-55,flow,yearly
90,Ägypten,1.0,1.0,0.0,1.0,1.0,0.0,1.0,1.0,0.0,0.0,0.0,0.0,2020-12-01,7-55-Bew-RueA-J-d-2020-12.xlsx,7-55-Bew-RueA-J,7-55,flow,yearly
91,Algerien,5.0,5.0,0.0,4.0,4.0,0.0,3.0,2.0,0.0,0.0,0.0,0.0,2020-12-01,7-55-Bew-RueA-J-d-2020-12.xlsx,7-55-Bew-RueA-J,7-55,flow,yearly
92,Äthiopien,7.0,6.0,1.0,4.0,4.0,0.0,7.0,0.0,1.0,1.0,0.0,0.0,2020-12-01,7-55-Bew-RueA-J-d-2020-12.xlsx,7-55-Bew-RueA-J,7-55,flow,yearly
93,Benin,1.0,1.0,0.0,1.0,1.0,0.0,0.0,1.0,0.0,0.0,0.0,0.0,2020-12-01,7-55-Bew-RueA-J-d-2020-12.xlsx,7-55-Bew-RueA-J,7-55,flow,yearly
94,Burundi,0.0,0.0,0.0,0.0,0.0,0.0,1.0,0.0,0.0,0.0,0.0,0.0,2020-12-01,7-55-Bew-RueA-J-d-2020-12.xlsx,7-55-Bew-RueA-J,7-55,flow,yearly
95,Côte d'Ivoire,4.0,4.0,0.0,4.0,3.0,1.0,1.0,2.0,0.0,0.0,0.0,0.0,2020-12-01,7-55-Bew-RueA-J-d-2020-12.xlsx,7-55-Bew-RueA-J,7-55,flow,yearly
96,Eritrea,73.0,68.0,5.0,91.0,86.0,2.0,59.0,28.0,5.0,5.0,0.0,1.0,2020-12-01,7-55-Bew-RueA-J-d-2020-12.xlsx,7-55-Bew-RueA-J,7-55,flow,yearly
97,Gambia,25.0,25.0,0.0,26.0,25.0,1.0,13.0,14.0,0.0,0.0,0.0,0.0,2020-12-01,7-55-Bew-RueA-J-d-2020-12.xlsx,7-55-Bew-RueA-J,7-55,flow,yearly
98,Ghana,5.0,5.0,0.0,5.0,4.0,0.0,1.0,3.0,0.0,0.0,0.0,0.0,2020-12-01,7-55-Bew-RueA-J-d-2020-12.xlsx,7-55-Bew-RueA-J,7-55,flow,yearly
99,Guinea,17.0,17.0,0.0,14.0,13.0,1.0,3.0,9.0,0.0,0.0,0.0,0.0,2020-12-01,7-55-Bew-RueA-J-d-2020-12.xlsx,7-55-Bew-RueA-J,7-55,flow,yearly
100,Guinea-Bissau,3.0,3.0,0.0,3.0,3.0,0.0,0.0,3.0,0.0,0.0,0.0,0.0,2020-12-01,7-55-Bew-RueA-J-d-2020-12.xlsx,7-55-Bew-RueA-J,7-55,flow,yearly
101,Kamerun,4.0,4.0,0.0,4.0,3.0,1.0,0.0,2.0,0.0,0.0,0.0,0.0,2020-12-01,7-55-Bew-RueA-J-d-2020-12.xlsx,7-55-Bew-RueA-J,7-55,flow,yearly
102,Kongo DR,0.0,0.0,0.0,0.0,0.0,0.0,1.0,1.0,0.0,0.0,0.0,0.0,2020-12-01,7-55-Bew-RueA-J-d-2020-12.xlsx,7-55-Bew-RueA-J,7-55,flow,yearly
103,Liberia,2.0,2.0,0.0,2.0,2.0,0.0,1.0,1.0,0.0,0.0,0.0,0.0,2020-12-01,7-55-Bew-RueA-J-d-2020-12.xlsx,7-55-Bew-RueA-J,7-55,flow,yearly
104,Libyen,1.0,1.0,0.0,1.0,1.0,0.0,1.0,0.0,0.0,0.0,0.0,0.0,2020-12-01,7-55-Bew-RueA-J-d-2020-12.xlsx,7-55-Bew-RueA-J,7-55,flow,yearly
105,Mali,12.0,12.0,0.0,11.0,10.0,1.0,2.0,9.0,0.0,0.0,0.0,0.0,2020-12-01,7-55-Bew-RueA-J-d-2020-12.xlsx,7-55-Bew-RueA-J,7-55,flow,yearly
106,Marokko,4.0,4.0,0.0,4.0,2.0,2.0,0.0,0.0,0.0,0.0,0.0,0.0,2020-12-01,7-55-Bew-RueA-J-d-2020-12.xlsx,7-55-Bew-RueA-J,7-55,flow,yearly
107,Niger,2.0,2.0,0.0,2.0,2.0,0.0,0.0,2.0,0.0,0.0,0.0,0.0,2020-12-01,7-55-Bew-RueA-J-d-2020-12.xlsx,7-55-Bew-RueA-J,7-55,flow,yearly
108,Nigeria,151.0,151.0,0.0,141.0,123.0,14.0,21.0,81.0,0.0,0.0,0.0,0.0,2020-12-01,7-55-Bew-RueA-J-d-2020-12.xlsx,7-55-Bew-RueA-J,7-55,flow,yearly
109,Senegal,10.0,10.0,0.0,11.0,11.0,0.0,0.0,6.0,0.0,0.0,0.0,0.0,2020-12-01,7-55-Bew-RueA-J-d-2020-12.xlsx,7-55-Bew-RueA-J,7-55,flow,yearly
110,Sierra Leone,3.0,3.0,0.0,3.0,3.0,0.0,0.0,3.0,0.0,0.0,0.0,0.0,2020-12-01,7-55-Bew-RueA-J-d-2020-12.xlsx,7-55-Bew-RueA-J,7-55,flow,yearly
111,Somalia,40.0,38.0,2.0,43.0,39.0,1.0,24.0,13.0,2.0,0.0,2.0,1.0,2020-12-01,7-55-Bew-RueA-J-d-2020-12.xlsx,7-55-Bew-RueA-J,7-55,flow,yearly
112,Sudan,3.0,3.0,0.0,6.0,4.0,2.0,2.0,3.0,0.0,0.0,0.0,0.0,2020-12-01,7-55-Bew-RueA-J-d-2020-12.xlsx,7-55-Bew-RueA-J,7-55,flow,yearly
113,Südsudan,1.0,1.0,0.0,1.0,0.0,1.0,0.0,0.0,0.0,0.0,0.0,0.0,2020-12-01,7-55-Bew-RueA-J-d-2020-12.xlsx,7-55-Bew-RueA-J,7-55,flow,yearly
114,Togo,1.0,1.0,0.0,2.0,2.0,0.0,0.0,2.0,0.0,0.0,0.0,0.0,2020-12-01,7-55-Bew-RueA-J-d-2020-12.xlsx,7-55-Bew-RueA-J,7-55,flow,yearly
115,Tschad,0.0,0.0,0.0,0.0,0.0,0.0,0.0,0.0,0.0,0.0,0.0,0.0,2020-12-01,7-55-Bew-RueA-J-d-2020-12.xlsx,7-55-Bew-RueA-J,7-55,flow,yearly
116,Uganda,1.0,1.0,0.0,1.0,1.0,0.0,0.0,1.0,0.0,0.0,0.0,0.0,2020-12-01,7-55-Bew-RueA-J-d-2020-12.xlsx,7-55-Bew-RueA-J,7-55,flow,yearly
117,Total Afrika,376.0,368.0,8.0,385.0,347.0,27.0,141.0,187.0,8.0,6.0,2.0,2.0,2020-12-01,7-55-Bew-RueA-J-d-2020-12.xlsx,7-55-Bew-RueA-J,7-55,flow,yearly
118,,,,,,,,,,,,,,2020-12-01,7-55-Bew-RueA-J-d-2020-12.xlsx,7-55-Bew-RueA-J,7-55,flow,yearly
119,Dominikanische Republik,10.0,10.0,0.0,10.0,8.0,2.0,0.0,8.0,0.0,0.0,0.0,0.0,2020-12-01,7-55-Bew-RueA-J-d-2020-12.xlsx,7-55-Bew-RueA-J,7-55,flow,yearly
120,Ecuador,2.0,2.0,0.0,1.0,1.0,0.0,0.0,1.0,0.0,0.0,0.0,0.0,2020-12-01,7-55-Bew-RueA-J-d-2020-12.xlsx,7-55-Bew-RueA-J,7-55,flow,yearly
121,Kolumbien,1.0,1.0,0.0,2.0,0.0,1.0,0.0,0.0,0.0,0.0,0.0,0.0,2020-12-01,7-55-Bew-RueA-J-d-2020-12.xlsx,7-55-Bew-RueA-J,7-55,flow,yearly
122,Kuba,1.0,1.0,0.0,1.0,1.0,0.0,0.0,2.0,0.0,0.0,0.0,0.0,2020-12-01,7-55-Bew-RueA-J-d-2020-12.xlsx,7-55-Bew-RueA-J,7-55,flow,yearly
123,Peru,1.0,1.0,0.0,1.0,1.0,0.0,0.0,1.0,0.0,0.0,0.0,0.0,2020-12-01,7-55-Bew-RueA-J-d-2020-12.xlsx,7-55-Bew-RueA-J,7-55,flow,yearly
124,Trinidad u. Tobago,1.0,1.0,0.0,1.0,1.0,0.0,0.0,1.0,0.0,0.0,0.0,0.0,2020-12-01,7-55-Bew-RueA-J-d-2020-12.xlsx,7-55-Bew-RueA-J,7-55,flow,yearly
125,USA,1.0,1.0,0.0,1.0,1.0,0.0,0.0,1.0,0.0,0.0,0.0,0.0,2020-12-01,7-55-Bew-RueA-J-d-2020-12.xlsx,7-55-Bew-RueA-J,7-55,flow,yearly
126,Venezuela,1.0,1.0,0.0,1.0,1.0,0.0,0.0,1.0,0.0,0.0,0.0,0.0,2020-12-01,7-55-Bew-RueA-J-d-2020-12.xlsx,7-55-Bew-RueA-J,7-55,flow,yearly
127,Total Amerika,18.0,18.0,0.0,18.0,14.0,3.0,0.0,15.0,0.0,0.0,0.0,0.0,2020-12-01,7-55-Bew-RueA-J-d-2020-12.xlsx,7-55-Bew-RueA-J,7-55,flow,yearly
128,,,,,,,,,,,,,,2020-12-01,7-55-Bew-RueA-J-d-2020-12.xlsx,7-55-Bew-RueA-J,7-55,flow,yearly
129,Afghanistan,20.0,20.0,0.0,20.0,20.0,0.0,22.0,10.0,0.0,0.0,0.0,0.0,2020-12-01,7-55-Bew-RueA-J-d-2020-12.xlsx,7-55-Bew-RueA-J,7-55,flow,yearly
130,Bangladesh,0.0,0.0,0.0,0.0,0.0,0.0,0.0,0.0,0.0,0.0,0.0,0.0,2020-12-01,7-55-Bew-RueA-J-d-2020-12.xlsx,7-55-Bew-RueA-J,7-55,flow,yearly
131,China (Volksrepublik),3.0,3.0,0.0,3.0,3.0,0.0,3.0,1.0,0.0,0.0,0.0,0.0,2020-12-01,7-55-Bew-RueA-J-d-2020-12.xlsx,7-55-Bew-RueA-J,7-55,flow,yearly
132,Georgien,1.0,1.0,0.0,1.0,1.0,0.0,1.0,1.0,0.0,0.0,0.0,0.0,2020-12-01,7-55-Bew-RueA-J-d-2020-12.xlsx,7-55-Bew-RueA-J,7-55,flow,yearly
133,Indien,1.0,1.0,0.0,1.0,0.0,1.0,0.0,0.0,0.0,0.0,0.0,0.0,2020-12-01,7-55-Bew-RueA-J-d-2020-12.xlsx,7-55-Bew-RueA-J,7-55,flow,yearly
134,Irak,12.0,12.0,0.0,14.0,13.0,0.0,7.0,3.0,0.0,0.0,0.0,0.0,2020-12-01,7-55-Bew-RueA-J-d-2020-12.xlsx,7-55-Bew-RueA-J,7-55,flow,yearly
135,Iran,8.0,8.0,0.0,9.0,9.0,0.0,6.0,1.0,0.0,0.0,0.0,0.0,2020-12-01,7-55-Bew-RueA-J-d-2020-12.xlsx,7-55-Bew-RueA-J,7-55,flow,yearly
136,Jemen,4.0,4.0,0.0,4.0,4.0,0.0,4.0,4.0,0.0,0.0,0.0,0.0,2020-12-01,7-55-Bew-RueA-J-d-2020-12.xlsx,7-55-Bew-RueA-J,7-55,flow,yearly
137,Jordanien,2.0,2.0,0.0,2.0,2.0,0.0,2.0,1.0,0.0,0.0,0.0,0.0,2020-12-01,7-55-Bew-RueA-J-d-2020-12.xlsx,7-55-Bew-RueA-J,7-55,flow,yearly
138,Laos,1.0,1.0,0.0,0.0,0.0,0.0,0.0,0.0,0.0,0.0,0.0,0.0,2020-12-01,7-55-Bew-RueA-J-d-2020-12.xlsx,7-55-Bew-RueA-J,7-55,flow,yearly
139,Libanon,1.0,1.0,0.0,1.0,1.0,0.0,0.0,0.0,0.0,0.0,0.0,0.0,2020-12-01,7-55-Bew-RueA-J-d-2020-12.xlsx,7-55-Bew-RueA-J,7-55,flow,yearly
140,Nepal,1.0,1.0,0.0,1.0,1.0,0.0,0.0,1.0,0.0,0.0,0.0,0.0,2020-12-01,7-55-Bew-RueA-J-d-2020-12.xlsx,7-55-Bew-RueA-J,7-55,flow,yearly
141,Pakistan,2.0,2.0,0.0,2.0,2.0,0.0,4.0,4.0,0.0,0.0,0.0,0.0,2020-12-01,7-55-Bew-RueA-J-d-2020-12.xlsx,7-55-Bew-RueA-J,7-55,flow,yearly
142,Sri Lanka,4.0,4.0,0.0,3.0,3.0,0.0,1.0,0.0,0.0,0.0,0.0,0.0,2020-12-01,7-55-Bew-RueA-J-d-2020-12.xlsx,7-55-Bew-RueA-J,7-55,flow,yearly
143,Syrien,42.0,35.0,7.0,37.0,37.0,0.0,49.0,8.0,7.0,7.0,0.0,0.0,2020-12-01,7-55-Bew-RueA-J-d-2020-12.xlsx,7-55-Bew-RueA-J,7-55,flow,yearly
144,Total Asien,102.0,95.0,7.0,98.0,96.0,1.0,99.0,34.0,7.0,7.0,0.0,0.0,2020-12-01,7-55-Bew-RueA-J-d-2020-12.xlsx,7-55-Bew-RueA-J,7-55,flow,yearly
145,,,,,,,,,,,,,,2020-12-01,7-55-Bew-RueA-J-d-2020-12.xlsx,7-55-Bew-RueA-J,7-55,flow,yearly
146,Albanien,2.0,2.0,0.0,2.0,2.0,0.0,1.0,2.0,0.0,0.0,0.0,0.0,2020-12-01,7-55-Bew-RueA-J-d-2020-12.xlsx,7-55-Bew-RueA-J,7-55,flow,yearly
147,Belarus,1.0,1.0,0.0,1.0,1.0,0.0,0.0,0.0,0.0,0.0,0.0,0.0,2020-12-01,7-55-Bew-RueA-J-d-2020-12.xlsx,7-55-Bew-RueA-J,7-55,flow,yearly
148,Bosnien u. Herzegowina,4.0,4.0,0.0,1.0,1.0,0.0,0.0,1.0,0.0,0.0,0.0,0.0,2020-12-01,7-55-Bew-RueA-J-d-2020-12.xlsx,7-55-Bew-RueA-J,7-55,flow,yearly
149,Bulgarien,5.0,5.0,0.0,5.0,5.0,0.0,0.0,4.0,0.0,0.0,0.0,0.0,2020-12-01,7-55-Bew-RueA-J-d-2020-12.xlsx,7-55-Bew-RueA-J,7-55,flow,yearly
150,Dänemark,1.0,1.0,0.0,1.0,1.0,0.0,0.0,0.0,0.0,0.0,0.0,0.0,2020-12-01,7-55-Bew-RueA-J-d-2020-12.xlsx,7-55-Bew-RueA-J,7-55,flow,yearly
151,Estland,2.0,2.0,0.0,2.0,1.0,0.0,0.0,2.0,0.0,0.0,0.0,0.0,2020-12-01,7-55-Bew-RueA-J-d-2020-12.xlsx,7-55-Bew-RueA-J,7-55,flow,yearly
152,Frankreich,1.0,1.0,0.0,1.0,0.0,1.0,0.0,0.0,0.0,0.0,0.0,0.0,2020-12-01,7-55-Bew-RueA-J-d-2020-12.xlsx,7-55-Bew-RueA-J,7-55,flow,yearly
153,Grossbritannien,5.0,4.0,1.0,4.0,4.0,0.0,0.0,5.0,1.0,1.0,0.0,0.0,2020-12-01,7-55-Bew-RueA-J-d-2020-12.xlsx,7-55-Bew-RueA-J,7-55,flow,yearly
154,Kosovo,2.0,2.0,0.0,2.0,2.0,0.0,0.0,2.0,0.0,0.0,0.0,0.0,2020-12-01,7-55-Bew-RueA-J-d-2020-12.xlsx,7-55-Bew-RueA-J,7-55,flow,yearly
155,Kroatien,3.0,3.0,0.0,5.0,4.0,0.0,0.0,2.0,0.0,0.0,0.0,0.0,2020-12-01,7-55-Bew-RueA-J-d-2020-12.xlsx,7-55-Bew-RueA-J,7-55,flow,yearly
156,Lettland,2.0,2.0,0.0,2.0,2.0,0.0,0.0,1.0,0.0,0.0,0.0,0.0,2020-12-01,7-55-Bew-RueA-J-d-2020-12.xlsx,7-55-Bew-RueA-J,7-55,flow,yearly
157,Litauen,4.0,4.0,0.0,4.0,4.0,0.0,0.0,4.0,0.0,0.0,0.0,0.0,2020-12-01,7-55-Bew-RueA-J-d-2020-12.xlsx,7-55-Bew-RueA-J,7-55,flow,yearly
158,Moldova,1.0,1.0,0.0,1.0,0.0,1.0,0.0,0.0,0.0,0.0,0.0,0.0,2020-12-01,7-55-Bew-RueA-J-d-2020-12.xlsx,7-55-Bew-RueA-J,7-55,flow,yearly
159,Montenegro,0.0,0.0,0.0,0.0,0.0,0.0,0.0,0.0,0.0,0.0,0.0,0.0,2020-12-01,7-55-Bew-RueA-J-d-2020-12.xlsx,7-55-Bew-RueA-J,7-55,flow,yearly
160,Niederlande,5.0,5.0,0.0,6.0,4.0,1.0,0.0,4.0,0.0,0.0,0.0,0.0,2020-12-01,7-55-Bew-RueA-J-d-2020-12.xlsx,7-55-Bew-RueA-J,7-55,flow,yearly
161,Polen,11.0,11.0,0.0,11.0,11.0,0.0,1.0,9.0,0.0,0.0,0.0,0.0,2020-12-01,7-55-Bew-RueA-J-d-2020-12.xlsx,7-55-Bew-RueA-J,7-55,flow,yearly
162,Rumänien,57.0,57.0,0.0,56.0,52.0,4.0,0.0,45.0,0.0,0.0,0.0,0.0,2020-12-01,7-55-Bew-RueA-J-d-2020-12.xlsx,7-55-Bew-RueA-J,7-55,flow,yearly
163,Russland,5.0,5.0,0.0,10.0,10.0,0.0,9.0,1.0,0.0,0.0,0.0,0.0,2020-12-01,7-55-Bew-RueA-J-d-2020-12.xlsx,7-55-Bew-RueA-J,7-55,flow,yearly
164,Serbien,5.0,3.0,2.0,3.0,2.0,0.0,0.0,1.0,2.0,2.0,0.0,2.0,2020-12-01,7-55-Bew-RueA-J-d-2020-12.xlsx,7-55-Bew-RueA-J,7-55,flow,yearly
165,Slowakische Republik,1.0,1.0,0.0,1.0,1.0,0.0,0.0,2.0,0.0,0.0,0.0,0.0,2020-12-01,7-55-Bew-RueA-J-d-2020-12.xlsx,7-55-Bew-RueA-J,7-55,flow,yearly
166,Spanien,4.0,4.0,0.0,4.0,4.0,0.0,0.0,4.0,0.0,0.0,0.0,0.0,2020-12-01,7-55-Bew-RueA-J-d-2020-12.xlsx,7-55-Bew-RueA-J,7-55,flow,yearly
167,Tschechische Republik,1.0,1.0,0.0,1.0,1.0,0.0,0.0,1.0,0.0,0.0,0.0,0.0,2020-12-01,7-55-Bew-RueA-J-d-2020-12.xlsx,7-55-Bew-RueA-J,7-55,flow,yearly
168,Türkei,5.0,5.0,0.0,5.0,5.0,0.0,2.0,2.0,0.0,0.0,0.0,0.0,2020-12-01,7-55-Bew-RueA-J-d-2020-12.xlsx,7-55-Bew-RueA-J,7-55,flow,yearly
169,Ukraine,0.0,0.0,0.0,0.0,0.0,0.0,0.0,0.0,0.0,0.0,0.0,0.0,2020-12-01,7-55-Bew-RueA-J-d-2020-12.xlsx,7-55-Bew-RueA-J,7-55,flow,yearly
170,Ungarn,9.0,9.0,0.0,8.0,8.0,0.0,0.0,7.0,0.0,0.0,0.0,0.0,2020-12-01,7-55-Bew-RueA-J-d-2020-12.xlsx,7-55-Bew-RueA-J,7-55,flow,yearly
171,Total Europa,136.0,133.0,3.0,136.0,125.0,7.0,13.0,99.0,3.0,3.0,0.0,2.0,2020-12-01,7-55-Bew-RueA-J-d-2020-12.xlsx,7-55-Bew-RueA-J,7-55,flow,yearly
172,,,,,,,,,,,,,,2020-12-01,7-55-Bew-RueA-J-d-2020-12.xlsx,7-55-Bew-RueA-J,7-55,flow,yearly
173,Staatenlos,1.0,1.0,0.0,1.0,1.0,0.0,0.0,1.0,0.0,0.0,0.0,0.0,2020-12-01,7-55-Bew-RueA-J-d-2020-12.xlsx,7-55-Bew-RueA-J,7-55,flow,yearly
174,Ohne Nationalität,6.0,6.0,0.0,6.0,6.0,0.0,6.0,0.0,0.0,0.0,0.0,0.0,2020-12-01,7-55-Bew-RueA-J-d-2020-12.xlsx,7-55-Bew-RueA-J,7-55,flow,yearly
175,Staat unbekannt,28.0,28.0,0.0,27.0,19.0,7.0,3.0,10.0,0.0,0.0,0.0,0.0,2020-12-01,7-55-Bew-RueA-J-d-2020-12.xlsx,7-55-Bew-RueA-J,7-55,flow,yearly
176,Total Herkunft unbek.,35.0,35.0,0.0,34.0,26.0,7.0,9.0,11.0,0.0,0.0,0.0,0.0,2020-12-01,7-55-Bew-RueA-J-d-2020-12.xlsx,7-55-Bew-RueA-J,7-55,flow,yearly
177,Herkunft unbekannt,15.0,14.0,1.0,15.0,13.0,2.0,9.0,4.0,1.0,1.0,0.0,1.0,2020-12-01,7-55-Bew-RueA-J-d-2020-12.xlsx,7-55-Bew-RueA-J,7-55,flow,yearly
178,,,,,,,,,,,,,,2020-12-01,7-55-Bew-RueA-J-d-2020-12.xlsx,7-55-Bew-RueA-J,7-55,flow,yearly
179,Ägypten,1.0,1.0,0.0,1.0,1.0,0.0,0.0,0.0,0.0,0.0,0.0,0.0,2020-12-01,7-55-Bew-RueA-J-d-2020-12.xlsx,7-55-Bew-RueA-J,7-55,flow,yearly
180,Algerien,2.0,2.0,0.0,2.0,1.0,1.0,1.0,0.0,0.0,0.0,0.0,0.0,2020-12-01,7-55-Bew-RueA-J-d-2020-12.xlsx,7-55-Bew-RueA-J,7-55,flow,yearly
181,Angola,0.0,0.0,0.0,0.0,0.0,0.0,0.0,0.0,0.0,0.0,0.0,0.0,2020-12-01,7-55-Bew-RueA-J-d-2020-12.xlsx,7-55-Bew-RueA-J,7-55,flow,yearly
182,Äquatorialguinea,1.0,1.0,0.0,1.0,1.0,0.0,0.0,1.0,0.0,0.0,0.0,0.0,2020-12-01,7-55-Bew-RueA-J-d-2020-12.xlsx,7-55-Bew-RueA-J,7-55,flow,yearly
183,Äthiopien,4.0,3.0,1.0,3.0,3.0,0.0,1.0,3.0,1.0,1.0,0.0,0.0,2020-12-01,7-55-Bew-RueA-J-d-2020-12.xlsx,7-55-Bew-RueA-J,7-55,flow,yearly
184,Côte d'Ivoire,2.0,2.0,0.0,2.0,2.0,0.0,1.0,0.0,0.0,0.0,0.0,0.0,2020-12-01,7-55-Bew-RueA-J-d-2020-12.xlsx,7-55-Bew-RueA-J,7-55,flow,yearly
185,Eritrea,60.0,38.0,22.0,33.0,23.0,6.0,19.0,12.0,22.0,21.0,0.0,9.0,2020-12-01,7-55-Bew-RueA-J-d-2020-12.xlsx,7-55-Bew-RueA-J,7-55,flow,yearly
186,Gabun,1.0,1.0,0.0,0.0,0.0,0.0,0.0,0.0,0.0,0.0,0.0,0.0,2020-12-01,7-55-Bew-RueA-J-d-2020-12.xlsx,7-55-Bew-RueA-J,7-55,flow,yearly
187,Gambia,13.0,13.0,0.0,13.0,12.0,1.0,1.0,9.0,0.0,0.0,0.0,0.0,2020-12-01,7-55-Bew-RueA-J-d-2020-12.xlsx,7-55-Bew-RueA-J,7-55,flow,yearly
188,Ghana,0.0,0.0,0.0,0.0,0.0,0.0,0.0,2.0,0.0,0.0,0.0,0.0,2020-12-01,7-55-Bew-RueA-J-d-2020-12.xlsx,7-55-Bew-RueA-J,7-55,flow,yearly
189,Guinea,10.0,10.0,0.0,10.0,9.0,1.0,1.0,7.0,0.0,0.0,0.0,0.0,2020-12-01,7-55-Bew-RueA-J-d-2020-12.xlsx,7-55-Bew-RueA-J,7-55,flow,yearly
190,Guinea-Bissau,1.0,1.0,0.0,1.0,0.0,1.0,1.0,0.0,0.0,0.0,0.0,0.0,2020-12-01,7-55-Bew-RueA-J-d-2020-12.xlsx,7-55-Bew-RueA-J,7-55,flow,yearly
191,Kamerun,1.0,1.0,0.0,3.0,2.0,0.0,0.0,0.0,0.0,0.0,0.0,0.0,2020-12-01,7-55-Bew-RueA-J-d-2020-12.xlsx,7-55-Bew-RueA-J,7-55,flow,yearly
192,Kongo,1.0,0.0,1.0,0.0,0.0,0.0,0.0,0.0,1.0,1.0,0.0,1.0,2020-12-01,7-55-Bew-RueA-J-d-2020-12.xlsx,7-55-Bew-RueA-J,7-55,flow,yearly
193,Kongo DR,2.0,2.0,0.0,2.0,2.0,0.0,1.0,0.0,0.0,0.0,0.0,0.0,2020-12-01,7-55-Bew-RueA-J-d-2020-12.xlsx,7-55-Bew-RueA-J,7-55,flow,yearly
194,Liberia,3.0,3.0,0.0,3.0,2.0,1.0,0.0,0.0,0.0,0.0,0.0,0.0,2020-12-01,7-55-Bew-RueA-J-d-2020-12.xlsx,7-55-Bew-RueA-J,7-55,flow,yearly
195,Libyen,2.0,2.0,0.0,2.0,2.0,0.0,1.0,2.0,0.0,0.0,0.0,0.0,2020-12-01,7-55-Bew-RueA-J-d-2020-12.xlsx,7-55-Bew-RueA-J,7-55,flow,yearly
196,Malawi,1.0,1.0,0.0,1.0,1.0,0.0,0.0,0.0,0.0,0.0,0.0,0.0,2020-12-01,7-55-Bew-RueA-J-d-2020-12.xlsx,7-55-Bew-RueA-J,7-55,flow,yearly
197,Mali,1.0,1.0,0.0,1.0,1.0,0.0,0.0,2.0,0.0,0.0,0.0,0.0,2020-12-01,7-55-Bew-RueA-J-d-2020-12.xlsx,7-55-Bew-RueA-J,7-55,flow,yearly
198,Marokko,5.0,5.0,0.0,5.0,4.0,1.0,1.0,3.0,0.0,0.0,0.0,0.0,2020-12-01,7-55-Bew-RueA-J-d-2020-12.xlsx,7-55-Bew-RueA-J,7-55,flow,yearly
199,Mauretanien,1.0,1.0,0.0,1.0,1.0,0.0,0.0,0.0,0.0,0.0,0.0,0.0,2020-12-01,7-55-Bew-RueA-J-d-2020-12.xlsx,7-55-Bew-RueA-J,7-55,flow,yearly
200,Niger,1.0,1.0,0.0,1.0,1.0,0.0,0.0,0.0,0.0,0.0,0.0,0.0,2020-12-01,7-55-Bew-RueA-J-d-2020-12.xlsx,7-55-Bew-RueA-J,7-55,flow,yearly
201,Nigeria,89.0,89.0,0.0,75.0,68.0,5.0,4.0,48.0,0.0,0.0,0.0,0.0,2020-12-01,7-55-Bew-RueA-J-d-2020-12.xlsx,7-55-Bew-RueA-J,7-55,flow,yearly
202,Senegal,8.0,8.0,0.0,7.0,5.0,2.0,0.0,4.0,0.0,0.0,0.0,0.0,2020-12-01,7-55-Bew-RueA-J-d-2020-12.xlsx,7-55-Bew-RueA-J,7-55,flow,yearly
203,Sierra Leone,3.0,2.0,1.0,3.0,3.0,0.0,1.0,1.0,1.0,1.0,0.0,0.0,2020-12-01,7-55-Bew-RueA-J-d-2020-12.xlsx,7-55-Bew-RueA-J,7-55,flow,yearly
204,Somalia,65.0,49.0,16.0,46.0,42.0,2.0,26.0,10.0,16.0,15.0,1.0,9.0,2020-12-01,7-55-Bew-RueA-J-d-2020-12.xlsx,7-55-Bew-RueA-J,7-55,flow,yearly
205,Sudan,3.0,3.0,0.0,2.0,2.0,0.0,1.0,1.0,0.0,0.0,0.0,0.0,2020-12-01,7-55-Bew-RueA-J-d-2020-12.xlsx,7-55-Bew-RueA-J,7-55,flow,yearly
206,Südsudan,1.0,1.0,0.0,1.0,1.0,0.0,0.0,0.0,0.0,0.0,0.0,0.0,2020-12-01,7-55-Bew-RueA-J-d-2020-12.xlsx,7-55-Bew-RueA-J,7-55,flow,yearly
207,Togo,0.0,0.0,0.0,0.0,0.0,0.0,0.0,0.0,0.0,0.0,0.0,0.0,2020-12-01,7-55-Bew-RueA-J-d-2020-12.xlsx,7-55-Bew-RueA-J,7-55,flow,yearly
208,Tschad,2.0,2.0,0.0,2.0,1.0,0.0,0.0,1.0,0.0,0.0,0.0,0.0,2020-12-01,7-55-Bew-RueA-J-d-2020-12.xlsx,7-55-Bew-RueA-J,7-55,flow,yearly
209,Tunesien,2.0,2.0,0.0,2.0,1.0,1.0,0.0,0.0,0.0,0.0,0.0,0.0,2020-12-01,7-55-Bew-RueA-J-d-2020-12.xlsx,7-55-Bew-RueA-J,7-55,flow,yearly
210,Zentralafr. Republik,1.0,1.0,0.0,1.0,1.0,0.0,1.0,0.0,0.0,0.0,0.0,0.0,2020-12-01,7-55-Bew-RueA-J-d-2020-12.xlsx,7-55-Bew-RueA-J,7-55,flow,yearly
211,Total Afrika,287.0,246.0,41.0,224.0,192.0,22.0,61.0,106.0,41.0,39.0,1.0,19.0,2020-12-01,7-55-Bew-RueA-J-d-2020-12.xlsx,7-55-Bew-RueA-J,7-55,flow,yearly
212,,,,,,,,,,,,,,2020-12-01,7-55-Bew-RueA-J-d-2020-12.xlsx,7-55-Bew-RueA-J,7-55,flow,yearly
213,Bolivien,1.0,1.0,0.0,1.0,0.0,1.0,0.0,0.0,0.0,0.0,0.0,0.0,2020-12-01,7-55-Bew-RueA-J-d-2020-12.xlsx,7-55-Bew-RueA-J,7-55,flow,yearly
214,Dominikanische Republik,9.0,9.0,0.0,11.0,7.0,4.0,0.0,6.0,0.0,0.0,0.0,0.0,2020-12-01,7-55-Bew-RueA-J-d-2020-12.xlsx,7-55-Bew-RueA-J,7-55,flow,yearly
215,Ecuador,1.0,1.0,0.0,1.0,1.0,0.0,0.0,1.0,0.0,0.0,0.0,0.0,2020-12-01,7-55-Bew-RueA-J-d-2020-12.xlsx,7-55-Bew-RueA-J,7-55,flow,yearly
216,Haiti,0.0,0.0,0.0,0.0,0.0,0.0,0.0,0.0,0.0,0.0,0.0,0.0,2020-12-01,7-55-Bew-RueA-J-d-2020-12.xlsx,7-55-Bew-RueA-J,7-55,flow,yearly
217,Jamaika,1.0,1.0,0.0,1.0,1.0,0.0,1.0,1.0,0.0,0.0,0.0,0.0,2020-12-01,7-55-Bew-RueA-J-d-2020-12.xlsx,7-55-Bew-RueA-J,7-55,flow,yearly
218,Kolumbien,6.0,4.0,2.0,4.0,2.0,2.0,0.0,4.0,2.0,2.0,0.0,0.0,2020-12-01,7-55-Bew-RueA-J-d-2020-12.xlsx,7-55-Bew-RueA-J,7-55,flow,yearly
219,Kuba,1.0,1.0,0.0,1.0,0.0,1.0,0.0,0.0,0.0,0.0,0.0,0.0,2020-12-01,7-55-Bew-RueA-J-d-2020-12.xlsx,7-55-Bew-RueA-J,7-55,flow,yearly
220,Peru,2.0,2.0,0.0,2.0,2.0,0.0,0.0,1.0,0.0,0.0,0.0,0.0,2020-12-01,7-55-Bew-RueA-J-d-2020-12.xlsx,7-55-Bew-RueA-J,7-55,flow,yearly
221,Venezuela,1.0,1.0,0.0,1.0,0.0,1.0,0.0,0.0,0.0,0.0,0.0,0.0,2020-12-01,7-55-Bew-RueA-J-d-2020-12.xlsx,7-55-Bew-RueA-J,7-55,flow,yearly
222,Total Amerika,22.0,20.0,2.0,22.0,13.0,9.0,1.0,13.0,2.0,2.0,0.0,0.0,2020-12-01,7-55-Bew-RueA-J-d-2020-12.xlsx,7-55-Bew-RueA-J,7-55,flow,yearly
223,,,,,,,,,,,,,,2020-12-01,7-55-Bew-RueA-J-d-2020-12.xlsx,7-55-Bew-RueA-J,7-55,flow,yearly
224,Afghanistan,72.0,70.0,2.0,69.0,68.0,1.0,55.0,18.0,2.0,2.0,0.0,1.0,2020-12-01,7-55-Bew-RueA-J-d-2020-12.xlsx,7-55-Bew-RueA-J,7-55,flow,yearly
225,Armenien,1.0,1.0,0.0,1.0,1.0,0.0,0.0,0.0,0.0,0.0,0.0,0.0,2020-12-01,7-55-Bew-RueA-J-d-2020-12.xlsx,7-55-Bew-RueA-J,7-55,flow,yearly
226,Bangladesh,0.0,0.0,0.0,0.0,0.0,0.0,0.0,0.0,0.0,0.0,0.0,0.0,2020-12-01,7-55-Bew-RueA-J-d-2020-12.xlsx,7-55-Bew-RueA-J,7-55,flow,yearly
227,China (Volksrepublik),0.0,0.0,0.0,1.0,1.0,0.0,0.0,2.0,0.0,0.0,0.0,0.0,2020-12-01,7-55-Bew-RueA-J-d-2020-12.xlsx,7-55-Bew-RueA-J,7-55,flow,yearly
228,Georgien,1.0,1.0,0.0,1.0,1.0,0.0,0.0,1.0,0.0,0.0,0.0,0.0,2020-12-01,7-55-Bew-RueA-J-d-2020-12.xlsx,7-55-Bew-RueA-J,7-55,flow,yearly
229,Irak,41.0,39.0,2.0,33.0,33.0,0.0,32.0,5.0,2.0,2.0,0.0,2.0,2020-12-01,7-55-Bew-RueA-J-d-2020-12.xlsx,7-55-Bew-RueA-J,7-55,flow,yearly
230,Iran,17.0,17.0,0.0,17.0,17.0,0.0,10.0,5.0,0.0,0.0,0.0,0.0,2020-12-01,7-55-Bew-RueA-J-d-2020-12.xlsx,7-55-Bew-RueA-J,7-55,flow,yearly
231,Israel,2.0,2.0,0.0,2.0,2.0,0.0,2.0,0.0,0.0,0.0,0.0,0.0,2020-12-01,7-55-Bew-RueA-J-d-2020-12.xlsx,7-55-Bew-RueA-J,7-55,flow,yearly
232,Jemen,0.0,0.0,0.0,0.0,0.0,0.0,0.0,0.0,0.0,0.0,0.0,0.0,2020-12-01,7-55-Bew-RueA-J-d-2020-12.xlsx,7-55-Bew-RueA-J,7-55,flow,yearly
233,Libanon,0.0,0.0,0.0,0.0,0.0,0.0,0.0,0.0,0.0,0.0,0.0,0.0,2020-12-01,7-55-Bew-RueA-J-d-2020-12.xlsx,7-55-Bew-RueA-J,7-55,flow,yearly
234,Malediven,1.0,0.0,1.0,0.0,0.0,0.0,0.0,0.0,1.0,1.0,0.0,0.0,2020-12-01,7-55-Bew-RueA-J-d-2020-12.xlsx,7-55-Bew-RueA-J,7-55,flow,yearly
235,Mongolei,0.0,0.0,0.0,0.0,0.0,0.0,0.0,0.0,0.0,0.0,0.0,0.0,2020-12-01,7-55-Bew-RueA-J-d-2020-12.xlsx,7-55-Bew-RueA-J,7-55,flow,yearly
236,Pakistan,2.0,2.0,0.0,3.0,3.0,0.0,0.0,1.0,0.0,0.0,0.0,0.0,2020-12-01,7-55-Bew-RueA-J-d-2020-12.xlsx,7-55-Bew-RueA-J,7-55,flow,yearly
237,Sri Lanka,2.0,1.0,1.0,0.0,0.0,0.0,1.0,0.0,1.0,1.0,0.0,0.0,2020-12-01,7-55-Bew-RueA-J-d-2020-12.xlsx,7-55-Bew-RueA-J,7-55,flow,yearly
238,Syrien,40.0,36.0,4.0,38.0,35.0,2.0,50.0,6.0,4.0,4.0,0.0,0.0,2020-12-01,7-55-Bew-RueA-J-d-2020-12.xlsx,7-55-Bew-RueA-J,7-55,flow,yearly
239,Vietnam,1.0,1.0,0.0,1.0,0.0,1.0,0.0,0.0,0.0,0.0,0.0,0.0,2020-12-01,7-55-Bew-RueA-J-d-2020-12.xlsx,7-55-Bew-RueA-J,7-55,flow,yearly
240,Total Asien,180.0,170.0,10.0,166.0,161.0,4.0,150.0,38.0,10.0,10.0,0.0,3.0,2020-12-01,7-55-Bew-RueA-J-d-2020-12.xlsx,7-55-Bew-RueA-J,7-55,flow,yearly
241,,,,,,,,,,,,,,2020-12-01,7-55-Bew-RueA-J-d-2020-12.xlsx,7-55-Bew-RueA-J,7-55,flow,yearly
242,Albanien,5.0,5.0,0.0,5.0,4.0,1.0,0.0,4.0,0.0,0.0,0.0,0.0,2020-12-01,7-55-Bew-RueA-J-d-2020-12.xlsx,7-55-Bew-RueA-J,7-55,flow,yearly
243,Belarus,1.0,1.0,0.0,1.0,1.0,0.0,1.0,0.0,0.0,0.0,0.0,0.0,2020-12-01,7-55-Bew-RueA-J-d-2020-12.xlsx,7-55-Bew-RueA-J,7-55,flow,yearly
244,Belgien,5.0,5.0,0.0,5.0,4.0,1.0,0.0,2.0,0.0,0.0,0.0,0.0,2020-12-01,7-55-Bew-RueA-J-d-2020-12.xlsx,7-55-Bew-RueA-J,7-55,flow,yearly
245,Bosnien u. Herzegowina,0.0,0.0,0.0,0.0,0.0,0.0,0.0,0.0,0.0,0.0,0.0,0.0,2020-12-01,7-55-Bew-RueA-J-d-2020-12.xlsx,7-55-Bew-RueA-J,7-55,flow,yearly
246,Bulgarien,1.0,1.0,0.0,1.0,1.0,0.0,0.0,1.0,0.0,0.0,0.0,0.0,2020-12-01,7-55-Bew-RueA-J-d-2020-12.xlsx,7-55-Bew-RueA-J,7-55,flow,yearly
247,Deutschland,0.0,0.0,0.0,0.0,0.0,0.0,1.0,0.0,0.0,0.0,0.0,0.0,2020-12-01,7-55-Bew-RueA-J-d-2020-12.xlsx,7-55-Bew-RueA-J,7-55,flow,yearly
248,Estland,2.0,2.0,0.0,2.0,2.0,0.0,0.0,0.0,0.0,0.0,0.0,0.0,2020-12-01,7-55-Bew-RueA-J-d-2020-12.xlsx,7-55-Bew-RueA-J,7-55,flow,yearly
249,Grossbritannien,3.0,3.0,0.0,4.0,3.0,1.0,0.0,3.0,0.0,0.0,0.0,0.0,2020-12-01,7-55-Bew-RueA-J-d-2020-12.xlsx,7-55-Bew-RueA-J,7-55,flow,yearly
250,Kosovo,1.0,0.0,1.0,0.0,0.0,0.0,0.0,1.0,1.0,1.0,0.0,1.0,2020-12-01,7-55-Bew-RueA-J-d-2020-12.xlsx,7-55-Bew-RueA-J,7-55,flow,yearly
251,Kroatien,4.0,4.0,0.0,4.0,4.0,0.0,0.0,3.0,0.0,0.0,0.0,0.0,2020-12-01,7-55-Bew-RueA-J-d-2020-12.xlsx,7-55-Bew-RueA-J,7-55,flow,yearly
252,Lettland,0.0,0.0,0.0,0.0,0.0,0.0,0.0,0.0,0.0,0.0,0.0,0.0,2020-12-01,7-55-Bew-RueA-J-d-2020-12.xlsx,7-55-Bew-RueA-J,7-55,flow,yearly
253,Litauen,6.0,6.0,0.0,6.0,6.0,0.0,0.0,4.0,0.0,0.0,0.0,0.0,2020-12-01,7-55-Bew-RueA-J-d-2020-12.xlsx,7-55-Bew-RueA-J,7-55,flow,yearly
254,Nordmazedonien,1.0,1.0,0.0,1.0,1.0,0.0,0.0,2.0,0.0,0.0,0.0,0.0,2020-12-01,7-55-Bew-RueA-J-d-2020-12.xlsx,7-55-Bew-RueA-J,7-55,flow,yearly
255,Moldova,0.0,0.0,0.0,0.0,0.0,0.0,0.0,0.0,0.0,0.0,0.0,0.0,2020-12-01,7-55-Bew-RueA-J-d-2020-12.xlsx,7-55-Bew-RueA-J,7-55,flow,yearly
256,Niederlande,3.0,3.0,0.0,3.0,3.0,0.0,0.0,1.0,0.0,0.0,0.0,0.0,2020-12-01,7-55-Bew-RueA-J-d-2020-12.xlsx,7-55-Bew-RueA-J,7-55,flow,yearly
257,Polen,9.0,9.0,0.0,9.0,9.0,0.0,0.0,9.0,0.0,0.0,0.0,0.0,2020-12-01,7-55-Bew-RueA-J-d-2020-12.xlsx,7-55-Bew-RueA-J,7-55,flow,yearly
258,Portugal,0.0,0.0,0.0,0.0,0.0,0.0,0.0,0.0,0.0,0.0,0.0,0.0,2020-12-01,7-55-Bew-RueA-J-d-2020-12.xlsx,7-55-Bew-RueA-J,7-55,flow,yearly
259,Rumänien,29.0,29.0,0.0,29.0,26.0,3.0,0.0,19.0,0.0,0.0,0.0,0.0,2020-12-01,7-55-Bew-RueA-J-d-2020-12.xlsx,7-55-Bew-RueA-J,7-55,flow,yearly
260,Russland,11.0,11.0,0.0,11.0,11.0,0.0,11.0,9.0,0.0,0.0,0.0,0.0,2020-12-01,7-55-Bew-RueA-J-d-2020-12.xlsx,7-55-Bew-RueA-J,7-55,flow,yearly
261,Schweden,1.0,1.0,0.0,1.0,0.0,0.0,0.0,0.0,0.0,0.0,0.0,0.0,2020-12-01,7-55-Bew-RueA-J-d-2020-12.xlsx,7-55-Bew-RueA-J,7-55,flow,yearly
262,Serbien,3.0,3.0,0.0,3.0,2.0,1.0,1.0,1.0,0.0,0.0,0.0,0.0,2020-12-01,7-55-Bew-RueA-J-d-2020-12.xlsx,7-55-Bew-RueA-J,7-55,flow,yearly
263,Slowakische Republik,7.0,7.0,0.0,7.0,6.0,1.0,0.0,3.0,0.0,0.0,0.0,0.0,2020-12-01,7-55-Bew-RueA-J-d-2020-12.xlsx,7-55-Bew-RueA-J,7-55,flow,yearly
264,Slowenien,1.0,1.0,0.0,1.0,1.0,0.0,0.0,1.0,0.0,0.0,0.0,0.0,2020-12-01,7-55-Bew-RueA-J-d-2020-12.xlsx,7-55-Bew-RueA-J,7-55,flow,yearly
265,Spanien,5.0,5.0,0.0,5.0,3.0,1.0,0.0,3.0,0.0,0.0,0.0,0.0,2020-12-01,7-55-Bew-RueA-J-d-2020-12.xlsx,7-55-Bew-RueA-J,7-55,flow,yearly
266,Tschechische Republik,3.0,3.0,0.0,3.0,3.0,0.0,0.0,2.0,0.0,0.0,0.0,0.0,2020-12-01,7-55-Bew-RueA-J-d-2020-12.xlsx,7-55-Bew-RueA-J,7-55,flow,yearly
267,Türkei,13.0,8.0,5.0,8.0,8.0,0.0,13.0,1.0,5.0,5.0,0.0,1.0,2020-12-01,7-55-Bew-RueA-J-d-2020-12.xlsx,7-55-Bew-RueA-J,7-55,flow,yearly
268,Ukraine,2.0,2.0,0.0,2.0,2.0,0.0,0.0,5.0,0.0,0.0,0.0,0.0,2020-12-01,7-55-Bew-RueA-J-d-2020-12.xlsx,7-55-Bew-RueA-J,7-55,flow,yearly
269,Ungarn,3.0,3.0,0.0,3.0,3.0,0.0,0.0,3.0,0.0,0.0,0.0,0.0,2020-12-01,7-55-Bew-RueA-J-d-2020-12.xlsx,7-55-Bew-RueA-J,7-55,flow,yearly
270,Total Europa,119.0,113.0,6.0,114.0,103.0,9.0,27.0,77.0,6.0,6.0,0.0,2.0,2020-12-01,7-55-Bew-RueA-J-d-2020-12.xlsx,7-55-Bew-RueA-J,7-55,flow,yearly
271,,,,,,,,,,,,,,2020-12-01,7-55-Bew-RueA-J-d-2020-12.xlsx,7-55-Bew-RueA-J,7-55,flow,yearly
272,Ohne Nationalität,6.0,6.0,0.0,6.0,5.0,1.0,5.0,0.0,0.0,0.0,0.0,0.0,2020-12-01,7-55-Bew-RueA-J-d-2020-12.xlsx,7-55-Bew-RueA-J,7-55,flow,yearly
273,Staat unbekannt,9.0,8.0,1.0,9.0,8.0,1.0,4.0,4.0,1.0,1.0,0.0,1.0,2020-12-01,7-55-Bew-RueA-J-d-2020-12.xlsx,7-55-Bew-RueA-J,7-55,flow,yearly
274,Total Herkunft unbek.,15.0,14.0,1.0,15.0,13.0,2.0,9.0,4.0,1.0,1.0,0.0,1.0,2020-12-01,7-55-Bew-RueA-J-d-2020-12.xlsx,7-55-Bew-RueA-J,7-55,flow,yearly
275,Herkunft unbekannt,27.0,25.0,2.0,24.0,21.0,3.0,14.0,10.0,2.0,2.0,0.0,1.0,2020-12-01,7-55-Bew-RueA-J-d-2020-12.xlsx,7-55-Bew-RueA-J,7-55,flow,yearly
276,,,,,,,,,,,,,,2020-12-01,7-55-Bew-RueA-J-d-2020-12.xlsx,7-55-Bew-RueA-J,7-55,flow,yearly
277,Ägypten,9.0,9.0,0.0,7.0,7.0,0.0,7.0,3.0,0.0,0.0,0.0,0.0,2020-12-01,7-55-Bew-RueA-J-d-2020-12.xlsx,7-55-Bew-RueA-J,7-55,flow,yearly
278,Algerien,13.0,13.0,0.0,12.0,6.0,6.0,0.0,5.0,0.0,0.0,0.0,0.0,2020-12-01,7-55-Bew-RueA-J-d-2020-12.xlsx,7-55-Bew-RueA-J,7-55,flow,yearly
279,Angola,1.0,1.0,0.0,1.0,1.0,0.0,0.0,0.0,0.0,0.0,0.0,0.0,2020-12-01,7-55-Bew-RueA-J-d-2020-12.xlsx,7-55-Bew-RueA-J,7-55,flow,yearly
280,Äquatorialguinea,1.0,1.0,0.0,1.0,1.0,0.0,0.0,1.0,0.0,0.0,0.0,0.0,2020-12-01,7-55-Bew-RueA-J-d-2020-12.xlsx,7-55-Bew-RueA-J,7-55,flow,yearly
281,Äthiopien,9.0,9.0,0.0,9.0,9.0,0.0,9.0,2.0,0.0,0.0,0.0,0.0,2020-12-01,7-55-Bew-RueA-J-d-2020-12.xlsx,7-55-Bew-RueA-J,7-55,flow,yearly
282,Burkina Faso,2.0,2.0,0.0,1.0,1.0,0.0,0.0,1.0,0.0,0.0,0.0,0.0,2020-12-01,7-55-Bew-RueA-J-d-2020-12.xlsx,7-55-Bew-RueA-J,7-55,flow,yearly
283,Côte d'Ivoire,6.0,6.0,0.0,4.0,4.0,0.0,1.0,5.0,0.0,0.0,0.0,0.0,2020-12-01,7-55-Bew-RueA-J-d-2020-12.xlsx,7-55-Bew-RueA-J,7-55,flow,yearly
284,Eritrea,137.0,131.0,6.0,90.0,90.0,0.0,57.0,14.0,6.0,6.0,0.0,3.0,2020-12-01,7-55-Bew-RueA-J-d-2020-12.xlsx,7-55-Bew-RueA-J,7-55,flow,yearly
285,Gambia,14.0,14.0,0.0,13.0,11.0,2.0,2.0,8.0,0.0,0.0,0.0,0.0,2020-12-01,7-55-Bew-RueA-J-d-2020-12.xlsx,7-55-Bew-RueA-J,7-55,flow,yearly
286,Ghana,1.0,1.0,0.0,0.0,0.0,0.0,0.0,0.0,0.0,0.0,0.0,0.0,2020-12-01,7-55-Bew-RueA-J-d-2020-12.xlsx,7-55-Bew-RueA-J,7-55,flow,yearly
287,Guinea,14.0,14.0,0.0,11.0,11.0,0.0,0.0,8.0,0.0,0.0,0.0,0.0,2020-12-01,7-55-Bew-RueA-J-d-2020-12.xlsx,7-55-Bew-RueA-J,7-55,flow,yearly
288,Guinea-Bissau,4.0,4.0,0.0,4.0,4.0,0.0,2.0,3.0,0.0,0.0,0.0,0.0,2020-12-01,7-55-Bew-RueA-J-d-2020-12.xlsx,7-55-Bew-RueA-J,7-55,flow,yearly
289,Kamerun,2.0,2.0,0.0,2.0,2.0,0.0,0.0,1.0,0.0,0.0,0.0,0.0,2020-12-01,7-55-Bew-RueA-J-d-2020-12.xlsx,7-55-Bew-RueA-J,7-55,flow,yearly
290,Kongo DR,3.0,1.0,2.0,1.0,0.0,0.0,7.0,0.0,2.0,2.0,0.0,1.0,2020-12-01,7-55-Bew-RueA-J-d-2020-12.xlsx,7-55-Bew-RueA-J,7-55,flow,yearly
291,Liberia,10.0,10.0,0.0,9.0,6.0,3.0,4.0,4.0,0.0,0.0,0.0,0.0,2020-12-01,7-55-Bew-RueA-J-d-2020-12.xlsx,7-55-Bew-RueA-J,7-55,flow,yearly
292,Libyen,3.0,3.0,0.0,3.0,3.0,0.0,2.0,0.0,0.0,0.0,0.0,0.0,2020-12-01,7-55-Bew-RueA-J-d-2020-12.xlsx,7-55-Bew-RueA-J,7-55,flow,yearly
293,Mali,21.0,21.0,0.0,18.0,17.0,1.0,13.0,8.0,0.0,0.0,0.0,0.0,2020-12-01,7-55-Bew-RueA-J-d-2020-12.xlsx,7-55-Bew-RueA-J,7-55,flow,yearly
294,Marokko,7.0,7.0,0.0,7.0,6.0,1.0,5.0,4.0,0.0,0.0,0.0,0.0,2020-12-01,7-55-Bew-RueA-J-d-2020-12.xlsx,7-55-Bew-RueA-J,7-55,flow,yearly
295,Mauretanien,5.0,5.0,0.0,5.0,5.0,0.0,1.0,5.0,0.0,0.0,0.0,0.0,2020-12-01,7-55-Bew-RueA-J-d-2020-12.xlsx,7-55-Bew-RueA-J,7-55,flow,yearly
296,Niger,3.0,3.0,0.0,3.0,3.0,0.0,2.0,1.0,0.0,0.0,0.0,0.0,2020-12-01,7-55-Bew-RueA-J-d-2020-12.xlsx,7-55-Bew-RueA-J,7-55,flow,yearly
297,Nigeria,130.0,130.0,0.0,113.0,95.0,18.0,26.0,52.0,0.0,0.0,0.0,0.0,2020-12-01,7-55-Bew-RueA-J-d-2020-12.xlsx,7-55-Bew-RueA-J,7-55,flow,yearly
298,Senegal,6.0,6.0,0.0,5.0,5.0,0.0,1.0,2.0,0.0,0.0,0.0,0.0,2020-12-01,7-55-Bew-RueA-J-d-2020-12.xlsx,7-55-Bew-RueA-J,7-55,flow,yearly
299,Sierra Leone,4.0,4.0,0.0,4.0,3.0,1.0,0.0,3.0,0.0,0.0,0.0,0.0,2020-12-01,7-55-Bew-RueA-J-d-2020-12.xlsx,7-55-Bew-RueA-J,7-55,flow,yearly
300,Somalia,49.0,45.0,4.0,36.0,30.0,6.0,27.0,3.0,4.0,4.0,0.0,0.0,2020-12-01,7-55-Bew-RueA-J-d-2020-12.xlsx,7-55-Bew-RueA-J,7-55,flow,yearly
301,Sudan,7.0,7.0,0.0,4.0,4.0,0.0,7.0,0.0,0.0,0.0,0.0,0.0,2020-12-01,7-55-Bew-RueA-J-d-2020-12.xlsx,7-55-Bew-RueA-J,7-55,flow,yearly
302,Südsudan,1.0,1.0,0.0,0.0,0.0,0.0,0.0,0.0,0.0,0.0,0.0,0.0,2020-12-01,7-55-Bew-RueA-J-d-2020-12.xlsx,7-55-Bew-RueA-J,7-55,flow,yearly
303,Tansania,1.0,1.0,0.0,1.0,1.0,0.0,0.0,1.0,0.0,0.0,0.0,0.0,2020-12-01,7-55-Bew-RueA-J-d-2020-12.xlsx,7-55-Bew-RueA-J,7-55,flow,yearly
304,Togo,1.0,1.0,0.0,1.0,1.0,0.0,1.0,1.0,0.0,0.0,0.0,0.0,2020-12-01,7-55-Bew-RueA-J-d-2020-12.xlsx,7-55-Bew-RueA-J,7-55,flow,yearly
305,Tschad,1.0,1.0,0.0,1.0,1.0,0.0,0.0,0.0,0.0,0.0,0.0,0.0,2020-12-01,7-55-Bew-RueA-J-d-2020-12.xlsx,7-55-Bew-RueA-J,7-55,flow,yearly
306,Tunesien,0.0,0.0,0.0,0.0,0.0,0.0,1.0,0.0,0.0,0.0,0.0,0.0,2020-12-01,7-55-Bew-RueA-J-d-2020-12.xlsx,7-55-Bew-RueA-J,7-55,flow,yearly
307,Uganda,2.0,2.0,0.0,2.0,1.0,1.0,1.0,1.0,0.0,0.0,0.0,0.0,2020-12-01,7-55-Bew-RueA-J-d-2020-12.xlsx,7-55-Bew-RueA-J,7-55,flow,yearly
308,Zimbabwe,2.0,2.0,0.0,2.0,1.0,1.0,0.0,1.0,0.0,0.0,0.0,0.0,2020-12-01,7-55-Bew-RueA-J-d-2020-12.xlsx,7-55-Bew-RueA-J,7-55,flow,yearly
309,Total Afrika,469.0,457.0,12.0,370.0,329.0,40.0,176.0,137.0,12.0,12.0,0.0,4.0,2020-12-01,7-55-Bew-RueA-J-d-2020-12.xlsx,7-55-Bew-RueA-J,7-55,flow,yearly
310,,,,,,,,,,,,,,2020-12-01,7-55-Bew-RueA-J-d-2020-12.xlsx,7-55-Bew-RueA-J,7-55,flow,yearly
311,Brasilien,1.0,1.0,0.0,1.0,0.0,1.0,0.0,0.0,0.0,0.0,0.0,0.0,2020-12-01,7-55-Bew-RueA-J-d-2020-12.xlsx,7-55-Bew-RueA-J,7-55,flow,yearly
312,Dominikanische Republik,25.0,25.0,0.0,25.0,20.0,5.0,0.0,16.0,0.0,0.0,0.0,0.0,2020-12-01,7-55-Bew-RueA-J-d-2020-12.xlsx,7-55-Bew-RueA-J,7-55,flow,yearly
313,Ecuador,3.0,3.0,0.0,3.0,2.0,1.0,0.0,0.0,0.0,0.0,0.0,0.0,2020-12-01,7-55-Bew-RueA-J-d-2020-12.xlsx,7-55-Bew-RueA-J,7-55,flow,yearly
314,Kolumbien,3.0,3.0,0.0,3.0,3.0,0.0,0.0,2.0,0.0,0.0,0.0,0.0,2020-12-01,7-55-Bew-RueA-J-d-2020-12.xlsx,7-55-Bew-RueA-J,7-55,flow,yearly
315,Kuba,1.0,1.0,0.0,1.0,1.0,0.0,0.0,1.0,0.0,0.0,0.0,0.0,2020-12-01,7-55-Bew-RueA-J-d-2020-12.xlsx,7-55-Bew-RueA-J,7-55,flow,yearly
316,Suriname,1.0,1.0,0.0,1.0,1.0,0.0,0.0,1.0,0.0,0.0,0.0,0.0,2020-12-01,7-55-Bew-RueA-J-d-2020-12.xlsx,7-55-Bew-RueA-J,7-55,flow,yearly
317,USA,2.0,2.0,0.0,2.0,2.0,0.0,1.0,2.0,0.0,0.0,0.0,0.0,2020-12-01,7-55-Bew-RueA-J-d-2020-12.xlsx,7-55-Bew-RueA-J,7-55,flow,yearly
318,Total Amerika,36.0,36.0,0.0,36.0,29.0,7.0,1.0,22.0,0.0,0.0,0.0,0.0,2020-12-01,7-55-Bew-RueA-J-d-2020-12.xlsx,7-55-Bew-RueA-J,7-55,flow,yearly
319,,,,,,,,,,,,,,2020-12-01,7-55-Bew-RueA-J-d-2020-12.xlsx,7-55-Bew-RueA-J,7-55,flow,yearly
320,Afghanistan,28.0,23.0,5.0,22.0,22.0,0.0,27.0,5.0,5.0,5.0,0.0,1.0,2020-12-01,7-55-Bew-RueA-J-d-2020-12.xlsx,7-55-Bew-RueA-J,7-55,flow,yearly
321,Bangladesh,1.0,1.0,0.0,1.0,1.0,0.0,0.0,0.0,0.0,0.0,0.0,0.0,2020-12-01,7-55-Bew-RueA-J-d-2020-12.xlsx,7-55-Bew-RueA-J,7-55,flow,yearly
322,China (Volksrepublik),1.0,1.0,0.0,1.0,1.0,0.0,4.0,1.0,0.0,0.0,0.0,0.0,2020-12-01,7-55-Bew-RueA-J-d-2020-12.xlsx,7-55-Bew-RueA-J,7-55,flow,yearly
323,Georgien,1.0,1.0,0.0,1.0,1.0,0.0,0.0,2.0,0.0,0.0,0.0,0.0,2020-12-01,7-55-Bew-RueA-J-d-2020-12.xlsx,7-55-Bew-RueA-J,7-55,flow,yearly
324,Irak,17.0,16.0,1.0,12.0,12.0,0.0,4.0,8.0,1.0,1.0,0.0,1.0,2020-12-01,7-55-Bew-RueA-J-d-2020-12.xlsx,7-55-Bew-RueA-J,7-55,flow,yearly
325,Iran,16.0,16.0,0.0,16.0,16.0,0.0,18.0,0.0,0.0,0.0,0.0,0.0,2020-12-01,7-55-Bew-RueA-J-d-2020-12.xlsx,7-55-Bew-RueA-J,7-55,flow,yearly
326,Libanon,1.0,1.0,0.0,1.0,1.0,0.0,0.0,1.0,0.0,0.0,0.0,0.0,2020-12-01,7-55-Bew-RueA-J-d-2020-12.xlsx,7-55-Bew-RueA-J,7-55,flow,yearly
327,Mongolei,2.0,2.0,0.0,2.0,2.0,0.0,0.0,0.0,0.0,0.0,0.0,0.0,2020-12-01,7-55-Bew-RueA-J-d-2020-12.xlsx,7-55-Bew-RueA-J,7-55,flow,yearly
328,Pakistan,4.0,4.0,0.0,4.0,4.0,0.0,0.0,1.0,0.0,0.0,0.0,0.0,2020-12-01,7-55-Bew-RueA-J-d-2020-12.xlsx,7-55-Bew-RueA-J,7-55,flow,yearly
329,Sri Lanka,8.0,8.0,0.0,8.0,7.0,1.0,6.0,4.0,0.0,0.0,0.0,0.0,2020-12-01,7-55-Bew-RueA-J-d-2020-12.xlsx,7-55-Bew-RueA-J,7-55,flow,yearly
330,Syrien,41.0,40.0,1.0,36.0,35.0,1.0,32.0,5.0,1.0,1.0,0.0,0.0,2020-12-01,7-55-Bew-RueA-J-d-2020-12.xlsx,7-55-Bew-RueA-J,7-55,flow,yearly
331,Total Asien,120.0,113.0,7.0,104.0,102.0,2.0,91.0,27.0,7.0,7.0,0.0,2.0,2020-12-01,7-55-Bew-RueA-J-d-2020-12.xlsx,7-55-Bew-RueA-J,7-55,flow,yearly
332,,,,,,,,,,,,,,2020-12-01,7-55-Bew-RueA-J-d-2020-12.xlsx,7-55-Bew-RueA-J,7-55,flow,yearly
333,Belarus,1.0,1.0,0.0,1.0,1.0,0.0,0.0,1.0,0.0,0.0,0.0,0.0,2020-12-01,7-55-Bew-RueA-J-d-2020-12.xlsx,7-55-Bew-RueA-J,7-55,flow,yearly
334,Belgien,2.0,2.0,0.0,2.0,1.0,1.0,0.0,0.0,0.0,0.0,0.0,0.0,2020-12-01,7-55-Bew-RueA-J-d-2020-12.xlsx,7-55-Bew-RueA-J,7-55,flow,yearly
335,Bosnien u. Herzegowina,1.0,1.0,0.0,1.0,0.0,1.0,0.0,0.0,0.0,0.0,0.0,0.0,2020-12-01,7-55-Bew-RueA-J-d-2020-12.xlsx,7-55-Bew-RueA-J,7-55,flow,yearly
336,Bulgarien,3.0,3.0,0.0,3.0,3.0,0.0,0.0,0.0,0.0,0.0,0.0,0.0,2020-12-01,7-55-Bew-RueA-J-d-2020-12.xlsx,7-55-Bew-RueA-J,7-55,flow,yearly
337,Griechenland,1.0,1.0,0.0,1.0,0.0,1.0,0.0,0.0,0.0,0.0,0.0,0.0,2020-12-01,7-55-Bew-RueA-J-d-2020-12.xlsx,7-55-Bew-RueA-J,7-55,flow,yearly
338,Grossbritannien,1.0,1.0,0.0,1.0,1.0,0.0,0.0,1.0,0.0,0.0,0.0,0.0,2020-12-01,7-55-Bew-RueA-J-d-2020-12.xlsx,7-55-Bew-RueA-J,7-55,flow,yearly
339,Italien,0.0,0.0,0.0,0.0,0.0,0.0,2.0,0.0,0.0,0.0,0.0,0.0,2020-12-01,7-55-Bew-RueA-J-d-2020-12.xlsx,7-55-Bew-RueA-J,7-55,flow,yearly
340,Kosovo,2.0,2.0,0.0,2.0,0.0,0.0,0.0,0.0,0.0,0.0,0.0,0.0,2020-12-01,7-55-Bew-RueA-J-d-2020-12.xlsx,7-55-Bew-RueA-J,7-55,flow,yearly
341,Kroatien,5.0,5.0,0.0,2.0,1.0,0.0,0.0,2.0,0.0,0.0,0.0,0.0,2020-12-01,7-55-Bew-RueA-J-d-2020-12.xlsx,7-55-Bew-RueA-J,7-55,flow,yearly
342,Lettland,2.0,2.0,0.0,2.0,2.0,0.0,0.0,2.0,0.0,0.0,0.0,0.0,2020-12-01,7-55-Bew-RueA-J-d-2020-12.xlsx,7-55-Bew-RueA-J,7-55,flow,yearly
343,Litauen,6.0,6.0,0.0,5.0,4.0,1.0,0.0,3.0,0.0,0.0,0.0,0.0,2020-12-01,7-55-Bew-RueA-J-d-2020-12.xlsx,7-55-Bew-RueA-J,7-55,flow,yearly
344,Mazedonien eh.Jug.Rep.,2.0,2.0,0.0,2.0,2.0,0.0,0.0,1.0,0.0,0.0,0.0,0.0,2020-12-01,7-55-Bew-RueA-J-d-2020-12.xlsx,7-55-Bew-RueA-J,7-55,flow,yearly
345,Moldova,2.0,2.0,0.0,2.0,2.0,0.0,0.0,0.0,0.0,0.0,0.0,0.0,2020-12-01,7-55-Bew-RueA-J-d-2020-12.xlsx,7-55-Bew-RueA-J,7-55,flow,yearly
346,Montenegro,1.0,1.0,0.0,1.0,1.0,0.0,0.0,0.0,0.0,0.0,0.0,0.0,2020-12-01,7-55-Bew-RueA-J-d-2020-12.xlsx,7-55-Bew-RueA-J,7-55,flow,yearly
347,Niederlande,1.0,1.0,0.0,1.0,1.0,0.0,0.0,1.0,0.0,0.0,0.0,0.0,2020-12-01,7-55-Bew-RueA-J-d-2020-12.xlsx,7-55-Bew-RueA-J,7-55,flow,yearly
348,Polen,4.0,4.0,0.0,4.0,4.0,0.0,0.0,4.0,0.0,0.0,0.0,0.0,2020-12-01,7-55-Bew-RueA-J-d-2020-12.xlsx,7-55-Bew-RueA-J,7-55,flow,yearly
349,Portugal,1.0,1.0,0.0,1.0,1.0,0.0,0.0,0.0,0.0,0.0,0.0,0.0,2020-12-01,7-55-Bew-RueA-J-d-2020-12.xlsx,7-55-Bew-RueA-J,7-55,flow,yearly
350,Rumänien,38.0,38.0,0.0,31.0,31.0,0.0,1.0,31.0,0.0,0.0,0.0,0.0,2020-12-01,7-55-Bew-RueA-J-d-2020-12.xlsx,7-55-Bew-RueA-J,7-55,flow,yearly
351,Russland,5.0,5.0,0.0,5.0,5.0,0.0,4.0,1.0,0.0,0.0,0.0,0.0,2020-12-01,7-55-Bew-RueA-J-d-2020-12.xlsx,7-55-Bew-RueA-J,7-55,flow,yearly
352,Serbien,2.0,2.0,0.0,2.0,2.0,0.0,0.0,1.0,0.0,0.0,0.0,0.0,2020-12-01,7-55-Bew-RueA-J-d-2020-12.xlsx,7-55-Bew-RueA-J,7-55,flow,yearly
353,Slowakische Republik,9.0,9.0,0.0,9.0,9.0,0.0,0.0,1.0,0.0,0.0,0.0,0.0,2020-12-01,7-55-Bew-RueA-J-d-2020-12.xlsx,7-55-Bew-RueA-J,7-55,flow,yearly
354,Spanien,4.0,4.0,0.0,3.0,3.0,0.0,1.0,3.0,0.0,0.0,0.0,0.0,2020-12-01,7-55-Bew-RueA-J-d-2020-12.xlsx,7-55-Bew-RueA-J,7-55,flow,yearly
355,Tschechische Republik,1.0,1.0,0.0,1.0,1.0,0.0,0.0,1.0,0.0,0.0,0.0,0.0,2020-12-01,7-55-Bew-RueA-J-d-2020-12.xlsx,7-55-Bew-RueA-J,7-55,flow,yearly
356,Türkei,3.0,3.0,0.0,3.0,2.0,1.0,1.0,1.0,0.0,0.0,0.0,0.0,2020-12-01,7-55-Bew-RueA-J-d-2020-12.xlsx,7-55-Bew-RueA-J,7-55,flow,yearly
357,Ukraine,5.0,5.0,0.0,5.0,5.0,0.0,1.0,3.0,0.0,0.0,0.0,0.0,2020-12-01,7-55-Bew-RueA-J-d-2020-12.xlsx,7-55-Bew-RueA-J,7-55,flow,yearly
358,Ungarn,7.0,7.0,0.0,7.0,7.0,0.0,0.0,7.0,0.0,0.0,0.0,0.0,2020-12-01,7-55-Bew-RueA-J-d-2020-12.xlsx,7-55-Bew-RueA-J,7-55,flow,yearly
359,Total Europa,109.0,109.0,0.0,97.0,89.0,5.0,10.0,64.0,0.0,0.0,0.0,0.0,2020-12-01,7-55-Bew-RueA-J-d-2020-12.xlsx,7-55-Bew-RueA-J,7-55,flow,yearly
360,,,,,,,,,,,,,,2020-12-01,7-55-Bew-RueA-J-d-2020-12.xlsx,7-55-Bew-RueA-J,7-55,flow,yearly
361,Staatenlos,1.0,1.0,0.0,1.0,1.0,0.0,0.0,1.0,0.0,0.0,0.0,0.0,2020-12-01,7-55-Bew-RueA-J-d-2020-12.xlsx,7-55-Bew-RueA-J,7-55,flow,yearly
362,Ohne Nationalität,3.0,2.0,1.0,2.0,2.0,0.0,7.0,2.0,1.0,1.0,0.0,0.0,2020-12-01,7-55-Bew-RueA-J-d-2020-12.xlsx,7-55-Bew-RueA-J,7-55,flow,yearly
363,Staat unbekannt,23.0,22.0,1.0,21.0,18.0,3.0,7.0,7.0,1.0,1.0,0.0,1.0,2020-12-01,7-55-Bew-RueA-J-d-2020-12.xlsx,7-55-Bew-RueA-J,7-55,flow,yearly
364,Total Herkunft unbek.,27.0,25.0,2.0,24.0,21.0,3.0,14.0,10.0,2.0,2.0,0.0,1.0,2020-12-01,7-55-Bew-RueA-J-d-2020-12.xlsx,7-55-Bew-RueA-J,7-55,flow,yearly
365,Herkunft unbekannt,18.0,18.0,0.0,16.0,14.0,2.0,5.0,8.0,0.0,0.0,0.0,0.0,2020-12-01,7-55-Bew-RueA-J-d-2020-12.xlsx,7-55-Bew-RueA-J,7-55,flow,yearly
366,,,,,,,,,,,,,,2020-12-01,7-55-Bew-RueA-J-d-2020-12.xlsx,7-55-Bew-RueA-J,7-55,flow,yearly
367,Ägypten,8.0,8.0,0.0,10.0,6.0,0.0,1.0,0.0,0.0,0.0,0.0,0.0,2020-12-01,7-55-Bew-RueA-J-d-2020-12.xlsx,7-55-Bew-RueA-J,7-55,flow,yearly
368,Algerien,7.0,7.0,0.0,8.0,7.0,1.0,0.0,6.0,0.0,0.0,0.0,0.0,2020-12-01,7-55-Bew-RueA-J-d-2020-12.xlsx,7-55-Bew-RueA-J,7-55,flow,yearly
369,Angola,1.0,0.0,1.0,0.0,0.0,0.0,0.0,0.0,1.0,0.0,1.0,0.0,2020-12-01,7-55-Bew-RueA-J-d-2020-12.xlsx,7-55-Bew-RueA-J,7-55,flow,yearly
370,Äthiopien,20.0,15.0,5.0,15.0,15.0,0.0,9.0,1.0,5.0,5.0,0.0,4.0,2020-12-01,7-55-Bew-RueA-J-d-2020-12.xlsx,7-55-Bew-RueA-J,7-55,flow,yearly
371,Burkina Faso,0.0,0.0,0.0,1.0,1.0,0.0,1.0,1.0,0.0,0.0,0.0,0.0,2020-12-01,7-55-Bew-RueA-J-d-2020-12.xlsx,7-55-Bew-RueA-J,7-55,flow,yearly
372,Côte d'Ivoire,3.0,3.0,0.0,3.0,3.0,0.0,1.0,2.0,0.0,0.0,0.0,0.0,2020-12-01,7-55-Bew-RueA-J-d-2020-12.xlsx,7-55-Bew-RueA-J,7-55,flow,yearly
373,Eritrea,88.0,87.0,1.0,84.0,80.0,4.0,69.0,15.0,1.0,1.0,0.0,1.0,2020-12-01,7-55-Bew-RueA-J-d-2020-12.xlsx,7-55-Bew-RueA-J,7-55,flow,yearly
374,Gambia,20.0,20.0,0.0,16.0,13.0,3.0,5.0,12.0,0.0,0.0,0.0,0.0,2020-12-01,7-55-Bew-RueA-J-d-2020-12.xlsx,7-55-Bew-RueA-J,7-55,flow,yearly
375,Ghana,4.0,4.0,0.0,4.0,2.0,2.0,0.0,1.0,0.0,0.0,0.0,0.0,2020-12-01,7-55-Bew-RueA-J-d-2020-12.xlsx,7-55-Bew-RueA-J,7-55,flow,yearly
376,Guinea,11.0,11.0,0.0,13.0,8.0,5.0,2.0,7.0,0.0,0.0,0.0,0.0,2020-12-01,7-55-Bew-RueA-J-d-2020-12.xlsx,7-55-Bew-RueA-J,7-55,flow,yearly
377,Guinea-Bissau,6.0,6.0,0.0,5.0,4.0,1.0,1.0,1.0,0.0,0.0,0.0,0.0,2020-12-01,7-55-Bew-RueA-J-d-2020-12.xlsx,7-55-Bew-RueA-J,7-55,flow,yearly
378,Kamerun,1.0,1.0,0.0,1.0,1.0,0.0,0.0,2.0,0.0,0.0,0.0,0.0,2020-12-01,7-55-Bew-RueA-J-d-2020-12.xlsx,7-55-Bew-RueA-J,7-55,flow,yearly
379,Kongo DR,1.0,1.0,0.0,1.0,1.0,0.0,1.0,0.0,0.0,0.0,0.0,0.0,2020-12-01,7-55-Bew-RueA-J-d-2020-12.xlsx,7-55-Bew-RueA-J,7-55,flow,yearly
380,Liberia,2.0,2.0,0.0,3.0,3.0,0.0,1.0,2.0,0.0,0.0,0.0,0.0,2020-12-01,7-55-Bew-RueA-J-d-2020-12.xlsx,7-55-Bew-RueA-J,7-55,flow,yearly
381,Libyen,2.0,1.0,1.0,1.0,1.0,0.0,0.0,0.0,1.0,1.0,0.0,0.0,2020-12-01,7-55-Bew-RueA-J-d-2020-12.xlsx,7-55-Bew-RueA-J,7-55,flow,yearly
382,Mali,12.0,12.0,0.0,14.0,12.0,1.0,6.0,7.0,0.0,0.0,0.0,0.0,2020-12-01,7-55-Bew-RueA-J-d-2020-12.xlsx,7-55-Bew-RueA-J,7-55,flow,yearly
383,Marokko,6.0,6.0,0.0,6.0,4.0,2.0,1.0,0.0,0.0,0.0,0.0,0.0,2020-12-01,7-55-Bew-RueA-J-d-2020-12.xlsx,7-55-Bew-RueA-J,7-55,flow,yearly
384,Niger,1.0,1.0,0.0,1.0,1.0,0.0,0.0,0.0,0.0,0.0,0.0,0.0,2020-12-01,7-55-Bew-RueA-J-d-2020-12.xlsx,7-55-Bew-RueA-J,7-55,flow,yearly
385,Nigeria,102.0,102.0,0.0,104.0,96.0,5.0,18.0,64.0,0.0,0.0,0.0,0.0,2020-12-01,7-55-Bew-RueA-J-d-2020-12.xlsx,7-55-Bew-RueA-J,7-55,flow,yearly
386,Senegal,11.0,11.0,0.0,11.0,9.0,2.0,3.0,7.0,0.0,0.0,0.0,0.0,2020-12-01,7-55-Bew-RueA-J-d-2020-12.xlsx,7-55-Bew-RueA-J,7-55,flow,yearly
387,Sierra Leone,2.0,2.0,0.0,2.0,2.0,0.0,0.0,1.0,0.0,0.0,0.0,0.0,2020-12-01,7-55-Bew-RueA-J-d-2020-12.xlsx,7-55-Bew-RueA-J,7-55,flow,yearly
388,Somalia,48.0,44.0,4.0,35.0,31.0,4.0,18.0,6.0,4.0,4.0,0.0,0.0,2020-12-01,7-55-Bew-RueA-J-d-2020-12.xlsx,7-55-Bew-RueA-J,7-55,flow,yearly
389,Sudan,5.0,5.0,0.0,4.0,4.0,0.0,5.0,3.0,0.0,0.0,0.0,0.0,2020-12-01,7-55-Bew-RueA-J-d-2020-12.xlsx,7-55-Bew-RueA-J,7-55,flow,yearly
390,Südsudan,0.0,0.0,0.0,1.0,1.0,0.0,1.0,0.0,0.0,0.0,0.0,0.0,2020-12-01,7-55-Bew-RueA-J-d-2020-12.xlsx,7-55-Bew-RueA-J,7-55,flow,yearly
391,Togo,3.0,3.0,0.0,2.0,2.0,0.0,1.0,1.0,0.0,0.0,0.0,0.0,2020-12-01,7-55-Bew-RueA-J-d-2020-12.xlsx,7-55-Bew-RueA-J,7-55,flow,yearly
392,Tschad,2.0,2.0,0.0,2.0,1.0,1.0,0.0,0.0,0.0,0.0,0.0,0.0,2020-12-01,7-55-Bew-RueA-J-d-2020-12.xlsx,7-55-Bew-RueA-J,7-55,flow,yearly
393,Tunesien,2.0,2.0,0.0,2.0,2.0,0.0,0.0,1.0,0.0,0.0,0.0,0.0,2020-12-01,7-55-Bew-RueA-J-d-2020-12.xlsx,7-55-Bew-RueA-J,7-55,flow,yearly
394,Total Afrika,368.0,356.0,12.0,349.0,310.0,31.0,144.0,140.0,12.0,11.0,1.0,5.0,2020-12-01,7-55-Bew-RueA-J-d-2020-12.xlsx,7-55-Bew-RueA-J,7-55,flow,yearly
395,,,,,,,,,,,,,,2020-12-01,7-55-Bew-RueA-J-d-2020-12.xlsx,7-55-Bew-RueA-J,7-55,flow,yearly
396,Bolivien,2.0,2.0,0.0,2.0,2.0,0.0,0.0,2.0,0.0,0.0,0.0,0.0,2020-12-01,7-55-Bew-RueA-J-d-2020-12.xlsx,7-55-Bew-RueA-J,7-55,flow,yearly
397,Dominikanische Republik,15.0,15.0,0.0,15.0,14.0,1.0,0.0,13.0,0.0,0.0,0.0,0.0,2020-12-01,7-55-Bew-RueA-J-d-2020-12.xlsx,7-55-Bew-RueA-J,7-55,flow,yearly
398,Ecuador,2.0,2.0,0.0,2.0,2.0,0.0,0.0,1.0,0.0,0.0,0.0,0.0,2020-12-01,7-55-Bew-RueA-J-d-2020-12.xlsx,7-55-Bew-RueA-J,7-55,flow,yearly
399,Haiti,4.0,4.0,0.0,0.0,0.0,0.0,0.0,0.0,0.0,0.0,0.0,0.0,2020-12-01,7-55-Bew-RueA-J-d-2020-12.xlsx,7-55-Bew-RueA-J,7-55,flow,yearly
400,Kanada,1.0,1.0,0.0,1.0,1.0,0.0,0.0,1.0,0.0,0.0,0.0,0.0,2020-12-01,7-55-Bew-RueA-J-d-2020-12.xlsx,7-55-Bew-RueA-J,7-55,flow,yearly
401,Kolumbien,4.0,4.0,0.0,3.0,2.0,0.0,0.0,3.0,0.0,0.0,0.0,0.0,2020-12-01,7-55-Bew-RueA-J-d-2020-12.xlsx,7-55-Bew-RueA-J,7-55,flow,yearly
402,Kuba,1.0,1.0,0.0,1.0,1.0,0.0,0.0,0.0,0.0,0.0,0.0,0.0,2020-12-01,7-55-Bew-RueA-J-d-2020-12.xlsx,7-55-Bew-RueA-J,7-55,flow,yearly
403,Trinidad u. Tobago,1.0,1.0,0.0,1.0,1.0,0.0,0.0,0.0,0.0,0.0,0.0,0.0,2020-12-01,7-55-Bew-RueA-J-d-2020-12.xlsx,7-55-Bew-RueA-J,7-55,flow,yearly
404,Total Amerika,30.0,30.0,0.0,25.0,23.0,1.0,0.0,20.0,0.0,0.0,0.0,0.0,2020-12-01,7-55-Bew-RueA-J-d-2020-12.xlsx,7-55-Bew-RueA-J,7-55,flow,yearly
405,,,,,,,,,,,,,,2020-12-01,7-55-Bew-RueA-J-d-2020-12.xlsx,7-55-Bew-RueA-J,7-55,flow,yearly
406,Afghanistan,24.0,24.0,0.0,25.0,25.0,0.0,13.0,3.0,0.0,0.0,0.0,0.0,2020-12-01,7-55-Bew-RueA-J-d-2020-12.xlsx,7-55-Bew-RueA-J,7-55,flow,yearly
407,Bangladesh,1.0,1.0,0.0,1.0,1.0,0.0,2.0,0.0,0.0,0.0,0.0,0.0,2020-12-01,7-55-Bew-RueA-J-d-2020-12.xlsx,7-55-Bew-RueA-J,7-55,flow,yearly
408,China (Volksrepublik),10.0,10.0,0.0,10.0,10.0,0.0,4.0,6.0,0.0,0.0,0.0,0.0,2020-12-01,7-55-Bew-RueA-J-d-2020-12.xlsx,7-55-Bew-RueA-J,7-55,flow,yearly
409,Georgien,3.0,3.0,0.0,3.0,2.0,1.0,0.0,2.0,0.0,0.0,0.0,0.0,2020-12-01,7-55-Bew-RueA-J-d-2020-12.xlsx,7-55-Bew-RueA-J,7-55,flow,yearly
410,Irak,7.0,6.0,1.0,7.0,6.0,1.0,1.0,1.0,1.0,1.0,0.0,1.0,2020-12-01,7-55-Bew-RueA-J-d-2020-12.xlsx,7-55-Bew-RueA-J,7-55,flow,yearly
411,Iran,3.0,3.0,0.0,2.0,2.0,0.0,4.0,1.0,0.0,0.0,0.0,0.0,2020-12-01,7-55-Bew-RueA-J-d-2020-12.xlsx,7-55-Bew-RueA-J,7-55,flow,yearly
412,Sri Lanka,4.0,4.0,0.0,4.0,3.0,1.0,2.0,1.0,0.0,0.0,0.0,0.0,2020-12-01,7-55-Bew-RueA-J-d-2020-12.xlsx,7-55-Bew-RueA-J,7-55,flow,yearly
413,Syrien,58.0,58.0,0.0,54.0,52.0,2.0,24.0,15.0,0.0,0.0,0.0,0.0,2020-12-01,7-55-Bew-RueA-J-d-2020-12.xlsx,7-55-Bew-RueA-J,7-55,flow,yearly
414,Total Asien,110.0,109.0,1.0,106.0,101.0,5.0,50.0,29.0,1.0,1.0,0.0,1.0,2020-12-01,7-55-Bew-RueA-J-d-2020-12.xlsx,7-55-Bew-RueA-J,7-55,flow,yearly
415,,,,,,,,,,,,,,2020-12-01,7-55-Bew-RueA-J-d-2020-12.xlsx,7-55-Bew-RueA-J,7-55,flow,yearly
416,Belarus,1.0,1.0,0.0,1.0,1.0,0.0,0.0,1.0,0.0,0.0,0.0,0.0,2020-12-01,7-55-Bew-RueA-J-d-2020-12.xlsx,7-55-Bew-RueA-J,7-55,flow,yearly
417,Belgien,2.0,2.0,0.0,1.0,1.0,0.0,0.0,0.0,0.0,0.0,0.0,0.0,2020-12-01,7-55-Bew-RueA-J-d-2020-12.xlsx,7-55-Bew-RueA-J,7-55,flow,yearly
418,Bosnien u. Herzegowina,6.0,6.0,0.0,6.0,0.0,6.0,0.0,0.0,0.0,0.0,0.0,0.0,2020-12-01,7-55-Bew-RueA-J-d-2020-12.xlsx,7-55-Bew-RueA-J,7-55,flow,yearly
419,Grossbritannien,1.0,1.0,0.0,1.0,1.0,0.0,0.0,1.0,0.0,0.0,0.0,0.0,2020-12-01,7-55-Bew-RueA-J-d-2020-12.xlsx,7-55-Bew-RueA-J,7-55,flow,yearly
420,Kosovo,3.0,3.0,0.0,3.0,3.0,0.0,1.0,0.0,0.0,0.0,0.0,0.0,2020-12-01,7-55-Bew-RueA-J-d-2020-12.xlsx,7-55-Bew-RueA-J,7-55,flow,yearly
421,Kroatien,2.0,2.0,0.0,1.0,1.0,0.0,0.0,4.0,0.0,0.0,0.0,0.0,2020-12-01,7-55-Bew-RueA-J-d-2020-12.xlsx,7-55-Bew-RueA-J,7-55,flow,yearly
422,Litauen,1.0,1.0,0.0,1.0,1.0,0.0,0.0,0.0,0.0,0.0,0.0,0.0,2020-12-01,7-55-Bew-RueA-J-d-2020-12.xlsx,7-55-Bew-RueA-J,7-55,flow,yearly
423,Mazedonien eh.Jug.Rep.,1.0,1.0,0.0,1.0,1.0,0.0,0.0,1.0,0.0,0.0,0.0,0.0,2020-12-01,7-55-Bew-RueA-J-d-2020-12.xlsx,7-55-Bew-RueA-J,7-55,flow,yearly
424,Moldova,1.0,1.0,0.0,1.0,1.0,0.0,0.0,0.0,0.0,0.0,0.0,0.0,2020-12-01,7-55-Bew-RueA-J-d-2020-12.xlsx,7-55-Bew-RueA-J,7-55,flow,yearly
425,Montenegro,3.0,3.0,0.0,3.0,0.0,3.0,0.0,0.0,0.0,0.0,0.0,0.0,2020-12-01,7-55-Bew-RueA-J-d-2020-12.xlsx,7-55-Bew-RueA-J,7-55,flow,yearly
426,Niederlande,2.0,2.0,0.0,1.0,1.0,0.0,0.0,1.0,0.0,0.0,0.0,0.0,2020-12-01,7-55-Bew-RueA-J-d-2020-12.xlsx,7-55-Bew-RueA-J,7-55,flow,yearly
427,Polen,9.0,9.0,0.0,9.0,9.0,0.0,0.0,3.0,0.0,0.0,0.0,0.0,2020-12-01,7-55-Bew-RueA-J-d-2020-12.xlsx,7-55-Bew-RueA-J,7-55,flow,yearly
428,Rumänien,41.0,41.0,0.0,42.0,38.0,4.0,0.0,37.0,0.0,0.0,0.0,0.0,2020-12-01,7-55-Bew-RueA-J-d-2020-12.xlsx,7-55-Bew-RueA-J,7-55,flow,yearly
429,Russland,12.0,12.0,0.0,7.0,7.0,0.0,7.0,0.0,0.0,0.0,0.0,0.0,2020-12-01,7-55-Bew-RueA-J-d-2020-12.xlsx,7-55-Bew-RueA-J,7-55,flow,yearly
430,Serbien,3.0,3.0,0.0,3.0,2.0,1.0,0.0,1.0,0.0,0.0,0.0,0.0,2020-12-01,7-55-Bew-RueA-J-d-2020-12.xlsx,7-55-Bew-RueA-J,7-55,flow,yearly
431,Slowakische Republik,4.0,4.0,0.0,4.0,4.0,0.0,0.0,2.0,0.0,0.0,0.0,0.0,2020-12-01,7-55-Bew-RueA-J-d-2020-12.xlsx,7-55-Bew-RueA-J,7-55,flow,yearly
432,Slowenien,1.0,1.0,0.0,1.0,1.0,0.0,0.0,1.0,0.0,0.0,0.0,0.0,2020-12-01,7-55-Bew-RueA-J-d-2020-12.xlsx,7-55-Bew-RueA-J,7-55,flow,yearly
433,Spanien,4.0,4.0,0.0,4.0,4.0,0.0,0.0,3.0,0.0,0.0,0.0,0.0,2020-12-01,7-55-Bew-RueA-J-d-2020-12.xlsx,7-55-Bew-RueA-J,7-55,flow,yearly
434,Tschechische Republik,1.0,1.0,0.0,1.0,1.0,0.0,0.0,1.0,0.0,0.0,0.0,0.0,2020-12-01,7-55-Bew-RueA-J-d-2020-12.xlsx,7-55-Bew-RueA-J,7-55,flow,yearly
435,Türkei,3.0,3.0,0.0,3.0,3.0,0.0,1.0,1.0,0.0,0.0,0.0,0.0,2020-12-01,7-55-Bew-RueA-J-d-2020-12.xlsx,7-55-Bew-RueA-J,7-55,flow,yearly
436,Ungarn,1.0,1.0,0.0,1.0,1.0,0.0,0.0,1.0,0.0,0.0,0.0,0.0,2020-12-01,7-55-Bew-RueA-J-d-2020-12.xlsx,7-55-Bew-RueA-J,7-55,flow,yearly
437,Total Europa,102.0,102.0,0.0,95.0,81.0,14.0,9.0,58.0,0.0,0.0,0.0,0.0,2020-12-01,7-55-Bew-RueA-J-d-2020-12.xlsx,7-55-Bew-RueA-J,7-55,flow,yearly
438,,,,,,,,,,,,,,2020-12-01,7-55-Bew-RueA-J-d-2020-12.xlsx,7-55-Bew-RueA-J,7-55,flow,yearly
439,Ohne Nationalität,5.0,5.0,0.0,5.0,5.0,0.0,4.0,2.0,0.0,0.0,0.0,0.0,2020-12-01,7-55-Bew-RueA-J-d-2020-12.xlsx,7-55-Bew-RueA-J,7-55,flow,yearly
440,Staat unbekannt,13.0,13.0,0.0,11.0,9.0,2.0,1.0,6.0,0.0,0.0,0.0,0.0,2020-12-01,7-55-Bew-RueA-J-d-2020-12.xlsx,7-55-Bew-RueA-J,7-55,flow,yearly
441,Total Herkunft unbek.,18.0,18.0,0.0,16.0,14.0,2.0,5.0,8.0,0.0,0.0,0.0,0.0,2020-12-01,7-55-Bew-RueA-J-d-2020-12.xlsx,7-55-Bew-RueA-J,7-55,flow,yearly
442,Herkunft unbekannt,27.0,27.0,0.0,27.0,25.0,2.0,7.0,20.0,0.0,0.0,0.0,0.0,2020-12-01,7-55-Bew-RueA-J-d-2020-12.xlsx,7-55-Bew-RueA-J,7-55,flow,yearly
443,,,,,,,,,,,,,,2020-12-01,7-55-Bew-RueA-J-d-2020-12.xlsx,7-55-Bew-RueA-J,7-55,flow,yearly
444,Ägypten,1.0,1.0,0.0,1.0,1.0,0.0,1.0,0.0,0.0,0.0,0.0,0.0,2020-12-01,7-55-Bew-RueA-J-d-2020-12.xlsx,7-55-Bew-RueA-J,7-55,flow,yearly
445,Algerien,8.0,8.0,0.0,9.0,5.0,4.0,0.0,7.0,0.0,0.0,0.0,0.0,2020-12-01,7-55-Bew-RueA-J-d-2020-12.xlsx,7-55-Bew-RueA-J,7-55,flow,yearly
446,Angola,1.0,1.0,0.0,1.0,1.0,0.0,1.0,1.0,0.0,0.0,0.0,0.0,2020-12-01,7-55-Bew-RueA-J-d-2020-12.xlsx,7-55-Bew-RueA-J,7-55,flow,yearly
447,Äquatorialguinea,1.0,1.0,0.0,0.0,0.0,0.0,0.0,0.0,0.0,0.0,0.0,0.0,2020-12-01,7-55-Bew-RueA-J-d-2020-12.xlsx,7-55-Bew-RueA-J,7-55,flow,yearly
448,Äthiopien,2.0,2.0,0.0,2.0,2.0,0.0,5.0,0.0,0.0,0.0,0.0,0.0,2020-12-01,7-55-Bew-RueA-J-d-2020-12.xlsx,7-55-Bew-RueA-J,7-55,flow,yearly
449,Benin,1.0,1.0,0.0,1.0,0.0,1.0,0.0,0.0,0.0,0.0,0.0,0.0,2020-12-01,7-55-Bew-RueA-J-d-2020-12.xlsx,7-55-Bew-RueA-J,7-55,flow,yearly
450,Burundi,1.0,1.0,0.0,1.0,1.0,0.0,1.0,0.0,0.0,0.0,0.0,0.0,2020-12-01,7-55-Bew-RueA-J-d-2020-12.xlsx,7-55-Bew-RueA-J,7-55,flow,yearly
451,Côte d'Ivoire,4.0,4.0,0.0,3.0,3.0,0.0,0.0,3.0,0.0,0.0,0.0,0.0,2020-12-01,7-55-Bew-RueA-J-d-2020-12.xlsx,7-55-Bew-RueA-J,7-55,flow,yearly
452,Eritrea,58.0,33.0,25.0,29.0,28.0,0.0,21.0,11.0,25.0,25.0,0.0,11.0,2020-12-01,7-55-Bew-RueA-J-d-2020-12.xlsx,7-55-Bew-RueA-J,7-55,flow,yearly
453,Gabun,1.0,1.0,0.0,1.0,1.0,0.0,0.0,0.0,0.0,0.0,0.0,0.0,2020-12-01,7-55-Bew-RueA-J-d-2020-12.xlsx,7-55-Bew-RueA-J,7-55,flow,yearly
454,Gambia,20.0,20.0,0.0,15.0,14.0,0.0,2.0,12.0,0.0,0.0,0.0,0.0,2020-12-01,7-55-Bew-RueA-J-d-2020-12.xlsx,7-55-Bew-RueA-J,7-55,flow,yearly
455,Ghana,1.0,1.0,0.0,1.0,1.0,0.0,2.0,2.0,0.0,0.0,0.0,0.0,2020-12-01,7-55-Bew-RueA-J-d-2020-12.xlsx,7-55-Bew-RueA-J,7-55,flow,yearly
456,Guinea,14.0,14.0,0.0,12.0,9.0,2.0,1.0,10.0,0.0,0.0,0.0,0.0,2020-12-01,7-55-Bew-RueA-J-d-2020-12.xlsx,7-55-Bew-RueA-J,7-55,flow,yearly
457,Guinea-Bissau,3.0,3.0,0.0,3.0,2.0,1.0,0.0,2.0,0.0,0.0,0.0,0.0,2020-12-01,7-55-Bew-RueA-J-d-2020-12.xlsx,7-55-Bew-RueA-J,7-55,flow,yearly
458,Kamerun,5.0,4.0,1.0,2.0,2.0,0.0,2.0,0.0,1.0,1.0,0.0,0.0,2020-12-01,7-55-Bew-RueA-J-d-2020-12.xlsx,7-55-Bew-RueA-J,7-55,flow,yearly
459,Kenia,1.0,1.0,0.0,2.0,1.0,0.0,1.0,1.0,0.0,0.0,0.0,0.0,2020-12-01,7-55-Bew-RueA-J-d-2020-12.xlsx,7-55-Bew-RueA-J,7-55,flow,yearly
460,Kongo DR,2.0,2.0,0.0,3.0,2.0,0.0,0.0,0.0,0.0,0.0,0.0,0.0,2020-12-01,7-55-Bew-RueA-J-d-2020-12.xlsx,7-55-Bew-RueA-J,7-55,flow,yearly
461,Liberia,1.0,1.0,0.0,1.0,0.0,1.0,0.0,0.0,0.0,0.0,0.0,0.0,2020-12-01,7-55-Bew-RueA-J-d-2020-12.xlsx,7-55-Bew-RueA-J,7-55,flow,yearly
462,Mali,4.0,4.0,0.0,5.0,5.0,0.0,0.0,4.0,0.0,0.0,0.0,0.0,2020-12-01,7-55-Bew-RueA-J-d-2020-12.xlsx,7-55-Bew-RueA-J,7-55,flow,yearly
463,Marokko,10.0,8.0,2.0,8.0,7.0,1.0,6.0,3.0,2.0,1.0,1.0,1.0,2020-12-01,7-55-Bew-RueA-J-d-2020-12.xlsx,7-55-Bew-RueA-J,7-55,flow,yearly
464,Mauretanien,2.0,2.0,0.0,2.0,2.0,0.0,0.0,2.0,0.0,0.0,0.0,0.0,2020-12-01,7-55-Bew-RueA-J-d-2020-12.xlsx,7-55-Bew-RueA-J,7-55,flow,yearly
465,Nigeria,93.0,93.0,0.0,88.0,68.0,9.0,7.0,63.0,0.0,0.0,0.0,0.0,2020-12-01,7-55-Bew-RueA-J-d-2020-12.xlsx,7-55-Bew-RueA-J,7-55,flow,yearly
466,Senegal,6.0,6.0,0.0,6.0,5.0,1.0,0.0,3.0,0.0,0.0,0.0,0.0,2020-12-01,7-55-Bew-RueA-J-d-2020-12.xlsx,7-55-Bew-RueA-J,7-55,flow,yearly
467,Sierra Leone,1.0,1.0,0.0,0.0,0.0,0.0,0.0,0.0,0.0,0.0,0.0,0.0,2020-12-01,7-55-Bew-RueA-J-d-2020-12.xlsx,7-55-Bew-RueA-J,7-55,flow,yearly
468,Somalia,49.0,43.0,6.0,29.0,24.0,1.0,33.0,11.0,6.0,2.0,4.0,0.0,2020-12-01,7-55-Bew-RueA-J-d-2020-12.xlsx,7-55-Bew-RueA-J,7-55,flow,yearly
469,Sudan,5.0,5.0,0.0,5.0,4.0,1.0,3.0,2.0,0.0,0.0,0.0,0.0,2020-12-01,7-55-Bew-RueA-J-d-2020-12.xlsx,7-55-Bew-RueA-J,7-55,flow,yearly
470,Südsudan,1.0,1.0,0.0,1.0,1.0,0.0,1.0,0.0,0.0,0.0,0.0,0.0,2020-12-01,7-55-Bew-RueA-J-d-2020-12.xlsx,7-55-Bew-RueA-J,7-55,flow,yearly
471,Tansania,0.0,0.0,0.0,0.0,0.0,0.0,0.0,1.0,0.0,0.0,0.0,0.0,2020-12-01,7-55-Bew-RueA-J-d-2020-12.xlsx,7-55-Bew-RueA-J,7-55,flow,yearly
472,Togo,1.0,1.0,0.0,1.0,1.0,0.0,0.0,0.0,0.0,0.0,0.0,0.0,2020-12-01,7-55-Bew-RueA-J-d-2020-12.xlsx,7-55-Bew-RueA-J,7-55,flow,yearly
473,Tschad,5.0,5.0,0.0,0.0,0.0,0.0,0.0,0.0,0.0,0.0,0.0,0.0,2020-12-01,7-55-Bew-RueA-J-d-2020-12.xlsx,7-55-Bew-RueA-J,7-55,flow,yearly
474,Tunesien,2.0,2.0,0.0,2.0,2.0,0.0,0.0,1.0,0.0,0.0,0.0,0.0,2020-12-01,7-55-Bew-RueA-J-d-2020-12.xlsx,7-55-Bew-RueA-J,7-55,flow,yearly
475,Zentralafr. Republik,1.0,1.0,0.0,1.0,1.0,0.0,1.0,1.0,0.0,0.0,0.0,0.0,2020-12-01,7-55-Bew-RueA-J-d-2020-12.xlsx,7-55-Bew-RueA-J,7-55,flow,yearly
476,Zimbabwe,1.0,1.0,0.0,1.0,0.0,1.0,0.0,0.0,0.0,0.0,0.0,0.0,2020-12-01,7-55-Bew-RueA-J-d-2020-12.xlsx,7-55-Bew-RueA-J,7-55,flow,yearly
477,Total Afrika,306.0,272.0,34.0,236.0,193.0,23.0,88.0,140.0,34.0,29.0,5.0,12.0,2020-12-01,7-55-Bew-RueA-J-d-2020-12.xlsx,7-55-Bew-RueA-J,7-55,flow,yearly
478,,,,,,,,,,,,,,2020-12-01,7-55-Bew-RueA-J-d-2020-12.xlsx,7-55-Bew-RueA-J,7-55,flow,yearly
479,Chile,1.0,1.0,0.0,1.0,1.0,0.0,0.0,1.0,0.0,0.0,0.0,0.0,2020-12-01,7-55-Bew-RueA-J-d-2020-12.xlsx,7-55-Bew-RueA-J,7-55,flow,yearly
480,Dominikanische Republik,24.0,24.0,0.0,22.0,16.0,5.0,0.0,14.0,0.0,0.0,0.0,0.0,2020-12-01,7-55-Bew-RueA-J-d-2020-12.xlsx,7-55-Bew-RueA-J,7-55,flow,yearly
481,Ecuador,2.0,2.0,0.0,2.0,1.0,1.0,0.0,1.0,0.0,0.0,0.0,0.0,2020-12-01,7-55-Bew-RueA-J-d-2020-12.xlsx,7-55-Bew-RueA-J,7-55,flow,yearly
482,Kolumbien,4.0,4.0,0.0,4.0,2.0,2.0,0.0,2.0,0.0,0.0,0.0,0.0,2020-12-01,7-55-Bew-RueA-J-d-2020-12.xlsx,7-55-Bew-RueA-J,7-55,flow,yearly
483,Kuba,1.0,1.0,0.0,1.0,1.0,0.0,0.0,1.0,0.0,0.0,0.0,0.0,2020-12-01,7-55-Bew-RueA-J-d-2020-12.xlsx,7-55-Bew-RueA-J,7-55,flow,yearly
484,Mexiko,1.0,1.0,0.0,1.0,1.0,0.0,0.0,0.0,0.0,0.0,0.0,0.0,2020-12-01,7-55-Bew-RueA-J-d-2020-12.xlsx,7-55-Bew-RueA-J,7-55,flow,yearly
485,Peru,0.0,0.0,0.0,0.0,0.0,0.0,0.0,1.0,0.0,0.0,0.0,0.0,2020-12-01,7-55-Bew-RueA-J-d-2020-12.xlsx,7-55-Bew-RueA-J,7-55,flow,yearly
486,Venezuela,2.0,2.0,0.0,2.0,1.0,1.0,0.0,1.0,0.0,0.0,0.0,0.0,2020-12-01,7-55-Bew-RueA-J-d-2020-12.xlsx,7-55-Bew-RueA-J,7-55,flow,yearly
487,Total Amerika,35.0,35.0,0.0,33.0,23.0,9.0,0.0,21.0,0.0,0.0,0.0,0.0,2020-12-01,7-55-Bew-RueA-J-d-2020-12.xlsx,7-55-Bew-RueA-J,7-55,flow,yearly
488,,,,,,,,,,,,,,2020-12-01,7-55-Bew-RueA-J-d-2020-12.xlsx,7-55-Bew-RueA-J,7-55,flow,yearly
489,Afghanistan,93.0,90.0,3.0,97.0,87.0,8.0,72.0,10.0,3.0,3.0,0.0,1.0,2020-12-01,7-55-Bew-RueA-J-d-2020-12.xlsx,7-55-Bew-RueA-J,7-55,flow,yearly
490,China (Volksrepublik),9.0,9.0,0.0,9.0,7.0,2.0,1.0,5.0,0.0,0.0,0.0,0.0,2020-12-01,7-55-Bew-RueA-J-d-2020-12.xlsx,7-55-Bew-RueA-J,7-55,flow,yearly
491,Georgien,2.0,2.0,0.0,1.0,0.0,1.0,3.0,0.0,0.0,0.0,0.0,0.0,2020-12-01,7-55-Bew-RueA-J-d-2020-12.xlsx,7-55-Bew-RueA-J,7-55,flow,yearly
492,Irak,79.0,78.0,1.0,76.0,71.0,3.0,59.0,13.0,1.0,1.0,0.0,0.0,2020-12-01,7-55-Bew-RueA-J-d-2020-12.xlsx,7-55-Bew-RueA-J,7-55,flow,yearly
493,Iran,20.0,20.0,0.0,21.0,20.0,0.0,22.0,5.0,0.0,0.0,0.0,0.0,2020-12-01,7-55-Bew-RueA-J-d-2020-12.xlsx,7-55-Bew-RueA-J,7-55,flow,yearly
494,Jemen,1.0,1.0,0.0,1.0,1.0,0.0,0.0,0.0,0.0,0.0,0.0,0.0,2020-12-01,7-55-Bew-RueA-J-d-2020-12.xlsx,7-55-Bew-RueA-J,7-55,flow,yearly
495,Libanon,1.0,0.0,1.0,0.0,0.0,0.0,0.0,0.0,1.0,1.0,0.0,0.0,2020-12-01,7-55-Bew-RueA-J-d-2020-12.xlsx,7-55-Bew-RueA-J,7-55,flow,yearly
496,Nepal,1.0,1.0,0.0,1.0,0.0,1.0,0.0,0.0,0.0,0.0,0.0,0.0,2020-12-01,7-55-Bew-RueA-J-d-2020-12.xlsx,7-55-Bew-RueA-J,7-55,flow,yearly
497,Pakistan,7.0,7.0,0.0,11.0,9.0,1.0,5.0,6.0,0.0,0.0,0.0,0.0,2020-12-01,7-55-Bew-RueA-J-d-2020-12.xlsx,7-55-Bew-RueA-J,7-55,flow,yearly
498,Sri Lanka,2.0,2.0,0.0,1.0,1.0,0.0,1.0,0.0,0.0,0.0,0.0,0.0,2020-12-01,7-55-Bew-RueA-J-d-2020-12.xlsx,7-55-Bew-RueA-J,7-55,flow,yearly
499,Syrien,66.0,62.0,4.0,68.0,67.0,0.0,30.0,11.0,4.0,1.0,3.0,1.0,2020-12-01,7-55-Bew-RueA-J-d-2020-12.xlsx,7-55-Bew-RueA-J,7-55,flow,yearly
500,Thailand,1.0,0.0,1.0,0.0,0.0,0.0,0.0,0.0,1.0,1.0,0.0,0.0,2020-12-01,7-55-Bew-RueA-J-d-2020-12.xlsx,7-55-Bew-RueA-J,7-55,flow,yearly
501,Total Asien,282.0,272.0,10.0,286.0,263.0,16.0,193.0,50.0,10.0,7.0,3.0,2.0,2020-12-01,7-55-Bew-RueA-J-d-2020-12.xlsx,7-55-Bew-RueA-J,7-55,flow,yearly
502,,,,,,,,,,,,,,2020-12-01,7-55-Bew-RueA-J-d-2020-12.xlsx,7-55-Bew-RueA-J,7-55,flow,yearly
503,Albanien,3.0,2.0,1.0,2.0,2.0,0.0,0.0,2.0,1.0,1.0,0.0,1.0,2020-12-01,7-55-Bew-RueA-J-d-2020-12.xlsx,7-55-Bew-RueA-J,7-55,flow,yearly
504,Bosnien u. Herzegowina,1.0,0.0,1.0,0.0,0.0,0.0,0.0,0.0,1.0,1.0,0.0,1.0,2020-12-01,7-55-Bew-RueA-J-d-2020-12.xlsx,7-55-Bew-RueA-J,7-55,flow,yearly
505,Bulgarien,1.0,1.0,0.0,1.0,1.0,0.0,0.0,0.0,0.0,0.0,0.0,0.0,2020-12-01,7-55-Bew-RueA-J-d-2020-12.xlsx,7-55-Bew-RueA-J,7-55,flow,yearly
506,Estland,1.0,1.0,0.0,1.0,0.0,1.0,0.0,0.0,0.0,0.0,0.0,0.0,2020-12-01,7-55-Bew-RueA-J-d-2020-12.xlsx,7-55-Bew-RueA-J,7-55,flow,yearly
507,Griechenland,2.0,2.0,0.0,2.0,2.0,0.0,0.0,1.0,0.0,0.0,0.0,0.0,2020-12-01,7-55-Bew-RueA-J-d-2020-12.xlsx,7-55-Bew-RueA-J,7-55,flow,yearly
508,Grossbritannien,4.0,4.0,0.0,3.0,1.0,2.0,0.0,0.0,0.0,0.0,0.0,0.0,2020-12-01,7-55-Bew-RueA-J-d-2020-12.xlsx,7-55-Bew-RueA-J,7-55,flow,yearly
509,Italien,2.0,2.0,0.0,2.0,2.0,0.0,0.0,1.0,0.0,0.0,0.0,0.0,2020-12-01,7-55-Bew-RueA-J-d-2020-12.xlsx,7-55-Bew-RueA-J,7-55,flow,yearly
510,Kosovo,2.0,2.0,0.0,3.0,3.0,0.0,1.0,2.0,0.0,0.0,0.0,0.0,2020-12-01,7-55-Bew-RueA-J-d-2020-12.xlsx,7-55-Bew-RueA-J,7-55,flow,yearly
511,Kroatien,7.0,7.0,0.0,7.0,7.0,0.0,0.0,5.0,0.0,0.0,0.0,0.0,2020-12-01,7-55-Bew-RueA-J-d-2020-12.xlsx,7-55-Bew-RueA-J,7-55,flow,yearly
512,Litauen,3.0,3.0,0.0,3.0,3.0,0.0,0.0,4.0,0.0,0.0,0.0,0.0,2020-12-01,7-55-Bew-RueA-J-d-2020-12.xlsx,7-55-Bew-RueA-J,7-55,flow,yearly
513,Nordmazedonien,0.0,0.0,0.0,0.0,0.0,0.0,1.0,0.0,0.0,0.0,0.0,0.0,2020-12-01,7-55-Bew-RueA-J-d-2020-12.xlsx,7-55-Bew-RueA-J,7-55,flow,yearly
514,Moldova,3.0,3.0,0.0,3.0,2.0,1.0,0.0,2.0,0.0,0.0,0.0,0.0,2020-12-01,7-55-Bew-RueA-J-d-2020-12.xlsx,7-55-Bew-RueA-J,7-55,flow,yearly
515,Montenegro,1.0,1.0,0.0,1.0,1.0,0.0,0.0,1.0,0.0,0.0,0.0,0.0,2020-12-01,7-55-Bew-RueA-J-d-2020-12.xlsx,7-55-Bew-RueA-J,7-55,flow,yearly
516,Niederlande,6.0,6.0,0.0,6.0,6.0,0.0,0.0,5.0,0.0,0.0,0.0,0.0,2020-12-01,7-55-Bew-RueA-J-d-2020-12.xlsx,7-55-Bew-RueA-J,7-55,flow,yearly
517,Polen,13.0,13.0,0.0,13.0,12.0,0.0,0.0,9.0,0.0,0.0,0.0,0.0,2020-12-01,7-55-Bew-RueA-J-d-2020-12.xlsx,7-55-Bew-RueA-J,7-55,flow,yearly
518,Rumänien,47.0,47.0,0.0,46.0,44.0,2.0,0.0,35.0,0.0,0.0,0.0,0.0,2020-12-01,7-55-Bew-RueA-J-d-2020-12.xlsx,7-55-Bew-RueA-J,7-55,flow,yearly
519,Russland,5.0,5.0,0.0,7.0,7.0,0.0,4.0,5.0,0.0,0.0,0.0,0.0,2020-12-01,7-55-Bew-RueA-J-d-2020-12.xlsx,7-55-Bew-RueA-J,7-55,flow,yearly
520,Schweden,1.0,1.0,0.0,1.0,0.0,1.0,0.0,0.0,0.0,0.0,0.0,0.0,2020-12-01,7-55-Bew-RueA-J-d-2020-12.xlsx,7-55-Bew-RueA-J,7-55,flow,yearly
521,Serbien,5.0,4.0,1.0,3.0,3.0,0.0,0.0,1.0,1.0,1.0,0.0,0.0,2020-12-01,7-55-Bew-RueA-J-d-2020-12.xlsx,7-55-Bew-RueA-J,7-55,flow,yearly
522,Slowakische Republik,8.0,8.0,0.0,8.0,8.0,0.0,0.0,4.0,0.0,0.0,0.0,0.0,2020-12-01,7-55-Bew-RueA-J-d-2020-12.xlsx,7-55-Bew-RueA-J,7-55,flow,yearly
523,Slowenien,1.0,1.0,0.0,1.0,1.0,0.0,0.0,1.0,0.0,0.0,0.0,0.0,2020-12-01,7-55-Bew-RueA-J-d-2020-12.xlsx,7-55-Bew-RueA-J,7-55,flow,yearly
524,Spanien,8.0,8.0,0.0,7.0,7.0,0.0,0.0,7.0,0.0,0.0,0.0,0.0,2020-12-01,7-55-Bew-RueA-J-d-2020-12.xlsx,7-55-Bew-RueA-J,7-55,flow,yearly
525,Tschechische Republik,2.0,2.0,0.0,2.0,2.0,0.0,0.0,2.0,0.0,0.0,0.0,0.0,2020-12-01,7-55-Bew-RueA-J-d-2020-12.xlsx,7-55-Bew-RueA-J,7-55,flow,yearly
526,Türkei,3.0,2.0,1.0,3.0,2.0,0.0,1.0,1.0,1.0,0.0,1.0,0.0,2020-12-01,7-55-Bew-RueA-J-d-2020-12.xlsx,7-55-Bew-RueA-J,7-55,flow,yearly
527,Ukraine,3.0,3.0,0.0,5.0,5.0,0.0,8.0,3.0,0.0,0.0,0.0,0.0,2020-12-01,7-55-Bew-RueA-J-d-2020-12.xlsx,7-55-Bew-RueA-J,7-55,flow,yearly
528,Ungarn,7.0,7.0,0.0,7.0,6.0,1.0,0.0,4.0,0.0,0.0,0.0,0.0,2020-12-01,7-55-Bew-RueA-J-d-2020-12.xlsx,7-55-Bew-RueA-J,7-55,flow,yearly
529,Total Europa,139.0,135.0,4.0,137.0,127.0,8.0,15.0,95.0,4.0,3.0,1.0,2.0,2020-12-01,7-55-Bew-RueA-J-d-2020-12.xlsx,7-55-Bew-RueA-J,7-55,flow,yearly
530,,,,,,,,,,,,,,2020-12-01,7-55-Bew-RueA-J-d-2020-12.xlsx,7-55-Bew-RueA-J,7-55,flow,yearly
531,Staatenlos,4.0,4.0,0.0,4.0,4.0,0.0,2.0,1.0,0.0,0.0,0.0,0.0,2020-12-01,7-55-Bew-RueA-J-d-2020-12.xlsx,7-55-Bew-RueA-J,7-55,flow,yearly
532,Ohne Nationalität,9.0,9.0,0.0,10.0,9.0,1.0,4.0,6.0,0.0,0.0,0.0,0.0,2020-12-01,7-55-Bew-RueA-J-d-2020-12.xlsx,7-55-Bew-RueA-J,7-55,flow,yearly
533,Staat unbekannt,14.0,14.0,0.0,13.0,12.0,1.0,1.0,13.0,0.0,0.0,0.0,0.0,2020-12-01,7-55-Bew-RueA-J-d-2020-12.xlsx,7-55-Bew-RueA-J,7-55,flow,yearly
534,Total Herkunft unbek.,27.0,27.0,0.0,27.0,25.0,2.0,7.0,20.0,0.0,0.0,0.0,0.0,2020-12-01,7-55-Bew-RueA-J-d-2020-12.xlsx,7-55-Bew-RueA-J,7-55,flow,yearly
535,Herkunft unbekannt,20.0,18.0,2.0,18.0,15.0,1.0,4.0,6.0,2.0,2.0,0.0,0.0,2020-12-01,7-55-Bew-RueA-J-d-2020-12.xlsx,7-55-Bew-RueA-J,7-55,flow,yearly
536,,,,,,,,,,,,,,2020-12-01,7-55-Bew-RueA-J-d-2020-12.xlsx,7-55-Bew-RueA-J,7-55,flow,yearly
537,Ägypten,4.0,3.0,1.0,3.0,0.0,0.0,0.0,0.0,1.0,1.0,0.0,1.0,2020-12-01,7-55-Bew-RueA-J-d-2020-12.xlsx,7-55-Bew-RueA-J,7-55,flow,yearly
538,Algerien,11.0,11.0,0.0,10.0,8.0,2.0,2.0,5.0,0.0,0.0,0.0,0.0,2020-12-01,7-55-Bew-RueA-J-d-2020-12.xlsx,7-55-Bew-RueA-J,7-55,flow,yearly
539,Äquatorialguinea,1.0,1.0,0.0,1.0,0.0,1.0,0.0,0.0,0.0,0.0,0.0,0.0,2020-12-01,7-55-Bew-RueA-J-d-2020-12.xlsx,7-55-Bew-RueA-J,7-55,flow,yearly
540,Äthiopien,11.0,11.0,0.0,14.0,10.0,2.0,10.0,1.0,0.0,0.0,0.0,0.0,2020-12-01,7-55-Bew-RueA-J-d-2020-12.xlsx,7-55-Bew-RueA-J,7-55,flow,yearly
541,Burundi,1.0,1.0,0.0,1.0,1.0,0.0,1.0,1.0,0.0,0.0,0.0,0.0,2020-12-01,7-55-Bew-RueA-J-d-2020-12.xlsx,7-55-Bew-RueA-J,7-55,flow,yearly
542,Côte d'Ivoire,1.0,1.0,0.0,1.0,1.0,0.0,0.0,1.0,0.0,0.0,0.0,0.0,2020-12-01,7-55-Bew-RueA-J-d-2020-12.xlsx,7-55-Bew-RueA-J,7-55,flow,yearly
543,Eritrea,66.0,48.0,18.0,56.0,43.0,3.0,30.0,16.0,18.0,17.0,0.0,5.0,2020-12-01,7-55-Bew-RueA-J-d-2020-12.xlsx,7-55-Bew-RueA-J,7-55,flow,yearly
544,Gambia,16.0,16.0,0.0,14.0,14.0,0.0,1.0,12.0,0.0,0.0,0.0,0.0,2020-12-01,7-55-Bew-RueA-J-d-2020-12.xlsx,7-55-Bew-RueA-J,7-55,flow,yearly
545,Ghana,3.0,3.0,0.0,5.0,5.0,0.0,2.0,3.0,0.0,0.0,0.0,0.0,2020-12-01,7-55-Bew-RueA-J-d-2020-12.xlsx,7-55-Bew-RueA-J,7-55,flow,yearly
546,Guinea,17.0,17.0,0.0,16.0,11.0,5.0,1.0,7.0,0.0,0.0,0.0,0.0,2020-12-01,7-55-Bew-RueA-J-d-2020-12.xlsx,7-55-Bew-RueA-J,7-55,flow,yearly
547,Guinea-Bissau,4.0,4.0,0.0,6.0,4.0,2.0,0.0,2.0,0.0,0.0,0.0,0.0,2020-12-01,7-55-Bew-RueA-J-d-2020-12.xlsx,7-55-Bew-RueA-J,7-55,flow,yearly
548,Kenia,1.0,1.0,0.0,0.0,0.0,0.0,0.0,0.0,0.0,0.0,0.0,0.0,2020-12-01,7-55-Bew-RueA-J-d-2020-12.xlsx,7-55-Bew-RueA-J,7-55,flow,yearly
549,Kongo DR,0.0,0.0,0.0,0.0,0.0,0.0,0.0,7.0,0.0,0.0,0.0,0.0,2020-12-01,7-55-Bew-RueA-J-d-2020-12.xlsx,7-55-Bew-RueA-J,7-55,flow,yearly
550,Liberia,0.0,0.0,0.0,1.0,1.0,0.0,3.0,0.0,0.0,0.0,0.0,0.0,2020-12-01,7-55-Bew-RueA-J-d-2020-12.xlsx,7-55-Bew-RueA-J,7-55,flow,yearly
551,Libyen,3.0,3.0,0.0,5.0,3.0,2.0,2.0,2.0,0.0,0.0,0.0,0.0,2020-12-01,7-55-Bew-RueA-J-d-2020-12.xlsx,7-55-Bew-RueA-J,7-55,flow,yearly
552,Mali,11.0,11.0,0.0,13.0,12.0,1.0,1.0,9.0,0.0,0.0,0.0,0.0,2020-12-01,7-55-Bew-RueA-J-d-2020-12.xlsx,7-55-Bew-RueA-J,7-55,flow,yearly
553,Marokko,8.0,8.0,0.0,8.0,6.0,1.0,1.0,4.0,0.0,0.0,0.0,0.0,2020-12-01,7-55-Bew-RueA-J-d-2020-12.xlsx,7-55-Bew-RueA-J,7-55,flow,yearly
554,Niger,7.0,7.0,0.0,6.0,5.0,1.0,0.0,5.0,0.0,0.0,0.0,0.0,2020-12-01,7-55-Bew-RueA-J-d-2020-12.xlsx,7-55-Bew-RueA-J,7-55,flow,yearly
555,Nigeria,115.0,115.0,0.0,114.0,99.0,10.0,8.0,79.0,0.0,0.0,0.0,0.0,2020-12-01,7-55-Bew-RueA-J-d-2020-12.xlsx,7-55-Bew-RueA-J,7-55,flow,yearly
556,Senegal,6.0,6.0,0.0,5.0,4.0,0.0,0.0,2.0,0.0,0.0,0.0,0.0,2020-12-01,7-55-Bew-RueA-J-d-2020-12.xlsx,7-55-Bew-RueA-J,7-55,flow,yearly
557,Sierra Leone,3.0,3.0,0.0,3.0,2.0,1.0,0.0,1.0,0.0,0.0,0.0,0.0,2020-12-01,7-55-Bew-RueA-J-d-2020-12.xlsx,7-55-Bew-RueA-J,7-55,flow,yearly
558,Somalia,46.0,41.0,5.0,47.0,28.0,17.0,23.0,6.0,5.0,2.0,3.0,3.0,2020-12-01,7-55-Bew-RueA-J-d-2020-12.xlsx,7-55-Bew-RueA-J,7-55,flow,yearly
559,Sudan,6.0,6.0,0.0,5.0,4.0,1.0,0.0,3.0,0.0,0.0,0.0,0.0,2020-12-01,7-55-Bew-RueA-J-d-2020-12.xlsx,7-55-Bew-RueA-J,7-55,flow,yearly
560,Südsudan,1.0,1.0,0.0,0.0,0.0,0.0,0.0,0.0,0.0,0.0,0.0,0.0,2020-12-01,7-55-Bew-RueA-J-d-2020-12.xlsx,7-55-Bew-RueA-J,7-55,flow,yearly
561,Tansania,1.0,1.0,0.0,1.0,1.0,0.0,0.0,0.0,0.0,0.0,0.0,0.0,2020-12-01,7-55-Bew-RueA-J-d-2020-12.xlsx,7-55-Bew-RueA-J,7-55,flow,yearly
562,Togo,1.0,1.0,0.0,1.0,1.0,0.0,0.0,0.0,0.0,0.0,0.0,0.0,2020-12-01,7-55-Bew-RueA-J-d-2020-12.xlsx,7-55-Bew-RueA-J,7-55,flow,yearly
563,Tunesien,2.0,2.0,0.0,1.0,0.0,1.0,0.0,0.0,0.0,0.0,0.0,0.0,2020-12-01,7-55-Bew-RueA-J-d-2020-12.xlsx,7-55-Bew-RueA-J,7-55,flow,yearly
564,Total Afrika,346.0,322.0,24.0,337.0,263.0,50.0,85.0,166.0,24.0,20.0,3.0,9.0,2020-12-01,7-55-Bew-RueA-J-d-2020-12.xlsx,7-55-Bew-RueA-J,7-55,flow,yearly
565,,,,,,,,,,,,,,2020-12-01,7-55-Bew-RueA-J-d-2020-12.xlsx,7-55-Bew-RueA-J,7-55,flow,yearly
566,Bolivien,2.0,2.0,0.0,2.0,2.0,0.0,0.0,2.0,0.0,0.0,0.0,0.0,2020-12-01,7-55-Bew-RueA-J-d-2020-12.xlsx,7-55-Bew-RueA-J,7-55,flow,yearly
567,Brasilien,1.0,1.0,0.0,1.0,1.0,0.0,0.0,1.0,0.0,0.0,0.0,0.0,2020-12-01,7-55-Bew-RueA-J-d-2020-12.xlsx,7-55-Bew-RueA-J,7-55,flow,yearly
568,Chile,1.0,1.0,0.0,1.0,1.0,0.0,0.0,0.0,0.0,0.0,0.0,0.0,2020-12-01,7-55-Bew-RueA-J-d-2020-12.xlsx,7-55-Bew-RueA-J,7-55,flow,yearly
569,Dominikanische Republik,18.0,18.0,0.0,19.0,16.0,3.0,0.0,17.0,0.0,0.0,0.0,0.0,2020-12-01,7-55-Bew-RueA-J-d-2020-12.xlsx,7-55-Bew-RueA-J,7-55,flow,yearly
570,Ecuador,3.0,3.0,0.0,3.0,1.0,2.0,0.0,1.0,0.0,0.0,0.0,0.0,2020-12-01,7-55-Bew-RueA-J-d-2020-12.xlsx,7-55-Bew-RueA-J,7-55,flow,yearly
571,Kolumbien,4.0,4.0,0.0,4.0,4.0,0.0,0.0,4.0,0.0,0.0,0.0,0.0,2020-12-01,7-55-Bew-RueA-J-d-2020-12.xlsx,7-55-Bew-RueA-J,7-55,flow,yearly
572,Mexiko,0.0,0.0,0.0,0.0,0.0,0.0,1.0,0.0,0.0,0.0,0.0,0.0,2020-12-01,7-55-Bew-RueA-J-d-2020-12.xlsx,7-55-Bew-RueA-J,7-55,flow,yearly
573,Peru,1.0,1.0,0.0,1.0,1.0,0.0,0.0,0.0,0.0,0.0,0.0,0.0,2020-12-01,7-55-Bew-RueA-J-d-2020-12.xlsx,7-55-Bew-RueA-J,7-55,flow,yearly
574,Venezuela,1.0,1.0,0.0,1.0,1.0,0.0,0.0,1.0,0.0,0.0,0.0,0.0,2020-12-01,7-55-Bew-RueA-J-d-2020-12.xlsx,7-55-Bew-RueA-J,7-55,flow,yearly
575,Total Amerika,31.0,31.0,0.0,32.0,27.0,5.0,1.0,26.0,0.0,0.0,0.0,0.0,2020-12-01,7-55-Bew-RueA-J-d-2020-12.xlsx,7-55-Bew-RueA-J,7-55,flow,yearly
576,,,,,,,,,,,,,,2020-12-01,7-55-Bew-RueA-J-d-2020-12.xlsx,7-55-Bew-RueA-J,7-55,flow,yearly
577,Afghanistan,107.0,103.0,4.0,86.0,82.0,3.0,78.0,20.0,4.0,4.0,0.0,1.0,2020-12-01,7-55-Bew-RueA-J-d-2020-12.xlsx,7-55-Bew-RueA-J,7-55,flow,yearly
578,Armenien,0.0,0.0,0.0,0.0,0.0,0.0,0.0,1.0,0.0,0.0,0.0,0.0,2020-12-01,7-55-Bew-RueA-J-d-2020-12.xlsx,7-55-Bew-RueA-J,7-55,flow,yearly
579,Bangladesh,1.0,1.0,0.0,1.0,1.0,0.0,0.0,1.0,0.0,0.0,0.0,0.0,2020-12-01,7-55-Bew-RueA-J-d-2020-12.xlsx,7-55-Bew-RueA-J,7-55,flow,yearly
580,China (Volksrepublik),8.0,8.0,0.0,7.0,7.0,0.0,1.0,8.0,0.0,0.0,0.0,0.0,2020-12-01,7-55-Bew-RueA-J-d-2020-12.xlsx,7-55-Bew-RueA-J,7-55,flow,yearly
581,Georgien,3.0,3.0,0.0,3.0,3.0,0.0,4.0,2.0,0.0,0.0,0.0,0.0,2020-12-01,7-55-Bew-RueA-J-d-2020-12.xlsx,7-55-Bew-RueA-J,7-55,flow,yearly
582,Irak,29.0,28.0,1.0,33.0,31.0,0.0,16.0,9.0,1.0,1.0,0.0,1.0,2020-12-01,7-55-Bew-RueA-J-d-2020-12.xlsx,7-55-Bew-RueA-J,7-55,flow,yearly
583,Iran,15.0,14.0,1.0,15.0,15.0,0.0,12.0,7.0,1.0,1.0,0.0,1.0,2020-12-01,7-55-Bew-RueA-J-d-2020-12.xlsx,7-55-Bew-RueA-J,7-55,flow,yearly
584,Jemen,1.0,1.0,0.0,1.0,1.0,0.0,1.0,0.0,0.0,0.0,0.0,0.0,2020-12-01,7-55-Bew-RueA-J-d-2020-12.xlsx,7-55-Bew-RueA-J,7-55,flow,yearly
585,Mongolei,1.0,1.0,0.0,1.0,1.0,0.0,0.0,1.0,0.0,0.0,0.0,0.0,2020-12-01,7-55-Bew-RueA-J-d-2020-12.xlsx,7-55-Bew-RueA-J,7-55,flow,yearly
586,Pakistan,3.0,3.0,0.0,3.0,3.0,0.0,6.0,2.0,0.0,0.0,0.0,0.0,2020-12-01,7-55-Bew-RueA-J-d-2020-12.xlsx,7-55-Bew-RueA-J,7-55,flow,yearly
587,Saudi-Arabien,1.0,1.0,0.0,1.0,1.0,0.0,1.0,1.0,0.0,0.0,0.0,0.0,2020-12-01,7-55-Bew-RueA-J-d-2020-12.xlsx,7-55-Bew-RueA-J,7-55,flow,yearly
588,Sri Lanka,2.0,2.0,0.0,2.0,2.0,0.0,3.0,0.0,0.0,0.0,0.0,0.0,2020-12-01,7-55-Bew-RueA-J-d-2020-12.xlsx,7-55-Bew-RueA-J,7-55,flow,yearly
589,Syrien,46.0,45.0,1.0,41.0,39.0,0.0,38.0,5.0,1.0,1.0,0.0,0.0,2020-12-01,7-55-Bew-RueA-J-d-2020-12.xlsx,7-55-Bew-RueA-J,7-55,flow,yearly
590,Vietnam,2.0,2.0,0.0,2.0,1.0,1.0,0.0,0.0,0.0,0.0,0.0,0.0,2020-12-01,7-55-Bew-RueA-J-d-2020-12.xlsx,7-55-Bew-RueA-J,7-55,flow,yearly
591,Total Asien,219.0,212.0,7.0,196.0,187.0,4.0,160.0,57.0,7.0,7.0,0.0,3.0,2020-12-01,7-55-Bew-RueA-J-d-2020-12.xlsx,7-55-Bew-RueA-J,7-55,flow,yearly
592,,,,,,,,,,,,,,2020-12-01,7-55-Bew-RueA-J-d-2020-12.xlsx,7-55-Bew-RueA-J,7-55,flow,yearly
593,Albanien,2.0,2.0,0.0,2.0,2.0,0.0,0.0,1.0,0.0,0.0,0.0,0.0,2020-12-01,7-55-Bew-RueA-J-d-2020-12.xlsx,7-55-Bew-RueA-J,7-55,flow,yearly
594,Bosnien u. Herzegowina,2.0,2.0,0.0,2.0,0.0,2.0,0.0,0.0,0.0,0.0,0.0,0.0,2020-12-01,7-55-Bew-RueA-J-d-2020-12.xlsx,7-55-Bew-RueA-J,7-55,flow,yearly
595,Bulgarien,3.0,3.0,0.0,3.0,2.0,0.0,0.0,3.0,0.0,0.0,0.0,0.0,2020-12-01,7-55-Bew-RueA-J-d-2020-12.xlsx,7-55-Bew-RueA-J,7-55,flow,yearly
596,Frankreich,1.0,1.0,0.0,1.0,1.0,0.0,0.0,1.0,0.0,0.0,0.0,0.0,2020-12-01,7-55-Bew-RueA-J-d-2020-12.xlsx,7-55-Bew-RueA-J,7-55,flow,yearly
597,Grossbritannien,0.0,0.0,0.0,0.0,0.0,0.0,0.0,0.0,0.0,0.0,0.0,0.0,2020-12-01,7-55-Bew-RueA-J-d-2020-12.xlsx,7-55-Bew-RueA-J,7-55,flow,yearly
598,Irland,1.0,1.0,0.0,1.0,1.0,0.0,0.0,1.0,0.0,0.0,0.0,0.0,2020-12-01,7-55-Bew-RueA-J-d-2020-12.xlsx,7-55-Bew-RueA-J,7-55,flow,yearly
599,Italien,3.0,3.0,0.0,3.0,3.0,0.0,0.0,3.0,0.0,0.0,0.0,0.0,2020-12-01,7-55-Bew-RueA-J-d-2020-12.xlsx,7-55-Bew-RueA-J,7-55,flow,yearly
600,Kosovo,2.0,2.0,0.0,1.0,1.0,0.0,0.0,2.0,0.0,0.0,0.0,0.0,2020-12-01,7-55-Bew-RueA-J-d-2020-12.xlsx,7-55-Bew-RueA-J,7-55,flow,yearly
601,Kroatien,9.0,9.0,0.0,9.0,5.0,3.0,0.0,4.0,0.0,0.0,0.0,0.0,2020-12-01,7-55-Bew-RueA-J-d-2020-12.xlsx,7-55-Bew-RueA-J,7-55,flow,yearly
602,Lettland,1.0,1.0,0.0,1.0,1.0,0.0,0.0,0.0,0.0,0.0,0.0,0.0,2020-12-01,7-55-Bew-RueA-J-d-2020-12.xlsx,7-55-Bew-RueA-J,7-55,flow,yearly
603,Litauen,7.0,7.0,0.0,7.0,7.0,0.0,0.0,5.0,0.0,0.0,0.0,0.0,2020-12-01,7-55-Bew-RueA-J-d-2020-12.xlsx,7-55-Bew-RueA-J,7-55,flow,yearly
604,Mazedonien eh.Jug.Rep.,1.0,1.0,0.0,1.0,1.0,0.0,0.0,0.0,0.0,0.0,0.0,0.0,2020-12-01,7-55-Bew-RueA-J-d-2020-12.xlsx,7-55-Bew-RueA-J,7-55,flow,yearly
605,Moldova,1.0,1.0,0.0,1.0,1.0,0.0,0.0,1.0,0.0,0.0,0.0,0.0,2020-12-01,7-55-Bew-RueA-J-d-2020-12.xlsx,7-55-Bew-RueA-J,7-55,flow,yearly
606,Niederlande,4.0,4.0,0.0,5.0,4.0,1.0,0.0,4.0,0.0,0.0,0.0,0.0,2020-12-01,7-55-Bew-RueA-J-d-2020-12.xlsx,7-55-Bew-RueA-J,7-55,flow,yearly
607,Polen,13.0,13.0,0.0,13.0,13.0,0.0,0.0,10.0,0.0,0.0,0.0,0.0,2020-12-01,7-55-Bew-RueA-J-d-2020-12.xlsx,7-55-Bew-RueA-J,7-55,flow,yearly
608,Rumänien,51.0,51.0,0.0,50.0,46.0,4.0,0.0,44.0,0.0,0.0,0.0,0.0,2020-12-01,7-55-Bew-RueA-J-d-2020-12.xlsx,7-55-Bew-RueA-J,7-55,flow,yearly
609,Russland,7.0,7.0,0.0,5.0,5.0,0.0,3.0,6.0,0.0,0.0,0.0,0.0,2020-12-01,7-55-Bew-RueA-J-d-2020-12.xlsx,7-55-Bew-RueA-J,7-55,flow,yearly
610,Serbien,7.0,6.0,1.0,6.0,3.0,3.0,0.0,2.0,1.0,0.0,1.0,0.0,2020-12-01,7-55-Bew-RueA-J-d-2020-12.xlsx,7-55-Bew-RueA-J,7-55,flow,yearly
611,Slowakische Republik,3.0,3.0,0.0,4.0,4.0,0.0,0.0,4.0,0.0,0.0,0.0,0.0,2020-12-01,7-55-Bew-RueA-J-d-2020-12.xlsx,7-55-Bew-RueA-J,7-55,flow,yearly
612,Slowenien,1.0,1.0,0.0,1.0,0.0,1.0,0.0,1.0,0.0,0.0,0.0,0.0,2020-12-01,7-55-Bew-RueA-J-d-2020-12.xlsx,7-55-Bew-RueA-J,7-55,flow,yearly
613,Spanien,10.0,10.0,0.0,10.0,9.0,1.0,0.0,7.0,0.0,0.0,0.0,0.0,2020-12-01,7-55-Bew-RueA-J-d-2020-12.xlsx,7-55-Bew-RueA-J,7-55,flow,yearly
614,Tschechische Republik,2.0,2.0,0.0,2.0,2.0,0.0,0.0,2.0,0.0,0.0,0.0,0.0,2020-12-01,7-55-Bew-RueA-J-d-2020-12.xlsx,7-55-Bew-RueA-J,7-55,flow,yearly
615,Türkei,9.0,6.0,3.0,5.0,4.0,0.0,0.0,1.0,3.0,3.0,0.0,0.0,2020-12-01,7-55-Bew-RueA-J-d-2020-12.xlsx,7-55-Bew-RueA-J,7-55,flow,yearly
616,Ukraine,3.0,3.0,0.0,1.0,1.0,0.0,2.0,1.0,0.0,0.0,0.0,0.0,2020-12-01,7-55-Bew-RueA-J-d-2020-12.xlsx,7-55-Bew-RueA-J,7-55,flow,yearly
617,Ungarn,6.0,6.0,0.0,6.0,6.0,0.0,0.0,6.0,0.0,0.0,0.0,0.0,2020-12-01,7-55-Bew-RueA-J-d-2020-12.xlsx,7-55-Bew-RueA-J,7-55,flow,yearly
618,Total Europa,149.0,145.0,4.0,140.0,122.0,15.0,5.0,109.0,4.0,3.0,1.0,0.0,2020-12-01,7-55-Bew-RueA-J-d-2020-12.xlsx,7-55-Bew-RueA-J,7-55,flow,yearly
619,,,,,,,,,,,,,,2020-12-01,7-55-Bew-RueA-J-d-2020-12.xlsx,7-55-Bew-RueA-J,7-55,flow,yearly
620,Staatenlos,1.0,1.0,0.0,1.0,1.0,0.0,1.0,0.0,0.0,0.0,0.0,0.0,2020-12-01,7-55-Bew-RueA-J-d-2020-12.xlsx,7-55-Bew-RueA-J,7-55,flow,yearly
621,Ohne Nationalität,8.0,7.0,1.0,6.0,6.0,0.0,2.0,2.0,1.0,1.0,0.0,0.0,2020-12-01,7-55-Bew-RueA-J-d-2020-12.xlsx,7-55-Bew-RueA-J,7-55,flow,yearly
622,Staat unbekannt,11.0,10.0,1.0,11.0,8.0,1.0,1.0,4.0,1.0,1.0,0.0,0.0,2020-12-01,7-55-Bew-RueA-J-d-2020-12.xlsx,7-55-Bew-RueA-J,7-55,flow,yearly
623,Total Herkunft unbek.,20.0,18.0,2.0,18.0,15.0,1.0,4.0,6.0,2.0,2.0,0.0,0.0,2020-12-01,7-55-Bew-RueA-J-d-2020-12.xlsx,7-55-Bew-RueA-J,7-55,flow,yearly
