,index,Äquatorialguinea,nation,0.1,1,0.2,0.3,0.4,0.5,0.6,0.7,0.8,0.9,0.10,0.11,0.12,2,1.1,1.2,Unnamed: 18,Unnamed: 19,Unnamed: 20,Unnamed: 21,datum,3,4,5,6,7,8,9,10,11,12,13,14,15,16,17,18,19,20,21
0,1,,Ägypten,,16.0,,,,,,,,,,,,6.0,,,,,,,2020-12-01,0.0,6.0,8.0,2.0,0.0,5.0,0.0,0.0,1.0,2.0,0.0,0.0,24.0,8.0,16.0,,,,
1,2,,Algerien,,334.0,,,,,,,,,,,,144.0,,,,,,,2020-12-01,1.0,208.0,142.0,8.0,13.0,74.0,5.0,49.0,106.0,46.0,3.0,49.0,446.0,207.0,296.0,,,,
2,3,,Angola,,19.0,,,,,,,,,,,,5.0,,,,,,,2020-12-01,0.0,9.0,5.0,0.0,0.0,4.0,0.0,2.0,4.0,4.0,0.0,0.0,44.0,27.0,18.0,,,,
3,4,,Äquatorialguinea,,0.0,,,,,,,,,,,,0.0,,,,,,,2020-12-01,0.0,1.0,0.0,0.0,0.0,0.0,0.0,0.0,0.0,0.0,0.0,0.0,1.0,1.0,0.0,,,,
4,5,,Äthiopien,,106.0,,,,,,,,,,,,42.0,,,,,,,2020-12-01,0.0,108.0,48.0,3.0,5.0,35.0,2.0,2.0,14.0,12.0,0.0,1.0,72.0,24.0,43.0,,,,
5,6,,Benin,,3.0,,,,,,,,,,,,2.0,,,,,,,2020-12-01,0.0,1.0,3.0,0.0,0.0,0.0,0.0,1.0,1.0,0.0,0.0,0.0,0.0,0.0,1.0,,,,
6,7,,Burkina Faso,,3.0,,,,,,,,,,,,1.0,,,,,,,2020-12-01,0.0,5.0,2.0,1.0,0.0,0.0,0.0,2.0,1.0,1.0,0.0,0.0,8.0,4.0,9.0,,,,
7,8,,Burundi,,0.0,,,,,,,,,,,,0.0,,,,,,,2020-12-01,0.0,1.0,1.0,1.0,0.0,0.0,0.0,0.0,1.0,1.0,0.0,0.0,3.0,2.0,1.0,,,,
8,9,,Côte d'Ivoire,,13.0,,,,,,,,,,,,5.0,,,,,,,2020-12-01,0.0,9.0,2.0,0.0,2.0,0.0,0.0,1.0,3.0,3.0,0.0,0.0,17.0,12.0,7.0,,,,
9,10,,Dschibuti,,2.0,,,,,,,,,,,,1.0,,,,,,,2020-12-01,0.0,1.0,0.0,0.0,0.0,1.0,0.0,0.0,0.0,0.0,0.0,0.0,5.0,1.0,4.0,,,,
10,11,,Eritrea,,225.0,,,,,,,,,,,,13.0,,,,,,,2020-12-01,0.0,208.0,12.0,4.0,1.0,1.0,0.0,9.0,3.0,6.0,0.0,0.0,37.0,21.0,19.0,,,,
11,12,,Gabun,,2.0,,,,,,,,,,,,0.0,,,,,,,2020-12-01,0.0,0.0,0.0,0.0,0.0,0.0,0.0,0.0,0.0,0.0,0.0,0.0,4.0,2.0,3.0,,,,
12,13,,Gambia,,23.0,,,,,,,,,,,,10.0,,,,,,,2020-12-01,0.0,8.0,15.0,3.0,4.0,6.0,0.0,1.0,7.0,6.0,0.0,0.0,91.0,50.0,52.0,,,,
13,14,,Ghana,,4.0,,,,,,,,,,,,10.0,,,,,,,2020-12-01,0.0,0.0,8.0,2.0,0.0,6.0,0.0,1.0,9.0,8.0,0.0,1.0,28.0,17.0,12.0,,,,
14,15,,Guinea,,45.0,,,,,,,,,,,,14.0,,,,,,,2020-12-01,1.0,30.0,24.0,1.0,0.0,23.0,0.0,5.0,8.0,8.0,0.0,1.0,100.0,52.0,48.0,,,,
15,16,,Guinea-Bissau,,5.0,,,,,,,,,,,,2.0,,,,,,,2020-12-01,0.0,1.0,3.0,0.0,0.0,1.0,0.0,2.0,2.0,1.0,0.0,0.0,15.0,13.0,4.0,,,,
16,17,,Kamerun,,13.0,,,,,,,,,,,,3.0,,,,,,,2020-12-01,0.0,7.0,19.0,1.0,0.0,8.0,0.0,4.0,5.0,0.0,0.0,1.0,25.0,10.0,18.0,,,,
17,18,,Kapverden,,0.0,,,,,,,,,,,,0.0,,,,,,,2020-12-01,0.0,2.0,0.0,0.0,0.0,0.0,0.0,0.0,0.0,0.0,0.0,0.0,0.0,0.0,0.0,,,,
18,19,,Kenia,,1.0,,,,,,,,,,,,2.0,,,,,,,2020-12-01,0.0,1.0,3.0,0.0,0.0,0.0,0.0,0.0,1.0,1.0,0.0,0.0,5.0,4.0,1.0,,,,
19,20,,Kongo,,2.0,,,,,,,,,,,,0.0,,,,,,,2020-12-01,0.0,0.0,0.0,0.0,0.0,0.0,0.0,0.0,0.0,0.0,0.0,0.0,2.0,0.0,1.0,,,,
20,21,,Kongo DR,,35.0,,,,,,,,,,,,4.0,,,,,,,2020-12-01,0.0,10.0,5.0,1.0,0.0,4.0,0.0,1.0,5.0,5.0,0.0,0.0,20.0,9.0,8.0,,,,
21,22,,Liberia,,2.0,,,,,,,,,,,,0.0,,,,,,,2020-12-01,0.0,1.0,0.0,0.0,0.0,0.0,0.0,0.0,0.0,0.0,0.0,0.0,7.0,2.0,4.0,,,,
22,23,,Libyen,,23.0,,,,,,,,,,,,4.0,,,,,,,2020-12-01,0.0,10.0,6.0,0.0,0.0,0.0,0.0,1.0,6.0,4.0,0.0,5.0,46.0,22.0,21.0,,,,
23,24,,Malawi,,0.0,,,,,,,,,,,,0.0,,,,,,,2020-12-01,0.0,0.0,0.0,0.0,0.0,0.0,0.0,0.0,0.0,0.0,0.0,0.0,1.0,0.0,0.0,,,,
24,25,,Mali,,8.0,,,,,,,,,,,,8.0,,,,,,,2020-12-01,0.0,11.0,7.0,0.0,3.0,3.0,0.0,2.0,5.0,5.0,0.0,0.0,30.0,8.0,21.0,,,,
25,26,,Marokko,,122.0,,,,,,,,,,,,45.0,,,,,,,2020-12-01,0.0,93.0,37.0,8.0,0.0,5.0,1.0,10.0,16.0,7.0,1.0,11.0,198.0,87.0,107.0,,,,
26,27,,Mauretanien,,2.0,,,,,,,,,,,,0.0,,,,,,,2020-12-01,0.0,4.0,0.0,0.0,0.0,0.0,0.0,1.0,0.0,0.0,0.0,0.0,4.0,2.0,1.0,,,,
27,28,,Mauritius,,0.0,,,,,,,,,,,,0.0,,,,,,,2020-12-01,0.0,0.0,1.0,0.0,0.0,0.0,0.0,0.0,0.0,0.0,0.0,0.0,3.0,2.0,1.0,,,,
28,29,,Mosambik,,0.0,,,,,,,,,,,,0.0,,,,,,,2020-12-01,0.0,0.0,0.0,0.0,0.0,0.0,0.0,0.0,1.0,1.0,0.0,0.0,1.0,0.0,1.0,,,,
29,30,,Niger,,3.0,,,,,,,,,,,,0.0,,,,,,,2020-12-01,0.0,2.0,1.0,0.0,0.0,0.0,0.0,0.0,0.0,0.0,0.0,0.0,9.0,2.0,7.0,,,,
30,31,,Nigeria,,66.0,,,,,,,,,,,,39.0,,,,,,,2020-12-01,0.0,25.0,65.0,6.0,0.0,48.0,1.0,4.0,24.0,19.0,1.0,4.0,317.0,138.0,175.0,,,,
31,32,,Ruanda,,1.0,,,,,,,,,,,,1.0,,,,,,,2020-12-01,0.0,0.0,0.0,0.0,0.0,0.0,0.0,0.0,0.0,0.0,0.0,0.0,2.0,1.0,0.0,,,,
32,33,,Sambia,,0.0,,,,,,,,,,,,0.0,,,,,,,2020-12-01,0.0,0.0,0.0,0.0,0.0,0.0,0.0,0.0,0.0,0.0,0.0,0.0,0.0,0.0,1.0,,,,
33,34,,Senegal,,9.0,,,,,,,,,,,,5.0,,,,,,,2020-12-01,0.0,7.0,8.0,3.0,0.0,3.0,0.0,1.0,5.0,4.0,0.0,1.0,45.0,16.0,32.0,,,,
34,35,,Sierra Leone,,3.0,,,,,,,,,,,,2.0,,,,,,,2020-12-01,0.0,7.0,2.0,0.0,0.0,0.0,0.0,1.0,1.0,0.0,0.0,0.0,6.0,3.0,2.0,,,,
35,36,,Somalia,,49.0,,,,,,,,,,,,19.0,,,,,,,2020-12-01,1.0,34.0,20.0,0.0,5.0,12.0,0.0,1.0,17.0,20.0,0.0,5.0,75.0,39.0,32.0,,,,
36,37,,Sudan,,11.0,,,,,,,,,,,,11.0,,,,,,,2020-12-01,0.0,4.0,10.0,0.0,3.0,1.0,0.0,1.0,5.0,4.0,0.0,0.0,26.0,13.0,11.0,,,,
37,38,,Südsudan,,1.0,,,,,,,,,,,,0.0,,,,,,,2020-12-01,0.0,0.0,0.0,0.0,0.0,0.0,0.0,0.0,0.0,0.0,0.0,0.0,1.0,0.0,0.0,,,,
38,39,,Tansania,,2.0,,,,,,,,,,,,6.0,,,,,,,2020-12-01,0.0,1.0,3.0,1.0,0.0,1.0,0.0,0.0,2.0,2.0,0.0,0.0,2.0,1.0,0.0,,,,
39,40,,Togo,,8.0,,,,,,,,,,,,11.0,,,,,,,2020-12-01,0.0,5.0,8.0,0.0,0.0,8.0,0.0,0.0,0.0,0.0,0.0,0.0,3.0,2.0,0.0,,,,
40,41,,Tschad,,1.0,,,,,,,,,,,,0.0,,,,,,,2020-12-01,0.0,3.0,0.0,0.0,0.0,0.0,0.0,1.0,0.0,0.0,0.0,0.0,6.0,2.0,3.0,,,,
41,42,,Tunesien,,77.0,,,,,,,,,,,,51.0,,,,,,,2020-12-01,1.0,43.0,80.0,7.0,2.0,65.0,1.0,12.0,14.0,9.0,0.0,1.0,180.0,63.0,116.0,,,,
42,43,,Uganda,,4.0,,,,,,,,,,,,0.0,,,,,,,2020-12-01,0.0,4.0,0.0,0.0,0.0,0.0,0.0,0.0,1.0,1.0,0.0,0.0,2.0,1.0,0.0,,,,
43,44,,Westsahara,,2.0,,,,,,,,,,,,1.0,,,,,,,2020-12-01,0.0,0.0,0.0,0.0,0.0,0.0,0.0,0.0,0.0,0.0,0.0,0.0,5.0,1.0,4.0,,,,
44,45,,Zentralafr. Republik,,1.0,,,,,,,,,,,,0.0,,,,,,,2020-12-01,0.0,1.0,0.0,0.0,0.0,0.0,0.0,0.0,0.0,0.0,0.0,0.0,3.0,0.0,3.0,,,,
45,46,,Zimbabwe,,2.0,,,,,,,,,,,,2.0,,,,,,,2020-12-01,0.0,0.0,3.0,0.0,0.0,1.0,0.0,0.0,1.0,1.0,0.0,0.0,7.0,1.0,4.0,,,,
46,49,,Argentinien,,0.0,,,,,,,,,,,,0.0,,,,,,,2020-12-01,0.0,0.0,0.0,0.0,0.0,0.0,0.0,0.0,0.0,0.0,0.0,0.0,5.0,3.0,2.0,,,,
47,50,,Bolivien,,0.0,,,,,,,,,,,,0.0,,,,,,,2020-12-01,0.0,0.0,0.0,0.0,0.0,0.0,0.0,0.0,0.0,0.0,0.0,0.0,7.0,3.0,6.0,,,,
48,51,,Brasilien,,4.0,,,,,,,,,,,,3.0,,,,,,,2020-12-01,0.0,0.0,5.0,4.0,0.0,2.0,0.0,0.0,3.0,3.0,0.0,0.0,98.0,73.0,22.0,,,,
49,52,,Chile,,2.0,,,,,,,,,,,,2.0,,,,,,,2020-12-01,0.0,1.0,3.0,1.0,0.0,2.0,0.0,0.0,0.0,0.0,0.0,0.0,23.0,15.0,8.0,,,,
50,53,,Dominikanische Republik,,3.0,,,,,,,,,,,,2.0,,,,,,,2020-12-01,0.0,1.0,4.0,0.0,0.0,4.0,0.0,0.0,0.0,0.0,0.0,0.0,32.0,17.0,12.0,,,,
51,54,,Ecuador,,1.0,,,,,,,,,,,,2.0,,,,,,,2020-12-01,0.0,0.0,0.0,0.0,0.0,0.0,0.0,0.0,0.0,0.0,0.0,0.0,7.0,4.0,3.0,,,,
52,55,,El Salvador,,0.0,,,,,,,,,,,,0.0,,,,,,,2020-12-01,0.0,0.0,14.0,14.0,0.0,0.0,0.0,0.0,6.0,3.0,0.0,0.0,15.0,3.0,9.0,,,,
53,56,,Haiti,,0.0,,,,,,,,,,,,0.0,,,,,,,2020-12-01,0.0,0.0,2.0,2.0,0.0,0.0,0.0,0.0,0.0,0.0,0.0,0.0,3.0,3.0,0.0,,,,
54,57,,Honduras,,1.0,,,,,,,,,,,,1.0,,,,,,,2020-12-01,0.0,0.0,1.0,0.0,0.0,0.0,0.0,1.0,0.0,0.0,0.0,0.0,1.0,1.0,1.0,,,,
55,58,,Jamaika,,1.0,,,,,,,,,,,,1.0,,,,,,,2020-12-01,0.0,3.0,0.0,0.0,0.0,0.0,0.0,0.0,1.0,0.0,0.0,1.0,3.0,3.0,2.0,,,,
56,59,,Kanada,,2.0,,,,,,,,,,,,1.0,,,,,,,2020-12-01,0.0,1.0,1.0,0.0,0.0,1.0,0.0,0.0,0.0,0.0,0.0,0.0,12.0,7.0,5.0,,,,
57,60,,Kolumbien,,2.0,,,,,,,,,,,,1.0,,,,,,,2020-12-01,0.0,0.0,30.0,29.0,0.0,0.0,0.0,1.0,18.0,14.0,0.0,0.0,64.0,47.0,18.0,,,,
58,61,,Kuba,,1.0,,,,,,,,,,,,1.0,,,,,,,2020-12-01,0.0,1.0,1.0,0.0,0.0,0.0,0.0,0.0,0.0,0.0,0.0,0.0,0.0,0.0,0.0,,,,
59,62,,Mexiko,,1.0,,,,,,,,,,,,1.0,,,,,,,2020-12-01,0.0,0.0,2.0,1.0,0.0,0.0,0.0,0.0,0.0,0.0,0.0,0.0,7.0,3.0,4.0,,,,
60,63,,Nicaragua,,0.0,,,,,,,,,,,,0.0,,,,,,,2020-12-01,0.0,0.0,1.0,1.0,0.0,0.0,0.0,0.0,0.0,0.0,0.0,0.0,1.0,0.0,1.0,,,,
61,64,,Paraguay,,0.0,,,,,,,,,,,,0.0,,,,,,,2020-12-01,0.0,0.0,0.0,0.0,0.0,0.0,0.0,0.0,0.0,0.0,0.0,0.0,4.0,4.0,0.0,,,,
62,65,,Peru,,1.0,,,,,,,,,,,,0.0,,,,,,,2020-12-01,0.0,0.0,0.0,0.0,0.0,0.0,0.0,0.0,0.0,0.0,0.0,0.0,7.0,5.0,1.0,,,,
63,66,,Uruguay,,0.0,,,,,,,,,,,,0.0,,,,,,,2020-12-01,0.0,0.0,1.0,0.0,0.0,1.0,0.0,0.0,0.0,0.0,0.0,0.0,0.0,1.0,0.0,,,,
64,67,,USA,,1.0,,,,,,,,,,,,1.0,,,,,,,2020-12-01,0.0,0.0,1.0,1.0,0.0,0.0,0.0,0.0,0.0,0.0,0.0,0.0,10.0,8.0,3.0,,,,
65,68,,Venezuela,,9.0,,,,,,,,,,,,6.0,,,,,,,2020-12-01,0.0,1.0,8.0,4.0,0.0,2.0,0.0,5.0,7.0,4.0,0.0,2.0,20.0,7.0,11.0,,,,
66,71,,Afghanistan,,74.0,,,,,,,,,,,,30.0,,,,,,,2020-12-01,0.0,45.0,34.0,7.0,0.0,19.0,1.0,20.0,22.0,17.0,0.0,4.0,183.0,67.0,119.0,,,,
67,72,,Armenien,,12.0,,,,,,,,,,,,6.0,,,,,,,2020-12-01,1.0,0.0,28.0,7.0,3.0,10.0,0.0,9.0,11.0,11.0,0.0,1.0,26.0,15.0,12.0,,,,
68,73,,Aserbaidschan,,2.0,,,,,,,,,,,,5.0,,,,,,,2020-12-01,0.0,0.0,4.0,0.0,2.0,2.0,0.0,0.0,4.0,4.0,0.0,0.0,6.0,6.0,0.0,,,,
69,74,,Bangladesh,,2.0,,,,,,,,,,,,1.0,,,,,,,2020-12-01,0.0,0.0,1.0,1.0,1.0,0.0,0.0,2.0,2.0,1.0,0.0,0.0,7.0,6.0,1.0,,,,
70,75,,Bhutan,,4.0,,,,,,,,,,,,0.0,,,,,,,2020-12-01,0.0,4.0,0.0,0.0,0.0,0.0,0.0,0.0,0.0,0.0,0.0,0.0,0.0,0.0,0.0,,,,
71,76,,China (Volksrepublik),,41.0,,,,,,,,,,,,5.0,,,,,,,2020-12-01,0.0,56.0,8.0,2.0,0.0,2.0,0.0,3.0,3.0,1.0,0.0,1.0,32.0,17.0,15.0,,,,
72,77,,Georgien,,118.0,,,,,,,,,,,,109.0,,,,,,,2020-12-01,0.0,3.0,278.0,131.0,8.0,142.0,0.0,1.0,142.0,107.0,20.0,6.0,510.0,262.0,229.0,,,,
73,78,,Indien,,5.0,,,,,,,,,,,,6.0,,,,,,,2020-12-01,0.0,2.0,3.0,0.0,0.0,2.0,0.0,1.0,2.0,2.0,0.0,0.0,18.0,11.0,7.0,,,,
74,79,,Irak,,197.0,,,,,,,,,,,,29.0,,,,,,,2020-12-01,0.0,103.0,49.0,16.0,10.0,17.0,0.0,5.0,47.0,38.0,1.0,5.0,203.0,95.0,122.0,,,,
75,80,,Iran,,183.0,,,,,,,,,,,,15.0,,,,,,,2020-12-01,0.0,131.0,17.0,7.0,1.0,8.0,0.0,9.0,13.0,10.0,1.0,1.0,66.0,31.0,39.0,,,,
76,81,,Israel,,0.0,,,,,,,,,,,,0.0,,,,,,,2020-12-01,0.0,1.0,1.0,1.0,0.0,0.0,0.0,0.0,0.0,0.0,0.0,0.0,6.0,3.0,2.0,,,,
77,82,,Japan,,0.0,,,,,,,,,,,,0.0,,,,,,,2020-12-01,0.0,0.0,1.0,1.0,0.0,0.0,0.0,0.0,0.0,0.0,0.0,0.0,2.0,1.0,1.0,,,,
78,83,,Jemen,,0.0,,,,,,,,,,,,0.0,,,,,,,2020-12-01,0.0,0.0,0.0,0.0,0.0,0.0,0.0,0.0,1.0,1.0,0.0,0.0,0.0,1.0,0.0,,,,
79,84,,Jordanien,,1.0,,,,,,,,,,,,1.0,,,,,,,2020-12-01,0.0,0.0,0.0,0.0,0.0,0.0,0.0,0.0,0.0,0.0,0.0,0.0,2.0,2.0,0.0,,,,
80,85,,Kambodscha,,1.0,,,,,,,,,,,,0.0,,,,,,,2020-12-01,0.0,0.0,0.0,0.0,0.0,0.0,0.0,0.0,0.0,0.0,0.0,0.0,0.0,0.0,0.0,,,,
81,86,,Kasachstan,,1.0,,,,,,,,,,,,1.0,,,,,,,2020-12-01,0.0,0.0,1.0,0.0,0.0,1.0,0.0,0.0,0.0,0.0,0.0,0.0,2.0,1.0,6.0,,,,
82,87,,Korea (Süd),,0.0,,,,,,,,,,,,0.0,,,,,,,2020-12-01,0.0,0.0,2.0,2.0,0.0,0.0,0.0,0.0,1.0,1.0,0.0,0.0,2.0,1.0,4.0,,,,
83,88,,Libanon,,3.0,,,,,,,,,,,,2.0,,,,,,,2020-12-01,0.0,0.0,1.0,0.0,0.0,2.0,0.0,1.0,1.0,1.0,0.0,0.0,8.0,4.0,4.0,,,,
84,89,,Malaysia,,0.0,,,,,,,,,,,,0.0,,,,,,,2020-12-01,0.0,0.0,0.0,0.0,0.0,0.0,0.0,0.0,2.0,2.0,0.0,0.0,2.0,2.0,0.0,,,,
85,90,,Mongolei,,4.0,,,,,,,,,,,,4.0,,,,,,,2020-12-01,0.0,4.0,19.0,5.0,0.0,11.0,0.0,0.0,4.0,0.0,4.0,0.0,14.0,7.0,7.0,,,,
86,91,,Myanmar,,0.0,,,,,,,,,,,,0.0,,,,,,,2020-12-01,0.0,0.0,0.0,0.0,0.0,0.0,0.0,0.0,0.0,0.0,0.0,0.0,5.0,1.0,4.0,,,,
87,92,,Nepal,,3.0,,,,,,,,,,,,1.0,,,,,,,2020-12-01,0.0,3.0,4.0,3.0,0.0,2.0,0.0,0.0,1.0,1.0,0.0,0.0,7.0,4.0,3.0,,,,
88,93,,Oman,,0.0,,,,,,,,,,,,0.0,,,,,,,2020-12-01,0.0,0.0,0.0,0.0,0.0,0.0,0.0,0.0,0.0,0.0,0.0,0.0,1.0,1.0,0.0,,,,
89,94,,Pakistan,,39.0,,,,,,,,,,,,17.0,,,,,,,2020-12-01,0.0,28.0,19.0,5.0,0.0,9.0,0.0,2.0,8.0,5.0,0.0,4.0,46.0,18.0,29.0,,,,
90,95,,Philippinen,,0.0,,,,,,,,,,,,0.0,,,,,,,2020-12-01,0.0,0.0,0.0,0.0,0.0,0.0,0.0,0.0,0.0,0.0,0.0,0.0,8.0,6.0,2.0,,,,
91,96,,Saudi-Arabien,,0.0,,,,,,,,,,,,0.0,,,,,,,2020-12-01,0.0,0.0,0.0,0.0,0.0,0.0,0.0,0.0,0.0,0.0,0.0,0.0,1.0,0.0,1.0,,,,
92,97,,Sri Lanka,,317.0,,,,,,,,,,,,178.0,,,,,,,2020-12-01,0.0,85.0,238.0,6.0,0.0,25.0,4.0,31.0,9.0,6.0,0.0,3.0,71.0,22.0,63.0,,,,
93,98,,Syrien,,10.0,,,,,,,,,,,,0.0,,,,,,,2020-12-01,0.0,3.0,5.0,4.0,0.0,0.0,0.0,1.0,11.0,14.0,0.0,0.0,57.0,21.0,42.0,,,,
94,99,,Thailand,,1.0,,,,,,,,,,,,1.0,,,,,,,2020-12-01,0.0,0.0,2.0,1.0,0.0,1.0,0.0,1.0,0.0,0.0,0.0,0.0,10.0,5.0,4.0,,,,
95,100,,Usbekistan,,0.0,,,,,,,,,,,,0.0,,,,,,,2020-12-01,0.0,4.0,0.0,0.0,0.0,0.0,0.0,0.0,0.0,0.0,0.0,0.0,0.0,0.0,0.0,,,,
96,101,,Vietnam,,1.0,,,,,,,,,,,,0.0,,,,,,,2020-12-01,0.0,0.0,1.0,1.0,0.0,0.0,0.0,0.0,1.0,0.0,0.0,1.0,7.0,4.0,3.0,,,,
97,104,,Albanien,,47.0,,,,,,,,,,,,48.0,,,,,,,2020-12-01,0.0,1.0,74.0,26.0,0.0,45.0,2.0,1.0,16.0,16.0,0.0,2.0,586.0,440.0,159.0,,,,
98,105,,Belarus,,7.0,,,,,,,,,,,,5.0,,,,,,,2020-12-01,0.0,2.0,27.0,12.0,3.0,11.0,0.0,0.0,14.0,13.0,0.0,1.0,43.0,24.0,16.0,,,,
99,106,,Belgien,,0.0,,,,,,,,,,,,0.0,,,,,,,2020-12-01,0.0,0.0,0.0,0.0,0.0,0.0,0.0,0.0,0.0,0.0,0.0,0.0,8.0,5.0,3.0,,,,
100,107,,Bosnien u. Herzegowina,,17.0,,,,,,,,,,,,14.0,,,,,,,2020-12-01,0.0,4.0,11.0,2.0,0.0,8.0,1.0,1.0,4.0,3.0,0.0,0.0,38.0,28.0,12.0,,,,
101,108,,Bulgarien,,1.0,,,,,,,,,,,,1.0,,,,,,,2020-12-01,0.0,0.0,1.0,0.0,0.0,1.0,0.0,0.0,1.0,1.0,0.0,0.0,25.0,14.0,8.0,,,,
102,109,,Deutschland,,0.0,,,,,,,,,,,,0.0,,,,,,,2020-12-01,0.0,0.0,1.0,1.0,0.0,0.0,0.0,0.0,0.0,0.0,0.0,0.0,2.0,1.0,0.0,,,,
103,110,,Estland,,0.0,,,,,,,,,,,,0.0,,,,,,,2020-12-01,0.0,0.0,0.0,0.0,0.0,0.0,0.0,0.0,0.0,0.0,0.0,0.0,4.0,2.0,2.0,,,,
104,111,,Frankreich,,3.0,,,,,,,,,,,,1.0,,,,,,,2020-12-01,0.0,0.0,3.0,2.0,0.0,1.0,0.0,0.0,3.0,1.0,0.0,0.0,15.0,7.0,7.0,,,,
105,112,,Griechenland,,0.0,,,,,,,,,,,,0.0,,,,,,,2020-12-01,0.0,0.0,0.0,0.0,0.0,0.0,0.0,0.0,0.0,0.0,0.0,0.0,7.0,4.0,3.0,,,,
106,113,,Grossbritannien,,1.0,,,,,,,,,,,,1.0,,,,,,,2020-12-01,0.0,0.0,2.0,1.0,0.0,0.0,0.0,1.0,0.0,0.0,0.0,0.0,7.0,6.0,1.0,,,,
107,114,,Irland,,0.0,,,,,,,,,,,,0.0,,,,,,,2020-12-01,0.0,0.0,0.0,0.0,0.0,0.0,0.0,0.0,0.0,0.0,0.0,0.0,1.0,1.0,0.0,,,,
108,115,,Italien,,0.0,,,,,,,,,,,,0.0,,,,,,,2020-12-01,0.0,1.0,3.0,2.0,0.0,1.0,0.0,0.0,0.0,0.0,0.0,0.0,34.0,20.0,15.0,,,,
109,116,,Kosovo,,57.0,,,,,,,,,,,,51.0,,,,,,,2020-12-01,0.0,11.0,85.0,22.0,3.0,61.0,0.0,0.0,16.0,12.0,0.0,3.0,257.0,171.0,101.0,,,,
110,117,,Kroatien,,0.0,,,,,,,,,,,,0.0,,,,,,,2020-12-01,0.0,1.0,2.0,2.0,0.0,0.0,0.0,0.0,1.0,1.0,0.0,0.0,18.0,14.0,5.0,,,,
111,118,,Lettland,,0.0,,,,,,,,,,,,0.0,,,,,,,2020-12-01,0.0,0.0,0.0,0.0,0.0,0.0,0.0,0.0,0.0,0.0,0.0,0.0,4.0,2.0,2.0,,,,
112,119,,Litauen,,0.0,,,,,,,,,,,,1.0,,,,,,,2020-12-01,0.0,0.0,3.0,2.0,0.0,1.0,0.0,0.0,0.0,0.0,0.0,0.0,20.0,15.0,6.0,,,,
113,120,,Nordmazedonien,,22.0,,,,,,,,,,,,23.0,,,,,,,2020-12-01,1.0,1.0,29.0,8.0,1.0,18.0,0.0,1.0,13.0,12.0,0.0,0.0,114.0,77.0,32.0,,,,
114,121,,Moldova,,9.0,,,,,,,,,,,,9.0,,,,,,,2020-12-01,0.0,3.0,27.0,17.0,4.0,6.0,0.0,0.0,34.0,33.0,0.0,0.0,61.0,50.0,16.0,,,,
115,122,,Montenegro,,1.0,,,,,,,,,,,,1.0,,,,,,,2020-12-01,0.0,1.0,0.0,0.0,0.0,0.0,0.0,0.0,0.0,0.0,0.0,0.0,6.0,5.0,1.0,,,,
116,123,,Niederlande,,0.0,,,,,,,,,,,,0.0,,,,,,,2020-12-01,0.0,0.0,0.0,0.0,0.0,1.0,0.0,0.0,1.0,1.0,0.0,0.0,9.0,9.0,1.0,,,,
117,124,,Österreich,,0.0,,,,,,,,,,,,0.0,,,,,,,2020-12-01,0.0,0.0,0.0,0.0,0.0,0.0,0.0,0.0,0.0,0.0,0.0,0.0,1.0,1.0,0.0,,,,
118,125,,Polen,,0.0,,,,,,,,,,,,0.0,,,,,,,2020-12-01,0.0,0.0,0.0,0.0,0.0,0.0,0.0,0.0,0.0,0.0,0.0,0.0,34.0,21.0,13.0,,,,
119,126,,Portugal,,1.0,,,,,,,,,,,,1.0,,,,,,,2020-12-01,0.0,1.0,0.0,0.0,0.0,0.0,0.0,0.0,0.0,0.0,0.0,0.0,84.0,66.0,20.0,,,,
120,127,,Rumänien,,0.0,,,,,,,,,,,,0.0,,,,,,,2020-12-01,0.0,0.0,1.0,1.0,1.0,0.0,1.0,0.0,9.0,9.0,0.0,1.0,320.0,234.0,92.0,,,,
121,128,,Russland,,34.0,,,,,,,,,,,,26.0,,,,,,,2020-12-01,9.0,5.0,17.0,8.0,1.0,7.0,0.0,2.0,13.0,13.0,0.0,0.0,88.0,35.0,51.0,,,,
122,129,,Serbien,,54.0,,,,,,,,,,,,42.0,,,,,,,2020-12-01,1.0,6.0,46.0,11.0,1.0,38.0,0.0,2.0,9.0,6.0,1.0,1.0,260.0,173.0,85.0,,,,
123,130,,Slowakische Republik,,0.0,,,,,,,,,,,,0.0,,,,,,,2020-12-01,0.0,0.0,1.0,1.0,0.0,0.0,0.0,0.0,0.0,0.0,0.0,0.0,19.0,7.0,11.0,,,,
124,131,,Slowenien,,0.0,,,,,,,,,,,,0.0,,,,,,,2020-12-01,0.0,0.0,0.0,0.0,0.0,0.0,0.0,0.0,0.0,0.0,0.0,0.0,2.0,1.0,1.0,,,,
125,132,,Spanien,,2.0,,,,,,,,,,,,0.0,,,,,,,2020-12-01,0.0,0.0,2.0,3.0,0.0,0.0,0.0,0.0,2.0,2.0,0.0,0.0,23.0,26.0,1.0,,,,
126,133,,Tschechische Republik,,0.0,,,,,,,,,,,,0.0,,,,,,,2020-12-01,0.0,0.0,4.0,4.0,0.0,0.0,0.0,0.0,0.0,0.0,0.0,0.0,10.0,10.0,0.0,,,,
127,134,,Türkei,,58.0,,,,,,,,,,,,18.0,,,,,,,2020-12-01,0.0,23.0,67.0,45.0,1.0,13.0,0.0,1.0,15.0,13.0,1.0,0.0,133.0,75.0,62.0,,,,
128,135,,Ukraine,,7.0,,,,,,,,,,,,7.0,,,,,,,2020-12-01,1.0,0.0,25.0,14.0,0.0,6.0,0.0,0.0,6.0,4.0,0.0,0.0,52.0,36.0,17.0,,,,
129,136,,Ungarn,,0.0,,,,,,,,,,,,0.0,,,,,,,2020-12-01,0.0,0.0,0.0,0.0,0.0,0.0,0.0,0.0,1.0,1.0,0.0,0.0,15.0,9.0,6.0,,,,
130,139,,Australien,,1.0,,,,,,,,,,,,1.0,,,,,,,2020-12-01,0.0,0.0,1.0,0.0,0.0,1.0,0.0,0.0,0.0,0.0,0.0,0.0,1.0,1.0,0.0,,,,
131,142,,Staatenlos,,0.0,,,,,,,,,,,,0.0,,,,,,,2020-12-01,0.0,0.0,0.0,0.0,0.0,0.0,0.0,0.0,0.0,0.0,0.0,0.0,1.0,1.0,0.0,,,,
132,143,,Ohne Nationalität,,13.0,,,,,,,,,,,,3.0,,,,,,,2020-12-01,0.0,8.0,2.0,0.0,0.0,2.0,0.0,2.0,1.0,0.0,0.0,2.0,15.0,5.0,6.0,,,,
133,144,,Staat unbekannt,,68.0,,,,,,,,,,,,9.0,,,,,,,2020-12-01,1.0,77.0,10.0,2.0,0.0,3.0,0.0,4.0,3.0,3.0,0.0,0.0,31.0,16.0,13.0,,,,
