,Nation,BeginnIdentitätsabklärung,Identitätsabklärungpositiv,Identitätsabklärungnegativ,AbschreibungIdentitätsabklärung,BeginnPapierbeschaffung,Papierevorhanden,Papiereselbstbeschafft,Papierebeschafft,Papierenichtbeschafft,Abschreibung Papierbeschaffung,GesucheRückkehrhilfe,Rückkehrhilfebewilligt(inkl. teilweise),Rückkehrhilfe abgelehnt,Abschreibung Gesuch,BeginnAusreiseorganisation,AbschlussAusreiseorganisation,AbschreibungAusreiseorganisation,Datum,file_name,name_of_sem_statistics,name_of_sem_code,flow_or_stock,yearly_or_monthly
1,Ägypten,7.0,3.0,6.0,1.0,10.0,4.0,2.0,3.0,1.0,0.0,4.0,3.0,0.0,0.0,36.0,16.0,18.0,2019-12-01,7-80-Bew-RU-Total-J-d-2020-12.xlsx,7-80-Bew-RU-Total-J,7-80-RU,flow,yearly
2,Algerien,328.0,139.0,121.0,7.0,368.0,12.0,27.0,253.0,7.0,36.0,92.0,82.0,1.0,7.0,752.0,370.0,384.0,2019-12-01,7-80-Bew-RU-Total-J-d-2020-12.xlsx,7-80-Bew-RU-Total-J,7-80-RU,flow,yearly
3,Angola,9.0,4.0,7.0,0.0,5.0,2.0,0.0,3.0,0.0,0.0,1.0,0.0,0.0,0.0,58.0,32.0,33.0,2019-12-01,7-80-Bew-RU-Total-J-d-2020-12.xlsx,7-80-Bew-RU-Total-J,7-80-RU,flow,yearly
4,Äquatorialguinea,0.0,0.0,1.0,0.0,0.0,0.0,0.0,0.0,0.0,0.0,0.0,0.0,0.0,0.0,2.0,1.0,1.0,2019-12-01,7-80-Bew-RU-Total-J-d-2020-12.xlsx,7-80-Bew-RU-Total-J,7-80-RU,flow,yearly
5,Äthiopien,128.0,18.0,91.0,0.0,28.0,8.0,5.0,13.0,2.0,7.0,23.0,23.0,0.0,1.0,83.0,48.0,40.0,2019-12-01,7-80-Bew-RU-Total-J-d-2020-12.xlsx,7-80-Bew-RU-Total-J,7-80-RU,flow,yearly
6,Benin,4.0,1.0,1.0,0.0,4.0,0.0,0.0,3.0,0.0,0.0,0.0,0.0,0.0,0.0,9.0,2.0,6.0,2019-12-01,7-80-Bew-RU-Total-J-d-2020-12.xlsx,7-80-Bew-RU-Total-J,7-80-RU,flow,yearly
7,Burkina Faso,8.0,4.0,4.0,0.0,5.0,1.0,0.0,2.0,0.0,1.0,1.0,1.0,0.0,0.0,21.0,5.0,11.0,2019-12-01,7-80-Bew-RU-Total-J-d-2020-12.xlsx,7-80-Bew-RU-Total-J,7-80-RU,flow,yearly
8,Burundi,1.0,0.0,0.0,0.0,0.0,0.0,0.0,0.0,0.0,1.0,0.0,0.0,0.0,0.0,1.0,0.0,1.0,2019-12-01,7-80-Bew-RU-Total-J-d-2020-12.xlsx,7-80-Bew-RU-Total-J,7-80-RU,flow,yearly
9,Côte d'Ivoire,15.0,4.0,11.0,0.0,6.0,0.0,1.0,2.0,0.0,1.0,2.0,2.0,0.0,0.0,27.0,16.0,11.0,2019-12-01,7-80-Bew-RU-Total-J-d-2020-12.xlsx,7-80-Bew-RU-Total-J,7-80-RU,flow,yearly
10,Dschibuti,1.0,0.0,1.0,0.0,0.0,0.0,0.0,0.0,0.0,0.0,0.0,0.0,0.0,0.0,1.0,1.0,0.0,2019-12-01,7-80-Bew-RU-Total-J-d-2020-12.xlsx,7-80-Bew-RU-Total-J,7-80-RU,flow,yearly
11,Eritrea,430.0,19.0,260.0,1.0,21.0,6.0,5.0,4.0,1.0,16.0,26.0,19.0,0.0,1.0,79.0,48.0,24.0,2019-12-01,7-80-Bew-RU-Total-J-d-2020-12.xlsx,7-80-Bew-RU-Total-J,7-80-RU,flow,yearly
12,Gabun,1.0,0.0,0.0,0.0,0.0,0.0,0.0,0.0,0.0,0.0,0.0,0.0,0.0,0.0,4.0,1.0,1.0,2019-12-01,7-80-Bew-RU-Total-J-d-2020-12.xlsx,7-80-Bew-RU-Total-J,7-80-RU,flow,yearly
13,Gambia,20.0,14.0,13.0,0.0,30.0,4.0,4.0,27.0,1.0,2.0,29.0,24.0,0.0,1.0,187.0,130.0,54.0,2019-12-01,7-80-Bew-RU-Total-J-d-2020-12.xlsx,7-80-Bew-RU-Total-J,7-80-RU,flow,yearly
14,Ghana,5.0,1.0,3.0,0.0,9.0,3.0,0.0,1.0,0.0,1.0,3.0,3.0,0.0,0.0,32.0,17.0,16.0,2019-12-01,7-80-Bew-RU-Total-J-d-2020-12.xlsx,7-80-Bew-RU-Total-J,7-80-RU,flow,yearly
15,Guinea,87.0,55.0,43.0,0.0,77.0,0.0,0.0,60.0,2.0,7.0,10.0,5.0,0.0,1.0,215.0,147.0,61.0,2019-12-01,7-80-Bew-RU-Total-J-d-2020-12.xlsx,7-80-Bew-RU-Total-J,7-80-RU,flow,yearly
16,Guinea-Bissau,8.0,10.0,2.0,0.0,7.0,0.0,1.0,7.0,1.0,1.0,6.0,5.0,0.0,0.0,49.0,31.0,13.0,2019-12-01,7-80-Bew-RU-Total-J-d-2020-12.xlsx,7-80-Bew-RU-Total-J,7-80-RU,flow,yearly
17,Kamerun,20.0,22.0,11.0,1.0,24.0,0.0,0.0,22.0,0.0,0.0,2.0,1.0,0.0,0.0,49.0,24.0,22.0,2019-12-01,7-80-Bew-RU-Total-J-d-2020-12.xlsx,7-80-Bew-RU-Total-J,7-80-RU,flow,yearly
18,Kapverden,2.0,3.0,0.0,0.0,3.0,0.0,2.0,1.0,0.0,0.0,0.0,0.0,0.0,0.0,2.0,1.0,2.0,2019-12-01,7-80-Bew-RU-Total-J-d-2020-12.xlsx,7-80-Bew-RU-Total-J,7-80-RU,flow,yearly
19,Kenia,2.0,2.0,1.0,0.0,1.0,0.0,0.0,0.0,0.0,0.0,1.0,1.0,0.0,0.0,7.0,5.0,2.0,2019-12-01,7-80-Bew-RU-Total-J-d-2020-12.xlsx,7-80-Bew-RU-Total-J,7-80-RU,flow,yearly
20,Kongo,1.0,0.0,0.0,0.0,1.0,1.0,0.0,0.0,0.0,0.0,0.0,0.0,0.0,0.0,0.0,0.0,0.0,2019-12-01,7-80-Bew-RU-Total-J-d-2020-12.xlsx,7-80-Bew-RU-Total-J,7-80-RU,flow,yearly
21,Kongo DR,26.0,19.0,16.0,2.0,21.0,1.0,0.0,13.0,1.0,1.0,2.0,1.0,0.0,0.0,37.0,18.0,20.0,2019-12-01,7-80-Bew-RU-Total-J-d-2020-12.xlsx,7-80-Bew-RU-Total-J,7-80-RU,flow,yearly
22,Liberia,1.0,0.0,1.0,0.0,4.0,1.0,0.0,0.0,0.0,0.0,1.0,1.0,0.0,0.0,5.0,2.0,2.0,2019-12-01,7-80-Bew-RU-Total-J-d-2020-12.xlsx,7-80-Bew-RU-Total-J,7-80-RU,flow,yearly
23,Libyen,25.0,5.0,10.0,0.0,6.0,1.0,1.0,2.0,0.0,2.0,11.0,10.0,0.0,0.0,65.0,39.0,22.0,2019-12-01,7-80-Bew-RU-Total-J-d-2020-12.xlsx,7-80-Bew-RU-Total-J,7-80-RU,flow,yearly
24,Malawi,0.0,1.0,0.0,0.0,0.0,0.0,0.0,0.0,0.0,0.0,0.0,0.0,0.0,0.0,0.0,0.0,0.0,2019-12-01,7-80-Bew-RU-Total-J-d-2020-12.xlsx,7-80-Bew-RU-Total-J,7-80-RU,flow,yearly
25,Mali,14.0,5.0,5.0,0.0,8.0,0.0,1.0,6.0,0.0,1.0,6.0,6.0,0.0,0.0,44.0,34.0,10.0,2019-12-01,7-80-Bew-RU-Total-J-d-2020-12.xlsx,7-80-Bew-RU-Total-J,7-80-RU,flow,yearly
26,Marokko,138.0,43.0,98.0,2.0,61.0,7.0,1.0,44.0,1.0,12.0,10.0,5.0,0.0,4.0,302.0,190.0,121.0,2019-12-01,7-80-Bew-RU-Total-J-d-2020-12.xlsx,7-80-Bew-RU-Total-J,7-80-RU,flow,yearly
27,Mauretanien,5.0,0.0,3.0,0.0,1.0,0.0,0.0,0.0,0.0,0.0,0.0,0.0,0.0,0.0,5.0,3.0,3.0,2019-12-01,7-80-Bew-RU-Total-J-d-2020-12.xlsx,7-80-Bew-RU-Total-J,7-80-RU,flow,yearly
28,Mauritius,2.0,2.0,1.0,0.0,3.0,2.0,0.0,1.0,0.0,0.0,0.0,0.0,0.0,0.0,5.0,4.0,1.0,2019-12-01,7-80-Bew-RU-Total-J-d-2020-12.xlsx,7-80-Bew-RU-Total-J,7-80-RU,flow,yearly
29,Niger,3.0,3.0,2.0,0.0,1.0,0.0,0.0,1.0,0.0,0.0,0.0,0.0,0.0,0.0,7.0,5.0,2.0,2019-12-01,7-80-Bew-RU-Total-J-d-2020-12.xlsx,7-80-Bew-RU-Total-J,7-80-RU,flow,yearly
30,Nigeria,84.0,72.0,16.0,0.0,100.0,8.0,3.0,71.0,0.0,9.0,30.0,26.0,0.0,0.0,487.0,371.0,130.0,2019-12-01,7-80-Bew-RU-Total-J-d-2020-12.xlsx,7-80-Bew-RU-Total-J,7-80-RU,flow,yearly
31,Ruanda,3.0,0.0,3.0,0.0,0.0,0.0,0.0,0.0,0.0,0.0,0.0,0.0,0.0,0.0,1.0,1.0,0.0,2019-12-01,7-80-Bew-RU-Total-J-d-2020-12.xlsx,7-80-Bew-RU-Total-J,7-80-RU,flow,yearly
32,Sambia,0.0,0.0,0.0,0.0,1.0,1.0,0.0,0.0,0.0,0.0,0.0,0.0,0.0,0.0,1.0,0.0,1.0,2019-12-01,7-80-Bew-RU-Total-J-d-2020-12.xlsx,7-80-Bew-RU-Total-J,7-80-RU,flow,yearly
33,Senegal,20.0,20.0,8.0,0.0,21.0,4.0,2.0,15.0,1.0,0.0,6.0,7.0,0.0,0.0,69.0,51.0,21.0,2019-12-01,7-80-Bew-RU-Total-J-d-2020-12.xlsx,7-80-Bew-RU-Total-J,7-80-RU,flow,yearly
34,Sierra Leone,6.0,0.0,3.0,0.0,2.0,1.0,0.0,0.0,0.0,0.0,0.0,0.0,0.0,0.0,8.0,5.0,2.0,2019-12-01,7-80-Bew-RU-Total-J-d-2020-12.xlsx,7-80-Bew-RU-Total-J,7-80-RU,flow,yearly
35,Somalia,47.0,11.0,26.0,0.0,16.0,2.0,3.0,7.0,0.0,1.0,29.0,16.0,1.0,4.0,94.0,51.0,46.0,2019-12-01,7-80-Bew-RU-Total-J-d-2020-12.xlsx,7-80-Bew-RU-Total-J,7-80-RU,flow,yearly
36,Südafrika,0.0,0.0,0.0,0.0,1.0,1.0,0.0,0.0,0.0,0.0,1.0,1.0,0.0,0.0,6.0,6.0,0.0,2019-12-01,7-80-Bew-RU-Total-J-d-2020-12.xlsx,7-80-Bew-RU-Total-J,7-80-RU,flow,yearly
37,Sudan,13.0,11.0,3.0,0.0,15.0,1.0,2.0,10.0,1.0,0.0,6.0,4.0,0.0,1.0,31.0,25.0,12.0,2019-12-01,7-80-Bew-RU-Total-J-d-2020-12.xlsx,7-80-Bew-RU-Total-J,7-80-RU,flow,yearly
38,Südsudan,2.0,1.0,1.0,0.0,0.0,0.0,0.0,0.0,0.0,0.0,0.0,0.0,0.0,0.0,2.0,0.0,3.0,2019-12-01,7-80-Bew-RU-Total-J-d-2020-12.xlsx,7-80-Bew-RU-Total-J,7-80-RU,flow,yearly
39,Tansania,2.0,0.0,0.0,0.0,0.0,0.0,0.0,1.0,0.0,0.0,8.0,4.0,0.0,0.0,11.0,7.0,4.0,2019-12-01,7-80-Bew-RU-Total-J-d-2020-12.xlsx,7-80-Bew-RU-Total-J,7-80-RU,flow,yearly
40,Togo,5.0,4.0,1.0,0.0,1.0,0.0,1.0,0.0,0.0,0.0,1.0,0.0,0.0,1.0,10.0,3.0,8.0,2019-12-01,7-80-Bew-RU-Total-J-d-2020-12.xlsx,7-80-Bew-RU-Total-J,7-80-RU,flow,yearly
41,Tschad,4.0,0.0,3.0,0.0,1.0,1.0,0.0,0.0,0.0,0.0,0.0,0.0,0.0,0.0,4.0,2.0,1.0,2019-12-01,7-80-Bew-RU-Total-J-d-2020-12.xlsx,7-80-Bew-RU-Total-J,7-80-RU,flow,yearly
42,Tunesien,86.0,90.0,22.0,0.0,83.0,7.0,1.0,63.0,0.0,3.0,14.0,9.0,5.0,1.0,219.0,116.0,99.0,2019-12-01,7-80-Bew-RU-Total-J-d-2020-12.xlsx,7-80-Bew-RU-Total-J,7-80-RU,flow,yearly
43,Uganda,1.0,2.0,0.0,0.0,1.0,1.0,0.0,0.0,0.0,0.0,1.0,1.0,0.0,0.0,4.0,2.0,2.0,2019-12-01,7-80-Bew-RU-Total-J-d-2020-12.xlsx,7-80-Bew-RU-Total-J,7-80-RU,flow,yearly
44,Westsahara,1.0,0.0,0.0,0.0,0.0,0.0,0.0,0.0,0.0,0.0,0.0,0.0,0.0,0.0,2.0,0.0,1.0,2019-12-01,7-80-Bew-RU-Total-J-d-2020-12.xlsx,7-80-Bew-RU-Total-J,7-80-RU,flow,yearly
45,Zentralafr. Republik,0.0,0.0,0.0,0.0,0.0,0.0,0.0,0.0,0.0,0.0,0.0,0.0,0.0,0.0,4.0,1.0,3.0,2019-12-01,7-80-Bew-RU-Total-J-d-2020-12.xlsx,7-80-Bew-RU-Total-J,7-80-RU,flow,yearly
46,Zimbabwe,2.0,0.0,0.0,0.0,2.0,2.0,0.0,0.0,0.0,0.0,1.0,1.0,0.0,0.0,3.0,1.0,1.0,2019-12-01,7-80-Bew-RU-Total-J-d-2020-12.xlsx,7-80-Bew-RU-Total-J,7-80-RU,flow,yearly
47,Total Afrika,1567.0,588.0,798.0,14.0,948.0,82.0,62.0,635.0,19.0,102.0,327.0,261.0,7.0,22.0,3040.0,1832.0,1215.0,2019-12-01,7-80-Bew-RU-Total-J-d-2020-12.xlsx,7-80-Bew-RU-Total-J,7-80-RU,flow,yearly
49,Argentinien,0.0,0.0,0.0,0.0,0.0,0.0,0.0,0.0,0.0,0.0,1.0,1.0,0.0,0.0,8.0,6.0,2.0,2019-12-01,7-80-Bew-RU-Total-J-d-2020-12.xlsx,7-80-Bew-RU-Total-J,7-80-RU,flow,yearly
50,Bolivien,0.0,0.0,0.0,0.0,0.0,0.0,0.0,0.0,0.0,0.0,0.0,0.0,0.0,0.0,8.0,5.0,2.0,2019-12-01,7-80-Bew-RU-Total-J-d-2020-12.xlsx,7-80-Bew-RU-Total-J,7-80-RU,flow,yearly
51,Brasilien,8.0,3.0,2.0,0.0,3.0,1.0,0.0,1.0,0.0,0.0,3.0,3.0,0.0,0.0,113.0,98.0,17.0,2019-12-01,7-80-Bew-RU-Total-J-d-2020-12.xlsx,7-80-Bew-RU-Total-J,7-80-RU,flow,yearly
52,Chile,1.0,1.0,0.0,0.0,0.0,0.0,0.0,0.0,0.0,0.0,0.0,0.0,0.0,0.0,14.0,13.0,0.0,2019-12-01,7-80-Bew-RU-Total-J-d-2020-12.xlsx,7-80-Bew-RU-Total-J,7-80-RU,flow,yearly
53,Costa Rica,0.0,0.0,0.0,0.0,0.0,0.0,0.0,0.0,0.0,0.0,0.0,0.0,0.0,0.0,1.0,1.0,0.0,2019-12-01,7-80-Bew-RU-Total-J-d-2020-12.xlsx,7-80-Bew-RU-Total-J,7-80-RU,flow,yearly
54,Dominikanische Republik,5.0,4.0,2.0,0.0,6.0,0.0,0.0,6.0,0.0,0.0,1.0,1.0,0.0,0.0,48.0,39.0,11.0,2019-12-01,7-80-Bew-RU-Total-J-d-2020-12.xlsx,7-80-Bew-RU-Total-J,7-80-RU,flow,yearly
55,Ecuador,0.0,0.0,0.0,0.0,0.0,0.0,0.0,0.0,0.0,0.0,1.0,1.0,0.0,0.0,7.0,7.0,0.0,2019-12-01,7-80-Bew-RU-Total-J-d-2020-12.xlsx,7-80-Bew-RU-Total-J,7-80-RU,flow,yearly
56,El Salvador,0.0,0.0,0.0,0.0,7.0,7.0,0.0,0.0,0.0,0.0,0.0,0.0,0.0,0.0,8.0,3.0,6.0,2019-12-01,7-80-Bew-RU-Total-J-d-2020-12.xlsx,7-80-Bew-RU-Total-J,7-80-RU,flow,yearly
57,Guatemala,0.0,0.0,0.0,0.0,1.0,1.0,0.0,0.0,0.0,0.0,0.0,0.0,0.0,0.0,1.0,1.0,0.0,2019-12-01,7-80-Bew-RU-Total-J-d-2020-12.xlsx,7-80-Bew-RU-Total-J,7-80-RU,flow,yearly
58,Haiti,0.0,0.0,0.0,0.0,1.0,1.0,0.0,0.0,0.0,0.0,1.0,1.0,0.0,0.0,6.0,3.0,3.0,2019-12-01,7-80-Bew-RU-Total-J-d-2020-12.xlsx,7-80-Bew-RU-Total-J,7-80-RU,flow,yearly
59,Honduras,0.0,0.0,0.0,0.0,0.0,0.0,0.0,0.0,0.0,0.0,0.0,0.0,0.0,0.0,7.0,4.0,3.0,2019-12-01,7-80-Bew-RU-Total-J-d-2020-12.xlsx,7-80-Bew-RU-Total-J,7-80-RU,flow,yearly
60,Jamaika,3.0,0.0,2.0,1.0,0.0,0.0,0.0,0.0,0.0,0.0,0.0,0.0,0.0,0.0,4.0,0.0,2.0,2019-12-01,7-80-Bew-RU-Total-J-d-2020-12.xlsx,7-80-Bew-RU-Total-J,7-80-RU,flow,yearly
61,Kanada,0.0,0.0,0.0,0.0,0.0,0.0,0.0,0.0,0.0,0.0,0.0,0.0,0.0,0.0,1.0,1.0,0.0,2019-12-01,7-80-Bew-RU-Total-J-d-2020-12.xlsx,7-80-Bew-RU-Total-J,7-80-RU,flow,yearly
62,Kolumbien,7.0,7.0,0.0,0.0,44.0,34.0,1.0,5.0,0.0,0.0,6.0,6.0,0.0,0.0,98.0,78.0,21.0,2019-12-01,7-80-Bew-RU-Total-J-d-2020-12.xlsx,7-80-Bew-RU-Total-J,7-80-RU,flow,yearly
63,Kuba,4.0,4.0,2.0,0.0,5.0,3.0,1.0,0.0,0.0,0.0,2.0,2.0,0.0,0.0,6.0,7.0,0.0,2019-12-01,7-80-Bew-RU-Total-J-d-2020-12.xlsx,7-80-Bew-RU-Total-J,7-80-RU,flow,yearly
64,Mexiko,1.0,0.0,0.0,0.0,2.0,2.0,0.0,0.0,0.0,0.0,0.0,0.0,0.0,0.0,11.0,8.0,3.0,2019-12-01,7-80-Bew-RU-Total-J-d-2020-12.xlsx,7-80-Bew-RU-Total-J,7-80-RU,flow,yearly
65,Nicaragua,0.0,0.0,0.0,0.0,6.0,5.0,0.0,0.0,0.0,0.0,1.0,1.0,0.0,0.0,11.0,11.0,1.0,2019-12-01,7-80-Bew-RU-Total-J-d-2020-12.xlsx,7-80-Bew-RU-Total-J,7-80-RU,flow,yearly
66,Paraguay,0.0,0.0,0.0,0.0,0.0,0.0,0.0,0.0,0.0,0.0,0.0,0.0,0.0,0.0,7.0,7.0,0.0,2019-12-01,7-80-Bew-RU-Total-J-d-2020-12.xlsx,7-80-Bew-RU-Total-J,7-80-RU,flow,yearly
67,Peru,2.0,3.0,0.0,0.0,4.0,2.0,0.0,2.0,0.0,0.0,4.0,3.0,1.0,0.0,25.0,21.0,3.0,2019-12-01,7-80-Bew-RU-Total-J-d-2020-12.xlsx,7-80-Bew-RU-Total-J,7-80-RU,flow,yearly
68,Uruguay,1.0,1.0,0.0,0.0,1.0,0.0,0.0,0.0,0.0,1.0,0.0,0.0,0.0,0.0,3.0,2.0,0.0,2019-12-01,7-80-Bew-RU-Total-J-d-2020-12.xlsx,7-80-Bew-RU-Total-J,7-80-RU,flow,yearly
69,USA,1.0,1.0,0.0,0.0,8.0,7.0,0.0,1.0,0.0,0.0,0.0,0.0,0.0,0.0,25.0,15.0,11.0,2019-12-01,7-80-Bew-RU-Total-J-d-2020-12.xlsx,7-80-Bew-RU-Total-J,7-80-RU,flow,yearly
70,Venezuela,3.0,2.0,1.0,0.0,20.0,13.0,0.0,3.0,0.0,0.0,2.0,2.0,0.0,0.0,23.0,17.0,4.0,2019-12-01,7-80-Bew-RU-Total-J-d-2020-12.xlsx,7-80-Bew-RU-Total-J,7-80-RU,flow,yearly
71,Total Amerika,36.0,26.0,9.0,1.0,108.0,76.0,2.0,18.0,0.0,1.0,22.0,21.0,1.0,0.0,435.0,347.0,89.0,2019-12-01,7-80-Bew-RU-Total-J-d-2020-12.xlsx,7-80-Bew-RU-Total-J,7-80-RU,flow,yearly
73,Afghanistan,102.0,56.0,46.0,0.0,76.0,8.0,0.0,25.0,0.0,12.0,27.0,15.0,1.0,10.0,213.0,107.0,103.0,2019-12-01,7-80-Bew-RU-Total-J-d-2020-12.xlsx,7-80-Bew-RU-Total-J,7-80-RU,flow,yearly
74,Armenien,8.0,1.0,6.0,0.0,40.0,17.0,2.0,17.0,3.0,0.0,20.0,16.0,0.0,3.0,46.0,29.0,17.0,2019-12-01,7-80-Bew-RU-Total-J-d-2020-12.xlsx,7-80-Bew-RU-Total-J,7-80-RU,flow,yearly
75,Aserbaidschan,16.0,12.0,8.0,0.0,18.0,6.0,1.0,11.0,0.0,0.0,10.0,9.0,0.0,0.0,38.0,14.0,25.0,2019-12-01,7-80-Bew-RU-Total-J-d-2020-12.xlsx,7-80-Bew-RU-Total-J,7-80-RU,flow,yearly
76,Bangladesh,3.0,7.0,6.0,0.0,12.0,4.0,1.0,1.0,0.0,1.0,2.0,2.0,0.0,0.0,9.0,6.0,3.0,2019-12-01,7-80-Bew-RU-Total-J-d-2020-12.xlsx,7-80-Bew-RU-Total-J,7-80-RU,flow,yearly
77,Bhutan,2.0,0.0,0.0,0.0,0.0,0.0,0.0,0.0,0.0,0.0,0.0,0.0,0.0,0.0,0.0,0.0,0.0,2019-12-01,7-80-Bew-RU-Total-J-d-2020-12.xlsx,7-80-Bew-RU-Total-J,7-80-RU,flow,yearly
78,China (Volksrepublik),59.0,13.0,52.0,0.0,15.0,4.0,0.0,10.0,0.0,4.0,3.0,2.0,0.0,0.0,45.0,22.0,21.0,2019-12-01,7-80-Bew-RU-Total-J-d-2020-12.xlsx,7-80-Bew-RU-Total-J,7-80-RU,flow,yearly
79,Georgien,141.0,136.0,5.0,1.0,463.0,241.0,19.0,184.0,2.0,4.0,60.0,37.0,15.0,2.0,705.0,498.0,212.0,2019-12-01,7-80-Bew-RU-Total-J-d-2020-12.xlsx,7-80-Bew-RU-Total-J,7-80-RU,flow,yearly
80,Indien,9.0,5.0,4.0,0.0,5.0,1.0,0.0,2.0,0.0,0.0,3.0,2.0,0.0,0.0,25.0,18.0,7.0,2019-12-01,7-80-Bew-RU-Total-J-d-2020-12.xlsx,7-80-Bew-RU-Total-J,7-80-RU,flow,yearly
81,Irak,145.0,54.0,81.0,2.0,54.0,34.0,15.0,4.0,0.0,3.0,55.0,39.0,7.0,5.0,172.0,117.0,54.0,2019-12-01,7-80-Bew-RU-Total-J-d-2020-12.xlsx,7-80-Bew-RU-Total-J,7-80-RU,flow,yearly
82,Iran,144.0,11.0,50.0,0.0,33.0,16.0,0.0,10.0,0.0,2.0,16.0,16.0,0.0,0.0,159.0,79.0,79.0,2019-12-01,7-80-Bew-RU-Total-J-d-2020-12.xlsx,7-80-Bew-RU-Total-J,7-80-RU,flow,yearly
83,Israel,4.0,2.0,0.0,0.0,1.0,0.0,0.0,1.0,0.0,0.0,0.0,0.0,0.0,0.0,9.0,8.0,1.0,2019-12-01,7-80-Bew-RU-Total-J-d-2020-12.xlsx,7-80-Bew-RU-Total-J,7-80-RU,flow,yearly
84,Japan,0.0,0.0,0.0,0.0,0.0,0.0,0.0,0.0,0.0,0.0,0.0,0.0,0.0,0.0,1.0,1.0,0.0,2019-12-01,7-80-Bew-RU-Total-J-d-2020-12.xlsx,7-80-Bew-RU-Total-J,7-80-RU,flow,yearly
85,Jemen,0.0,0.0,6.0,0.0,0.0,0.0,0.0,0.0,0.0,0.0,0.0,0.0,0.0,0.0,6.0,4.0,1.0,2019-12-01,7-80-Bew-RU-Total-J-d-2020-12.xlsx,7-80-Bew-RU-Total-J,7-80-RU,flow,yearly
86,Jordanien,1.0,1.0,2.0,0.0,2.0,0.0,0.0,2.0,0.0,0.0,1.0,1.0,0.0,0.0,11.0,7.0,3.0,2019-12-01,7-80-Bew-RU-Total-J-d-2020-12.xlsx,7-80-Bew-RU-Total-J,7-80-RU,flow,yearly
87,Kambodscha,1.0,0.0,0.0,1.0,0.0,0.0,0.0,0.0,0.0,0.0,0.0,0.0,0.0,0.0,0.0,0.0,0.0,2019-12-01,7-80-Bew-RU-Total-J-d-2020-12.xlsx,7-80-Bew-RU-Total-J,7-80-RU,flow,yearly
88,Kasachstan,0.0,0.0,4.0,0.0,0.0,0.0,0.0,0.0,0.0,4.0,0.0,0.0,0.0,0.0,8.0,3.0,0.0,2019-12-01,7-80-Bew-RU-Total-J-d-2020-12.xlsx,7-80-Bew-RU-Total-J,7-80-RU,flow,yearly
89,Kirgisistan,3.0,0.0,0.0,0.0,1.0,0.0,1.0,0.0,0.0,0.0,1.0,1.0,0.0,0.0,1.0,1.0,0.0,2019-12-01,7-80-Bew-RU-Total-J-d-2020-12.xlsx,7-80-Bew-RU-Total-J,7-80-RU,flow,yearly
90,Korea (Süd),0.0,0.0,0.0,0.0,0.0,0.0,0.0,0.0,0.0,0.0,0.0,0.0,0.0,0.0,5.0,2.0,0.0,2019-12-01,7-80-Bew-RU-Total-J-d-2020-12.xlsx,7-80-Bew-RU-Total-J,7-80-RU,flow,yearly
91,Libanon,8.0,4.0,5.0,0.0,7.0,1.0,0.0,5.0,0.0,0.0,1.0,1.0,0.0,0.0,22.0,14.0,12.0,2019-12-01,7-80-Bew-RU-Total-J-d-2020-12.xlsx,7-80-Bew-RU-Total-J,7-80-RU,flow,yearly
92,Malaysia,0.0,0.0,0.0,0.0,0.0,0.0,0.0,0.0,0.0,0.0,0.0,0.0,0.0,0.0,1.0,1.0,0.0,2019-12-01,7-80-Bew-RU-Total-J-d-2020-12.xlsx,7-80-Bew-RU-Total-J,7-80-RU,flow,yearly
93,Mongolei,19.0,17.0,17.0,0.0,23.0,5.0,4.0,14.0,0.0,1.0,9.0,9.0,0.0,0.0,27.0,21.0,7.0,2019-12-01,7-80-Bew-RU-Total-J-d-2020-12.xlsx,7-80-Bew-RU-Total-J,7-80-RU,flow,yearly
94,Myanmar,0.0,0.0,0.0,0.0,0.0,0.0,0.0,0.0,0.0,0.0,1.0,1.0,0.0,0.0,1.0,1.0,0.0,2019-12-01,7-80-Bew-RU-Total-J-d-2020-12.xlsx,7-80-Bew-RU-Total-J,7-80-RU,flow,yearly
95,Nepal,4.0,16.0,2.0,0.0,9.0,0.0,1.0,3.0,0.0,4.0,2.0,2.0,0.0,0.0,13.0,11.0,2.0,2019-12-01,7-80-Bew-RU-Total-J-d-2020-12.xlsx,7-80-Bew-RU-Total-J,7-80-RU,flow,yearly
96,Pakistan,49.0,12.0,21.0,0.0,15.0,2.0,0.0,11.0,0.0,2.0,3.0,3.0,0.0,0.0,46.0,35.0,12.0,2019-12-01,7-80-Bew-RU-Total-J-d-2020-12.xlsx,7-80-Bew-RU-Total-J,7-80-RU,flow,yearly
97,Philippinen,0.0,0.0,0.0,0.0,0.0,0.0,0.0,0.0,0.0,0.0,2.0,2.0,0.0,0.0,10.0,10.0,0.0,2019-12-01,7-80-Bew-RU-Total-J-d-2020-12.xlsx,7-80-Bew-RU-Total-J,7-80-RU,flow,yearly
98,Saudi-Arabien,0.0,0.0,1.0,0.0,1.0,1.0,0.0,0.0,0.0,0.0,1.0,0.0,1.0,0.0,1.0,1.0,0.0,2019-12-01,7-80-Bew-RU-Total-J-d-2020-12.xlsx,7-80-Bew-RU-Total-J,7-80-RU,flow,yearly
99,Sri Lanka,333.0,292.0,60.0,0.0,198.0,7.0,0.0,166.0,0.0,7.0,54.0,52.0,0.0,2.0,362.0,108.0,232.0,2019-12-01,7-80-Bew-RU-Total-J-d-2020-12.xlsx,7-80-Bew-RU-Total-J,7-80-RU,flow,yearly
100,Syrien,7.0,4.0,4.0,0.0,13.0,8.0,0.0,1.0,0.0,0.0,18.0,13.0,0.0,1.0,65.0,44.0,14.0,2019-12-01,7-80-Bew-RU-Total-J-d-2020-12.xlsx,7-80-Bew-RU-Total-J,7-80-RU,flow,yearly
101,Tadschikistan,0.0,0.0,0.0,0.0,0.0,0.0,0.0,0.0,0.0,0.0,0.0,0.0,0.0,0.0,1.0,1.0,0.0,2019-12-01,7-80-Bew-RU-Total-J-d-2020-12.xlsx,7-80-Bew-RU-Total-J,7-80-RU,flow,yearly
102,Taiwan,0.0,0.0,0.0,0.0,1.0,1.0,0.0,0.0,0.0,0.0,0.0,0.0,0.0,0.0,3.0,1.0,2.0,2019-12-01,7-80-Bew-RU-Total-J-d-2020-12.xlsx,7-80-Bew-RU-Total-J,7-80-RU,flow,yearly
103,Thailand,1.0,1.0,0.0,0.0,1.0,0.0,0.0,1.0,0.0,0.0,1.0,1.0,0.0,0.0,10.0,9.0,1.0,2019-12-01,7-80-Bew-RU-Total-J-d-2020-12.xlsx,7-80-Bew-RU-Total-J,7-80-RU,flow,yearly
104,Usbekistan,0.0,0.0,0.0,0.0,0.0,0.0,0.0,0.0,0.0,0.0,0.0,0.0,0.0,0.0,5.0,3.0,2.0,2019-12-01,7-80-Bew-RU-Total-J-d-2020-12.xlsx,7-80-Bew-RU-Total-J,7-80-RU,flow,yearly
105,Vietnam,0.0,1.0,0.0,0.0,1.0,0.0,0.0,1.0,0.0,0.0,0.0,0.0,0.0,0.0,5.0,6.0,0.0,2019-12-01,7-80-Bew-RU-Total-J-d-2020-12.xlsx,7-80-Bew-RU-Total-J,7-80-RU,flow,yearly
106,Total Asien,1059.0,645.0,380.0,4.0,989.0,356.0,44.0,469.0,5.0,44.0,290.0,224.0,24.0,23.0,2025.0,1182.0,810.0,2019-12-01,7-80-Bew-RU-Total-J-d-2020-12.xlsx,7-80-Bew-RU-Total-J,7-80-RU,flow,yearly
108,Albanien,37.0,24.0,0.0,0.0,84.0,55.0,0.0,30.0,0.0,0.0,6.0,3.0,1.0,0.0,725.0,649.0,72.0,2019-12-01,7-80-Bew-RU-Total-J-d-2020-12.xlsx,7-80-Bew-RU-Total-J,7-80-RU,flow,yearly
109,Belarus,12.0,12.0,1.0,1.0,22.0,5.0,0.0,16.0,0.0,1.0,13.0,9.0,1.0,1.0,42.0,32.0,11.0,2019-12-01,7-80-Bew-RU-Total-J-d-2020-12.xlsx,7-80-Bew-RU-Total-J,7-80-RU,flow,yearly
110,Belgien,0.0,0.0,0.0,0.0,1.0,0.0,0.0,0.0,0.0,0.0,0.0,0.0,0.0,0.0,5.0,4.0,1.0,2019-12-01,7-80-Bew-RU-Total-J-d-2020-12.xlsx,7-80-Bew-RU-Total-J,7-80-RU,flow,yearly
111,Bosnien u. Herzegowina,23.0,22.0,0.0,0.0,30.0,10.0,2.0,19.0,0.0,1.0,5.0,5.0,0.0,0.0,73.0,61.0,12.0,2019-12-01,7-80-Bew-RU-Total-J-d-2020-12.xlsx,7-80-Bew-RU-Total-J,7-80-RU,flow,yearly
112,Bulgarien,0.0,0.0,0.0,0.0,1.0,1.0,0.0,0.0,0.0,0.0,3.0,3.0,0.0,0.0,31.0,31.0,1.0,2019-12-01,7-80-Bew-RU-Total-J-d-2020-12.xlsx,7-80-Bew-RU-Total-J,7-80-RU,flow,yearly
113,Deutschland,2.0,1.0,0.0,1.0,2.0,1.0,0.0,1.0,0.0,0.0,1.0,1.0,0.0,0.0,12.0,9.0,3.0,2019-12-01,7-80-Bew-RU-Total-J-d-2020-12.xlsx,7-80-Bew-RU-Total-J,7-80-RU,flow,yearly
114,Estland,0.0,0.0,0.0,0.0,0.0,0.0,0.0,0.0,0.0,0.0,0.0,0.0,0.0,0.0,3.0,2.0,1.0,2019-12-01,7-80-Bew-RU-Total-J-d-2020-12.xlsx,7-80-Bew-RU-Total-J,7-80-RU,flow,yearly
115,Frankreich,2.0,0.0,1.0,0.0,0.0,0.0,0.0,0.0,0.0,0.0,0.0,0.0,0.0,0.0,8.0,8.0,0.0,2019-12-01,7-80-Bew-RU-Total-J-d-2020-12.xlsx,7-80-Bew-RU-Total-J,7-80-RU,flow,yearly
116,Griechenland,0.0,0.0,0.0,0.0,0.0,0.0,0.0,0.0,0.0,0.0,0.0,0.0,0.0,0.0,4.0,4.0,0.0,2019-12-01,7-80-Bew-RU-Total-J-d-2020-12.xlsx,7-80-Bew-RU-Total-J,7-80-RU,flow,yearly
117,Grossbritannien,0.0,0.0,0.0,0.0,0.0,0.0,0.0,0.0,0.0,0.0,0.0,0.0,0.0,0.0,8.0,8.0,2.0,2019-12-01,7-80-Bew-RU-Total-J-d-2020-12.xlsx,7-80-Bew-RU-Total-J,7-80-RU,flow,yearly
118,Italien,1.0,0.0,0.0,0.0,4.0,4.0,0.0,0.0,0.0,0.0,0.0,0.0,0.0,0.0,32.0,27.0,4.0,2019-12-01,7-80-Bew-RU-Total-J-d-2020-12.xlsx,7-80-Bew-RU-Total-J,7-80-RU,flow,yearly
119,Kosovo,71.0,71.0,1.0,0.0,129.0,24.0,1.0,103.0,1.0,0.0,29.0,29.0,0.0,0.0,392.0,326.0,88.0,2019-12-01,7-80-Bew-RU-Total-J-d-2020-12.xlsx,7-80-Bew-RU-Total-J,7-80-RU,flow,yearly
120,Kroatien,0.0,0.0,0.0,0.0,0.0,0.0,0.0,0.0,0.0,0.0,0.0,0.0,0.0,0.0,27.0,23.0,3.0,2019-12-01,7-80-Bew-RU-Total-J-d-2020-12.xlsx,7-80-Bew-RU-Total-J,7-80-RU,flow,yearly
121,Lettland,0.0,0.0,0.0,0.0,0.0,0.0,0.0,0.0,0.0,0.0,0.0,0.0,0.0,0.0,5.0,6.0,0.0,2019-12-01,7-80-Bew-RU-Total-J-d-2020-12.xlsx,7-80-Bew-RU-Total-J,7-80-RU,flow,yearly
122,Litauen,1.0,1.0,0.0,0.0,1.0,0.0,0.0,1.0,0.0,0.0,0.0,0.0,0.0,0.0,32.0,25.0,8.0,2019-12-01,7-80-Bew-RU-Total-J-d-2020-12.xlsx,7-80-Bew-RU-Total-J,7-80-RU,flow,yearly
123,Nordmazedonien,50.0,54.0,2.0,1.0,64.0,18.0,0.0,39.0,0.0,1.0,16.0,12.0,4.0,0.0,185.0,149.0,38.0,2019-12-01,7-80-Bew-RU-Total-J-d-2020-12.xlsx,7-80-Bew-RU-Total-J,7-80-RU,flow,yearly
124,Moldova,9.0,10.0,1.0,0.0,21.0,8.0,0.0,12.0,0.0,1.0,3.0,3.0,0.0,0.0,46.0,30.0,11.0,2019-12-01,7-80-Bew-RU-Total-J-d-2020-12.xlsx,7-80-Bew-RU-Total-J,7-80-RU,flow,yearly
125,Montenegro,2.0,2.0,1.0,0.0,3.0,1.0,0.0,2.0,0.0,0.0,0.0,0.0,0.0,0.0,14.0,14.0,0.0,2019-12-01,7-80-Bew-RU-Total-J-d-2020-12.xlsx,7-80-Bew-RU-Total-J,7-80-RU,flow,yearly
126,Niederlande,0.0,0.0,0.0,0.0,1.0,0.0,0.0,0.0,0.0,0.0,0.0,0.0,0.0,0.0,19.0,15.0,4.0,2019-12-01,7-80-Bew-RU-Total-J-d-2020-12.xlsx,7-80-Bew-RU-Total-J,7-80-RU,flow,yearly
127,Österreich,0.0,0.0,0.0,0.0,0.0,0.0,0.0,0.0,0.0,0.0,0.0,0.0,0.0,0.0,4.0,3.0,1.0,2019-12-01,7-80-Bew-RU-Total-J-d-2020-12.xlsx,7-80-Bew-RU-Total-J,7-80-RU,flow,yearly
128,Polen,0.0,0.0,0.0,0.0,2.0,2.0,1.0,0.0,0.0,0.0,0.0,0.0,0.0,0.0,48.0,39.0,8.0,2019-12-01,7-80-Bew-RU-Total-J-d-2020-12.xlsx,7-80-Bew-RU-Total-J,7-80-RU,flow,yearly
129,Portugal,0.0,0.0,0.0,0.0,0.0,0.0,0.0,0.0,0.0,0.0,0.0,0.0,0.0,0.0,112.0,95.0,24.0,2019-12-01,7-80-Bew-RU-Total-J-d-2020-12.xlsx,7-80-Bew-RU-Total-J,7-80-RU,flow,yearly
130,Rumänien,2.0,0.0,0.0,0.0,2.0,1.0,0.0,0.0,0.0,0.0,9.0,8.0,0.0,0.0,373.0,311.0,62.0,2019-12-01,7-80-Bew-RU-Total-J-d-2020-12.xlsx,7-80-Bew-RU-Total-J,7-80-RU,flow,yearly
131,Russland,32.0,18.0,8.0,6.0,21.0,11.0,2.0,18.0,0.0,2.0,8.0,8.0,0.0,0.0,94.0,68.0,33.0,2019-12-01,7-80-Bew-RU-Total-J-d-2020-12.xlsx,7-80-Bew-RU-Total-J,7-80-RU,flow,yearly
132,Schweden,0.0,0.0,0.0,0.0,0.0,0.0,0.0,0.0,0.0,0.0,0.0,0.0,0.0,0.0,1.0,1.0,0.0,2019-12-01,7-80-Bew-RU-Total-J-d-2020-12.xlsx,7-80-Bew-RU-Total-J,7-80-RU,flow,yearly
133,Serbien,75.0,72.0,0.0,1.0,110.0,24.0,5.0,64.0,1.0,3.0,21.0,16.0,0.0,1.0,402.0,323.0,59.0,2019-12-01,7-80-Bew-RU-Total-J-d-2020-12.xlsx,7-80-Bew-RU-Total-J,7-80-RU,flow,yearly
134,Slowakische Republik,0.0,0.0,0.0,0.0,4.0,4.0,0.0,0.0,0.0,0.0,0.0,0.0,0.0,0.0,12.0,9.0,3.0,2019-12-01,7-80-Bew-RU-Total-J-d-2020-12.xlsx,7-80-Bew-RU-Total-J,7-80-RU,flow,yearly
135,Slowenien,0.0,0.0,0.0,0.0,1.0,1.0,0.0,0.0,0.0,0.0,0.0,0.0,0.0,0.0,4.0,4.0,0.0,2019-12-01,7-80-Bew-RU-Total-J-d-2020-12.xlsx,7-80-Bew-RU-Total-J,7-80-RU,flow,yearly
136,Spanien,0.0,0.0,0.0,0.0,5.0,4.0,0.0,0.0,0.0,0.0,1.0,1.0,0.0,0.0,71.0,63.0,7.0,2019-12-01,7-80-Bew-RU-Total-J-d-2020-12.xlsx,7-80-Bew-RU-Total-J,7-80-RU,flow,yearly
137,Tschechische Republik,0.0,0.0,0.0,0.0,0.0,0.0,0.0,0.0,0.0,0.0,0.0,0.0,0.0,0.0,8.0,6.0,2.0,2019-12-01,7-80-Bew-RU-Total-J-d-2020-12.xlsx,7-80-Bew-RU-Total-J,7-80-RU,flow,yearly
138,Tschechoslowakei,0.0,0.0,0.0,0.0,0.0,0.0,0.0,0.0,0.0,0.0,0.0,0.0,0.0,0.0,1.0,1.0,0.0,2019-12-01,7-80-Bew-RU-Total-J-d-2020-12.xlsx,7-80-Bew-RU-Total-J,7-80-RU,flow,yearly
139,Türkei,50.0,15.0,22.0,1.0,78.0,54.0,2.0,18.0,1.0,2.0,43.0,37.0,1.0,0.0,182.0,131.0,51.0,2019-12-01,7-80-Bew-RU-Total-J-d-2020-12.xlsx,7-80-Bew-RU-Total-J,7-80-RU,flow,yearly
140,Ukraine,16.0,16.0,1.0,0.0,55.0,35.0,1.0,17.0,0.0,0.0,13.0,13.0,0.0,0.0,88.0,68.0,19.0,2019-12-01,7-80-Bew-RU-Total-J-d-2020-12.xlsx,7-80-Bew-RU-Total-J,7-80-RU,flow,yearly
141,Ungarn,0.0,0.0,0.0,0.0,1.0,1.0,0.0,0.0,0.0,0.0,5.0,5.0,0.0,0.0,28.0,24.0,4.0,2019-12-01,7-80-Bew-RU-Total-J-d-2020-12.xlsx,7-80-Bew-RU-Total-J,7-80-RU,flow,yearly
142,Total Europa,385.0,318.0,38.0,11.0,642.0,264.0,14.0,340.0,3.0,11.0,176.0,153.0,7.0,2.0,3091.0,2569.0,532.0,2019-12-01,7-80-Bew-RU-Total-J-d-2020-12.xlsx,7-80-Bew-RU-Total-J,7-80-RU,flow,yearly
144,Australien,1.0,1.0,0.0,0.0,2.0,2.0,0.0,0.0,0.0,0.0,0.0,0.0,0.0,0.0,7.0,1.0,7.0,2019-12-01,7-80-Bew-RU-Total-J-d-2020-12.xlsx,7-80-Bew-RU-Total-J,7-80-RU,flow,yearly
145,Neuseeland,0.0,0.0,0.0,0.0,1.0,1.0,0.0,0.0,0.0,0.0,0.0,0.0,0.0,0.0,1.0,1.0,0.0,2019-12-01,7-80-Bew-RU-Total-J-d-2020-12.xlsx,7-80-Bew-RU-Total-J,7-80-RU,flow,yearly
146,Total Ozeanien,1.0,1.0,0.0,0.0,3.0,3.0,0.0,0.0,0.0,0.0,0.0,0.0,0.0,0.0,8.0,2.0,7.0,2019-12-01,7-80-Bew-RU-Total-J-d-2020-12.xlsx,7-80-Bew-RU-Total-J,7-80-RU,flow,yearly
148,Staatenlos,0.0,0.0,0.0,0.0,0.0,0.0,0.0,0.0,0.0,0.0,0.0,0.0,0.0,0.0,6.0,1.0,3.0,2019-12-01,7-80-Bew-RU-Total-J-d-2020-12.xlsx,7-80-Bew-RU-Total-J,7-80-RU,flow,yearly
149,Ohne Nationalität,9.0,1.0,6.0,0.0,2.0,0.0,0.0,1.0,0.0,1.0,1.0,0.0,0.0,0.0,38.0,16.0,19.0,2019-12-01,7-80-Bew-RU-Total-J-d-2020-12.xlsx,7-80-Bew-RU-Total-J,7-80-RU,flow,yearly
150,Staat unbekannt,61.0,13.0,58.0,0.0,15.0,1.0,0.0,4.0,3.0,4.0,4.0,2.0,0.0,0.0,42.0,36.0,14.0,2019-12-01,7-80-Bew-RU-Total-J-d-2020-12.xlsx,7-80-Bew-RU-Total-J,7-80-RU,flow,yearly
151,Total Herkunft unbek.,70.0,14.0,64.0,0.0,17.0,1.0,0.0,5.0,3.0,5.0,5.0,2.0,0.0,0.0,86.0,53.0,36.0,2019-12-01,7-80-Bew-RU-Total-J-d-2020-12.xlsx,7-80-Bew-RU-Total-J,7-80-RU,flow,yearly
1,Ägypten,16.0,6.0,0.0,6.0,8.0,2.0,0.0,5.0,0.0,0.0,1.0,2.0,0.0,0.0,24.0,8.0,16.0,2020-12-01,7-80-Bew-RU-Total-J-d-2020-12.xlsx,7-80-Bew-RU-Total-J,7-80-RU,flow,yearly
2,Algerien,334.0,144.0,1.0,208.0,142.0,8.0,13.0,74.0,5.0,49.0,106.0,46.0,3.0,49.0,446.0,207.0,296.0,2020-12-01,7-80-Bew-RU-Total-J-d-2020-12.xlsx,7-80-Bew-RU-Total-J,7-80-RU,flow,yearly
3,Angola,19.0,5.0,0.0,9.0,5.0,0.0,0.0,4.0,0.0,2.0,4.0,4.0,0.0,0.0,44.0,27.0,18.0,2020-12-01,7-80-Bew-RU-Total-J-d-2020-12.xlsx,7-80-Bew-RU-Total-J,7-80-RU,flow,yearly
4,Äquatorialguinea,0.0,0.0,0.0,1.0,0.0,0.0,0.0,0.0,0.0,0.0,0.0,0.0,0.0,0.0,1.0,1.0,0.0,2020-12-01,7-80-Bew-RU-Total-J-d-2020-12.xlsx,7-80-Bew-RU-Total-J,7-80-RU,flow,yearly
5,Äthiopien,106.0,42.0,0.0,108.0,48.0,3.0,5.0,35.0,2.0,2.0,14.0,12.0,0.0,1.0,72.0,24.0,43.0,2020-12-01,7-80-Bew-RU-Total-J-d-2020-12.xlsx,7-80-Bew-RU-Total-J,7-80-RU,flow,yearly
6,Benin,3.0,2.0,0.0,1.0,3.0,0.0,0.0,0.0,0.0,1.0,1.0,0.0,0.0,0.0,0.0,0.0,1.0,2020-12-01,7-80-Bew-RU-Total-J-d-2020-12.xlsx,7-80-Bew-RU-Total-J,7-80-RU,flow,yearly
7,Burkina Faso,3.0,1.0,0.0,5.0,2.0,1.0,0.0,0.0,0.0,2.0,1.0,1.0,0.0,0.0,8.0,4.0,9.0,2020-12-01,7-80-Bew-RU-Total-J-d-2020-12.xlsx,7-80-Bew-RU-Total-J,7-80-RU,flow,yearly
8,Burundi,0.0,0.0,0.0,1.0,1.0,1.0,0.0,0.0,0.0,0.0,1.0,1.0,0.0,0.0,3.0,2.0,1.0,2020-12-01,7-80-Bew-RU-Total-J-d-2020-12.xlsx,7-80-Bew-RU-Total-J,7-80-RU,flow,yearly
9,Côte d'Ivoire,13.0,5.0,0.0,9.0,2.0,0.0,2.0,0.0,0.0,1.0,3.0,3.0,0.0,0.0,17.0,12.0,7.0,2020-12-01,7-80-Bew-RU-Total-J-d-2020-12.xlsx,7-80-Bew-RU-Total-J,7-80-RU,flow,yearly
10,Dschibuti,2.0,1.0,0.0,1.0,0.0,0.0,0.0,1.0,0.0,0.0,0.0,0.0,0.0,0.0,5.0,1.0,4.0,2020-12-01,7-80-Bew-RU-Total-J-d-2020-12.xlsx,7-80-Bew-RU-Total-J,7-80-RU,flow,yearly
11,Eritrea,225.0,13.0,0.0,208.0,12.0,4.0,1.0,1.0,0.0,9.0,3.0,6.0,0.0,0.0,37.0,21.0,19.0,2020-12-01,7-80-Bew-RU-Total-J-d-2020-12.xlsx,7-80-Bew-RU-Total-J,7-80-RU,flow,yearly
12,Gabun,2.0,0.0,0.0,0.0,0.0,0.0,0.0,0.0,0.0,0.0,0.0,0.0,0.0,0.0,4.0,2.0,3.0,2020-12-01,7-80-Bew-RU-Total-J-d-2020-12.xlsx,7-80-Bew-RU-Total-J,7-80-RU,flow,yearly
13,Gambia,23.0,10.0,0.0,8.0,15.0,3.0,4.0,6.0,0.0,1.0,7.0,6.0,0.0,0.0,91.0,50.0,52.0,2020-12-01,7-80-Bew-RU-Total-J-d-2020-12.xlsx,7-80-Bew-RU-Total-J,7-80-RU,flow,yearly
14,Ghana,4.0,10.0,0.0,0.0,8.0,2.0,0.0,6.0,0.0,1.0,9.0,8.0,0.0,1.0,28.0,17.0,12.0,2020-12-01,7-80-Bew-RU-Total-J-d-2020-12.xlsx,7-80-Bew-RU-Total-J,7-80-RU,flow,yearly
15,Guinea,45.0,14.0,1.0,30.0,24.0,1.0,0.0,23.0,0.0,5.0,8.0,8.0,0.0,1.0,100.0,52.0,48.0,2020-12-01,7-80-Bew-RU-Total-J-d-2020-12.xlsx,7-80-Bew-RU-Total-J,7-80-RU,flow,yearly
16,Guinea-Bissau,5.0,2.0,0.0,1.0,3.0,0.0,0.0,1.0,0.0,2.0,2.0,1.0,0.0,0.0,15.0,13.0,4.0,2020-12-01,7-80-Bew-RU-Total-J-d-2020-12.xlsx,7-80-Bew-RU-Total-J,7-80-RU,flow,yearly
17,Kamerun,13.0,3.0,0.0,7.0,19.0,1.0,0.0,8.0,0.0,4.0,5.0,0.0,0.0,1.0,25.0,10.0,18.0,2020-12-01,7-80-Bew-RU-Total-J-d-2020-12.xlsx,7-80-Bew-RU-Total-J,7-80-RU,flow,yearly
18,Kapverden,0.0,0.0,0.0,2.0,0.0,0.0,0.0,0.0,0.0,0.0,0.0,0.0,0.0,0.0,0.0,0.0,0.0,2020-12-01,7-80-Bew-RU-Total-J-d-2020-12.xlsx,7-80-Bew-RU-Total-J,7-80-RU,flow,yearly
19,Kenia,1.0,2.0,0.0,1.0,3.0,0.0,0.0,0.0,0.0,0.0,1.0,1.0,0.0,0.0,5.0,4.0,1.0,2020-12-01,7-80-Bew-RU-Total-J-d-2020-12.xlsx,7-80-Bew-RU-Total-J,7-80-RU,flow,yearly
20,Kongo,2.0,0.0,0.0,0.0,0.0,0.0,0.0,0.0,0.0,0.0,0.0,0.0,0.0,0.0,2.0,0.0,1.0,2020-12-01,7-80-Bew-RU-Total-J-d-2020-12.xlsx,7-80-Bew-RU-Total-J,7-80-RU,flow,yearly
21,Kongo DR,35.0,4.0,0.0,10.0,5.0,1.0,0.0,4.0,0.0,1.0,5.0,5.0,0.0,0.0,20.0,9.0,8.0,2020-12-01,7-80-Bew-RU-Total-J-d-2020-12.xlsx,7-80-Bew-RU-Total-J,7-80-RU,flow,yearly
22,Liberia,2.0,0.0,0.0,1.0,0.0,0.0,0.0,0.0,0.0,0.0,0.0,0.0,0.0,0.0,7.0,2.0,4.0,2020-12-01,7-80-Bew-RU-Total-J-d-2020-12.xlsx,7-80-Bew-RU-Total-J,7-80-RU,flow,yearly
23,Libyen,23.0,4.0,0.0,10.0,6.0,0.0,0.0,0.0,0.0,1.0,6.0,4.0,0.0,5.0,46.0,22.0,21.0,2020-12-01,7-80-Bew-RU-Total-J-d-2020-12.xlsx,7-80-Bew-RU-Total-J,7-80-RU,flow,yearly
24,Malawi,0.0,0.0,0.0,0.0,0.0,0.0,0.0,0.0,0.0,0.0,0.0,0.0,0.0,0.0,1.0,0.0,0.0,2020-12-01,7-80-Bew-RU-Total-J-d-2020-12.xlsx,7-80-Bew-RU-Total-J,7-80-RU,flow,yearly
25,Mali,8.0,8.0,0.0,11.0,7.0,0.0,3.0,3.0,0.0,2.0,5.0,5.0,0.0,0.0,30.0,8.0,21.0,2020-12-01,7-80-Bew-RU-Total-J-d-2020-12.xlsx,7-80-Bew-RU-Total-J,7-80-RU,flow,yearly
26,Marokko,122.0,45.0,0.0,93.0,37.0,8.0,0.0,5.0,1.0,10.0,16.0,7.0,1.0,11.0,198.0,87.0,107.0,2020-12-01,7-80-Bew-RU-Total-J-d-2020-12.xlsx,7-80-Bew-RU-Total-J,7-80-RU,flow,yearly
27,Mauretanien,2.0,0.0,0.0,4.0,0.0,0.0,0.0,0.0,0.0,1.0,0.0,0.0,0.0,0.0,4.0,2.0,1.0,2020-12-01,7-80-Bew-RU-Total-J-d-2020-12.xlsx,7-80-Bew-RU-Total-J,7-80-RU,flow,yearly
28,Mauritius,0.0,0.0,0.0,0.0,1.0,0.0,0.0,0.0,0.0,0.0,0.0,0.0,0.0,0.0,3.0,2.0,1.0,2020-12-01,7-80-Bew-RU-Total-J-d-2020-12.xlsx,7-80-Bew-RU-Total-J,7-80-RU,flow,yearly
29,Mosambik,0.0,0.0,0.0,0.0,0.0,0.0,0.0,0.0,0.0,0.0,1.0,1.0,0.0,0.0,1.0,0.0,1.0,2020-12-01,7-80-Bew-RU-Total-J-d-2020-12.xlsx,7-80-Bew-RU-Total-J,7-80-RU,flow,yearly
30,Niger,3.0,0.0,0.0,2.0,1.0,0.0,0.0,0.0,0.0,0.0,0.0,0.0,0.0,0.0,9.0,2.0,7.0,2020-12-01,7-80-Bew-RU-Total-J-d-2020-12.xlsx,7-80-Bew-RU-Total-J,7-80-RU,flow,yearly
31,Nigeria,66.0,39.0,0.0,25.0,65.0,6.0,0.0,48.0,1.0,4.0,24.0,19.0,1.0,4.0,317.0,138.0,175.0,2020-12-01,7-80-Bew-RU-Total-J-d-2020-12.xlsx,7-80-Bew-RU-Total-J,7-80-RU,flow,yearly
32,Ruanda,1.0,1.0,0.0,0.0,0.0,0.0,0.0,0.0,0.0,0.0,0.0,0.0,0.0,0.0,2.0,1.0,0.0,2020-12-01,7-80-Bew-RU-Total-J-d-2020-12.xlsx,7-80-Bew-RU-Total-J,7-80-RU,flow,yearly
33,Sambia,0.0,0.0,0.0,0.0,0.0,0.0,0.0,0.0,0.0,0.0,0.0,0.0,0.0,0.0,0.0,0.0,1.0,2020-12-01,7-80-Bew-RU-Total-J-d-2020-12.xlsx,7-80-Bew-RU-Total-J,7-80-RU,flow,yearly
34,Senegal,9.0,5.0,0.0,7.0,8.0,3.0,0.0,3.0,0.0,1.0,5.0,4.0,0.0,1.0,45.0,16.0,32.0,2020-12-01,7-80-Bew-RU-Total-J-d-2020-12.xlsx,7-80-Bew-RU-Total-J,7-80-RU,flow,yearly
35,Sierra Leone,3.0,2.0,0.0,7.0,2.0,0.0,0.0,0.0,0.0,1.0,1.0,0.0,0.0,0.0,6.0,3.0,2.0,2020-12-01,7-80-Bew-RU-Total-J-d-2020-12.xlsx,7-80-Bew-RU-Total-J,7-80-RU,flow,yearly
36,Somalia,49.0,19.0,1.0,34.0,20.0,0.0,5.0,12.0,0.0,1.0,17.0,20.0,0.0,5.0,75.0,39.0,32.0,2020-12-01,7-80-Bew-RU-Total-J-d-2020-12.xlsx,7-80-Bew-RU-Total-J,7-80-RU,flow,yearly
37,Sudan,11.0,11.0,0.0,4.0,10.0,0.0,3.0,1.0,0.0,1.0,5.0,4.0,0.0,0.0,26.0,13.0,11.0,2020-12-01,7-80-Bew-RU-Total-J-d-2020-12.xlsx,7-80-Bew-RU-Total-J,7-80-RU,flow,yearly
38,Südsudan,1.0,0.0,0.0,0.0,0.0,0.0,0.0,0.0,0.0,0.0,0.0,0.0,0.0,0.0,1.0,0.0,0.0,2020-12-01,7-80-Bew-RU-Total-J-d-2020-12.xlsx,7-80-Bew-RU-Total-J,7-80-RU,flow,yearly
39,Tansania,2.0,6.0,0.0,1.0,3.0,1.0,0.0,1.0,0.0,0.0,2.0,2.0,0.0,0.0,2.0,1.0,0.0,2020-12-01,7-80-Bew-RU-Total-J-d-2020-12.xlsx,7-80-Bew-RU-Total-J,7-80-RU,flow,yearly
40,Togo,8.0,11.0,0.0,5.0,8.0,0.0,0.0,8.0,0.0,0.0,0.0,0.0,0.0,0.0,3.0,2.0,0.0,2020-12-01,7-80-Bew-RU-Total-J-d-2020-12.xlsx,7-80-Bew-RU-Total-J,7-80-RU,flow,yearly
41,Tschad,1.0,0.0,0.0,3.0,0.0,0.0,0.0,0.0,0.0,1.0,0.0,0.0,0.0,0.0,6.0,2.0,3.0,2020-12-01,7-80-Bew-RU-Total-J-d-2020-12.xlsx,7-80-Bew-RU-Total-J,7-80-RU,flow,yearly
42,Tunesien,77.0,51.0,1.0,43.0,80.0,7.0,2.0,65.0,1.0,12.0,14.0,9.0,0.0,1.0,180.0,63.0,116.0,2020-12-01,7-80-Bew-RU-Total-J-d-2020-12.xlsx,7-80-Bew-RU-Total-J,7-80-RU,flow,yearly
43,Uganda,4.0,0.0,0.0,4.0,0.0,0.0,0.0,0.0,0.0,0.0,1.0,1.0,0.0,0.0,2.0,1.0,0.0,2020-12-01,7-80-Bew-RU-Total-J-d-2020-12.xlsx,7-80-Bew-RU-Total-J,7-80-RU,flow,yearly
44,Westsahara,2.0,1.0,0.0,0.0,0.0,0.0,0.0,0.0,0.0,0.0,0.0,0.0,0.0,0.0,5.0,1.0,4.0,2020-12-01,7-80-Bew-RU-Total-J-d-2020-12.xlsx,7-80-Bew-RU-Total-J,7-80-RU,flow,yearly
45,Zentralafr. Republik,1.0,0.0,0.0,1.0,0.0,0.0,0.0,0.0,0.0,0.0,0.0,0.0,0.0,0.0,3.0,0.0,3.0,2020-12-01,7-80-Bew-RU-Total-J-d-2020-12.xlsx,7-80-Bew-RU-Total-J,7-80-RU,flow,yearly
46,Zimbabwe,2.0,2.0,0.0,0.0,3.0,0.0,0.0,1.0,0.0,0.0,1.0,1.0,0.0,0.0,7.0,1.0,4.0,2020-12-01,7-80-Bew-RU-Total-J-d-2020-12.xlsx,7-80-Bew-RU-Total-J,7-80-RU,flow,yearly
47,Total Afrika,1248.0,469.0,4.0,871.0,551.0,52.0,38.0,315.0,10.0,115.0,269.0,181.0,5.0,80.0,1926.0,870.0,1107.0,2020-12-01,7-80-Bew-RU-Total-J-d-2020-12.xlsx,7-80-Bew-RU-Total-J,7-80-RU,flow,yearly
49,Argentinien,0.0,0.0,0.0,0.0,0.0,0.0,0.0,0.0,0.0,0.0,0.0,0.0,0.0,0.0,5.0,3.0,2.0,2020-12-01,7-80-Bew-RU-Total-J-d-2020-12.xlsx,7-80-Bew-RU-Total-J,7-80-RU,flow,yearly
50,Bolivien,0.0,0.0,0.0,0.0,0.0,0.0,0.0,0.0,0.0,0.0,0.0,0.0,0.0,0.0,7.0,3.0,6.0,2020-12-01,7-80-Bew-RU-Total-J-d-2020-12.xlsx,7-80-Bew-RU-Total-J,7-80-RU,flow,yearly
51,Brasilien,4.0,3.0,0.0,0.0,5.0,4.0,0.0,2.0,0.0,0.0,3.0,3.0,0.0,0.0,98.0,73.0,22.0,2020-12-01,7-80-Bew-RU-Total-J-d-2020-12.xlsx,7-80-Bew-RU-Total-J,7-80-RU,flow,yearly
52,Chile,2.0,2.0,0.0,1.0,3.0,1.0,0.0,2.0,0.0,0.0,0.0,0.0,0.0,0.0,23.0,15.0,8.0,2020-12-01,7-80-Bew-RU-Total-J-d-2020-12.xlsx,7-80-Bew-RU-Total-J,7-80-RU,flow,yearly
53,Dominikanische Republik,3.0,2.0,0.0,1.0,4.0,0.0,0.0,4.0,0.0,0.0,0.0,0.0,0.0,0.0,32.0,17.0,12.0,2020-12-01,7-80-Bew-RU-Total-J-d-2020-12.xlsx,7-80-Bew-RU-Total-J,7-80-RU,flow,yearly
54,Ecuador,1.0,2.0,0.0,0.0,0.0,0.0,0.0,0.0,0.0,0.0,0.0,0.0,0.0,0.0,7.0,4.0,3.0,2020-12-01,7-80-Bew-RU-Total-J-d-2020-12.xlsx,7-80-Bew-RU-Total-J,7-80-RU,flow,yearly
55,El Salvador,0.0,0.0,0.0,0.0,14.0,14.0,0.0,0.0,0.0,0.0,6.0,3.0,0.0,0.0,15.0,3.0,9.0,2020-12-01,7-80-Bew-RU-Total-J-d-2020-12.xlsx,7-80-Bew-RU-Total-J,7-80-RU,flow,yearly
56,Haiti,0.0,0.0,0.0,0.0,2.0,2.0,0.0,0.0,0.0,0.0,0.0,0.0,0.0,0.0,3.0,3.0,0.0,2020-12-01,7-80-Bew-RU-Total-J-d-2020-12.xlsx,7-80-Bew-RU-Total-J,7-80-RU,flow,yearly
57,Honduras,1.0,1.0,0.0,0.0,1.0,0.0,0.0,0.0,0.0,1.0,0.0,0.0,0.0,0.0,1.0,1.0,1.0,2020-12-01,7-80-Bew-RU-Total-J-d-2020-12.xlsx,7-80-Bew-RU-Total-J,7-80-RU,flow,yearly
58,Jamaika,1.0,1.0,0.0,3.0,0.0,0.0,0.0,0.0,0.0,0.0,1.0,0.0,0.0,1.0,3.0,3.0,2.0,2020-12-01,7-80-Bew-RU-Total-J-d-2020-12.xlsx,7-80-Bew-RU-Total-J,7-80-RU,flow,yearly
59,Kanada,2.0,1.0,0.0,1.0,1.0,0.0,0.0,1.0,0.0,0.0,0.0,0.0,0.0,0.0,12.0,7.0,5.0,2020-12-01,7-80-Bew-RU-Total-J-d-2020-12.xlsx,7-80-Bew-RU-Total-J,7-80-RU,flow,yearly
60,Kolumbien,2.0,1.0,0.0,0.0,30.0,29.0,0.0,0.0,0.0,1.0,18.0,14.0,0.0,0.0,64.0,47.0,18.0,2020-12-01,7-80-Bew-RU-Total-J-d-2020-12.xlsx,7-80-Bew-RU-Total-J,7-80-RU,flow,yearly
61,Kuba,1.0,1.0,0.0,1.0,1.0,0.0,0.0,0.0,0.0,0.0,0.0,0.0,0.0,0.0,0.0,0.0,0.0,2020-12-01,7-80-Bew-RU-Total-J-d-2020-12.xlsx,7-80-Bew-RU-Total-J,7-80-RU,flow,yearly
62,Mexiko,1.0,1.0,0.0,0.0,2.0,1.0,0.0,0.0,0.0,0.0,0.0,0.0,0.0,0.0,7.0,3.0,4.0,2020-12-01,7-80-Bew-RU-Total-J-d-2020-12.xlsx,7-80-Bew-RU-Total-J,7-80-RU,flow,yearly
63,Nicaragua,0.0,0.0,0.0,0.0,1.0,1.0,0.0,0.0,0.0,0.0,0.0,0.0,0.0,0.0,1.0,0.0,1.0,2020-12-01,7-80-Bew-RU-Total-J-d-2020-12.xlsx,7-80-Bew-RU-Total-J,7-80-RU,flow,yearly
64,Paraguay,0.0,0.0,0.0,0.0,0.0,0.0,0.0,0.0,0.0,0.0,0.0,0.0,0.0,0.0,4.0,4.0,0.0,2020-12-01,7-80-Bew-RU-Total-J-d-2020-12.xlsx,7-80-Bew-RU-Total-J,7-80-RU,flow,yearly
65,Peru,1.0,0.0,0.0,0.0,0.0,0.0,0.0,0.0,0.0,0.0,0.0,0.0,0.0,0.0,7.0,5.0,1.0,2020-12-01,7-80-Bew-RU-Total-J-d-2020-12.xlsx,7-80-Bew-RU-Total-J,7-80-RU,flow,yearly
66,Uruguay,0.0,0.0,0.0,0.0,1.0,0.0,0.0,1.0,0.0,0.0,0.0,0.0,0.0,0.0,0.0,1.0,0.0,2020-12-01,7-80-Bew-RU-Total-J-d-2020-12.xlsx,7-80-Bew-RU-Total-J,7-80-RU,flow,yearly
67,USA,1.0,1.0,0.0,0.0,1.0,1.0,0.0,0.0,0.0,0.0,0.0,0.0,0.0,0.0,10.0,8.0,3.0,2020-12-01,7-80-Bew-RU-Total-J-d-2020-12.xlsx,7-80-Bew-RU-Total-J,7-80-RU,flow,yearly
68,Venezuela,9.0,6.0,0.0,1.0,8.0,4.0,0.0,2.0,0.0,5.0,7.0,4.0,0.0,2.0,20.0,7.0,11.0,2020-12-01,7-80-Bew-RU-Total-J-d-2020-12.xlsx,7-80-Bew-RU-Total-J,7-80-RU,flow,yearly
69,Total Amerika,29.0,22.0,0.0,8.0,74.0,57.0,0.0,12.0,0.0,7.0,35.0,24.0,0.0,3.0,319.0,207.0,108.0,2020-12-01,7-80-Bew-RU-Total-J-d-2020-12.xlsx,7-80-Bew-RU-Total-J,7-80-RU,flow,yearly
71,Afghanistan,74.0,30.0,0.0,45.0,34.0,7.0,0.0,19.0,1.0,20.0,22.0,17.0,0.0,4.0,183.0,67.0,119.0,2020-12-01,7-80-Bew-RU-Total-J-d-2020-12.xlsx,7-80-Bew-RU-Total-J,7-80-RU,flow,yearly
72,Armenien,12.0,6.0,1.0,0.0,28.0,7.0,3.0,10.0,0.0,9.0,11.0,11.0,0.0,1.0,26.0,15.0,12.0,2020-12-01,7-80-Bew-RU-Total-J-d-2020-12.xlsx,7-80-Bew-RU-Total-J,7-80-RU,flow,yearly
73,Aserbaidschan,2.0,5.0,0.0,0.0,4.0,0.0,2.0,2.0,0.0,0.0,4.0,4.0,0.0,0.0,6.0,6.0,0.0,2020-12-01,7-80-Bew-RU-Total-J-d-2020-12.xlsx,7-80-Bew-RU-Total-J,7-80-RU,flow,yearly
74,Bangladesh,2.0,1.0,0.0,0.0,1.0,1.0,1.0,0.0,0.0,2.0,2.0,1.0,0.0,0.0,7.0,6.0,1.0,2020-12-01,7-80-Bew-RU-Total-J-d-2020-12.xlsx,7-80-Bew-RU-Total-J,7-80-RU,flow,yearly
75,Bhutan,4.0,0.0,0.0,4.0,0.0,0.0,0.0,0.0,0.0,0.0,0.0,0.0,0.0,0.0,0.0,0.0,0.0,2020-12-01,7-80-Bew-RU-Total-J-d-2020-12.xlsx,7-80-Bew-RU-Total-J,7-80-RU,flow,yearly
76,China (Volksrepublik),41.0,5.0,0.0,56.0,8.0,2.0,0.0,2.0,0.0,3.0,3.0,1.0,0.0,1.0,32.0,17.0,15.0,2020-12-01,7-80-Bew-RU-Total-J-d-2020-12.xlsx,7-80-Bew-RU-Total-J,7-80-RU,flow,yearly
77,Georgien,118.0,109.0,0.0,3.0,278.0,131.0,8.0,142.0,0.0,1.0,142.0,107.0,20.0,6.0,510.0,262.0,229.0,2020-12-01,7-80-Bew-RU-Total-J-d-2020-12.xlsx,7-80-Bew-RU-Total-J,7-80-RU,flow,yearly
78,Indien,5.0,6.0,0.0,2.0,3.0,0.0,0.0,2.0,0.0,1.0,2.0,2.0,0.0,0.0,18.0,11.0,7.0,2020-12-01,7-80-Bew-RU-Total-J-d-2020-12.xlsx,7-80-Bew-RU-Total-J,7-80-RU,flow,yearly
79,Irak,197.0,29.0,0.0,103.0,49.0,16.0,10.0,17.0,0.0,5.0,47.0,38.0,1.0,5.0,203.0,95.0,122.0,2020-12-01,7-80-Bew-RU-Total-J-d-2020-12.xlsx,7-80-Bew-RU-Total-J,7-80-RU,flow,yearly
80,Iran,183.0,15.0,0.0,131.0,17.0,7.0,1.0,8.0,0.0,9.0,13.0,10.0,1.0,1.0,66.0,31.0,39.0,2020-12-01,7-80-Bew-RU-Total-J-d-2020-12.xlsx,7-80-Bew-RU-Total-J,7-80-RU,flow,yearly
81,Israel,0.0,0.0,0.0,1.0,1.0,1.0,0.0,0.0,0.0,0.0,0.0,0.0,0.0,0.0,6.0,3.0,2.0,2020-12-01,7-80-Bew-RU-Total-J-d-2020-12.xlsx,7-80-Bew-RU-Total-J,7-80-RU,flow,yearly
82,Japan,0.0,0.0,0.0,0.0,1.0,1.0,0.0,0.0,0.0,0.0,0.0,0.0,0.0,0.0,2.0,1.0,1.0,2020-12-01,7-80-Bew-RU-Total-J-d-2020-12.xlsx,7-80-Bew-RU-Total-J,7-80-RU,flow,yearly
83,Jemen,0.0,0.0,0.0,0.0,0.0,0.0,0.0,0.0,0.0,0.0,1.0,1.0,0.0,0.0,0.0,1.0,0.0,2020-12-01,7-80-Bew-RU-Total-J-d-2020-12.xlsx,7-80-Bew-RU-Total-J,7-80-RU,flow,yearly
84,Jordanien,1.0,1.0,0.0,0.0,0.0,0.0,0.0,0.0,0.0,0.0,0.0,0.0,0.0,0.0,2.0,2.0,0.0,2020-12-01,7-80-Bew-RU-Total-J-d-2020-12.xlsx,7-80-Bew-RU-Total-J,7-80-RU,flow,yearly
85,Kambodscha,1.0,0.0,0.0,0.0,0.0,0.0,0.0,0.0,0.0,0.0,0.0,0.0,0.0,0.0,0.0,0.0,0.0,2020-12-01,7-80-Bew-RU-Total-J-d-2020-12.xlsx,7-80-Bew-RU-Total-J,7-80-RU,flow,yearly
86,Kasachstan,1.0,1.0,0.0,0.0,1.0,0.0,0.0,1.0,0.0,0.0,0.0,0.0,0.0,0.0,2.0,1.0,6.0,2020-12-01,7-80-Bew-RU-Total-J-d-2020-12.xlsx,7-80-Bew-RU-Total-J,7-80-RU,flow,yearly
87,Korea (Süd),0.0,0.0,0.0,0.0,2.0,2.0,0.0,0.0,0.0,0.0,1.0,1.0,0.0,0.0,2.0,1.0,4.0,2020-12-01,7-80-Bew-RU-Total-J-d-2020-12.xlsx,7-80-Bew-RU-Total-J,7-80-RU,flow,yearly
88,Libanon,3.0,2.0,0.0,0.0,1.0,0.0,0.0,2.0,0.0,1.0,1.0,1.0,0.0,0.0,8.0,4.0,4.0,2020-12-01,7-80-Bew-RU-Total-J-d-2020-12.xlsx,7-80-Bew-RU-Total-J,7-80-RU,flow,yearly
89,Malaysia,0.0,0.0,0.0,0.0,0.0,0.0,0.0,0.0,0.0,0.0,2.0,2.0,0.0,0.0,2.0,2.0,0.0,2020-12-01,7-80-Bew-RU-Total-J-d-2020-12.xlsx,7-80-Bew-RU-Total-J,7-80-RU,flow,yearly
90,Mongolei,4.0,4.0,0.0,4.0,19.0,5.0,0.0,11.0,0.0,0.0,4.0,0.0,4.0,0.0,14.0,7.0,7.0,2020-12-01,7-80-Bew-RU-Total-J-d-2020-12.xlsx,7-80-Bew-RU-Total-J,7-80-RU,flow,yearly
91,Myanmar,0.0,0.0,0.0,0.0,0.0,0.0,0.0,0.0,0.0,0.0,0.0,0.0,0.0,0.0,5.0,1.0,4.0,2020-12-01,7-80-Bew-RU-Total-J-d-2020-12.xlsx,7-80-Bew-RU-Total-J,7-80-RU,flow,yearly
92,Nepal,3.0,1.0,0.0,3.0,4.0,3.0,0.0,2.0,0.0,0.0,1.0,1.0,0.0,0.0,7.0,4.0,3.0,2020-12-01,7-80-Bew-RU-Total-J-d-2020-12.xlsx,7-80-Bew-RU-Total-J,7-80-RU,flow,yearly
93,Oman,0.0,0.0,0.0,0.0,0.0,0.0,0.0,0.0,0.0,0.0,0.0,0.0,0.0,0.0,1.0,1.0,0.0,2020-12-01,7-80-Bew-RU-Total-J-d-2020-12.xlsx,7-80-Bew-RU-Total-J,7-80-RU,flow,yearly
94,Pakistan,39.0,17.0,0.0,28.0,19.0,5.0,0.0,9.0,0.0,2.0,8.0,5.0,0.0,4.0,46.0,18.0,29.0,2020-12-01,7-80-Bew-RU-Total-J-d-2020-12.xlsx,7-80-Bew-RU-Total-J,7-80-RU,flow,yearly
95,Philippinen,0.0,0.0,0.0,0.0,0.0,0.0,0.0,0.0,0.0,0.0,0.0,0.0,0.0,0.0,8.0,6.0,2.0,2020-12-01,7-80-Bew-RU-Total-J-d-2020-12.xlsx,7-80-Bew-RU-Total-J,7-80-RU,flow,yearly
96,Saudi-Arabien,0.0,0.0,0.0,0.0,0.0,0.0,0.0,0.0,0.0,0.0,0.0,0.0,0.0,0.0,1.0,0.0,1.0,2020-12-01,7-80-Bew-RU-Total-J-d-2020-12.xlsx,7-80-Bew-RU-Total-J,7-80-RU,flow,yearly
97,Sri Lanka,317.0,178.0,0.0,85.0,238.0,6.0,0.0,25.0,4.0,31.0,9.0,6.0,0.0,3.0,71.0,22.0,63.0,2020-12-01,7-80-Bew-RU-Total-J-d-2020-12.xlsx,7-80-Bew-RU-Total-J,7-80-RU,flow,yearly
98,Syrien,10.0,0.0,0.0,3.0,5.0,4.0,0.0,0.0,0.0,1.0,11.0,14.0,0.0,0.0,57.0,21.0,42.0,2020-12-01,7-80-Bew-RU-Total-J-d-2020-12.xlsx,7-80-Bew-RU-Total-J,7-80-RU,flow,yearly
99,Thailand,1.0,1.0,0.0,0.0,2.0,1.0,0.0,1.0,0.0,1.0,0.0,0.0,0.0,0.0,10.0,5.0,4.0,2020-12-01,7-80-Bew-RU-Total-J-d-2020-12.xlsx,7-80-Bew-RU-Total-J,7-80-RU,flow,yearly
100,Usbekistan,0.0,0.0,0.0,4.0,0.0,0.0,0.0,0.0,0.0,0.0,0.0,0.0,0.0,0.0,0.0,0.0,0.0,2020-12-01,7-80-Bew-RU-Total-J-d-2020-12.xlsx,7-80-Bew-RU-Total-J,7-80-RU,flow,yearly
101,Vietnam,1.0,0.0,0.0,0.0,1.0,1.0,0.0,0.0,0.0,0.0,1.0,0.0,0.0,1.0,7.0,4.0,3.0,2020-12-01,7-80-Bew-RU-Total-J-d-2020-12.xlsx,7-80-Bew-RU-Total-J,7-80-RU,flow,yearly
102,Total Asien,1019.0,411.0,1.0,472.0,716.0,200.0,25.0,253.0,5.0,86.0,285.0,222.0,26.0,26.0,1302.0,614.0,719.0,2020-12-01,7-80-Bew-RU-Total-J-d-2020-12.xlsx,7-80-Bew-RU-Total-J,7-80-RU,flow,yearly
104,Albanien,47.0,48.0,0.0,1.0,74.0,26.0,0.0,45.0,2.0,1.0,16.0,16.0,0.0,2.0,586.0,440.0,159.0,2020-12-01,7-80-Bew-RU-Total-J-d-2020-12.xlsx,7-80-Bew-RU-Total-J,7-80-RU,flow,yearly
105,Belarus,7.0,5.0,0.0,2.0,27.0,12.0,3.0,11.0,0.0,0.0,14.0,13.0,0.0,1.0,43.0,24.0,16.0,2020-12-01,7-80-Bew-RU-Total-J-d-2020-12.xlsx,7-80-Bew-RU-Total-J,7-80-RU,flow,yearly
106,Belgien,0.0,0.0,0.0,0.0,0.0,0.0,0.0,0.0,0.0,0.0,0.0,0.0,0.0,0.0,8.0,5.0,3.0,2020-12-01,7-80-Bew-RU-Total-J-d-2020-12.xlsx,7-80-Bew-RU-Total-J,7-80-RU,flow,yearly
107,Bosnien u. Herzegowina,17.0,14.0,0.0,4.0,11.0,2.0,0.0,8.0,1.0,1.0,4.0,3.0,0.0,0.0,38.0,28.0,12.0,2020-12-01,7-80-Bew-RU-Total-J-d-2020-12.xlsx,7-80-Bew-RU-Total-J,7-80-RU,flow,yearly
108,Bulgarien,1.0,1.0,0.0,0.0,1.0,0.0,0.0,1.0,0.0,0.0,1.0,1.0,0.0,0.0,25.0,14.0,8.0,2020-12-01,7-80-Bew-RU-Total-J-d-2020-12.xlsx,7-80-Bew-RU-Total-J,7-80-RU,flow,yearly
109,Deutschland,0.0,0.0,0.0,0.0,1.0,1.0,0.0,0.0,0.0,0.0,0.0,0.0,0.0,0.0,2.0,1.0,0.0,2020-12-01,7-80-Bew-RU-Total-J-d-2020-12.xlsx,7-80-Bew-RU-Total-J,7-80-RU,flow,yearly
110,Estland,0.0,0.0,0.0,0.0,0.0,0.0,0.0,0.0,0.0,0.0,0.0,0.0,0.0,0.0,4.0,2.0,2.0,2020-12-01,7-80-Bew-RU-Total-J-d-2020-12.xlsx,7-80-Bew-RU-Total-J,7-80-RU,flow,yearly
111,Frankreich,3.0,1.0,0.0,0.0,3.0,2.0,0.0,1.0,0.0,0.0,3.0,1.0,0.0,0.0,15.0,7.0,7.0,2020-12-01,7-80-Bew-RU-Total-J-d-2020-12.xlsx,7-80-Bew-RU-Total-J,7-80-RU,flow,yearly
112,Griechenland,0.0,0.0,0.0,0.0,0.0,0.0,0.0,0.0,0.0,0.0,0.0,0.0,0.0,0.0,7.0,4.0,3.0,2020-12-01,7-80-Bew-RU-Total-J-d-2020-12.xlsx,7-80-Bew-RU-Total-J,7-80-RU,flow,yearly
113,Grossbritannien,1.0,1.0,0.0,0.0,2.0,1.0,0.0,0.0,0.0,1.0,0.0,0.0,0.0,0.0,7.0,6.0,1.0,2020-12-01,7-80-Bew-RU-Total-J-d-2020-12.xlsx,7-80-Bew-RU-Total-J,7-80-RU,flow,yearly
114,Irland,0.0,0.0,0.0,0.0,0.0,0.0,0.0,0.0,0.0,0.0,0.0,0.0,0.0,0.0,1.0,1.0,0.0,2020-12-01,7-80-Bew-RU-Total-J-d-2020-12.xlsx,7-80-Bew-RU-Total-J,7-80-RU,flow,yearly
115,Italien,0.0,0.0,0.0,1.0,3.0,2.0,0.0,1.0,0.0,0.0,0.0,0.0,0.0,0.0,34.0,20.0,15.0,2020-12-01,7-80-Bew-RU-Total-J-d-2020-12.xlsx,7-80-Bew-RU-Total-J,7-80-RU,flow,yearly
116,Kosovo,57.0,51.0,0.0,11.0,85.0,22.0,3.0,61.0,0.0,0.0,16.0,12.0,0.0,3.0,257.0,171.0,101.0,2020-12-01,7-80-Bew-RU-Total-J-d-2020-12.xlsx,7-80-Bew-RU-Total-J,7-80-RU,flow,yearly
117,Kroatien,0.0,0.0,0.0,1.0,2.0,2.0,0.0,0.0,0.0,0.0,1.0,1.0,0.0,0.0,18.0,14.0,5.0,2020-12-01,7-80-Bew-RU-Total-J-d-2020-12.xlsx,7-80-Bew-RU-Total-J,7-80-RU,flow,yearly
118,Lettland,0.0,0.0,0.0,0.0,0.0,0.0,0.0,0.0,0.0,0.0,0.0,0.0,0.0,0.0,4.0,2.0,2.0,2020-12-01,7-80-Bew-RU-Total-J-d-2020-12.xlsx,7-80-Bew-RU-Total-J,7-80-RU,flow,yearly
119,Litauen,0.0,1.0,0.0,0.0,3.0,2.0,0.0,1.0,0.0,0.0,0.0,0.0,0.0,0.0,20.0,15.0,6.0,2020-12-01,7-80-Bew-RU-Total-J-d-2020-12.xlsx,7-80-Bew-RU-Total-J,7-80-RU,flow,yearly
120,Nordmazedonien,22.0,23.0,1.0,1.0,29.0,8.0,1.0,18.0,0.0,1.0,13.0,12.0,0.0,0.0,114.0,77.0,32.0,2020-12-01,7-80-Bew-RU-Total-J-d-2020-12.xlsx,7-80-Bew-RU-Total-J,7-80-RU,flow,yearly
121,Moldova,9.0,9.0,0.0,3.0,27.0,17.0,4.0,6.0,0.0,0.0,34.0,33.0,0.0,0.0,61.0,50.0,16.0,2020-12-01,7-80-Bew-RU-Total-J-d-2020-12.xlsx,7-80-Bew-RU-Total-J,7-80-RU,flow,yearly
122,Montenegro,1.0,1.0,0.0,1.0,0.0,0.0,0.0,0.0,0.0,0.0,0.0,0.0,0.0,0.0,6.0,5.0,1.0,2020-12-01,7-80-Bew-RU-Total-J-d-2020-12.xlsx,7-80-Bew-RU-Total-J,7-80-RU,flow,yearly
123,Niederlande,0.0,0.0,0.0,0.0,0.0,0.0,0.0,1.0,0.0,0.0,1.0,1.0,0.0,0.0,9.0,9.0,1.0,2020-12-01,7-80-Bew-RU-Total-J-d-2020-12.xlsx,7-80-Bew-RU-Total-J,7-80-RU,flow,yearly
124,Österreich,0.0,0.0,0.0,0.0,0.0,0.0,0.0,0.0,0.0,0.0,0.0,0.0,0.0,0.0,1.0,1.0,0.0,2020-12-01,7-80-Bew-RU-Total-J-d-2020-12.xlsx,7-80-Bew-RU-Total-J,7-80-RU,flow,yearly
125,Polen,0.0,0.0,0.0,0.0,0.0,0.0,0.0,0.0,0.0,0.0,0.0,0.0,0.0,0.0,34.0,21.0,13.0,2020-12-01,7-80-Bew-RU-Total-J-d-2020-12.xlsx,7-80-Bew-RU-Total-J,7-80-RU,flow,yearly
126,Portugal,1.0,1.0,0.0,1.0,0.0,0.0,0.0,0.0,0.0,0.0,0.0,0.0,0.0,0.0,84.0,66.0,20.0,2020-12-01,7-80-Bew-RU-Total-J-d-2020-12.xlsx,7-80-Bew-RU-Total-J,7-80-RU,flow,yearly
127,Rumänien,0.0,0.0,0.0,0.0,1.0,1.0,1.0,0.0,1.0,0.0,9.0,9.0,0.0,1.0,320.0,234.0,92.0,2020-12-01,7-80-Bew-RU-Total-J-d-2020-12.xlsx,7-80-Bew-RU-Total-J,7-80-RU,flow,yearly
128,Russland,34.0,26.0,9.0,5.0,17.0,8.0,1.0,7.0,0.0,2.0,13.0,13.0,0.0,0.0,88.0,35.0,51.0,2020-12-01,7-80-Bew-RU-Total-J-d-2020-12.xlsx,7-80-Bew-RU-Total-J,7-80-RU,flow,yearly
129,Serbien,54.0,42.0,1.0,6.0,46.0,11.0,1.0,38.0,0.0,2.0,9.0,6.0,1.0,1.0,260.0,173.0,85.0,2020-12-01,7-80-Bew-RU-Total-J-d-2020-12.xlsx,7-80-Bew-RU-Total-J,7-80-RU,flow,yearly
130,Slowakische Republik,0.0,0.0,0.0,0.0,1.0,1.0,0.0,0.0,0.0,0.0,0.0,0.0,0.0,0.0,19.0,7.0,11.0,2020-12-01,7-80-Bew-RU-Total-J-d-2020-12.xlsx,7-80-Bew-RU-Total-J,7-80-RU,flow,yearly
131,Slowenien,0.0,0.0,0.0,0.0,0.0,0.0,0.0,0.0,0.0,0.0,0.0,0.0,0.0,0.0,2.0,1.0,1.0,2020-12-01,7-80-Bew-RU-Total-J-d-2020-12.xlsx,7-80-Bew-RU-Total-J,7-80-RU,flow,yearly
132,Spanien,2.0,0.0,0.0,0.0,2.0,3.0,0.0,0.0,0.0,0.0,2.0,2.0,0.0,0.0,23.0,26.0,1.0,2020-12-01,7-80-Bew-RU-Total-J-d-2020-12.xlsx,7-80-Bew-RU-Total-J,7-80-RU,flow,yearly
133,Tschechische Republik,0.0,0.0,0.0,0.0,4.0,4.0,0.0,0.0,0.0,0.0,0.0,0.0,0.0,0.0,10.0,10.0,0.0,2020-12-01,7-80-Bew-RU-Total-J-d-2020-12.xlsx,7-80-Bew-RU-Total-J,7-80-RU,flow,yearly
134,Türkei,58.0,18.0,0.0,23.0,67.0,45.0,1.0,13.0,0.0,1.0,15.0,13.0,1.0,0.0,133.0,75.0,62.0,2020-12-01,7-80-Bew-RU-Total-J-d-2020-12.xlsx,7-80-Bew-RU-Total-J,7-80-RU,flow,yearly
135,Ukraine,7.0,7.0,1.0,0.0,25.0,14.0,0.0,6.0,0.0,0.0,6.0,4.0,0.0,0.0,52.0,36.0,17.0,2020-12-01,7-80-Bew-RU-Total-J-d-2020-12.xlsx,7-80-Bew-RU-Total-J,7-80-RU,flow,yearly
136,Ungarn,0.0,0.0,0.0,0.0,0.0,0.0,0.0,0.0,0.0,0.0,1.0,1.0,0.0,0.0,15.0,9.0,6.0,2020-12-01,7-80-Bew-RU-Total-J-d-2020-12.xlsx,7-80-Bew-RU-Total-J,7-80-RU,flow,yearly
137,Total Europa,321.0,249.0,12.0,60.0,431.0,184.0,15.0,218.0,4.0,9.0,158.0,141.0,2.0,8.0,2300.0,1589.0,749.0,2020-12-01,7-80-Bew-RU-Total-J-d-2020-12.xlsx,7-80-Bew-RU-Total-J,7-80-RU,flow,yearly
139,Australien,1.0,1.0,0.0,0.0,1.0,0.0,0.0,1.0,0.0,0.0,0.0,0.0,0.0,0.0,1.0,1.0,0.0,2020-12-01,7-80-Bew-RU-Total-J-d-2020-12.xlsx,7-80-Bew-RU-Total-J,7-80-RU,flow,yearly
140,Total Ozeanien,1.0,1.0,0.0,0.0,1.0,0.0,0.0,1.0,0.0,0.0,0.0,0.0,0.0,0.0,1.0,1.0,0.0,2020-12-01,7-80-Bew-RU-Total-J-d-2020-12.xlsx,7-80-Bew-RU-Total-J,7-80-RU,flow,yearly
142,Staatenlos,0.0,0.0,0.0,0.0,0.0,0.0,0.0,0.0,0.0,0.0,0.0,0.0,0.0,0.0,1.0,1.0,0.0,2020-12-01,7-80-Bew-RU-Total-J-d-2020-12.xlsx,7-80-Bew-RU-Total-J,7-80-RU,flow,yearly
143,Ohne Nationalität,13.0,3.0,0.0,8.0,2.0,0.0,0.0,2.0,0.0,2.0,1.0,0.0,0.0,2.0,15.0,5.0,6.0,2020-12-01,7-80-Bew-RU-Total-J-d-2020-12.xlsx,7-80-Bew-RU-Total-J,7-80-RU,flow,yearly
144,Staat unbekannt,68.0,9.0,1.0,77.0,10.0,2.0,0.0,3.0,0.0,4.0,3.0,3.0,0.0,0.0,31.0,16.0,13.0,2020-12-01,7-80-Bew-RU-Total-J-d-2020-12.xlsx,7-80-Bew-RU-Total-J,7-80-RU,flow,yearly
145,Total Herkunft unbek.,81.0,12.0,1.0,85.0,12.0,2.0,0.0,5.0,0.0,6.0,4.0,3.0,0.0,2.0,47.0,22.0,19.0,2020-12-01,7-80-Bew-RU-Total-J-d-2020-12.xlsx,7-80-Bew-RU-Total-J,7-80-RU,flow,yearly
