,index,nation,Unnamed: 1,Unnamed: 2,Unnamed: 3,Unnamed: 4,Unnamed: 5,Unnamed: 6,Unnamed: 7,Unnamed: 8,Unnamed: 9,Unnamed: 10,Unnamed: 11,Unnamed: 12,Unnamed: 13,Unnamed: 14,Unnamed: 15,Unnamed: 16,Unnamed: 17,Unnamed: 18,Unnamed: 19,Unnamed: 20,Unnamed: 21,datum
0,0,Ägypten,7.0,3.0,6.0,1.0,10.0,4.0,2.0,3.0,1.0,0.0,4.0,3.0,0.0,0.0,36.0,16.0,18.0,,,,,2019-12-01
1,1,Algerien,328.0,139.0,121.0,7.0,368.0,12.0,27.0,253.0,7.0,36.0,92.0,82.0,1.0,7.0,752.0,370.0,384.0,,,,,2019-12-01
2,2,Angola,9.0,4.0,7.0,0.0,5.0,2.0,0.0,3.0,0.0,0.0,1.0,0.0,0.0,0.0,58.0,32.0,33.0,,,,,2019-12-01
3,3,Äquatorialguinea,0.0,0.0,1.0,0.0,0.0,0.0,0.0,0.0,0.0,0.0,0.0,0.0,0.0,0.0,2.0,1.0,1.0,,,,,2019-12-01
4,4,Äthiopien,128.0,18.0,91.0,0.0,28.0,8.0,5.0,13.0,2.0,7.0,23.0,23.0,0.0,1.0,83.0,48.0,40.0,,,,,2019-12-01
5,5,Benin,4.0,1.0,1.0,0.0,4.0,0.0,0.0,3.0,0.0,0.0,0.0,0.0,0.0,0.0,9.0,2.0,6.0,,,,,2019-12-01
6,6,Burkina Faso,8.0,4.0,4.0,0.0,5.0,1.0,0.0,2.0,0.0,1.0,1.0,1.0,0.0,0.0,21.0,5.0,11.0,,,,,2019-12-01
7,7,Burundi,1.0,0.0,0.0,0.0,0.0,0.0,0.0,0.0,0.0,1.0,0.0,0.0,0.0,0.0,1.0,0.0,1.0,,,,,2019-12-01
8,8,Côte d'Ivoire,15.0,4.0,11.0,0.0,6.0,0.0,1.0,2.0,0.0,1.0,2.0,2.0,0.0,0.0,27.0,16.0,11.0,,,,,2019-12-01
9,9,Dschibuti,1.0,0.0,1.0,0.0,0.0,0.0,0.0,0.0,0.0,0.0,0.0,0.0,0.0,0.0,1.0,1.0,0.0,,,,,2019-12-01
10,10,Eritrea,430.0,19.0,260.0,1.0,21.0,6.0,5.0,4.0,1.0,16.0,26.0,19.0,0.0,1.0,79.0,48.0,24.0,,,,,2019-12-01
11,11,Gabun,1.0,0.0,0.0,0.0,0.0,0.0,0.0,0.0,0.0,0.0,0.0,0.0,0.0,0.0,4.0,1.0,1.0,,,,,2019-12-01
12,12,Gambia,20.0,14.0,13.0,0.0,30.0,4.0,4.0,27.0,1.0,2.0,29.0,24.0,0.0,1.0,187.0,130.0,54.0,,,,,2019-12-01
13,13,Ghana,5.0,1.0,3.0,0.0,9.0,3.0,0.0,1.0,0.0,1.0,3.0,3.0,0.0,0.0,32.0,17.0,16.0,,,,,2019-12-01
14,14,Guinea,87.0,55.0,43.0,0.0,77.0,0.0,0.0,60.0,2.0,7.0,10.0,5.0,0.0,1.0,215.0,147.0,61.0,,,,,2019-12-01
15,15,Guinea-Bissau,8.0,10.0,2.0,0.0,7.0,0.0,1.0,7.0,1.0,1.0,6.0,5.0,0.0,0.0,49.0,31.0,13.0,,,,,2019-12-01
16,16,Kamerun,20.0,22.0,11.0,1.0,24.0,0.0,0.0,22.0,0.0,0.0,2.0,1.0,0.0,0.0,49.0,24.0,22.0,,,,,2019-12-01
17,17,Kapverden,2.0,3.0,0.0,0.0,3.0,0.0,2.0,1.0,0.0,0.0,0.0,0.0,0.0,0.0,2.0,1.0,2.0,,,,,2019-12-01
18,18,Kenia,2.0,2.0,1.0,0.0,1.0,0.0,0.0,0.0,0.0,0.0,1.0,1.0,0.0,0.0,7.0,5.0,2.0,,,,,2019-12-01
19,19,Kongo,1.0,0.0,0.0,0.0,1.0,1.0,0.0,0.0,0.0,0.0,0.0,0.0,0.0,0.0,0.0,0.0,0.0,,,,,2019-12-01
20,20,Kongo DR,26.0,19.0,16.0,2.0,21.0,1.0,0.0,13.0,1.0,1.0,2.0,1.0,0.0,0.0,37.0,18.0,20.0,,,,,2019-12-01
21,21,Liberia,1.0,0.0,1.0,0.0,4.0,1.0,0.0,0.0,0.0,0.0,1.0,1.0,0.0,0.0,5.0,2.0,2.0,,,,,2019-12-01
22,22,Libyen,25.0,5.0,10.0,0.0,6.0,1.0,1.0,2.0,0.0,2.0,11.0,10.0,0.0,0.0,65.0,39.0,22.0,,,,,2019-12-01
23,23,Malawi,0.0,1.0,0.0,0.0,0.0,0.0,0.0,0.0,0.0,0.0,0.0,0.0,0.0,0.0,0.0,0.0,0.0,,,,,2019-12-01
24,24,Mali,14.0,5.0,5.0,0.0,8.0,0.0,1.0,6.0,0.0,1.0,6.0,6.0,0.0,0.0,44.0,34.0,10.0,,,,,2019-12-01
25,25,Marokko,138.0,43.0,98.0,2.0,61.0,7.0,1.0,44.0,1.0,12.0,10.0,5.0,0.0,4.0,302.0,190.0,121.0,,,,,2019-12-01
26,26,Mauretanien,5.0,0.0,3.0,0.0,1.0,0.0,0.0,0.0,0.0,0.0,0.0,0.0,0.0,0.0,5.0,3.0,3.0,,,,,2019-12-01
27,27,Mauritius,2.0,2.0,1.0,0.0,3.0,2.0,0.0,1.0,0.0,0.0,0.0,0.0,0.0,0.0,5.0,4.0,1.0,,,,,2019-12-01
28,28,Niger,3.0,3.0,2.0,0.0,1.0,0.0,0.0,1.0,0.0,0.0,0.0,0.0,0.0,0.0,7.0,5.0,2.0,,,,,2019-12-01
29,29,Nigeria,84.0,72.0,16.0,0.0,100.0,8.0,3.0,71.0,0.0,9.0,30.0,26.0,0.0,0.0,487.0,371.0,130.0,,,,,2019-12-01
30,30,Ruanda,3.0,0.0,3.0,0.0,0.0,0.0,0.0,0.0,0.0,0.0,0.0,0.0,0.0,0.0,1.0,1.0,0.0,,,,,2019-12-01
31,31,Sambia,0.0,0.0,0.0,0.0,1.0,1.0,0.0,0.0,0.0,0.0,0.0,0.0,0.0,0.0,1.0,0.0,1.0,,,,,2019-12-01
32,32,Senegal,20.0,20.0,8.0,0.0,21.0,4.0,2.0,15.0,1.0,0.0,6.0,7.0,0.0,0.0,69.0,51.0,21.0,,,,,2019-12-01
33,33,Sierra Leone,6.0,0.0,3.0,0.0,2.0,1.0,0.0,0.0,0.0,0.0,0.0,0.0,0.0,0.0,8.0,5.0,2.0,,,,,2019-12-01
34,34,Somalia,47.0,11.0,26.0,0.0,16.0,2.0,3.0,7.0,0.0,1.0,29.0,16.0,1.0,4.0,94.0,51.0,46.0,,,,,2019-12-01
35,35,Südafrika,0.0,0.0,0.0,0.0,1.0,1.0,0.0,0.0,0.0,0.0,1.0,1.0,0.0,0.0,6.0,6.0,0.0,,,,,2019-12-01
36,36,Sudan,13.0,11.0,3.0,0.0,15.0,1.0,2.0,10.0,1.0,0.0,6.0,4.0,0.0,1.0,31.0,25.0,12.0,,,,,2019-12-01
37,37,Südsudan,2.0,1.0,1.0,0.0,0.0,0.0,0.0,0.0,0.0,0.0,0.0,0.0,0.0,0.0,2.0,0.0,3.0,,,,,2019-12-01
38,38,Tansania,2.0,0.0,0.0,0.0,0.0,0.0,0.0,1.0,0.0,0.0,8.0,4.0,0.0,0.0,11.0,7.0,4.0,,,,,2019-12-01
39,39,Togo,5.0,4.0,1.0,0.0,1.0,0.0,1.0,0.0,0.0,0.0,1.0,0.0,0.0,1.0,10.0,3.0,8.0,,,,,2019-12-01
40,40,Tschad,4.0,0.0,3.0,0.0,1.0,1.0,0.0,0.0,0.0,0.0,0.0,0.0,0.0,0.0,4.0,2.0,1.0,,,,,2019-12-01
41,41,Tunesien,86.0,90.0,22.0,0.0,83.0,7.0,1.0,63.0,0.0,3.0,14.0,9.0,5.0,1.0,219.0,116.0,99.0,,,,,2019-12-01
42,42,Uganda,1.0,2.0,0.0,0.0,1.0,1.0,0.0,0.0,0.0,0.0,1.0,1.0,0.0,0.0,4.0,2.0,2.0,,,,,2019-12-01
43,43,Westsahara,1.0,0.0,0.0,0.0,0.0,0.0,0.0,0.0,0.0,0.0,0.0,0.0,0.0,0.0,2.0,0.0,1.0,,,,,2019-12-01
44,44,Zentralafr. Republik,0.0,0.0,0.0,0.0,0.0,0.0,0.0,0.0,0.0,0.0,0.0,0.0,0.0,0.0,4.0,1.0,3.0,,,,,2019-12-01
45,45,Zimbabwe,2.0,0.0,0.0,0.0,2.0,2.0,0.0,0.0,0.0,0.0,1.0,1.0,0.0,0.0,3.0,1.0,1.0,,,,,2019-12-01
46,48,Argentinien,0.0,0.0,0.0,0.0,0.0,0.0,0.0,0.0,0.0,0.0,1.0,1.0,0.0,0.0,8.0,6.0,2.0,,,,,2019-12-01
47,49,Bolivien,0.0,0.0,0.0,0.0,0.0,0.0,0.0,0.0,0.0,0.0,0.0,0.0,0.0,0.0,8.0,5.0,2.0,,,,,2019-12-01
48,50,Brasilien,8.0,3.0,2.0,0.0,3.0,1.0,0.0,1.0,0.0,0.0,3.0,3.0,0.0,0.0,113.0,98.0,17.0,,,,,2019-12-01
49,51,Chile,1.0,1.0,0.0,0.0,0.0,0.0,0.0,0.0,0.0,0.0,0.0,0.0,0.0,0.0,14.0,13.0,0.0,,,,,2019-12-01
50,52,Costa Rica,0.0,0.0,0.0,0.0,0.0,0.0,0.0,0.0,0.0,0.0,0.0,0.0,0.0,0.0,1.0,1.0,0.0,,,,,2019-12-01
51,53,Dominikanische Republik,5.0,4.0,2.0,0.0,6.0,0.0,0.0,6.0,0.0,0.0,1.0,1.0,0.0,0.0,48.0,39.0,11.0,,,,,2019-12-01
52,54,Ecuador,0.0,0.0,0.0,0.0,0.0,0.0,0.0,0.0,0.0,0.0,1.0,1.0,0.0,0.0,7.0,7.0,0.0,,,,,2019-12-01
53,55,El Salvador,0.0,0.0,0.0,0.0,7.0,7.0,0.0,0.0,0.0,0.0,0.0,0.0,0.0,0.0,8.0,3.0,6.0,,,,,2019-12-01
54,56,Guatemala,0.0,0.0,0.0,0.0,1.0,1.0,0.0,0.0,0.0,0.0,0.0,0.0,0.0,0.0,1.0,1.0,0.0,,,,,2019-12-01
55,57,Haiti,0.0,0.0,0.0,0.0,1.0,1.0,0.0,0.0,0.0,0.0,1.0,1.0,0.0,0.0,6.0,3.0,3.0,,,,,2019-12-01
56,58,Honduras,0.0,0.0,0.0,0.0,0.0,0.0,0.0,0.0,0.0,0.0,0.0,0.0,0.0,0.0,7.0,4.0,3.0,,,,,2019-12-01
57,59,Jamaika,3.0,0.0,2.0,1.0,0.0,0.0,0.0,0.0,0.0,0.0,0.0,0.0,0.0,0.0,4.0,0.0,2.0,,,,,2019-12-01
58,60,Kanada,0.0,0.0,0.0,0.0,0.0,0.0,0.0,0.0,0.0,0.0,0.0,0.0,0.0,0.0,1.0,1.0,0.0,,,,,2019-12-01
59,61,Kolumbien,7.0,7.0,0.0,0.0,44.0,34.0,1.0,5.0,0.0,0.0,6.0,6.0,0.0,0.0,98.0,78.0,21.0,,,,,2019-12-01
60,62,Kuba,4.0,4.0,2.0,0.0,5.0,3.0,1.0,0.0,0.0,0.0,2.0,2.0,0.0,0.0,6.0,7.0,0.0,,,,,2019-12-01
61,63,Mexiko,1.0,0.0,0.0,0.0,2.0,2.0,0.0,0.0,0.0,0.0,0.0,0.0,0.0,0.0,11.0,8.0,3.0,,,,,2019-12-01
62,64,Nicaragua,0.0,0.0,0.0,0.0,6.0,5.0,0.0,0.0,0.0,0.0,1.0,1.0,0.0,0.0,11.0,11.0,1.0,,,,,2019-12-01
63,65,Paraguay,0.0,0.0,0.0,0.0,0.0,0.0,0.0,0.0,0.0,0.0,0.0,0.0,0.0,0.0,7.0,7.0,0.0,,,,,2019-12-01
64,66,Peru,2.0,3.0,0.0,0.0,4.0,2.0,0.0,2.0,0.0,0.0,4.0,3.0,1.0,0.0,25.0,21.0,3.0,,,,,2019-12-01
65,67,Uruguay,1.0,1.0,0.0,0.0,1.0,0.0,0.0,0.0,0.0,1.0,0.0,0.0,0.0,0.0,3.0,2.0,0.0,,,,,2019-12-01
66,68,USA,1.0,1.0,0.0,0.0,8.0,7.0,0.0,1.0,0.0,0.0,0.0,0.0,0.0,0.0,25.0,15.0,11.0,,,,,2019-12-01
67,69,Venezuela,3.0,2.0,1.0,0.0,20.0,13.0,0.0,3.0,0.0,0.0,2.0,2.0,0.0,0.0,23.0,17.0,4.0,,,,,2019-12-01
68,72,Afghanistan,102.0,56.0,46.0,0.0,76.0,8.0,0.0,25.0,0.0,12.0,27.0,15.0,1.0,10.0,213.0,107.0,103.0,,,,,2019-12-01
69,73,Armenien,8.0,1.0,6.0,0.0,40.0,17.0,2.0,17.0,3.0,0.0,20.0,16.0,0.0,3.0,46.0,29.0,17.0,,,,,2019-12-01
70,74,Aserbaidschan,16.0,12.0,8.0,0.0,18.0,6.0,1.0,11.0,0.0,0.0,10.0,9.0,0.0,0.0,38.0,14.0,25.0,,,,,2019-12-01
71,75,Bangladesh,3.0,7.0,6.0,0.0,12.0,4.0,1.0,1.0,0.0,1.0,2.0,2.0,0.0,0.0,9.0,6.0,3.0,,,,,2019-12-01
72,76,Bhutan,2.0,0.0,0.0,0.0,0.0,0.0,0.0,0.0,0.0,0.0,0.0,0.0,0.0,0.0,0.0,0.0,0.0,,,,,2019-12-01
73,77,China (Volksrepublik),59.0,13.0,52.0,0.0,15.0,4.0,0.0,10.0,0.0,4.0,3.0,2.0,0.0,0.0,45.0,22.0,21.0,,,,,2019-12-01
74,78,Georgien,141.0,136.0,5.0,1.0,463.0,241.0,19.0,184.0,2.0,4.0,60.0,37.0,15.0,2.0,705.0,498.0,212.0,,,,,2019-12-01
75,79,Indien,9.0,5.0,4.0,0.0,5.0,1.0,0.0,2.0,0.0,0.0,3.0,2.0,0.0,0.0,25.0,18.0,7.0,,,,,2019-12-01
76,80,Irak,145.0,54.0,81.0,2.0,54.0,34.0,15.0,4.0,0.0,3.0,55.0,39.0,7.0,5.0,172.0,117.0,54.0,,,,,2019-12-01
77,81,Iran,144.0,11.0,50.0,0.0,33.0,16.0,0.0,10.0,0.0,2.0,16.0,16.0,0.0,0.0,159.0,79.0,79.0,,,,,2019-12-01
78,82,Israel,4.0,2.0,0.0,0.0,1.0,0.0,0.0,1.0,0.0,0.0,0.0,0.0,0.0,0.0,9.0,8.0,1.0,,,,,2019-12-01
79,83,Japan,0.0,0.0,0.0,0.0,0.0,0.0,0.0,0.0,0.0,0.0,0.0,0.0,0.0,0.0,1.0,1.0,0.0,,,,,2019-12-01
80,84,Jemen,0.0,0.0,6.0,0.0,0.0,0.0,0.0,0.0,0.0,0.0,0.0,0.0,0.0,0.0,6.0,4.0,1.0,,,,,2019-12-01
81,85,Jordanien,1.0,1.0,2.0,0.0,2.0,0.0,0.0,2.0,0.0,0.0,1.0,1.0,0.0,0.0,11.0,7.0,3.0,,,,,2019-12-01
82,86,Kambodscha,1.0,0.0,0.0,1.0,0.0,0.0,0.0,0.0,0.0,0.0,0.0,0.0,0.0,0.0,0.0,0.0,0.0,,,,,2019-12-01
83,87,Kasachstan,0.0,0.0,4.0,0.0,0.0,0.0,0.0,0.0,0.0,4.0,0.0,0.0,0.0,0.0,8.0,3.0,0.0,,,,,2019-12-01
84,88,Kirgisistan,3.0,0.0,0.0,0.0,1.0,0.0,1.0,0.0,0.0,0.0,1.0,1.0,0.0,0.0,1.0,1.0,0.0,,,,,2019-12-01
85,89,Korea (Süd),0.0,0.0,0.0,0.0,0.0,0.0,0.0,0.0,0.0,0.0,0.0,0.0,0.0,0.0,5.0,2.0,0.0,,,,,2019-12-01
86,90,Libanon,8.0,4.0,5.0,0.0,7.0,1.0,0.0,5.0,0.0,0.0,1.0,1.0,0.0,0.0,22.0,14.0,12.0,,,,,2019-12-01
87,91,Malaysia,0.0,0.0,0.0,0.0,0.0,0.0,0.0,0.0,0.0,0.0,0.0,0.0,0.0,0.0,1.0,1.0,0.0,,,,,2019-12-01
88,92,Mongolei,19.0,17.0,17.0,0.0,23.0,5.0,4.0,14.0,0.0,1.0,9.0,9.0,0.0,0.0,27.0,21.0,7.0,,,,,2019-12-01
89,93,Myanmar,0.0,0.0,0.0,0.0,0.0,0.0,0.0,0.0,0.0,0.0,1.0,1.0,0.0,0.0,1.0,1.0,0.0,,,,,2019-12-01
90,94,Nepal,4.0,16.0,2.0,0.0,9.0,0.0,1.0,3.0,0.0,4.0,2.0,2.0,0.0,0.0,13.0,11.0,2.0,,,,,2019-12-01
91,95,Pakistan,49.0,12.0,21.0,0.0,15.0,2.0,0.0,11.0,0.0,2.0,3.0,3.0,0.0,0.0,46.0,35.0,12.0,,,,,2019-12-01
92,96,Philippinen,0.0,0.0,0.0,0.0,0.0,0.0,0.0,0.0,0.0,0.0,2.0,2.0,0.0,0.0,10.0,10.0,0.0,,,,,2019-12-01
93,97,Saudi-Arabien,0.0,0.0,1.0,0.0,1.0,1.0,0.0,0.0,0.0,0.0,1.0,0.0,1.0,0.0,1.0,1.0,0.0,,,,,2019-12-01
94,98,Sri Lanka,333.0,292.0,60.0,0.0,198.0,7.0,0.0,166.0,0.0,7.0,54.0,52.0,0.0,2.0,362.0,108.0,232.0,,,,,2019-12-01
95,99,Syrien,7.0,4.0,4.0,0.0,13.0,8.0,0.0,1.0,0.0,0.0,18.0,13.0,0.0,1.0,65.0,44.0,14.0,,,,,2019-12-01
96,100,Tadschikistan,0.0,0.0,0.0,0.0,0.0,0.0,0.0,0.0,0.0,0.0,0.0,0.0,0.0,0.0,1.0,1.0,0.0,,,,,2019-12-01
97,101,Taiwan,0.0,0.0,0.0,0.0,1.0,1.0,0.0,0.0,0.0,0.0,0.0,0.0,0.0,0.0,3.0,1.0,2.0,,,,,2019-12-01
98,102,Thailand,1.0,1.0,0.0,0.0,1.0,0.0,0.0,1.0,0.0,0.0,1.0,1.0,0.0,0.0,10.0,9.0,1.0,,,,,2019-12-01
99,103,Usbekistan,0.0,0.0,0.0,0.0,0.0,0.0,0.0,0.0,0.0,0.0,0.0,0.0,0.0,0.0,5.0,3.0,2.0,,,,,2019-12-01
100,104,Vietnam,0.0,1.0,0.0,0.0,1.0,0.0,0.0,1.0,0.0,0.0,0.0,0.0,0.0,0.0,5.0,6.0,0.0,,,,,2019-12-01
101,107,Albanien,37.0,24.0,0.0,0.0,84.0,55.0,0.0,30.0,0.0,0.0,6.0,3.0,1.0,0.0,725.0,649.0,72.0,,,,,2019-12-01
102,108,Belarus,12.0,12.0,1.0,1.0,22.0,5.0,0.0,16.0,0.0,1.0,13.0,9.0,1.0,1.0,42.0,32.0,11.0,,,,,2019-12-01
103,109,Belgien,0.0,0.0,0.0,0.0,1.0,0.0,0.0,0.0,0.0,0.0,0.0,0.0,0.0,0.0,5.0,4.0,1.0,,,,,2019-12-01
104,110,Bosnien u. Herzegowina,23.0,22.0,0.0,0.0,30.0,10.0,2.0,19.0,0.0,1.0,5.0,5.0,0.0,0.0,73.0,61.0,12.0,,,,,2019-12-01
105,111,Bulgarien,0.0,0.0,0.0,0.0,1.0,1.0,0.0,0.0,0.0,0.0,3.0,3.0,0.0,0.0,31.0,31.0,1.0,,,,,2019-12-01
106,112,Deutschland,2.0,1.0,0.0,1.0,2.0,1.0,0.0,1.0,0.0,0.0,1.0,1.0,0.0,0.0,12.0,9.0,3.0,,,,,2019-12-01
107,113,Estland,0.0,0.0,0.0,0.0,0.0,0.0,0.0,0.0,0.0,0.0,0.0,0.0,0.0,0.0,3.0,2.0,1.0,,,,,2019-12-01
108,114,Frankreich,2.0,0.0,1.0,0.0,0.0,0.0,0.0,0.0,0.0,0.0,0.0,0.0,0.0,0.0,8.0,8.0,0.0,,,,,2019-12-01
109,115,Griechenland,0.0,0.0,0.0,0.0,0.0,0.0,0.0,0.0,0.0,0.0,0.0,0.0,0.0,0.0,4.0,4.0,0.0,,,,,2019-12-01
110,116,Grossbritannien,0.0,0.0,0.0,0.0,0.0,0.0,0.0,0.0,0.0,0.0,0.0,0.0,0.0,0.0,8.0,8.0,2.0,,,,,2019-12-01
111,117,Italien,1.0,0.0,0.0,0.0,4.0,4.0,0.0,0.0,0.0,0.0,0.0,0.0,0.0,0.0,32.0,27.0,4.0,,,,,2019-12-01
112,118,Kosovo,71.0,71.0,1.0,0.0,129.0,24.0,1.0,103.0,1.0,0.0,29.0,29.0,0.0,0.0,392.0,326.0,88.0,,,,,2019-12-01
113,119,Kroatien,0.0,0.0,0.0,0.0,0.0,0.0,0.0,0.0,0.0,0.0,0.0,0.0,0.0,0.0,27.0,23.0,3.0,,,,,2019-12-01
114,120,Lettland,0.0,0.0,0.0,0.0,0.0,0.0,0.0,0.0,0.0,0.0,0.0,0.0,0.0,0.0,5.0,6.0,0.0,,,,,2019-12-01
115,121,Litauen,1.0,1.0,0.0,0.0,1.0,0.0,0.0,1.0,0.0,0.0,0.0,0.0,0.0,0.0,32.0,25.0,8.0,,,,,2019-12-01
116,122,Nordmazedonien,50.0,54.0,2.0,1.0,64.0,18.0,0.0,39.0,0.0,1.0,16.0,12.0,4.0,0.0,185.0,149.0,38.0,,,,,2019-12-01
117,123,Moldova,9.0,10.0,1.0,0.0,21.0,8.0,0.0,12.0,0.0,1.0,3.0,3.0,0.0,0.0,46.0,30.0,11.0,,,,,2019-12-01
118,124,Montenegro,2.0,2.0,1.0,0.0,3.0,1.0,0.0,2.0,0.0,0.0,0.0,0.0,0.0,0.0,14.0,14.0,0.0,,,,,2019-12-01
119,125,Niederlande,0.0,0.0,0.0,0.0,1.0,0.0,0.0,0.0,0.0,0.0,0.0,0.0,0.0,0.0,19.0,15.0,4.0,,,,,2019-12-01
120,126,Österreich,0.0,0.0,0.0,0.0,0.0,0.0,0.0,0.0,0.0,0.0,0.0,0.0,0.0,0.0,4.0,3.0,1.0,,,,,2019-12-01
121,127,Polen,0.0,0.0,0.0,0.0,2.0,2.0,1.0,0.0,0.0,0.0,0.0,0.0,0.0,0.0,48.0,39.0,8.0,,,,,2019-12-01
122,128,Portugal,0.0,0.0,0.0,0.0,0.0,0.0,0.0,0.0,0.0,0.0,0.0,0.0,0.0,0.0,112.0,95.0,24.0,,,,,2019-12-01
123,129,Rumänien,2.0,0.0,0.0,0.0,2.0,1.0,0.0,0.0,0.0,0.0,9.0,8.0,0.0,0.0,373.0,311.0,62.0,,,,,2019-12-01
124,130,Russland,32.0,18.0,8.0,6.0,21.0,11.0,2.0,18.0,0.0,2.0,8.0,8.0,0.0,0.0,94.0,68.0,33.0,,,,,2019-12-01
125,131,Schweden,0.0,0.0,0.0,0.0,0.0,0.0,0.0,0.0,0.0,0.0,0.0,0.0,0.0,0.0,1.0,1.0,0.0,,,,,2019-12-01
126,132,Serbien,75.0,72.0,0.0,1.0,110.0,24.0,5.0,64.0,1.0,3.0,21.0,16.0,0.0,1.0,402.0,323.0,59.0,,,,,2019-12-01
127,133,Slowakische Republik,0.0,0.0,0.0,0.0,4.0,4.0,0.0,0.0,0.0,0.0,0.0,0.0,0.0,0.0,12.0,9.0,3.0,,,,,2019-12-01
128,134,Slowenien,0.0,0.0,0.0,0.0,1.0,1.0,0.0,0.0,0.0,0.0,0.0,0.0,0.0,0.0,4.0,4.0,0.0,,,,,2019-12-01
129,135,Spanien,0.0,0.0,0.0,0.0,5.0,4.0,0.0,0.0,0.0,0.0,1.0,1.0,0.0,0.0,71.0,63.0,7.0,,,,,2019-12-01
130,136,Tschechische Republik,0.0,0.0,0.0,0.0,0.0,0.0,0.0,0.0,0.0,0.0,0.0,0.0,0.0,0.0,8.0,6.0,2.0,,,,,2019-12-01
131,137,Tschechoslowakei,0.0,0.0,0.0,0.0,0.0,0.0,0.0,0.0,0.0,0.0,0.0,0.0,0.0,0.0,1.0,1.0,0.0,,,,,2019-12-01
132,138,Türkei,50.0,15.0,22.0,1.0,78.0,54.0,2.0,18.0,1.0,2.0,43.0,37.0,1.0,0.0,182.0,131.0,51.0,,,,,2019-12-01
133,139,Ukraine,16.0,16.0,1.0,0.0,55.0,35.0,1.0,17.0,0.0,0.0,13.0,13.0,0.0,0.0,88.0,68.0,19.0,,,,,2019-12-01
134,140,Ungarn,0.0,0.0,0.0,0.0,1.0,1.0,0.0,0.0,0.0,0.0,5.0,5.0,0.0,0.0,28.0,24.0,4.0,,,,,2019-12-01
135,143,Australien,1.0,1.0,0.0,0.0,2.0,2.0,0.0,0.0,0.0,0.0,0.0,0.0,0.0,0.0,7.0,1.0,7.0,,,,,2019-12-01
136,144,Neuseeland,0.0,0.0,0.0,0.0,1.0,1.0,0.0,0.0,0.0,0.0,0.0,0.0,0.0,0.0,1.0,1.0,0.0,,,,,2019-12-01
137,147,Staatenlos,0.0,0.0,0.0,0.0,0.0,0.0,0.0,0.0,0.0,0.0,0.0,0.0,0.0,0.0,6.0,1.0,3.0,,,,,2019-12-01
138,148,Ohne Nationalität,9.0,1.0,6.0,0.0,2.0,0.0,0.0,1.0,0.0,1.0,1.0,0.0,0.0,0.0,38.0,16.0,19.0,,,,,2019-12-01
139,149,Staat unbekannt,61.0,13.0,58.0,0.0,15.0,1.0,0.0,4.0,3.0,4.0,4.0,2.0,0.0,0.0,42.0,36.0,14.0,,,,,2019-12-01
140,0,Ägypten,16.0,6.0,0.0,6.0,8.0,2.0,0.0,5.0,0.0,0.0,1.0,2.0,0.0,0.0,24.0,8.0,16.0,,,,,2020-12-01
141,1,Algerien,334.0,144.0,1.0,208.0,142.0,8.0,13.0,74.0,5.0,49.0,106.0,46.0,3.0,49.0,446.0,207.0,296.0,,,,,2020-12-01
142,2,Angola,19.0,5.0,0.0,9.0,5.0,0.0,0.0,4.0,0.0,2.0,4.0,4.0,0.0,0.0,44.0,27.0,18.0,,,,,2020-12-01
143,3,Äquatorialguinea,0.0,0.0,0.0,1.0,0.0,0.0,0.0,0.0,0.0,0.0,0.0,0.0,0.0,0.0,1.0,1.0,0.0,,,,,2020-12-01
144,4,Äthiopien,106.0,42.0,0.0,108.0,48.0,3.0,5.0,35.0,2.0,2.0,14.0,12.0,0.0,1.0,72.0,24.0,43.0,,,,,2020-12-01
145,5,Benin,3.0,2.0,0.0,1.0,3.0,0.0,0.0,0.0,0.0,1.0,1.0,0.0,0.0,0.0,0.0,0.0,1.0,,,,,2020-12-01
146,6,Burkina Faso,3.0,1.0,0.0,5.0,2.0,1.0,0.0,0.0,0.0,2.0,1.0,1.0,0.0,0.0,8.0,4.0,9.0,,,,,2020-12-01
147,7,Burundi,0.0,0.0,0.0,1.0,1.0,1.0,0.0,0.0,0.0,0.0,1.0,1.0,0.0,0.0,3.0,2.0,1.0,,,,,2020-12-01
148,8,Côte d'Ivoire,13.0,5.0,0.0,9.0,2.0,0.0,2.0,0.0,0.0,1.0,3.0,3.0,0.0,0.0,17.0,12.0,7.0,,,,,2020-12-01
149,9,Dschibuti,2.0,1.0,0.0,1.0,0.0,0.0,0.0,1.0,0.0,0.0,0.0,0.0,0.0,0.0,5.0,1.0,4.0,,,,,2020-12-01
150,10,Eritrea,225.0,13.0,0.0,208.0,12.0,4.0,1.0,1.0,0.0,9.0,3.0,6.0,0.0,0.0,37.0,21.0,19.0,,,,,2020-12-01
151,11,Gabun,2.0,0.0,0.0,0.0,0.0,0.0,0.0,0.0,0.0,0.0,0.0,0.0,0.0,0.0,4.0,2.0,3.0,,,,,2020-12-01
152,12,Gambia,23.0,10.0,0.0,8.0,15.0,3.0,4.0,6.0,0.0,1.0,7.0,6.0,0.0,0.0,91.0,50.0,52.0,,,,,2020-12-01
153,13,Ghana,4.0,10.0,0.0,0.0,8.0,2.0,0.0,6.0,0.0,1.0,9.0,8.0,0.0,1.0,28.0,17.0,12.0,,,,,2020-12-01
154,14,Guinea,45.0,14.0,1.0,30.0,24.0,1.0,0.0,23.0,0.0,5.0,8.0,8.0,0.0,1.0,100.0,52.0,48.0,,,,,2020-12-01
155,15,Guinea-Bissau,5.0,2.0,0.0,1.0,3.0,0.0,0.0,1.0,0.0,2.0,2.0,1.0,0.0,0.0,15.0,13.0,4.0,,,,,2020-12-01
156,16,Kamerun,13.0,3.0,0.0,7.0,19.0,1.0,0.0,8.0,0.0,4.0,5.0,0.0,0.0,1.0,25.0,10.0,18.0,,,,,2020-12-01
157,17,Kapverden,0.0,0.0,0.0,2.0,0.0,0.0,0.0,0.0,0.0,0.0,0.0,0.0,0.0,0.0,0.0,0.0,0.0,,,,,2020-12-01
158,18,Kenia,1.0,2.0,0.0,1.0,3.0,0.0,0.0,0.0,0.0,0.0,1.0,1.0,0.0,0.0,5.0,4.0,1.0,,,,,2020-12-01
159,19,Kongo,2.0,0.0,0.0,0.0,0.0,0.0,0.0,0.0,0.0,0.0,0.0,0.0,0.0,0.0,2.0,0.0,1.0,,,,,2020-12-01
160,20,Kongo DR,35.0,4.0,0.0,10.0,5.0,1.0,0.0,4.0,0.0,1.0,5.0,5.0,0.0,0.0,20.0,9.0,8.0,,,,,2020-12-01
161,21,Liberia,2.0,0.0,0.0,1.0,0.0,0.0,0.0,0.0,0.0,0.0,0.0,0.0,0.0,0.0,7.0,2.0,4.0,,,,,2020-12-01
162,22,Libyen,23.0,4.0,0.0,10.0,6.0,0.0,0.0,0.0,0.0,1.0,6.0,4.0,0.0,5.0,46.0,22.0,21.0,,,,,2020-12-01
163,23,Malawi,0.0,0.0,0.0,0.0,0.0,0.0,0.0,0.0,0.0,0.0,0.0,0.0,0.0,0.0,1.0,0.0,0.0,,,,,2020-12-01
164,24,Mali,8.0,8.0,0.0,11.0,7.0,0.0,3.0,3.0,0.0,2.0,5.0,5.0,0.0,0.0,30.0,8.0,21.0,,,,,2020-12-01
165,25,Marokko,122.0,45.0,0.0,93.0,37.0,8.0,0.0,5.0,1.0,10.0,16.0,7.0,1.0,11.0,198.0,87.0,107.0,,,,,2020-12-01
166,26,Mauretanien,2.0,0.0,0.0,4.0,0.0,0.0,0.0,0.0,0.0,1.0,0.0,0.0,0.0,0.0,4.0,2.0,1.0,,,,,2020-12-01
167,27,Mauritius,0.0,0.0,0.0,0.0,1.0,0.0,0.0,0.0,0.0,0.0,0.0,0.0,0.0,0.0,3.0,2.0,1.0,,,,,2020-12-01
168,28,Mosambik,0.0,0.0,0.0,0.0,0.0,0.0,0.0,0.0,0.0,0.0,1.0,1.0,0.0,0.0,1.0,0.0,1.0,,,,,2020-12-01
169,29,Niger,3.0,0.0,0.0,2.0,1.0,0.0,0.0,0.0,0.0,0.0,0.0,0.0,0.0,0.0,9.0,2.0,7.0,,,,,2020-12-01
170,30,Nigeria,66.0,39.0,0.0,25.0,65.0,6.0,0.0,48.0,1.0,4.0,24.0,19.0,1.0,4.0,317.0,138.0,175.0,,,,,2020-12-01
171,31,Ruanda,1.0,1.0,0.0,0.0,0.0,0.0,0.0,0.0,0.0,0.0,0.0,0.0,0.0,0.0,2.0,1.0,0.0,,,,,2020-12-01
172,32,Sambia,0.0,0.0,0.0,0.0,0.0,0.0,0.0,0.0,0.0,0.0,0.0,0.0,0.0,0.0,0.0,0.0,1.0,,,,,2020-12-01
173,33,Senegal,9.0,5.0,0.0,7.0,8.0,3.0,0.0,3.0,0.0,1.0,5.0,4.0,0.0,1.0,45.0,16.0,32.0,,,,,2020-12-01
174,34,Sierra Leone,3.0,2.0,0.0,7.0,2.0,0.0,0.0,0.0,0.0,1.0,1.0,0.0,0.0,0.0,6.0,3.0,2.0,,,,,2020-12-01
175,35,Somalia,49.0,19.0,1.0,34.0,20.0,0.0,5.0,12.0,0.0,1.0,17.0,20.0,0.0,5.0,75.0,39.0,32.0,,,,,2020-12-01
176,36,Sudan,11.0,11.0,0.0,4.0,10.0,0.0,3.0,1.0,0.0,1.0,5.0,4.0,0.0,0.0,26.0,13.0,11.0,,,,,2020-12-01
177,37,Südsudan,1.0,0.0,0.0,0.0,0.0,0.0,0.0,0.0,0.0,0.0,0.0,0.0,0.0,0.0,1.0,0.0,0.0,,,,,2020-12-01
178,38,Tansania,2.0,6.0,0.0,1.0,3.0,1.0,0.0,1.0,0.0,0.0,2.0,2.0,0.0,0.0,2.0,1.0,0.0,,,,,2020-12-01
179,39,Togo,8.0,11.0,0.0,5.0,8.0,0.0,0.0,8.0,0.0,0.0,0.0,0.0,0.0,0.0,3.0,2.0,0.0,,,,,2020-12-01
180,40,Tschad,1.0,0.0,0.0,3.0,0.0,0.0,0.0,0.0,0.0,1.0,0.0,0.0,0.0,0.0,6.0,2.0,3.0,,,,,2020-12-01
181,41,Tunesien,77.0,51.0,1.0,43.0,80.0,7.0,2.0,65.0,1.0,12.0,14.0,9.0,0.0,1.0,180.0,63.0,116.0,,,,,2020-12-01
182,42,Uganda,4.0,0.0,0.0,4.0,0.0,0.0,0.0,0.0,0.0,0.0,1.0,1.0,0.0,0.0,2.0,1.0,0.0,,,,,2020-12-01
183,43,Westsahara,2.0,1.0,0.0,0.0,0.0,0.0,0.0,0.0,0.0,0.0,0.0,0.0,0.0,0.0,5.0,1.0,4.0,,,,,2020-12-01
184,44,Zentralafr. Republik,1.0,0.0,0.0,1.0,0.0,0.0,0.0,0.0,0.0,0.0,0.0,0.0,0.0,0.0,3.0,0.0,3.0,,,,,2020-12-01
185,45,Zimbabwe,2.0,2.0,0.0,0.0,3.0,0.0,0.0,1.0,0.0,0.0,1.0,1.0,0.0,0.0,7.0,1.0,4.0,,,,,2020-12-01
186,48,Argentinien,0.0,0.0,0.0,0.0,0.0,0.0,0.0,0.0,0.0,0.0,0.0,0.0,0.0,0.0,5.0,3.0,2.0,,,,,2020-12-01
187,49,Bolivien,0.0,0.0,0.0,0.0,0.0,0.0,0.0,0.0,0.0,0.0,0.0,0.0,0.0,0.0,7.0,3.0,6.0,,,,,2020-12-01
188,50,Brasilien,4.0,3.0,0.0,0.0,5.0,4.0,0.0,2.0,0.0,0.0,3.0,3.0,0.0,0.0,98.0,73.0,22.0,,,,,2020-12-01
189,51,Chile,2.0,2.0,0.0,1.0,3.0,1.0,0.0,2.0,0.0,0.0,0.0,0.0,0.0,0.0,23.0,15.0,8.0,,,,,2020-12-01
190,52,Dominikanische Republik,3.0,2.0,0.0,1.0,4.0,0.0,0.0,4.0,0.0,0.0,0.0,0.0,0.0,0.0,32.0,17.0,12.0,,,,,2020-12-01
191,53,Ecuador,1.0,2.0,0.0,0.0,0.0,0.0,0.0,0.0,0.0,0.0,0.0,0.0,0.0,0.0,7.0,4.0,3.0,,,,,2020-12-01
192,54,El Salvador,0.0,0.0,0.0,0.0,14.0,14.0,0.0,0.0,0.0,0.0,6.0,3.0,0.0,0.0,15.0,3.0,9.0,,,,,2020-12-01
193,55,Haiti,0.0,0.0,0.0,0.0,2.0,2.0,0.0,0.0,0.0,0.0,0.0,0.0,0.0,0.0,3.0,3.0,0.0,,,,,2020-12-01
194,56,Honduras,1.0,1.0,0.0,0.0,1.0,0.0,0.0,0.0,0.0,1.0,0.0,0.0,0.0,0.0,1.0,1.0,1.0,,,,,2020-12-01
195,57,Jamaika,1.0,1.0,0.0,3.0,0.0,0.0,0.0,0.0,0.0,0.0,1.0,0.0,0.0,1.0,3.0,3.0,2.0,,,,,2020-12-01
196,58,Kanada,2.0,1.0,0.0,1.0,1.0,0.0,0.0,1.0,0.0,0.0,0.0,0.0,0.0,0.0,12.0,7.0,5.0,,,,,2020-12-01
197,59,Kolumbien,2.0,1.0,0.0,0.0,30.0,29.0,0.0,0.0,0.0,1.0,18.0,14.0,0.0,0.0,64.0,47.0,18.0,,,,,2020-12-01
198,60,Kuba,1.0,1.0,0.0,1.0,1.0,0.0,0.0,0.0,0.0,0.0,0.0,0.0,0.0,0.0,0.0,0.0,0.0,,,,,2020-12-01
199,61,Mexiko,1.0,1.0,0.0,0.0,2.0,1.0,0.0,0.0,0.0,0.0,0.0,0.0,0.0,0.0,7.0,3.0,4.0,,,,,2020-12-01
200,62,Nicaragua,0.0,0.0,0.0,0.0,1.0,1.0,0.0,0.0,0.0,0.0,0.0,0.0,0.0,0.0,1.0,0.0,1.0,,,,,2020-12-01
201,63,Paraguay,0.0,0.0,0.0,0.0,0.0,0.0,0.0,0.0,0.0,0.0,0.0,0.0,0.0,0.0,4.0,4.0,0.0,,,,,2020-12-01
202,64,Peru,1.0,0.0,0.0,0.0,0.0,0.0,0.0,0.0,0.0,0.0,0.0,0.0,0.0,0.0,7.0,5.0,1.0,,,,,2020-12-01
203,65,Uruguay,0.0,0.0,0.0,0.0,1.0,0.0,0.0,1.0,0.0,0.0,0.0,0.0,0.0,0.0,0.0,1.0,0.0,,,,,2020-12-01
204,66,USA,1.0,1.0,0.0,0.0,1.0,1.0,0.0,0.0,0.0,0.0,0.0,0.0,0.0,0.0,10.0,8.0,3.0,,,,,2020-12-01
205,67,Venezuela,9.0,6.0,0.0,1.0,8.0,4.0,0.0,2.0,0.0,5.0,7.0,4.0,0.0,2.0,20.0,7.0,11.0,,,,,2020-12-01
206,70,Afghanistan,74.0,30.0,0.0,45.0,34.0,7.0,0.0,19.0,1.0,20.0,22.0,17.0,0.0,4.0,183.0,67.0,119.0,,,,,2020-12-01
207,71,Armenien,12.0,6.0,1.0,0.0,28.0,7.0,3.0,10.0,0.0,9.0,11.0,11.0,0.0,1.0,26.0,15.0,12.0,,,,,2020-12-01
208,72,Aserbaidschan,2.0,5.0,0.0,0.0,4.0,0.0,2.0,2.0,0.0,0.0,4.0,4.0,0.0,0.0,6.0,6.0,0.0,,,,,2020-12-01
209,73,Bangladesh,2.0,1.0,0.0,0.0,1.0,1.0,1.0,0.0,0.0,2.0,2.0,1.0,0.0,0.0,7.0,6.0,1.0,,,,,2020-12-01
210,74,Bhutan,4.0,0.0,0.0,4.0,0.0,0.0,0.0,0.0,0.0,0.0,0.0,0.0,0.0,0.0,0.0,0.0,0.0,,,,,2020-12-01
211,75,China (Volksrepublik),41.0,5.0,0.0,56.0,8.0,2.0,0.0,2.0,0.0,3.0,3.0,1.0,0.0,1.0,32.0,17.0,15.0,,,,,2020-12-01
212,76,Georgien,118.0,109.0,0.0,3.0,278.0,131.0,8.0,142.0,0.0,1.0,142.0,107.0,20.0,6.0,510.0,262.0,229.0,,,,,2020-12-01
213,77,Indien,5.0,6.0,0.0,2.0,3.0,0.0,0.0,2.0,0.0,1.0,2.0,2.0,0.0,0.0,18.0,11.0,7.0,,,,,2020-12-01
214,78,Irak,197.0,29.0,0.0,103.0,49.0,16.0,10.0,17.0,0.0,5.0,47.0,38.0,1.0,5.0,203.0,95.0,122.0,,,,,2020-12-01
215,79,Iran,183.0,15.0,0.0,131.0,17.0,7.0,1.0,8.0,0.0,9.0,13.0,10.0,1.0,1.0,66.0,31.0,39.0,,,,,2020-12-01
216,80,Israel,0.0,0.0,0.0,1.0,1.0,1.0,0.0,0.0,0.0,0.0,0.0,0.0,0.0,0.0,6.0,3.0,2.0,,,,,2020-12-01
217,81,Japan,0.0,0.0,0.0,0.0,1.0,1.0,0.0,0.0,0.0,0.0,0.0,0.0,0.0,0.0,2.0,1.0,1.0,,,,,2020-12-01
218,82,Jemen,0.0,0.0,0.0,0.0,0.0,0.0,0.0,0.0,0.0,0.0,1.0,1.0,0.0,0.0,0.0,1.0,0.0,,,,,2020-12-01
219,83,Jordanien,1.0,1.0,0.0,0.0,0.0,0.0,0.0,0.0,0.0,0.0,0.0,0.0,0.0,0.0,2.0,2.0,0.0,,,,,2020-12-01
220,84,Kambodscha,1.0,0.0,0.0,0.0,0.0,0.0,0.0,0.0,0.0,0.0,0.0,0.0,0.0,0.0,0.0,0.0,0.0,,,,,2020-12-01
221,85,Kasachstan,1.0,1.0,0.0,0.0,1.0,0.0,0.0,1.0,0.0,0.0,0.0,0.0,0.0,0.0,2.0,1.0,6.0,,,,,2020-12-01
222,86,Korea (Süd),0.0,0.0,0.0,0.0,2.0,2.0,0.0,0.0,0.0,0.0,1.0,1.0,0.0,0.0,2.0,1.0,4.0,,,,,2020-12-01
223,87,Libanon,3.0,2.0,0.0,0.0,1.0,0.0,0.0,2.0,0.0,1.0,1.0,1.0,0.0,0.0,8.0,4.0,4.0,,,,,2020-12-01
224,88,Malaysia,0.0,0.0,0.0,0.0,0.0,0.0,0.0,0.0,0.0,0.0,2.0,2.0,0.0,0.0,2.0,2.0,0.0,,,,,2020-12-01
225,89,Mongolei,4.0,4.0,0.0,4.0,19.0,5.0,0.0,11.0,0.0,0.0,4.0,0.0,4.0,0.0,14.0,7.0,7.0,,,,,2020-12-01
226,90,Myanmar,0.0,0.0,0.0,0.0,0.0,0.0,0.0,0.0,0.0,0.0,0.0,0.0,0.0,0.0,5.0,1.0,4.0,,,,,2020-12-01
227,91,Nepal,3.0,1.0,0.0,3.0,4.0,3.0,0.0,2.0,0.0,0.0,1.0,1.0,0.0,0.0,7.0,4.0,3.0,,,,,2020-12-01
228,92,Oman,0.0,0.0,0.0,0.0,0.0,0.0,0.0,0.0,0.0,0.0,0.0,0.0,0.0,0.0,1.0,1.0,0.0,,,,,2020-12-01
229,93,Pakistan,39.0,17.0,0.0,28.0,19.0,5.0,0.0,9.0,0.0,2.0,8.0,5.0,0.0,4.0,46.0,18.0,29.0,,,,,2020-12-01
230,94,Philippinen,0.0,0.0,0.0,0.0,0.0,0.0,0.0,0.0,0.0,0.0,0.0,0.0,0.0,0.0,8.0,6.0,2.0,,,,,2020-12-01
231,95,Saudi-Arabien,0.0,0.0,0.0,0.0,0.0,0.0,0.0,0.0,0.0,0.0,0.0,0.0,0.0,0.0,1.0,0.0,1.0,,,,,2020-12-01
232,96,Sri Lanka,317.0,178.0,0.0,85.0,238.0,6.0,0.0,25.0,4.0,31.0,9.0,6.0,0.0,3.0,71.0,22.0,63.0,,,,,2020-12-01
233,97,Syrien,10.0,0.0,0.0,3.0,5.0,4.0,0.0,0.0,0.0,1.0,11.0,14.0,0.0,0.0,57.0,21.0,42.0,,,,,2020-12-01
234,98,Thailand,1.0,1.0,0.0,0.0,2.0,1.0,0.0,1.0,0.0,1.0,0.0,0.0,0.0,0.0,10.0,5.0,4.0,,,,,2020-12-01
235,99,Usbekistan,0.0,0.0,0.0,4.0,0.0,0.0,0.0,0.0,0.0,0.0,0.0,0.0,0.0,0.0,0.0,0.0,0.0,,,,,2020-12-01
236,100,Vietnam,1.0,0.0,0.0,0.0,1.0,1.0,0.0,0.0,0.0,0.0,1.0,0.0,0.0,1.0,7.0,4.0,3.0,,,,,2020-12-01
237,103,Albanien,47.0,48.0,0.0,1.0,74.0,26.0,0.0,45.0,2.0,1.0,16.0,16.0,0.0,2.0,586.0,440.0,159.0,,,,,2020-12-01
238,104,Belarus,7.0,5.0,0.0,2.0,27.0,12.0,3.0,11.0,0.0,0.0,14.0,13.0,0.0,1.0,43.0,24.0,16.0,,,,,2020-12-01
239,105,Belgien,0.0,0.0,0.0,0.0,0.0,0.0,0.0,0.0,0.0,0.0,0.0,0.0,0.0,0.0,8.0,5.0,3.0,,,,,2020-12-01
240,106,Bosnien u. Herzegowina,17.0,14.0,0.0,4.0,11.0,2.0,0.0,8.0,1.0,1.0,4.0,3.0,0.0,0.0,38.0,28.0,12.0,,,,,2020-12-01
241,107,Bulgarien,1.0,1.0,0.0,0.0,1.0,0.0,0.0,1.0,0.0,0.0,1.0,1.0,0.0,0.0,25.0,14.0,8.0,,,,,2020-12-01
242,108,Deutschland,0.0,0.0,0.0,0.0,1.0,1.0,0.0,0.0,0.0,0.0,0.0,0.0,0.0,0.0,2.0,1.0,0.0,,,,,2020-12-01
243,109,Estland,0.0,0.0,0.0,0.0,0.0,0.0,0.0,0.0,0.0,0.0,0.0,0.0,0.0,0.0,4.0,2.0,2.0,,,,,2020-12-01
244,110,Frankreich,3.0,1.0,0.0,0.0,3.0,2.0,0.0,1.0,0.0,0.0,3.0,1.0,0.0,0.0,15.0,7.0,7.0,,,,,2020-12-01
245,111,Griechenland,0.0,0.0,0.0,0.0,0.0,0.0,0.0,0.0,0.0,0.0,0.0,0.0,0.0,0.0,7.0,4.0,3.0,,,,,2020-12-01
246,112,Grossbritannien,1.0,1.0,0.0,0.0,2.0,1.0,0.0,0.0,0.0,1.0,0.0,0.0,0.0,0.0,7.0,6.0,1.0,,,,,2020-12-01
247,113,Irland,0.0,0.0,0.0,0.0,0.0,0.0,0.0,0.0,0.0,0.0,0.0,0.0,0.0,0.0,1.0,1.0,0.0,,,,,2020-12-01
248,114,Italien,0.0,0.0,0.0,1.0,3.0,2.0,0.0,1.0,0.0,0.0,0.0,0.0,0.0,0.0,34.0,20.0,15.0,,,,,2020-12-01
249,115,Kosovo,57.0,51.0,0.0,11.0,85.0,22.0,3.0,61.0,0.0,0.0,16.0,12.0,0.0,3.0,257.0,171.0,101.0,,,,,2020-12-01
250,116,Kroatien,0.0,0.0,0.0,1.0,2.0,2.0,0.0,0.0,0.0,0.0,1.0,1.0,0.0,0.0,18.0,14.0,5.0,,,,,2020-12-01
251,117,Lettland,0.0,0.0,0.0,0.0,0.0,0.0,0.0,0.0,0.0,0.0,0.0,0.0,0.0,0.0,4.0,2.0,2.0,,,,,2020-12-01
252,118,Litauen,0.0,1.0,0.0,0.0,3.0,2.0,0.0,1.0,0.0,0.0,0.0,0.0,0.0,0.0,20.0,15.0,6.0,,,,,2020-12-01
253,119,Nordmazedonien,22.0,23.0,1.0,1.0,29.0,8.0,1.0,18.0,0.0,1.0,13.0,12.0,0.0,0.0,114.0,77.0,32.0,,,,,2020-12-01
254,120,Moldova,9.0,9.0,0.0,3.0,27.0,17.0,4.0,6.0,0.0,0.0,34.0,33.0,0.0,0.0,61.0,50.0,16.0,,,,,2020-12-01
255,121,Montenegro,1.0,1.0,0.0,1.0,0.0,0.0,0.0,0.0,0.0,0.0,0.0,0.0,0.0,0.0,6.0,5.0,1.0,,,,,2020-12-01
256,122,Niederlande,0.0,0.0,0.0,0.0,0.0,0.0,0.0,1.0,0.0,0.0,1.0,1.0,0.0,0.0,9.0,9.0,1.0,,,,,2020-12-01
257,123,Österreich,0.0,0.0,0.0,0.0,0.0,0.0,0.0,0.0,0.0,0.0,0.0,0.0,0.0,0.0,1.0,1.0,0.0,,,,,2020-12-01
258,124,Polen,0.0,0.0,0.0,0.0,0.0,0.0,0.0,0.0,0.0,0.0,0.0,0.0,0.0,0.0,34.0,21.0,13.0,,,,,2020-12-01
259,125,Portugal,1.0,1.0,0.0,1.0,0.0,0.0,0.0,0.0,0.0,0.0,0.0,0.0,0.0,0.0,84.0,66.0,20.0,,,,,2020-12-01
260,126,Rumänien,0.0,0.0,0.0,0.0,1.0,1.0,1.0,0.0,1.0,0.0,9.0,9.0,0.0,1.0,320.0,234.0,92.0,,,,,2020-12-01
261,127,Russland,34.0,26.0,9.0,5.0,17.0,8.0,1.0,7.0,0.0,2.0,13.0,13.0,0.0,0.0,88.0,35.0,51.0,,,,,2020-12-01
262,128,Serbien,54.0,42.0,1.0,6.0,46.0,11.0,1.0,38.0,0.0,2.0,9.0,6.0,1.0,1.0,260.0,173.0,85.0,,,,,2020-12-01
263,129,Slowakische Republik,0.0,0.0,0.0,0.0,1.0,1.0,0.0,0.0,0.0,0.0,0.0,0.0,0.0,0.0,19.0,7.0,11.0,,,,,2020-12-01
264,130,Slowenien,0.0,0.0,0.0,0.0,0.0,0.0,0.0,0.0,0.0,0.0,0.0,0.0,0.0,0.0,2.0,1.0,1.0,,,,,2020-12-01
265,131,Spanien,2.0,0.0,0.0,0.0,2.0,3.0,0.0,0.0,0.0,0.0,2.0,2.0,0.0,0.0,23.0,26.0,1.0,,,,,2020-12-01
266,132,Tschechische Republik,0.0,0.0,0.0,0.0,4.0,4.0,0.0,0.0,0.0,0.0,0.0,0.0,0.0,0.0,10.0,10.0,0.0,,,,,2020-12-01
267,133,Türkei,58.0,18.0,0.0,23.0,67.0,45.0,1.0,13.0,0.0,1.0,15.0,13.0,1.0,0.0,133.0,75.0,62.0,,,,,2020-12-01
268,134,Ukraine,7.0,7.0,1.0,0.0,25.0,14.0,0.0,6.0,0.0,0.0,6.0,4.0,0.0,0.0,52.0,36.0,17.0,,,,,2020-12-01
269,135,Ungarn,0.0,0.0,0.0,0.0,0.0,0.0,0.0,0.0,0.0,0.0,1.0,1.0,0.0,0.0,15.0,9.0,6.0,,,,,2020-12-01
270,138,Australien,1.0,1.0,0.0,0.0,1.0,0.0,0.0,1.0,0.0,0.0,0.0,0.0,0.0,0.0,1.0,1.0,0.0,,,,,2020-12-01
271,141,Staatenlos,0.0,0.0,0.0,0.0,0.0,0.0,0.0,0.0,0.0,0.0,0.0,0.0,0.0,0.0,1.0,1.0,0.0,,,,,2020-12-01
272,142,Ohne Nationalität,13.0,3.0,0.0,8.0,2.0,0.0,0.0,2.0,0.0,2.0,1.0,0.0,0.0,2.0,15.0,5.0,6.0,,,,,2020-12-01
273,143,Staat unbekannt,68.0,9.0,1.0,77.0,10.0,2.0,0.0,3.0,0.0,4.0,3.0,3.0,0.0,0.0,31.0,16.0,13.0,,,,,2020-12-01
