,Nation,BeginnIdentitätsabklärung,Identitätsabklärungpositiv,Identitätsabklärungnegativ,AbschreibungIdentitätsabklärung,BeginnPapierbeschaffung,Papierevorhanden,Papiereselbstbeschafft,Papierebeschafft,Papierenichtbeschafft,Abschreibung Papierbeschaffung,GesucheRückkehrhilfe,Rückkehrhilfebewilligt(inkl. teilweise),Rückkehrhilfe abgelehnt,Abschreibung Gesuch,BeginnAusreiseorganisation,AbschlussAusreiseorganisation,AbschreibungAusreiseorganisation,,.1,.2,.3,Datum,file_name
0,Ägypten,7.0,3.0,6.0,1.0,10.0,4.0,2.0,3.0,1.0,0.0,4.0,3.0,0.0,0.0,36.0,16.0,18.0,,,,,2019-12-01,7-80-Bew-RU-Total-J-d-2020-12.xlsx
1,Algerien,328.0,139.0,121.0,7.0,368.0,12.0,27.0,253.0,7.0,36.0,92.0,82.0,1.0,7.0,752.0,370.0,384.0,,,,,2019-12-01,7-80-Bew-RU-Total-J-d-2020-12.xlsx
2,Angola,9.0,4.0,7.0,0.0,5.0,2.0,0.0,3.0,0.0,0.0,1.0,0.0,0.0,0.0,58.0,32.0,33.0,,,,,2019-12-01,7-80-Bew-RU-Total-J-d-2020-12.xlsx
3,Äquatorialguinea,0.0,0.0,1.0,0.0,0.0,0.0,0.0,0.0,0.0,0.0,0.0,0.0,0.0,0.0,2.0,1.0,1.0,,,,,2019-12-01,7-80-Bew-RU-Total-J-d-2020-12.xlsx
4,Äthiopien,128.0,18.0,91.0,0.0,28.0,8.0,5.0,13.0,2.0,7.0,23.0,23.0,0.0,1.0,83.0,48.0,40.0,,,,,2019-12-01,7-80-Bew-RU-Total-J-d-2020-12.xlsx
5,Benin,4.0,1.0,1.0,0.0,4.0,0.0,0.0,3.0,0.0,0.0,0.0,0.0,0.0,0.0,9.0,2.0,6.0,,,,,2019-12-01,7-80-Bew-RU-Total-J-d-2020-12.xlsx
6,Burkina Faso,8.0,4.0,4.0,0.0,5.0,1.0,0.0,2.0,0.0,1.0,1.0,1.0,0.0,0.0,21.0,5.0,11.0,,,,,2019-12-01,7-80-Bew-RU-Total-J-d-2020-12.xlsx
7,Burundi,1.0,0.0,0.0,0.0,0.0,0.0,0.0,0.0,0.0,1.0,0.0,0.0,0.0,0.0,1.0,0.0,1.0,,,,,2019-12-01,7-80-Bew-RU-Total-J-d-2020-12.xlsx
8,Côte d'Ivoire,15.0,4.0,11.0,0.0,6.0,0.0,1.0,2.0,0.0,1.0,2.0,2.0,0.0,0.0,27.0,16.0,11.0,,,,,2019-12-01,7-80-Bew-RU-Total-J-d-2020-12.xlsx
9,Dschibuti,1.0,0.0,1.0,0.0,0.0,0.0,0.0,0.0,0.0,0.0,0.0,0.0,0.0,0.0,1.0,1.0,0.0,,,,,2019-12-01,7-80-Bew-RU-Total-J-d-2020-12.xlsx
10,Eritrea,430.0,19.0,260.0,1.0,21.0,6.0,5.0,4.0,1.0,16.0,26.0,19.0,0.0,1.0,79.0,48.0,24.0,,,,,2019-12-01,7-80-Bew-RU-Total-J-d-2020-12.xlsx
11,Gabun,1.0,0.0,0.0,0.0,0.0,0.0,0.0,0.0,0.0,0.0,0.0,0.0,0.0,0.0,4.0,1.0,1.0,,,,,2019-12-01,7-80-Bew-RU-Total-J-d-2020-12.xlsx
12,Gambia,20.0,14.0,13.0,0.0,30.0,4.0,4.0,27.0,1.0,2.0,29.0,24.0,0.0,1.0,187.0,130.0,54.0,,,,,2019-12-01,7-80-Bew-RU-Total-J-d-2020-12.xlsx
13,Ghana,5.0,1.0,3.0,0.0,9.0,3.0,0.0,1.0,0.0,1.0,3.0,3.0,0.0,0.0,32.0,17.0,16.0,,,,,2019-12-01,7-80-Bew-RU-Total-J-d-2020-12.xlsx
14,Guinea,87.0,55.0,43.0,0.0,77.0,0.0,0.0,60.0,2.0,7.0,10.0,5.0,0.0,1.0,215.0,147.0,61.0,,,,,2019-12-01,7-80-Bew-RU-Total-J-d-2020-12.xlsx
15,Guinea-Bissau,8.0,10.0,2.0,0.0,7.0,0.0,1.0,7.0,1.0,1.0,6.0,5.0,0.0,0.0,49.0,31.0,13.0,,,,,2019-12-01,7-80-Bew-RU-Total-J-d-2020-12.xlsx
16,Kamerun,20.0,22.0,11.0,1.0,24.0,0.0,0.0,22.0,0.0,0.0,2.0,1.0,0.0,0.0,49.0,24.0,22.0,,,,,2019-12-01,7-80-Bew-RU-Total-J-d-2020-12.xlsx
17,Kapverden,2.0,3.0,0.0,0.0,3.0,0.0,2.0,1.0,0.0,0.0,0.0,0.0,0.0,0.0,2.0,1.0,2.0,,,,,2019-12-01,7-80-Bew-RU-Total-J-d-2020-12.xlsx
18,Kenia,2.0,2.0,1.0,0.0,1.0,0.0,0.0,0.0,0.0,0.0,1.0,1.0,0.0,0.0,7.0,5.0,2.0,,,,,2019-12-01,7-80-Bew-RU-Total-J-d-2020-12.xlsx
19,Kongo,1.0,0.0,0.0,0.0,1.0,1.0,0.0,0.0,0.0,0.0,0.0,0.0,0.0,0.0,0.0,0.0,0.0,,,,,2019-12-01,7-80-Bew-RU-Total-J-d-2020-12.xlsx
20,Kongo DR,26.0,19.0,16.0,2.0,21.0,1.0,0.0,13.0,1.0,1.0,2.0,1.0,0.0,0.0,37.0,18.0,20.0,,,,,2019-12-01,7-80-Bew-RU-Total-J-d-2020-12.xlsx
21,Liberia,1.0,0.0,1.0,0.0,4.0,1.0,0.0,0.0,0.0,0.0,1.0,1.0,0.0,0.0,5.0,2.0,2.0,,,,,2019-12-01,7-80-Bew-RU-Total-J-d-2020-12.xlsx
22,Libyen,25.0,5.0,10.0,0.0,6.0,1.0,1.0,2.0,0.0,2.0,11.0,10.0,0.0,0.0,65.0,39.0,22.0,,,,,2019-12-01,7-80-Bew-RU-Total-J-d-2020-12.xlsx
23,Malawi,0.0,1.0,0.0,0.0,0.0,0.0,0.0,0.0,0.0,0.0,0.0,0.0,0.0,0.0,0.0,0.0,0.0,,,,,2019-12-01,7-80-Bew-RU-Total-J-d-2020-12.xlsx
24,Mali,14.0,5.0,5.0,0.0,8.0,0.0,1.0,6.0,0.0,1.0,6.0,6.0,0.0,0.0,44.0,34.0,10.0,,,,,2019-12-01,7-80-Bew-RU-Total-J-d-2020-12.xlsx
25,Marokko,138.0,43.0,98.0,2.0,61.0,7.0,1.0,44.0,1.0,12.0,10.0,5.0,0.0,4.0,302.0,190.0,121.0,,,,,2019-12-01,7-80-Bew-RU-Total-J-d-2020-12.xlsx
26,Mauretanien,5.0,0.0,3.0,0.0,1.0,0.0,0.0,0.0,0.0,0.0,0.0,0.0,0.0,0.0,5.0,3.0,3.0,,,,,2019-12-01,7-80-Bew-RU-Total-J-d-2020-12.xlsx
27,Mauritius,2.0,2.0,1.0,0.0,3.0,2.0,0.0,1.0,0.0,0.0,0.0,0.0,0.0,0.0,5.0,4.0,1.0,,,,,2019-12-01,7-80-Bew-RU-Total-J-d-2020-12.xlsx
28,Niger,3.0,3.0,2.0,0.0,1.0,0.0,0.0,1.0,0.0,0.0,0.0,0.0,0.0,0.0,7.0,5.0,2.0,,,,,2019-12-01,7-80-Bew-RU-Total-J-d-2020-12.xlsx
29,Nigeria,84.0,72.0,16.0,0.0,100.0,8.0,3.0,71.0,0.0,9.0,30.0,26.0,0.0,0.0,487.0,371.0,130.0,,,,,2019-12-01,7-80-Bew-RU-Total-J-d-2020-12.xlsx
30,Ruanda,3.0,0.0,3.0,0.0,0.0,0.0,0.0,0.0,0.0,0.0,0.0,0.0,0.0,0.0,1.0,1.0,0.0,,,,,2019-12-01,7-80-Bew-RU-Total-J-d-2020-12.xlsx
31,Sambia,0.0,0.0,0.0,0.0,1.0,1.0,0.0,0.0,0.0,0.0,0.0,0.0,0.0,0.0,1.0,0.0,1.0,,,,,2019-12-01,7-80-Bew-RU-Total-J-d-2020-12.xlsx
32,Senegal,20.0,20.0,8.0,0.0,21.0,4.0,2.0,15.0,1.0,0.0,6.0,7.0,0.0,0.0,69.0,51.0,21.0,,,,,2019-12-01,7-80-Bew-RU-Total-J-d-2020-12.xlsx
33,Sierra Leone,6.0,0.0,3.0,0.0,2.0,1.0,0.0,0.0,0.0,0.0,0.0,0.0,0.0,0.0,8.0,5.0,2.0,,,,,2019-12-01,7-80-Bew-RU-Total-J-d-2020-12.xlsx
34,Somalia,47.0,11.0,26.0,0.0,16.0,2.0,3.0,7.0,0.0,1.0,29.0,16.0,1.0,4.0,94.0,51.0,46.0,,,,,2019-12-01,7-80-Bew-RU-Total-J-d-2020-12.xlsx
35,Südafrika,0.0,0.0,0.0,0.0,1.0,1.0,0.0,0.0,0.0,0.0,1.0,1.0,0.0,0.0,6.0,6.0,0.0,,,,,2019-12-01,7-80-Bew-RU-Total-J-d-2020-12.xlsx
36,Sudan,13.0,11.0,3.0,0.0,15.0,1.0,2.0,10.0,1.0,0.0,6.0,4.0,0.0,1.0,31.0,25.0,12.0,,,,,2019-12-01,7-80-Bew-RU-Total-J-d-2020-12.xlsx
37,Südsudan,2.0,1.0,1.0,0.0,0.0,0.0,0.0,0.0,0.0,0.0,0.0,0.0,0.0,0.0,2.0,0.0,3.0,,,,,2019-12-01,7-80-Bew-RU-Total-J-d-2020-12.xlsx
38,Tansania,2.0,0.0,0.0,0.0,0.0,0.0,0.0,1.0,0.0,0.0,8.0,4.0,0.0,0.0,11.0,7.0,4.0,,,,,2019-12-01,7-80-Bew-RU-Total-J-d-2020-12.xlsx
39,Togo,5.0,4.0,1.0,0.0,1.0,0.0,1.0,0.0,0.0,0.0,1.0,0.0,0.0,1.0,10.0,3.0,8.0,,,,,2019-12-01,7-80-Bew-RU-Total-J-d-2020-12.xlsx
40,Tschad,4.0,0.0,3.0,0.0,1.0,1.0,0.0,0.0,0.0,0.0,0.0,0.0,0.0,0.0,4.0,2.0,1.0,,,,,2019-12-01,7-80-Bew-RU-Total-J-d-2020-12.xlsx
41,Tunesien,86.0,90.0,22.0,0.0,83.0,7.0,1.0,63.0,0.0,3.0,14.0,9.0,5.0,1.0,219.0,116.0,99.0,,,,,2019-12-01,7-80-Bew-RU-Total-J-d-2020-12.xlsx
42,Uganda,1.0,2.0,0.0,0.0,1.0,1.0,0.0,0.0,0.0,0.0,1.0,1.0,0.0,0.0,4.0,2.0,2.0,,,,,2019-12-01,7-80-Bew-RU-Total-J-d-2020-12.xlsx
43,Westsahara,1.0,0.0,0.0,0.0,0.0,0.0,0.0,0.0,0.0,0.0,0.0,0.0,0.0,0.0,2.0,0.0,1.0,,,,,2019-12-01,7-80-Bew-RU-Total-J-d-2020-12.xlsx
44,Zentralafr. Republik,0.0,0.0,0.0,0.0,0.0,0.0,0.0,0.0,0.0,0.0,0.0,0.0,0.0,0.0,4.0,1.0,3.0,,,,,2019-12-01,7-80-Bew-RU-Total-J-d-2020-12.xlsx
45,Zimbabwe,2.0,0.0,0.0,0.0,2.0,2.0,0.0,0.0,0.0,0.0,1.0,1.0,0.0,0.0,3.0,1.0,1.0,,,,,2019-12-01,7-80-Bew-RU-Total-J-d-2020-12.xlsx
46,Argentinien,0.0,0.0,0.0,0.0,0.0,0.0,0.0,0.0,0.0,0.0,1.0,1.0,0.0,0.0,8.0,6.0,2.0,,,,,2019-12-01,7-80-Bew-RU-Total-J-d-2020-12.xlsx
47,Bolivien,0.0,0.0,0.0,0.0,0.0,0.0,0.0,0.0,0.0,0.0,0.0,0.0,0.0,0.0,8.0,5.0,2.0,,,,,2019-12-01,7-80-Bew-RU-Total-J-d-2020-12.xlsx
48,Brasilien,8.0,3.0,2.0,0.0,3.0,1.0,0.0,1.0,0.0,0.0,3.0,3.0,0.0,0.0,113.0,98.0,17.0,,,,,2019-12-01,7-80-Bew-RU-Total-J-d-2020-12.xlsx
49,Chile,1.0,1.0,0.0,0.0,0.0,0.0,0.0,0.0,0.0,0.0,0.0,0.0,0.0,0.0,14.0,13.0,0.0,,,,,2019-12-01,7-80-Bew-RU-Total-J-d-2020-12.xlsx
50,Costa Rica,0.0,0.0,0.0,0.0,0.0,0.0,0.0,0.0,0.0,0.0,0.0,0.0,0.0,0.0,1.0,1.0,0.0,,,,,2019-12-01,7-80-Bew-RU-Total-J-d-2020-12.xlsx
51,Dominikanische Republik,5.0,4.0,2.0,0.0,6.0,0.0,0.0,6.0,0.0,0.0,1.0,1.0,0.0,0.0,48.0,39.0,11.0,,,,,2019-12-01,7-80-Bew-RU-Total-J-d-2020-12.xlsx
52,Ecuador,0.0,0.0,0.0,0.0,0.0,0.0,0.0,0.0,0.0,0.0,1.0,1.0,0.0,0.0,7.0,7.0,0.0,,,,,2019-12-01,7-80-Bew-RU-Total-J-d-2020-12.xlsx
53,El Salvador,0.0,0.0,0.0,0.0,7.0,7.0,0.0,0.0,0.0,0.0,0.0,0.0,0.0,0.0,8.0,3.0,6.0,,,,,2019-12-01,7-80-Bew-RU-Total-J-d-2020-12.xlsx
54,Guatemala,0.0,0.0,0.0,0.0,1.0,1.0,0.0,0.0,0.0,0.0,0.0,0.0,0.0,0.0,1.0,1.0,0.0,,,,,2019-12-01,7-80-Bew-RU-Total-J-d-2020-12.xlsx
55,Haiti,0.0,0.0,0.0,0.0,1.0,1.0,0.0,0.0,0.0,0.0,1.0,1.0,0.0,0.0,6.0,3.0,3.0,,,,,2019-12-01,7-80-Bew-RU-Total-J-d-2020-12.xlsx
56,Honduras,0.0,0.0,0.0,0.0,0.0,0.0,0.0,0.0,0.0,0.0,0.0,0.0,0.0,0.0,7.0,4.0,3.0,,,,,2019-12-01,7-80-Bew-RU-Total-J-d-2020-12.xlsx
57,Jamaika,3.0,0.0,2.0,1.0,0.0,0.0,0.0,0.0,0.0,0.0,0.0,0.0,0.0,0.0,4.0,0.0,2.0,,,,,2019-12-01,7-80-Bew-RU-Total-J-d-2020-12.xlsx
58,Kanada,0.0,0.0,0.0,0.0,0.0,0.0,0.0,0.0,0.0,0.0,0.0,0.0,0.0,0.0,1.0,1.0,0.0,,,,,2019-12-01,7-80-Bew-RU-Total-J-d-2020-12.xlsx
59,Kolumbien,7.0,7.0,0.0,0.0,44.0,34.0,1.0,5.0,0.0,0.0,6.0,6.0,0.0,0.0,98.0,78.0,21.0,,,,,2019-12-01,7-80-Bew-RU-Total-J-d-2020-12.xlsx
60,Kuba,4.0,4.0,2.0,0.0,5.0,3.0,1.0,0.0,0.0,0.0,2.0,2.0,0.0,0.0,6.0,7.0,0.0,,,,,2019-12-01,7-80-Bew-RU-Total-J-d-2020-12.xlsx
61,Mexiko,1.0,0.0,0.0,0.0,2.0,2.0,0.0,0.0,0.0,0.0,0.0,0.0,0.0,0.0,11.0,8.0,3.0,,,,,2019-12-01,7-80-Bew-RU-Total-J-d-2020-12.xlsx
62,Nicaragua,0.0,0.0,0.0,0.0,6.0,5.0,0.0,0.0,0.0,0.0,1.0,1.0,0.0,0.0,11.0,11.0,1.0,,,,,2019-12-01,7-80-Bew-RU-Total-J-d-2020-12.xlsx
63,Paraguay,0.0,0.0,0.0,0.0,0.0,0.0,0.0,0.0,0.0,0.0,0.0,0.0,0.0,0.0,7.0,7.0,0.0,,,,,2019-12-01,7-80-Bew-RU-Total-J-d-2020-12.xlsx
64,Peru,2.0,3.0,0.0,0.0,4.0,2.0,0.0,2.0,0.0,0.0,4.0,3.0,1.0,0.0,25.0,21.0,3.0,,,,,2019-12-01,7-80-Bew-RU-Total-J-d-2020-12.xlsx
65,Uruguay,1.0,1.0,0.0,0.0,1.0,0.0,0.0,0.0,0.0,1.0,0.0,0.0,0.0,0.0,3.0,2.0,0.0,,,,,2019-12-01,7-80-Bew-RU-Total-J-d-2020-12.xlsx
66,USA,1.0,1.0,0.0,0.0,8.0,7.0,0.0,1.0,0.0,0.0,0.0,0.0,0.0,0.0,25.0,15.0,11.0,,,,,2019-12-01,7-80-Bew-RU-Total-J-d-2020-12.xlsx
67,Venezuela,3.0,2.0,1.0,0.0,20.0,13.0,0.0,3.0,0.0,0.0,2.0,2.0,0.0,0.0,23.0,17.0,4.0,,,,,2019-12-01,7-80-Bew-RU-Total-J-d-2020-12.xlsx
68,Afghanistan,102.0,56.0,46.0,0.0,76.0,8.0,0.0,25.0,0.0,12.0,27.0,15.0,1.0,10.0,213.0,107.0,103.0,,,,,2019-12-01,7-80-Bew-RU-Total-J-d-2020-12.xlsx
69,Armenien,8.0,1.0,6.0,0.0,40.0,17.0,2.0,17.0,3.0,0.0,20.0,16.0,0.0,3.0,46.0,29.0,17.0,,,,,2019-12-01,7-80-Bew-RU-Total-J-d-2020-12.xlsx
70,Aserbaidschan,16.0,12.0,8.0,0.0,18.0,6.0,1.0,11.0,0.0,0.0,10.0,9.0,0.0,0.0,38.0,14.0,25.0,,,,,2019-12-01,7-80-Bew-RU-Total-J-d-2020-12.xlsx
71,Bangladesh,3.0,7.0,6.0,0.0,12.0,4.0,1.0,1.0,0.0,1.0,2.0,2.0,0.0,0.0,9.0,6.0,3.0,,,,,2019-12-01,7-80-Bew-RU-Total-J-d-2020-12.xlsx
72,Bhutan,2.0,0.0,0.0,0.0,0.0,0.0,0.0,0.0,0.0,0.0,0.0,0.0,0.0,0.0,0.0,0.0,0.0,,,,,2019-12-01,7-80-Bew-RU-Total-J-d-2020-12.xlsx
73,China (Volksrepublik),59.0,13.0,52.0,0.0,15.0,4.0,0.0,10.0,0.0,4.0,3.0,2.0,0.0,0.0,45.0,22.0,21.0,,,,,2019-12-01,7-80-Bew-RU-Total-J-d-2020-12.xlsx
74,Georgien,141.0,136.0,5.0,1.0,463.0,241.0,19.0,184.0,2.0,4.0,60.0,37.0,15.0,2.0,705.0,498.0,212.0,,,,,2019-12-01,7-80-Bew-RU-Total-J-d-2020-12.xlsx
75,Indien,9.0,5.0,4.0,0.0,5.0,1.0,0.0,2.0,0.0,0.0,3.0,2.0,0.0,0.0,25.0,18.0,7.0,,,,,2019-12-01,7-80-Bew-RU-Total-J-d-2020-12.xlsx
76,Irak,145.0,54.0,81.0,2.0,54.0,34.0,15.0,4.0,0.0,3.0,55.0,39.0,7.0,5.0,172.0,117.0,54.0,,,,,2019-12-01,7-80-Bew-RU-Total-J-d-2020-12.xlsx
77,Iran,144.0,11.0,50.0,0.0,33.0,16.0,0.0,10.0,0.0,2.0,16.0,16.0,0.0,0.0,159.0,79.0,79.0,,,,,2019-12-01,7-80-Bew-RU-Total-J-d-2020-12.xlsx
78,Israel,4.0,2.0,0.0,0.0,1.0,0.0,0.0,1.0,0.0,0.0,0.0,0.0,0.0,0.0,9.0,8.0,1.0,,,,,2019-12-01,7-80-Bew-RU-Total-J-d-2020-12.xlsx
79,Japan,0.0,0.0,0.0,0.0,0.0,0.0,0.0,0.0,0.0,0.0,0.0,0.0,0.0,0.0,1.0,1.0,0.0,,,,,2019-12-01,7-80-Bew-RU-Total-J-d-2020-12.xlsx
80,Jemen,0.0,0.0,6.0,0.0,0.0,0.0,0.0,0.0,0.0,0.0,0.0,0.0,0.0,0.0,6.0,4.0,1.0,,,,,2019-12-01,7-80-Bew-RU-Total-J-d-2020-12.xlsx
81,Jordanien,1.0,1.0,2.0,0.0,2.0,0.0,0.0,2.0,0.0,0.0,1.0,1.0,0.0,0.0,11.0,7.0,3.0,,,,,2019-12-01,7-80-Bew-RU-Total-J-d-2020-12.xlsx
82,Kambodscha,1.0,0.0,0.0,1.0,0.0,0.0,0.0,0.0,0.0,0.0,0.0,0.0,0.0,0.0,0.0,0.0,0.0,,,,,2019-12-01,7-80-Bew-RU-Total-J-d-2020-12.xlsx
83,Kasachstan,0.0,0.0,4.0,0.0,0.0,0.0,0.0,0.0,0.0,4.0,0.0,0.0,0.0,0.0,8.0,3.0,0.0,,,,,2019-12-01,7-80-Bew-RU-Total-J-d-2020-12.xlsx
84,Kirgisistan,3.0,0.0,0.0,0.0,1.0,0.0,1.0,0.0,0.0,0.0,1.0,1.0,0.0,0.0,1.0,1.0,0.0,,,,,2019-12-01,7-80-Bew-RU-Total-J-d-2020-12.xlsx
85,Korea (Süd),0.0,0.0,0.0,0.0,0.0,0.0,0.0,0.0,0.0,0.0,0.0,0.0,0.0,0.0,5.0,2.0,0.0,,,,,2019-12-01,7-80-Bew-RU-Total-J-d-2020-12.xlsx
86,Libanon,8.0,4.0,5.0,0.0,7.0,1.0,0.0,5.0,0.0,0.0,1.0,1.0,0.0,0.0,22.0,14.0,12.0,,,,,2019-12-01,7-80-Bew-RU-Total-J-d-2020-12.xlsx
87,Malaysia,0.0,0.0,0.0,0.0,0.0,0.0,0.0,0.0,0.0,0.0,0.0,0.0,0.0,0.0,1.0,1.0,0.0,,,,,2019-12-01,7-80-Bew-RU-Total-J-d-2020-12.xlsx
88,Mongolei,19.0,17.0,17.0,0.0,23.0,5.0,4.0,14.0,0.0,1.0,9.0,9.0,0.0,0.0,27.0,21.0,7.0,,,,,2019-12-01,7-80-Bew-RU-Total-J-d-2020-12.xlsx
89,Myanmar,0.0,0.0,0.0,0.0,0.0,0.0,0.0,0.0,0.0,0.0,1.0,1.0,0.0,0.0,1.0,1.0,0.0,,,,,2019-12-01,7-80-Bew-RU-Total-J-d-2020-12.xlsx
90,Nepal,4.0,16.0,2.0,0.0,9.0,0.0,1.0,3.0,0.0,4.0,2.0,2.0,0.0,0.0,13.0,11.0,2.0,,,,,2019-12-01,7-80-Bew-RU-Total-J-d-2020-12.xlsx
91,Pakistan,49.0,12.0,21.0,0.0,15.0,2.0,0.0,11.0,0.0,2.0,3.0,3.0,0.0,0.0,46.0,35.0,12.0,,,,,2019-12-01,7-80-Bew-RU-Total-J-d-2020-12.xlsx
92,Philippinen,0.0,0.0,0.0,0.0,0.0,0.0,0.0,0.0,0.0,0.0,2.0,2.0,0.0,0.0,10.0,10.0,0.0,,,,,2019-12-01,7-80-Bew-RU-Total-J-d-2020-12.xlsx
93,Saudi-Arabien,0.0,0.0,1.0,0.0,1.0,1.0,0.0,0.0,0.0,0.0,1.0,0.0,1.0,0.0,1.0,1.0,0.0,,,,,2019-12-01,7-80-Bew-RU-Total-J-d-2020-12.xlsx
94,Sri Lanka,333.0,292.0,60.0,0.0,198.0,7.0,0.0,166.0,0.0,7.0,54.0,52.0,0.0,2.0,362.0,108.0,232.0,,,,,2019-12-01,7-80-Bew-RU-Total-J-d-2020-12.xlsx
95,Syrien,7.0,4.0,4.0,0.0,13.0,8.0,0.0,1.0,0.0,0.0,18.0,13.0,0.0,1.0,65.0,44.0,14.0,,,,,2019-12-01,7-80-Bew-RU-Total-J-d-2020-12.xlsx
96,Tadschikistan,0.0,0.0,0.0,0.0,0.0,0.0,0.0,0.0,0.0,0.0,0.0,0.0,0.0,0.0,1.0,1.0,0.0,,,,,2019-12-01,7-80-Bew-RU-Total-J-d-2020-12.xlsx
97,Taiwan,0.0,0.0,0.0,0.0,1.0,1.0,0.0,0.0,0.0,0.0,0.0,0.0,0.0,0.0,3.0,1.0,2.0,,,,,2019-12-01,7-80-Bew-RU-Total-J-d-2020-12.xlsx
98,Thailand,1.0,1.0,0.0,0.0,1.0,0.0,0.0,1.0,0.0,0.0,1.0,1.0,0.0,0.0,10.0,9.0,1.0,,,,,2019-12-01,7-80-Bew-RU-Total-J-d-2020-12.xlsx
99,Usbekistan,0.0,0.0,0.0,0.0,0.0,0.0,0.0,0.0,0.0,0.0,0.0,0.0,0.0,0.0,5.0,3.0,2.0,,,,,2019-12-01,7-80-Bew-RU-Total-J-d-2020-12.xlsx
100,Vietnam,0.0,1.0,0.0,0.0,1.0,0.0,0.0,1.0,0.0,0.0,0.0,0.0,0.0,0.0,5.0,6.0,0.0,,,,,2019-12-01,7-80-Bew-RU-Total-J-d-2020-12.xlsx
101,Albanien,37.0,24.0,0.0,0.0,84.0,55.0,0.0,30.0,0.0,0.0,6.0,3.0,1.0,0.0,725.0,649.0,72.0,,,,,2019-12-01,7-80-Bew-RU-Total-J-d-2020-12.xlsx
102,Belarus,12.0,12.0,1.0,1.0,22.0,5.0,0.0,16.0,0.0,1.0,13.0,9.0,1.0,1.0,42.0,32.0,11.0,,,,,2019-12-01,7-80-Bew-RU-Total-J-d-2020-12.xlsx
103,Belgien,0.0,0.0,0.0,0.0,1.0,0.0,0.0,0.0,0.0,0.0,0.0,0.0,0.0,0.0,5.0,4.0,1.0,,,,,2019-12-01,7-80-Bew-RU-Total-J-d-2020-12.xlsx
104,Bosnien u. Herzegowina,23.0,22.0,0.0,0.0,30.0,10.0,2.0,19.0,0.0,1.0,5.0,5.0,0.0,0.0,73.0,61.0,12.0,,,,,2019-12-01,7-80-Bew-RU-Total-J-d-2020-12.xlsx
105,Bulgarien,0.0,0.0,0.0,0.0,1.0,1.0,0.0,0.0,0.0,0.0,3.0,3.0,0.0,0.0,31.0,31.0,1.0,,,,,2019-12-01,7-80-Bew-RU-Total-J-d-2020-12.xlsx
106,Deutschland,2.0,1.0,0.0,1.0,2.0,1.0,0.0,1.0,0.0,0.0,1.0,1.0,0.0,0.0,12.0,9.0,3.0,,,,,2019-12-01,7-80-Bew-RU-Total-J-d-2020-12.xlsx
107,Estland,0.0,0.0,0.0,0.0,0.0,0.0,0.0,0.0,0.0,0.0,0.0,0.0,0.0,0.0,3.0,2.0,1.0,,,,,2019-12-01,7-80-Bew-RU-Total-J-d-2020-12.xlsx
108,Frankreich,2.0,0.0,1.0,0.0,0.0,0.0,0.0,0.0,0.0,0.0,0.0,0.0,0.0,0.0,8.0,8.0,0.0,,,,,2019-12-01,7-80-Bew-RU-Total-J-d-2020-12.xlsx
109,Griechenland,0.0,0.0,0.0,0.0,0.0,0.0,0.0,0.0,0.0,0.0,0.0,0.0,0.0,0.0,4.0,4.0,0.0,,,,,2019-12-01,7-80-Bew-RU-Total-J-d-2020-12.xlsx
110,Grossbritannien,0.0,0.0,0.0,0.0,0.0,0.0,0.0,0.0,0.0,0.0,0.0,0.0,0.0,0.0,8.0,8.0,2.0,,,,,2019-12-01,7-80-Bew-RU-Total-J-d-2020-12.xlsx
111,Italien,1.0,0.0,0.0,0.0,4.0,4.0,0.0,0.0,0.0,0.0,0.0,0.0,0.0,0.0,32.0,27.0,4.0,,,,,2019-12-01,7-80-Bew-RU-Total-J-d-2020-12.xlsx
112,Kosovo,71.0,71.0,1.0,0.0,129.0,24.0,1.0,103.0,1.0,0.0,29.0,29.0,0.0,0.0,392.0,326.0,88.0,,,,,2019-12-01,7-80-Bew-RU-Total-J-d-2020-12.xlsx
113,Kroatien,0.0,0.0,0.0,0.0,0.0,0.0,0.0,0.0,0.0,0.0,0.0,0.0,0.0,0.0,27.0,23.0,3.0,,,,,2019-12-01,7-80-Bew-RU-Total-J-d-2020-12.xlsx
114,Lettland,0.0,0.0,0.0,0.0,0.0,0.0,0.0,0.0,0.0,0.0,0.0,0.0,0.0,0.0,5.0,6.0,0.0,,,,,2019-12-01,7-80-Bew-RU-Total-J-d-2020-12.xlsx
115,Litauen,1.0,1.0,0.0,0.0,1.0,0.0,0.0,1.0,0.0,0.0,0.0,0.0,0.0,0.0,32.0,25.0,8.0,,,,,2019-12-01,7-80-Bew-RU-Total-J-d-2020-12.xlsx
116,Nordmazedonien,50.0,54.0,2.0,1.0,64.0,18.0,0.0,39.0,0.0,1.0,16.0,12.0,4.0,0.0,185.0,149.0,38.0,,,,,2019-12-01,7-80-Bew-RU-Total-J-d-2020-12.xlsx
117,Moldova,9.0,10.0,1.0,0.0,21.0,8.0,0.0,12.0,0.0,1.0,3.0,3.0,0.0,0.0,46.0,30.0,11.0,,,,,2019-12-01,7-80-Bew-RU-Total-J-d-2020-12.xlsx
118,Montenegro,2.0,2.0,1.0,0.0,3.0,1.0,0.0,2.0,0.0,0.0,0.0,0.0,0.0,0.0,14.0,14.0,0.0,,,,,2019-12-01,7-80-Bew-RU-Total-J-d-2020-12.xlsx
119,Niederlande,0.0,0.0,0.0,0.0,1.0,0.0,0.0,0.0,0.0,0.0,0.0,0.0,0.0,0.0,19.0,15.0,4.0,,,,,2019-12-01,7-80-Bew-RU-Total-J-d-2020-12.xlsx
120,Österreich,0.0,0.0,0.0,0.0,0.0,0.0,0.0,0.0,0.0,0.0,0.0,0.0,0.0,0.0,4.0,3.0,1.0,,,,,2019-12-01,7-80-Bew-RU-Total-J-d-2020-12.xlsx
121,Polen,0.0,0.0,0.0,0.0,2.0,2.0,1.0,0.0,0.0,0.0,0.0,0.0,0.0,0.0,48.0,39.0,8.0,,,,,2019-12-01,7-80-Bew-RU-Total-J-d-2020-12.xlsx
122,Portugal,0.0,0.0,0.0,0.0,0.0,0.0,0.0,0.0,0.0,0.0,0.0,0.0,0.0,0.0,112.0,95.0,24.0,,,,,2019-12-01,7-80-Bew-RU-Total-J-d-2020-12.xlsx
123,Rumänien,2.0,0.0,0.0,0.0,2.0,1.0,0.0,0.0,0.0,0.0,9.0,8.0,0.0,0.0,373.0,311.0,62.0,,,,,2019-12-01,7-80-Bew-RU-Total-J-d-2020-12.xlsx
124,Russland,32.0,18.0,8.0,6.0,21.0,11.0,2.0,18.0,0.0,2.0,8.0,8.0,0.0,0.0,94.0,68.0,33.0,,,,,2019-12-01,7-80-Bew-RU-Total-J-d-2020-12.xlsx
125,Schweden,0.0,0.0,0.0,0.0,0.0,0.0,0.0,0.0,0.0,0.0,0.0,0.0,0.0,0.0,1.0,1.0,0.0,,,,,2019-12-01,7-80-Bew-RU-Total-J-d-2020-12.xlsx
126,Serbien,75.0,72.0,0.0,1.0,110.0,24.0,5.0,64.0,1.0,3.0,21.0,16.0,0.0,1.0,402.0,323.0,59.0,,,,,2019-12-01,7-80-Bew-RU-Total-J-d-2020-12.xlsx
127,Slowakische Republik,0.0,0.0,0.0,0.0,4.0,4.0,0.0,0.0,0.0,0.0,0.0,0.0,0.0,0.0,12.0,9.0,3.0,,,,,2019-12-01,7-80-Bew-RU-Total-J-d-2020-12.xlsx
128,Slowenien,0.0,0.0,0.0,0.0,1.0,1.0,0.0,0.0,0.0,0.0,0.0,0.0,0.0,0.0,4.0,4.0,0.0,,,,,2019-12-01,7-80-Bew-RU-Total-J-d-2020-12.xlsx
129,Spanien,0.0,0.0,0.0,0.0,5.0,4.0,0.0,0.0,0.0,0.0,1.0,1.0,0.0,0.0,71.0,63.0,7.0,,,,,2019-12-01,7-80-Bew-RU-Total-J-d-2020-12.xlsx
130,Tschechische Republik,0.0,0.0,0.0,0.0,0.0,0.0,0.0,0.0,0.0,0.0,0.0,0.0,0.0,0.0,8.0,6.0,2.0,,,,,2019-12-01,7-80-Bew-RU-Total-J-d-2020-12.xlsx
131,Tschechoslowakei,0.0,0.0,0.0,0.0,0.0,0.0,0.0,0.0,0.0,0.0,0.0,0.0,0.0,0.0,1.0,1.0,0.0,,,,,2019-12-01,7-80-Bew-RU-Total-J-d-2020-12.xlsx
132,Türkei,50.0,15.0,22.0,1.0,78.0,54.0,2.0,18.0,1.0,2.0,43.0,37.0,1.0,0.0,182.0,131.0,51.0,,,,,2019-12-01,7-80-Bew-RU-Total-J-d-2020-12.xlsx
133,Ukraine,16.0,16.0,1.0,0.0,55.0,35.0,1.0,17.0,0.0,0.0,13.0,13.0,0.0,0.0,88.0,68.0,19.0,,,,,2019-12-01,7-80-Bew-RU-Total-J-d-2020-12.xlsx
134,Ungarn,0.0,0.0,0.0,0.0,1.0,1.0,0.0,0.0,0.0,0.0,5.0,5.0,0.0,0.0,28.0,24.0,4.0,,,,,2019-12-01,7-80-Bew-RU-Total-J-d-2020-12.xlsx
135,Australien,1.0,1.0,0.0,0.0,2.0,2.0,0.0,0.0,0.0,0.0,0.0,0.0,0.0,0.0,7.0,1.0,7.0,,,,,2019-12-01,7-80-Bew-RU-Total-J-d-2020-12.xlsx
136,Neuseeland,0.0,0.0,0.0,0.0,1.0,1.0,0.0,0.0,0.0,0.0,0.0,0.0,0.0,0.0,1.0,1.0,0.0,,,,,2019-12-01,7-80-Bew-RU-Total-J-d-2020-12.xlsx
137,Staatenlos,0.0,0.0,0.0,0.0,0.0,0.0,0.0,0.0,0.0,0.0,0.0,0.0,0.0,0.0,6.0,1.0,3.0,,,,,2019-12-01,7-80-Bew-RU-Total-J-d-2020-12.xlsx
138,Ohne Nationalität,9.0,1.0,6.0,0.0,2.0,0.0,0.0,1.0,0.0,1.0,1.0,0.0,0.0,0.0,38.0,16.0,19.0,,,,,2019-12-01,7-80-Bew-RU-Total-J-d-2020-12.xlsx
139,Staat unbekannt,61.0,13.0,58.0,0.0,15.0,1.0,0.0,4.0,3.0,4.0,4.0,2.0,0.0,0.0,42.0,36.0,14.0,,,,,2019-12-01,7-80-Bew-RU-Total-J-d-2020-12.xlsx
140,Ägypten,16.0,6.0,0.0,6.0,8.0,2.0,0.0,5.0,0.0,0.0,1.0,2.0,0.0,0.0,24.0,8.0,16.0,,,,,2020-12-01,7-80-Bew-RU-Total-J-d-2020-12.xlsx
141,Algerien,334.0,144.0,1.0,208.0,142.0,8.0,13.0,74.0,5.0,49.0,106.0,46.0,3.0,49.0,446.0,207.0,296.0,,,,,2020-12-01,7-80-Bew-RU-Total-J-d-2020-12.xlsx
142,Angola,19.0,5.0,0.0,9.0,5.0,0.0,0.0,4.0,0.0,2.0,4.0,4.0,0.0,0.0,44.0,27.0,18.0,,,,,2020-12-01,7-80-Bew-RU-Total-J-d-2020-12.xlsx
143,Äquatorialguinea,0.0,0.0,0.0,1.0,0.0,0.0,0.0,0.0,0.0,0.0,0.0,0.0,0.0,0.0,1.0,1.0,0.0,,,,,2020-12-01,7-80-Bew-RU-Total-J-d-2020-12.xlsx
144,Äthiopien,106.0,42.0,0.0,108.0,48.0,3.0,5.0,35.0,2.0,2.0,14.0,12.0,0.0,1.0,72.0,24.0,43.0,,,,,2020-12-01,7-80-Bew-RU-Total-J-d-2020-12.xlsx
145,Benin,3.0,2.0,0.0,1.0,3.0,0.0,0.0,0.0,0.0,1.0,1.0,0.0,0.0,0.0,0.0,0.0,1.0,,,,,2020-12-01,7-80-Bew-RU-Total-J-d-2020-12.xlsx
146,Burkina Faso,3.0,1.0,0.0,5.0,2.0,1.0,0.0,0.0,0.0,2.0,1.0,1.0,0.0,0.0,8.0,4.0,9.0,,,,,2020-12-01,7-80-Bew-RU-Total-J-d-2020-12.xlsx
147,Burundi,0.0,0.0,0.0,1.0,1.0,1.0,0.0,0.0,0.0,0.0,1.0,1.0,0.0,0.0,3.0,2.0,1.0,,,,,2020-12-01,7-80-Bew-RU-Total-J-d-2020-12.xlsx
148,Côte d'Ivoire,13.0,5.0,0.0,9.0,2.0,0.0,2.0,0.0,0.0,1.0,3.0,3.0,0.0,0.0,17.0,12.0,7.0,,,,,2020-12-01,7-80-Bew-RU-Total-J-d-2020-12.xlsx
149,Dschibuti,2.0,1.0,0.0,1.0,0.0,0.0,0.0,1.0,0.0,0.0,0.0,0.0,0.0,0.0,5.0,1.0,4.0,,,,,2020-12-01,7-80-Bew-RU-Total-J-d-2020-12.xlsx
150,Eritrea,225.0,13.0,0.0,208.0,12.0,4.0,1.0,1.0,0.0,9.0,3.0,6.0,0.0,0.0,37.0,21.0,19.0,,,,,2020-12-01,7-80-Bew-RU-Total-J-d-2020-12.xlsx
151,Gabun,2.0,0.0,0.0,0.0,0.0,0.0,0.0,0.0,0.0,0.0,0.0,0.0,0.0,0.0,4.0,2.0,3.0,,,,,2020-12-01,7-80-Bew-RU-Total-J-d-2020-12.xlsx
152,Gambia,23.0,10.0,0.0,8.0,15.0,3.0,4.0,6.0,0.0,1.0,7.0,6.0,0.0,0.0,91.0,50.0,52.0,,,,,2020-12-01,7-80-Bew-RU-Total-J-d-2020-12.xlsx
153,Ghana,4.0,10.0,0.0,0.0,8.0,2.0,0.0,6.0,0.0,1.0,9.0,8.0,0.0,1.0,28.0,17.0,12.0,,,,,2020-12-01,7-80-Bew-RU-Total-J-d-2020-12.xlsx
154,Guinea,45.0,14.0,1.0,30.0,24.0,1.0,0.0,23.0,0.0,5.0,8.0,8.0,0.0,1.0,100.0,52.0,48.0,,,,,2020-12-01,7-80-Bew-RU-Total-J-d-2020-12.xlsx
155,Guinea-Bissau,5.0,2.0,0.0,1.0,3.0,0.0,0.0,1.0,0.0,2.0,2.0,1.0,0.0,0.0,15.0,13.0,4.0,,,,,2020-12-01,7-80-Bew-RU-Total-J-d-2020-12.xlsx
156,Kamerun,13.0,3.0,0.0,7.0,19.0,1.0,0.0,8.0,0.0,4.0,5.0,0.0,0.0,1.0,25.0,10.0,18.0,,,,,2020-12-01,7-80-Bew-RU-Total-J-d-2020-12.xlsx
157,Kapverden,0.0,0.0,0.0,2.0,0.0,0.0,0.0,0.0,0.0,0.0,0.0,0.0,0.0,0.0,0.0,0.0,0.0,,,,,2020-12-01,7-80-Bew-RU-Total-J-d-2020-12.xlsx
158,Kenia,1.0,2.0,0.0,1.0,3.0,0.0,0.0,0.0,0.0,0.0,1.0,1.0,0.0,0.0,5.0,4.0,1.0,,,,,2020-12-01,7-80-Bew-RU-Total-J-d-2020-12.xlsx
159,Kongo,2.0,0.0,0.0,0.0,0.0,0.0,0.0,0.0,0.0,0.0,0.0,0.0,0.0,0.0,2.0,0.0,1.0,,,,,2020-12-01,7-80-Bew-RU-Total-J-d-2020-12.xlsx
160,Kongo DR,35.0,4.0,0.0,10.0,5.0,1.0,0.0,4.0,0.0,1.0,5.0,5.0,0.0,0.0,20.0,9.0,8.0,,,,,2020-12-01,7-80-Bew-RU-Total-J-d-2020-12.xlsx
161,Liberia,2.0,0.0,0.0,1.0,0.0,0.0,0.0,0.0,0.0,0.0,0.0,0.0,0.0,0.0,7.0,2.0,4.0,,,,,2020-12-01,7-80-Bew-RU-Total-J-d-2020-12.xlsx
162,Libyen,23.0,4.0,0.0,10.0,6.0,0.0,0.0,0.0,0.0,1.0,6.0,4.0,0.0,5.0,46.0,22.0,21.0,,,,,2020-12-01,7-80-Bew-RU-Total-J-d-2020-12.xlsx
163,Malawi,0.0,0.0,0.0,0.0,0.0,0.0,0.0,0.0,0.0,0.0,0.0,0.0,0.0,0.0,1.0,0.0,0.0,,,,,2020-12-01,7-80-Bew-RU-Total-J-d-2020-12.xlsx
164,Mali,8.0,8.0,0.0,11.0,7.0,0.0,3.0,3.0,0.0,2.0,5.0,5.0,0.0,0.0,30.0,8.0,21.0,,,,,2020-12-01,7-80-Bew-RU-Total-J-d-2020-12.xlsx
165,Marokko,122.0,45.0,0.0,93.0,37.0,8.0,0.0,5.0,1.0,10.0,16.0,7.0,1.0,11.0,198.0,87.0,107.0,,,,,2020-12-01,7-80-Bew-RU-Total-J-d-2020-12.xlsx
166,Mauretanien,2.0,0.0,0.0,4.0,0.0,0.0,0.0,0.0,0.0,1.0,0.0,0.0,0.0,0.0,4.0,2.0,1.0,,,,,2020-12-01,7-80-Bew-RU-Total-J-d-2020-12.xlsx
167,Mauritius,0.0,0.0,0.0,0.0,1.0,0.0,0.0,0.0,0.0,0.0,0.0,0.0,0.0,0.0,3.0,2.0,1.0,,,,,2020-12-01,7-80-Bew-RU-Total-J-d-2020-12.xlsx
168,Mosambik,0.0,0.0,0.0,0.0,0.0,0.0,0.0,0.0,0.0,0.0,1.0,1.0,0.0,0.0,1.0,0.0,1.0,,,,,2020-12-01,7-80-Bew-RU-Total-J-d-2020-12.xlsx
169,Niger,3.0,0.0,0.0,2.0,1.0,0.0,0.0,0.0,0.0,0.0,0.0,0.0,0.0,0.0,9.0,2.0,7.0,,,,,2020-12-01,7-80-Bew-RU-Total-J-d-2020-12.xlsx
170,Nigeria,66.0,39.0,0.0,25.0,65.0,6.0,0.0,48.0,1.0,4.0,24.0,19.0,1.0,4.0,317.0,138.0,175.0,,,,,2020-12-01,7-80-Bew-RU-Total-J-d-2020-12.xlsx
171,Ruanda,1.0,1.0,0.0,0.0,0.0,0.0,0.0,0.0,0.0,0.0,0.0,0.0,0.0,0.0,2.0,1.0,0.0,,,,,2020-12-01,7-80-Bew-RU-Total-J-d-2020-12.xlsx
172,Sambia,0.0,0.0,0.0,0.0,0.0,0.0,0.0,0.0,0.0,0.0,0.0,0.0,0.0,0.0,0.0,0.0,1.0,,,,,2020-12-01,7-80-Bew-RU-Total-J-d-2020-12.xlsx
173,Senegal,9.0,5.0,0.0,7.0,8.0,3.0,0.0,3.0,0.0,1.0,5.0,4.0,0.0,1.0,45.0,16.0,32.0,,,,,2020-12-01,7-80-Bew-RU-Total-J-d-2020-12.xlsx
174,Sierra Leone,3.0,2.0,0.0,7.0,2.0,0.0,0.0,0.0,0.0,1.0,1.0,0.0,0.0,0.0,6.0,3.0,2.0,,,,,2020-12-01,7-80-Bew-RU-Total-J-d-2020-12.xlsx
175,Somalia,49.0,19.0,1.0,34.0,20.0,0.0,5.0,12.0,0.0,1.0,17.0,20.0,0.0,5.0,75.0,39.0,32.0,,,,,2020-12-01,7-80-Bew-RU-Total-J-d-2020-12.xlsx
176,Sudan,11.0,11.0,0.0,4.0,10.0,0.0,3.0,1.0,0.0,1.0,5.0,4.0,0.0,0.0,26.0,13.0,11.0,,,,,2020-12-01,7-80-Bew-RU-Total-J-d-2020-12.xlsx
177,Südsudan,1.0,0.0,0.0,0.0,0.0,0.0,0.0,0.0,0.0,0.0,0.0,0.0,0.0,0.0,1.0,0.0,0.0,,,,,2020-12-01,7-80-Bew-RU-Total-J-d-2020-12.xlsx
178,Tansania,2.0,6.0,0.0,1.0,3.0,1.0,0.0,1.0,0.0,0.0,2.0,2.0,0.0,0.0,2.0,1.0,0.0,,,,,2020-12-01,7-80-Bew-RU-Total-J-d-2020-12.xlsx
179,Togo,8.0,11.0,0.0,5.0,8.0,0.0,0.0,8.0,0.0,0.0,0.0,0.0,0.0,0.0,3.0,2.0,0.0,,,,,2020-12-01,7-80-Bew-RU-Total-J-d-2020-12.xlsx
180,Tschad,1.0,0.0,0.0,3.0,0.0,0.0,0.0,0.0,0.0,1.0,0.0,0.0,0.0,0.0,6.0,2.0,3.0,,,,,2020-12-01,7-80-Bew-RU-Total-J-d-2020-12.xlsx
181,Tunesien,77.0,51.0,1.0,43.0,80.0,7.0,2.0,65.0,1.0,12.0,14.0,9.0,0.0,1.0,180.0,63.0,116.0,,,,,2020-12-01,7-80-Bew-RU-Total-J-d-2020-12.xlsx
182,Uganda,4.0,0.0,0.0,4.0,0.0,0.0,0.0,0.0,0.0,0.0,1.0,1.0,0.0,0.0,2.0,1.0,0.0,,,,,2020-12-01,7-80-Bew-RU-Total-J-d-2020-12.xlsx
183,Westsahara,2.0,1.0,0.0,0.0,0.0,0.0,0.0,0.0,0.0,0.0,0.0,0.0,0.0,0.0,5.0,1.0,4.0,,,,,2020-12-01,7-80-Bew-RU-Total-J-d-2020-12.xlsx
184,Zentralafr. Republik,1.0,0.0,0.0,1.0,0.0,0.0,0.0,0.0,0.0,0.0,0.0,0.0,0.0,0.0,3.0,0.0,3.0,,,,,2020-12-01,7-80-Bew-RU-Total-J-d-2020-12.xlsx
185,Zimbabwe,2.0,2.0,0.0,0.0,3.0,0.0,0.0,1.0,0.0,0.0,1.0,1.0,0.0,0.0,7.0,1.0,4.0,,,,,2020-12-01,7-80-Bew-RU-Total-J-d-2020-12.xlsx
186,Argentinien,0.0,0.0,0.0,0.0,0.0,0.0,0.0,0.0,0.0,0.0,0.0,0.0,0.0,0.0,5.0,3.0,2.0,,,,,2020-12-01,7-80-Bew-RU-Total-J-d-2020-12.xlsx
187,Bolivien,0.0,0.0,0.0,0.0,0.0,0.0,0.0,0.0,0.0,0.0,0.0,0.0,0.0,0.0,7.0,3.0,6.0,,,,,2020-12-01,7-80-Bew-RU-Total-J-d-2020-12.xlsx
188,Brasilien,4.0,3.0,0.0,0.0,5.0,4.0,0.0,2.0,0.0,0.0,3.0,3.0,0.0,0.0,98.0,73.0,22.0,,,,,2020-12-01,7-80-Bew-RU-Total-J-d-2020-12.xlsx
189,Chile,2.0,2.0,0.0,1.0,3.0,1.0,0.0,2.0,0.0,0.0,0.0,0.0,0.0,0.0,23.0,15.0,8.0,,,,,2020-12-01,7-80-Bew-RU-Total-J-d-2020-12.xlsx
190,Dominikanische Republik,3.0,2.0,0.0,1.0,4.0,0.0,0.0,4.0,0.0,0.0,0.0,0.0,0.0,0.0,32.0,17.0,12.0,,,,,2020-12-01,7-80-Bew-RU-Total-J-d-2020-12.xlsx
191,Ecuador,1.0,2.0,0.0,0.0,0.0,0.0,0.0,0.0,0.0,0.0,0.0,0.0,0.0,0.0,7.0,4.0,3.0,,,,,2020-12-01,7-80-Bew-RU-Total-J-d-2020-12.xlsx
192,El Salvador,0.0,0.0,0.0,0.0,14.0,14.0,0.0,0.0,0.0,0.0,6.0,3.0,0.0,0.0,15.0,3.0,9.0,,,,,2020-12-01,7-80-Bew-RU-Total-J-d-2020-12.xlsx
193,Haiti,0.0,0.0,0.0,0.0,2.0,2.0,0.0,0.0,0.0,0.0,0.0,0.0,0.0,0.0,3.0,3.0,0.0,,,,,2020-12-01,7-80-Bew-RU-Total-J-d-2020-12.xlsx
194,Honduras,1.0,1.0,0.0,0.0,1.0,0.0,0.0,0.0,0.0,1.0,0.0,0.0,0.0,0.0,1.0,1.0,1.0,,,,,2020-12-01,7-80-Bew-RU-Total-J-d-2020-12.xlsx
195,Jamaika,1.0,1.0,0.0,3.0,0.0,0.0,0.0,0.0,0.0,0.0,1.0,0.0,0.0,1.0,3.0,3.0,2.0,,,,,2020-12-01,7-80-Bew-RU-Total-J-d-2020-12.xlsx
196,Kanada,2.0,1.0,0.0,1.0,1.0,0.0,0.0,1.0,0.0,0.0,0.0,0.0,0.0,0.0,12.0,7.0,5.0,,,,,2020-12-01,7-80-Bew-RU-Total-J-d-2020-12.xlsx
197,Kolumbien,2.0,1.0,0.0,0.0,30.0,29.0,0.0,0.0,0.0,1.0,18.0,14.0,0.0,0.0,64.0,47.0,18.0,,,,,2020-12-01,7-80-Bew-RU-Total-J-d-2020-12.xlsx
198,Kuba,1.0,1.0,0.0,1.0,1.0,0.0,0.0,0.0,0.0,0.0,0.0,0.0,0.0,0.0,0.0,0.0,0.0,,,,,2020-12-01,7-80-Bew-RU-Total-J-d-2020-12.xlsx
199,Mexiko,1.0,1.0,0.0,0.0,2.0,1.0,0.0,0.0,0.0,0.0,0.0,0.0,0.0,0.0,7.0,3.0,4.0,,,,,2020-12-01,7-80-Bew-RU-Total-J-d-2020-12.xlsx
200,Nicaragua,0.0,0.0,0.0,0.0,1.0,1.0,0.0,0.0,0.0,0.0,0.0,0.0,0.0,0.0,1.0,0.0,1.0,,,,,2020-12-01,7-80-Bew-RU-Total-J-d-2020-12.xlsx
201,Paraguay,0.0,0.0,0.0,0.0,0.0,0.0,0.0,0.0,0.0,0.0,0.0,0.0,0.0,0.0,4.0,4.0,0.0,,,,,2020-12-01,7-80-Bew-RU-Total-J-d-2020-12.xlsx
202,Peru,1.0,0.0,0.0,0.0,0.0,0.0,0.0,0.0,0.0,0.0,0.0,0.0,0.0,0.0,7.0,5.0,1.0,,,,,2020-12-01,7-80-Bew-RU-Total-J-d-2020-12.xlsx
203,Uruguay,0.0,0.0,0.0,0.0,1.0,0.0,0.0,1.0,0.0,0.0,0.0,0.0,0.0,0.0,0.0,1.0,0.0,,,,,2020-12-01,7-80-Bew-RU-Total-J-d-2020-12.xlsx
204,USA,1.0,1.0,0.0,0.0,1.0,1.0,0.0,0.0,0.0,0.0,0.0,0.0,0.0,0.0,10.0,8.0,3.0,,,,,2020-12-01,7-80-Bew-RU-Total-J-d-2020-12.xlsx
205,Venezuela,9.0,6.0,0.0,1.0,8.0,4.0,0.0,2.0,0.0,5.0,7.0,4.0,0.0,2.0,20.0,7.0,11.0,,,,,2020-12-01,7-80-Bew-RU-Total-J-d-2020-12.xlsx
206,Afghanistan,74.0,30.0,0.0,45.0,34.0,7.0,0.0,19.0,1.0,20.0,22.0,17.0,0.0,4.0,183.0,67.0,119.0,,,,,2020-12-01,7-80-Bew-RU-Total-J-d-2020-12.xlsx
207,Armenien,12.0,6.0,1.0,0.0,28.0,7.0,3.0,10.0,0.0,9.0,11.0,11.0,0.0,1.0,26.0,15.0,12.0,,,,,2020-12-01,7-80-Bew-RU-Total-J-d-2020-12.xlsx
208,Aserbaidschan,2.0,5.0,0.0,0.0,4.0,0.0,2.0,2.0,0.0,0.0,4.0,4.0,0.0,0.0,6.0,6.0,0.0,,,,,2020-12-01,7-80-Bew-RU-Total-J-d-2020-12.xlsx
209,Bangladesh,2.0,1.0,0.0,0.0,1.0,1.0,1.0,0.0,0.0,2.0,2.0,1.0,0.0,0.0,7.0,6.0,1.0,,,,,2020-12-01,7-80-Bew-RU-Total-J-d-2020-12.xlsx
210,Bhutan,4.0,0.0,0.0,4.0,0.0,0.0,0.0,0.0,0.0,0.0,0.0,0.0,0.0,0.0,0.0,0.0,0.0,,,,,2020-12-01,7-80-Bew-RU-Total-J-d-2020-12.xlsx
211,China (Volksrepublik),41.0,5.0,0.0,56.0,8.0,2.0,0.0,2.0,0.0,3.0,3.0,1.0,0.0,1.0,32.0,17.0,15.0,,,,,2020-12-01,7-80-Bew-RU-Total-J-d-2020-12.xlsx
212,Georgien,118.0,109.0,0.0,3.0,278.0,131.0,8.0,142.0,0.0,1.0,142.0,107.0,20.0,6.0,510.0,262.0,229.0,,,,,2020-12-01,7-80-Bew-RU-Total-J-d-2020-12.xlsx
213,Indien,5.0,6.0,0.0,2.0,3.0,0.0,0.0,2.0,0.0,1.0,2.0,2.0,0.0,0.0,18.0,11.0,7.0,,,,,2020-12-01,7-80-Bew-RU-Total-J-d-2020-12.xlsx
214,Irak,197.0,29.0,0.0,103.0,49.0,16.0,10.0,17.0,0.0,5.0,47.0,38.0,1.0,5.0,203.0,95.0,122.0,,,,,2020-12-01,7-80-Bew-RU-Total-J-d-2020-12.xlsx
215,Iran,183.0,15.0,0.0,131.0,17.0,7.0,1.0,8.0,0.0,9.0,13.0,10.0,1.0,1.0,66.0,31.0,39.0,,,,,2020-12-01,7-80-Bew-RU-Total-J-d-2020-12.xlsx
216,Israel,0.0,0.0,0.0,1.0,1.0,1.0,0.0,0.0,0.0,0.0,0.0,0.0,0.0,0.0,6.0,3.0,2.0,,,,,2020-12-01,7-80-Bew-RU-Total-J-d-2020-12.xlsx
217,Japan,0.0,0.0,0.0,0.0,1.0,1.0,0.0,0.0,0.0,0.0,0.0,0.0,0.0,0.0,2.0,1.0,1.0,,,,,2020-12-01,7-80-Bew-RU-Total-J-d-2020-12.xlsx
218,Jemen,0.0,0.0,0.0,0.0,0.0,0.0,0.0,0.0,0.0,0.0,1.0,1.0,0.0,0.0,0.0,1.0,0.0,,,,,2020-12-01,7-80-Bew-RU-Total-J-d-2020-12.xlsx
219,Jordanien,1.0,1.0,0.0,0.0,0.0,0.0,0.0,0.0,0.0,0.0,0.0,0.0,0.0,0.0,2.0,2.0,0.0,,,,,2020-12-01,7-80-Bew-RU-Total-J-d-2020-12.xlsx
220,Kambodscha,1.0,0.0,0.0,0.0,0.0,0.0,0.0,0.0,0.0,0.0,0.0,0.0,0.0,0.0,0.0,0.0,0.0,,,,,2020-12-01,7-80-Bew-RU-Total-J-d-2020-12.xlsx
221,Kasachstan,1.0,1.0,0.0,0.0,1.0,0.0,0.0,1.0,0.0,0.0,0.0,0.0,0.0,0.0,2.0,1.0,6.0,,,,,2020-12-01,7-80-Bew-RU-Total-J-d-2020-12.xlsx
222,Korea (Süd),0.0,0.0,0.0,0.0,2.0,2.0,0.0,0.0,0.0,0.0,1.0,1.0,0.0,0.0,2.0,1.0,4.0,,,,,2020-12-01,7-80-Bew-RU-Total-J-d-2020-12.xlsx
223,Libanon,3.0,2.0,0.0,0.0,1.0,0.0,0.0,2.0,0.0,1.0,1.0,1.0,0.0,0.0,8.0,4.0,4.0,,,,,2020-12-01,7-80-Bew-RU-Total-J-d-2020-12.xlsx
224,Malaysia,0.0,0.0,0.0,0.0,0.0,0.0,0.0,0.0,0.0,0.0,2.0,2.0,0.0,0.0,2.0,2.0,0.0,,,,,2020-12-01,7-80-Bew-RU-Total-J-d-2020-12.xlsx
225,Mongolei,4.0,4.0,0.0,4.0,19.0,5.0,0.0,11.0,0.0,0.0,4.0,0.0,4.0,0.0,14.0,7.0,7.0,,,,,2020-12-01,7-80-Bew-RU-Total-J-d-2020-12.xlsx
226,Myanmar,0.0,0.0,0.0,0.0,0.0,0.0,0.0,0.0,0.0,0.0,0.0,0.0,0.0,0.0,5.0,1.0,4.0,,,,,2020-12-01,7-80-Bew-RU-Total-J-d-2020-12.xlsx
227,Nepal,3.0,1.0,0.0,3.0,4.0,3.0,0.0,2.0,0.0,0.0,1.0,1.0,0.0,0.0,7.0,4.0,3.0,,,,,2020-12-01,7-80-Bew-RU-Total-J-d-2020-12.xlsx
228,Oman,0.0,0.0,0.0,0.0,0.0,0.0,0.0,0.0,0.0,0.0,0.0,0.0,0.0,0.0,1.0,1.0,0.0,,,,,2020-12-01,7-80-Bew-RU-Total-J-d-2020-12.xlsx
229,Pakistan,39.0,17.0,0.0,28.0,19.0,5.0,0.0,9.0,0.0,2.0,8.0,5.0,0.0,4.0,46.0,18.0,29.0,,,,,2020-12-01,7-80-Bew-RU-Total-J-d-2020-12.xlsx
230,Philippinen,0.0,0.0,0.0,0.0,0.0,0.0,0.0,0.0,0.0,0.0,0.0,0.0,0.0,0.0,8.0,6.0,2.0,,,,,2020-12-01,7-80-Bew-RU-Total-J-d-2020-12.xlsx
231,Saudi-Arabien,0.0,0.0,0.0,0.0,0.0,0.0,0.0,0.0,0.0,0.0,0.0,0.0,0.0,0.0,1.0,0.0,1.0,,,,,2020-12-01,7-80-Bew-RU-Total-J-d-2020-12.xlsx
232,Sri Lanka,317.0,178.0,0.0,85.0,238.0,6.0,0.0,25.0,4.0,31.0,9.0,6.0,0.0,3.0,71.0,22.0,63.0,,,,,2020-12-01,7-80-Bew-RU-Total-J-d-2020-12.xlsx
233,Syrien,10.0,0.0,0.0,3.0,5.0,4.0,0.0,0.0,0.0,1.0,11.0,14.0,0.0,0.0,57.0,21.0,42.0,,,,,2020-12-01,7-80-Bew-RU-Total-J-d-2020-12.xlsx
234,Thailand,1.0,1.0,0.0,0.0,2.0,1.0,0.0,1.0,0.0,1.0,0.0,0.0,0.0,0.0,10.0,5.0,4.0,,,,,2020-12-01,7-80-Bew-RU-Total-J-d-2020-12.xlsx
235,Usbekistan,0.0,0.0,0.0,4.0,0.0,0.0,0.0,0.0,0.0,0.0,0.0,0.0,0.0,0.0,0.0,0.0,0.0,,,,,2020-12-01,7-80-Bew-RU-Total-J-d-2020-12.xlsx
236,Vietnam,1.0,0.0,0.0,0.0,1.0,1.0,0.0,0.0,0.0,0.0,1.0,0.0,0.0,1.0,7.0,4.0,3.0,,,,,2020-12-01,7-80-Bew-RU-Total-J-d-2020-12.xlsx
237,Albanien,47.0,48.0,0.0,1.0,74.0,26.0,0.0,45.0,2.0,1.0,16.0,16.0,0.0,2.0,586.0,440.0,159.0,,,,,2020-12-01,7-80-Bew-RU-Total-J-d-2020-12.xlsx
238,Belarus,7.0,5.0,0.0,2.0,27.0,12.0,3.0,11.0,0.0,0.0,14.0,13.0,0.0,1.0,43.0,24.0,16.0,,,,,2020-12-01,7-80-Bew-RU-Total-J-d-2020-12.xlsx
239,Belgien,0.0,0.0,0.0,0.0,0.0,0.0,0.0,0.0,0.0,0.0,0.0,0.0,0.0,0.0,8.0,5.0,3.0,,,,,2020-12-01,7-80-Bew-RU-Total-J-d-2020-12.xlsx
240,Bosnien u. Herzegowina,17.0,14.0,0.0,4.0,11.0,2.0,0.0,8.0,1.0,1.0,4.0,3.0,0.0,0.0,38.0,28.0,12.0,,,,,2020-12-01,7-80-Bew-RU-Total-J-d-2020-12.xlsx
241,Bulgarien,1.0,1.0,0.0,0.0,1.0,0.0,0.0,1.0,0.0,0.0,1.0,1.0,0.0,0.0,25.0,14.0,8.0,,,,,2020-12-01,7-80-Bew-RU-Total-J-d-2020-12.xlsx
242,Deutschland,0.0,0.0,0.0,0.0,1.0,1.0,0.0,0.0,0.0,0.0,0.0,0.0,0.0,0.0,2.0,1.0,0.0,,,,,2020-12-01,7-80-Bew-RU-Total-J-d-2020-12.xlsx
243,Estland,0.0,0.0,0.0,0.0,0.0,0.0,0.0,0.0,0.0,0.0,0.0,0.0,0.0,0.0,4.0,2.0,2.0,,,,,2020-12-01,7-80-Bew-RU-Total-J-d-2020-12.xlsx
244,Frankreich,3.0,1.0,0.0,0.0,3.0,2.0,0.0,1.0,0.0,0.0,3.0,1.0,0.0,0.0,15.0,7.0,7.0,,,,,2020-12-01,7-80-Bew-RU-Total-J-d-2020-12.xlsx
245,Griechenland,0.0,0.0,0.0,0.0,0.0,0.0,0.0,0.0,0.0,0.0,0.0,0.0,0.0,0.0,7.0,4.0,3.0,,,,,2020-12-01,7-80-Bew-RU-Total-J-d-2020-12.xlsx
246,Grossbritannien,1.0,1.0,0.0,0.0,2.0,1.0,0.0,0.0,0.0,1.0,0.0,0.0,0.0,0.0,7.0,6.0,1.0,,,,,2020-12-01,7-80-Bew-RU-Total-J-d-2020-12.xlsx
247,Irland,0.0,0.0,0.0,0.0,0.0,0.0,0.0,0.0,0.0,0.0,0.0,0.0,0.0,0.0,1.0,1.0,0.0,,,,,2020-12-01,7-80-Bew-RU-Total-J-d-2020-12.xlsx
248,Italien,0.0,0.0,0.0,1.0,3.0,2.0,0.0,1.0,0.0,0.0,0.0,0.0,0.0,0.0,34.0,20.0,15.0,,,,,2020-12-01,7-80-Bew-RU-Total-J-d-2020-12.xlsx
249,Kosovo,57.0,51.0,0.0,11.0,85.0,22.0,3.0,61.0,0.0,0.0,16.0,12.0,0.0,3.0,257.0,171.0,101.0,,,,,2020-12-01,7-80-Bew-RU-Total-J-d-2020-12.xlsx
250,Kroatien,0.0,0.0,0.0,1.0,2.0,2.0,0.0,0.0,0.0,0.0,1.0,1.0,0.0,0.0,18.0,14.0,5.0,,,,,2020-12-01,7-80-Bew-RU-Total-J-d-2020-12.xlsx
251,Lettland,0.0,0.0,0.0,0.0,0.0,0.0,0.0,0.0,0.0,0.0,0.0,0.0,0.0,0.0,4.0,2.0,2.0,,,,,2020-12-01,7-80-Bew-RU-Total-J-d-2020-12.xlsx
252,Litauen,0.0,1.0,0.0,0.0,3.0,2.0,0.0,1.0,0.0,0.0,0.0,0.0,0.0,0.0,20.0,15.0,6.0,,,,,2020-12-01,7-80-Bew-RU-Total-J-d-2020-12.xlsx
253,Nordmazedonien,22.0,23.0,1.0,1.0,29.0,8.0,1.0,18.0,0.0,1.0,13.0,12.0,0.0,0.0,114.0,77.0,32.0,,,,,2020-12-01,7-80-Bew-RU-Total-J-d-2020-12.xlsx
254,Moldova,9.0,9.0,0.0,3.0,27.0,17.0,4.0,6.0,0.0,0.0,34.0,33.0,0.0,0.0,61.0,50.0,16.0,,,,,2020-12-01,7-80-Bew-RU-Total-J-d-2020-12.xlsx
255,Montenegro,1.0,1.0,0.0,1.0,0.0,0.0,0.0,0.0,0.0,0.0,0.0,0.0,0.0,0.0,6.0,5.0,1.0,,,,,2020-12-01,7-80-Bew-RU-Total-J-d-2020-12.xlsx
256,Niederlande,0.0,0.0,0.0,0.0,0.0,0.0,0.0,1.0,0.0,0.0,1.0,1.0,0.0,0.0,9.0,9.0,1.0,,,,,2020-12-01,7-80-Bew-RU-Total-J-d-2020-12.xlsx
257,Österreich,0.0,0.0,0.0,0.0,0.0,0.0,0.0,0.0,0.0,0.0,0.0,0.0,0.0,0.0,1.0,1.0,0.0,,,,,2020-12-01,7-80-Bew-RU-Total-J-d-2020-12.xlsx
258,Polen,0.0,0.0,0.0,0.0,0.0,0.0,0.0,0.0,0.0,0.0,0.0,0.0,0.0,0.0,34.0,21.0,13.0,,,,,2020-12-01,7-80-Bew-RU-Total-J-d-2020-12.xlsx
259,Portugal,1.0,1.0,0.0,1.0,0.0,0.0,0.0,0.0,0.0,0.0,0.0,0.0,0.0,0.0,84.0,66.0,20.0,,,,,2020-12-01,7-80-Bew-RU-Total-J-d-2020-12.xlsx
260,Rumänien,0.0,0.0,0.0,0.0,1.0,1.0,1.0,0.0,1.0,0.0,9.0,9.0,0.0,1.0,320.0,234.0,92.0,,,,,2020-12-01,7-80-Bew-RU-Total-J-d-2020-12.xlsx
261,Russland,34.0,26.0,9.0,5.0,17.0,8.0,1.0,7.0,0.0,2.0,13.0,13.0,0.0,0.0,88.0,35.0,51.0,,,,,2020-12-01,7-80-Bew-RU-Total-J-d-2020-12.xlsx
262,Serbien,54.0,42.0,1.0,6.0,46.0,11.0,1.0,38.0,0.0,2.0,9.0,6.0,1.0,1.0,260.0,173.0,85.0,,,,,2020-12-01,7-80-Bew-RU-Total-J-d-2020-12.xlsx
263,Slowakische Republik,0.0,0.0,0.0,0.0,1.0,1.0,0.0,0.0,0.0,0.0,0.0,0.0,0.0,0.0,19.0,7.0,11.0,,,,,2020-12-01,7-80-Bew-RU-Total-J-d-2020-12.xlsx
264,Slowenien,0.0,0.0,0.0,0.0,0.0,0.0,0.0,0.0,0.0,0.0,0.0,0.0,0.0,0.0,2.0,1.0,1.0,,,,,2020-12-01,7-80-Bew-RU-Total-J-d-2020-12.xlsx
265,Spanien,2.0,0.0,0.0,0.0,2.0,3.0,0.0,0.0,0.0,0.0,2.0,2.0,0.0,0.0,23.0,26.0,1.0,,,,,2020-12-01,7-80-Bew-RU-Total-J-d-2020-12.xlsx
266,Tschechische Republik,0.0,0.0,0.0,0.0,4.0,4.0,0.0,0.0,0.0,0.0,0.0,0.0,0.0,0.0,10.0,10.0,0.0,,,,,2020-12-01,7-80-Bew-RU-Total-J-d-2020-12.xlsx
267,Türkei,58.0,18.0,0.0,23.0,67.0,45.0,1.0,13.0,0.0,1.0,15.0,13.0,1.0,0.0,133.0,75.0,62.0,,,,,2020-12-01,7-80-Bew-RU-Total-J-d-2020-12.xlsx
268,Ukraine,7.0,7.0,1.0,0.0,25.0,14.0,0.0,6.0,0.0,0.0,6.0,4.0,0.0,0.0,52.0,36.0,17.0,,,,,2020-12-01,7-80-Bew-RU-Total-J-d-2020-12.xlsx
269,Ungarn,0.0,0.0,0.0,0.0,0.0,0.0,0.0,0.0,0.0,0.0,1.0,1.0,0.0,0.0,15.0,9.0,6.0,,,,,2020-12-01,7-80-Bew-RU-Total-J-d-2020-12.xlsx
270,Australien,1.0,1.0,0.0,0.0,1.0,0.0,0.0,1.0,0.0,0.0,0.0,0.0,0.0,0.0,1.0,1.0,0.0,,,,,2020-12-01,7-80-Bew-RU-Total-J-d-2020-12.xlsx
271,Staatenlos,0.0,0.0,0.0,0.0,0.0,0.0,0.0,0.0,0.0,0.0,0.0,0.0,0.0,0.0,1.0,1.0,0.0,,,,,2020-12-01,7-80-Bew-RU-Total-J-d-2020-12.xlsx
272,Ohne Nationalität,13.0,3.0,0.0,8.0,2.0,0.0,0.0,2.0,0.0,2.0,1.0,0.0,0.0,2.0,15.0,5.0,6.0,,,,,2020-12-01,7-80-Bew-RU-Total-J-d-2020-12.xlsx
273,Staat unbekannt,68.0,9.0,1.0,77.0,10.0,2.0,0.0,3.0,0.0,4.0,3.0,3.0,0.0,0.0,31.0,16.0,13.0,,,,,2020-12-01,7-80-Bew-RU-Total-J-d-2020-12.xlsx
