,Nation,BeginnIdentitätsabklärung,Identitätsabklärungpositiv,Identitätsabklärungnegativ,AbschreibungIdentitätsabklärung,BeginnPapierbeschaffung,Papierevorhanden,Papiereselbstbeschafft,Papierebeschafft,Papierenichtbeschafft,Abschreibung Papierbeschaffung,GesucheRückkehrhilfe,Rückkehrhilfebewilligt(inkl. teilweise),Rückkehrhilfe abgelehnt,Abschreibung Gesuch,BeginnAusreiseorganisation,AbschlussAusreiseorganisation,AbschreibungAusreiseorganisation,Datum,file_name
0,Ägypten,7.0,3.0,6.0,1.0,10.0,4.0,2.0,3.0,1.0,0.0,4.0,3.0,0.0,0.0,36.0,16.0,18.0,2019-12-01,7-80-Bew-RU-Total-J-d-2020-12.xlsx
1,Algerien,328.0,139.0,121.0,7.0,368.0,12.0,27.0,253.0,7.0,36.0,92.0,82.0,1.0,7.0,752.0,370.0,384.0,2019-12-01,7-80-Bew-RU-Total-J-d-2020-12.xlsx
2,Angola,9.0,4.0,7.0,0.0,5.0,2.0,0.0,3.0,0.0,0.0,1.0,0.0,0.0,0.0,58.0,32.0,33.0,2019-12-01,7-80-Bew-RU-Total-J-d-2020-12.xlsx
3,Äquatorialguinea,0.0,0.0,1.0,0.0,0.0,0.0,0.0,0.0,0.0,0.0,0.0,0.0,0.0,0.0,2.0,1.0,1.0,2019-12-01,7-80-Bew-RU-Total-J-d-2020-12.xlsx
4,Äthiopien,128.0,18.0,91.0,0.0,28.0,8.0,5.0,13.0,2.0,7.0,23.0,23.0,0.0,1.0,83.0,48.0,40.0,2019-12-01,7-80-Bew-RU-Total-J-d-2020-12.xlsx
5,Benin,4.0,1.0,1.0,0.0,4.0,0.0,0.0,3.0,0.0,0.0,0.0,0.0,0.0,0.0,9.0,2.0,6.0,2019-12-01,7-80-Bew-RU-Total-J-d-2020-12.xlsx
6,Burkina Faso,8.0,4.0,4.0,0.0,5.0,1.0,0.0,2.0,0.0,1.0,1.0,1.0,0.0,0.0,21.0,5.0,11.0,2019-12-01,7-80-Bew-RU-Total-J-d-2020-12.xlsx
7,Burundi,1.0,0.0,0.0,0.0,0.0,0.0,0.0,0.0,0.0,1.0,0.0,0.0,0.0,0.0,1.0,0.0,1.0,2019-12-01,7-80-Bew-RU-Total-J-d-2020-12.xlsx
8,Côte d'Ivoire,15.0,4.0,11.0,0.0,6.0,0.0,1.0,2.0,0.0,1.0,2.0,2.0,0.0,0.0,27.0,16.0,11.0,2019-12-01,7-80-Bew-RU-Total-J-d-2020-12.xlsx
9,Dschibuti,1.0,0.0,1.0,0.0,0.0,0.0,0.0,0.0,0.0,0.0,0.0,0.0,0.0,0.0,1.0,1.0,0.0,2019-12-01,7-80-Bew-RU-Total-J-d-2020-12.xlsx
10,Eritrea,430.0,19.0,260.0,1.0,21.0,6.0,5.0,4.0,1.0,16.0,26.0,19.0,0.0,1.0,79.0,48.0,24.0,2019-12-01,7-80-Bew-RU-Total-J-d-2020-12.xlsx
11,Gabun,1.0,0.0,0.0,0.0,0.0,0.0,0.0,0.0,0.0,0.0,0.0,0.0,0.0,0.0,4.0,1.0,1.0,2019-12-01,7-80-Bew-RU-Total-J-d-2020-12.xlsx
12,Gambia,20.0,14.0,13.0,0.0,30.0,4.0,4.0,27.0,1.0,2.0,29.0,24.0,0.0,1.0,187.0,130.0,54.0,2019-12-01,7-80-Bew-RU-Total-J-d-2020-12.xlsx
13,Ghana,5.0,1.0,3.0,0.0,9.0,3.0,0.0,1.0,0.0,1.0,3.0,3.0,0.0,0.0,32.0,17.0,16.0,2019-12-01,7-80-Bew-RU-Total-J-d-2020-12.xlsx
14,Guinea,87.0,55.0,43.0,0.0,77.0,0.0,0.0,60.0,2.0,7.0,10.0,5.0,0.0,1.0,215.0,147.0,61.0,2019-12-01,7-80-Bew-RU-Total-J-d-2020-12.xlsx
15,Guinea-Bissau,8.0,10.0,2.0,0.0,7.0,0.0,1.0,7.0,1.0,1.0,6.0,5.0,0.0,0.0,49.0,31.0,13.0,2019-12-01,7-80-Bew-RU-Total-J-d-2020-12.xlsx
16,Kamerun,20.0,22.0,11.0,1.0,24.0,0.0,0.0,22.0,0.0,0.0,2.0,1.0,0.0,0.0,49.0,24.0,22.0,2019-12-01,7-80-Bew-RU-Total-J-d-2020-12.xlsx
17,Kapverden,2.0,3.0,0.0,0.0,3.0,0.0,2.0,1.0,0.0,0.0,0.0,0.0,0.0,0.0,2.0,1.0,2.0,2019-12-01,7-80-Bew-RU-Total-J-d-2020-12.xlsx
18,Kenia,2.0,2.0,1.0,0.0,1.0,0.0,0.0,0.0,0.0,0.0,1.0,1.0,0.0,0.0,7.0,5.0,2.0,2019-12-01,7-80-Bew-RU-Total-J-d-2020-12.xlsx
19,Kongo,1.0,0.0,0.0,0.0,1.0,1.0,0.0,0.0,0.0,0.0,0.0,0.0,0.0,0.0,0.0,0.0,0.0,2019-12-01,7-80-Bew-RU-Total-J-d-2020-12.xlsx
20,Kongo DR,26.0,19.0,16.0,2.0,21.0,1.0,0.0,13.0,1.0,1.0,2.0,1.0,0.0,0.0,37.0,18.0,20.0,2019-12-01,7-80-Bew-RU-Total-J-d-2020-12.xlsx
21,Liberia,1.0,0.0,1.0,0.0,4.0,1.0,0.0,0.0,0.0,0.0,1.0,1.0,0.0,0.0,5.0,2.0,2.0,2019-12-01,7-80-Bew-RU-Total-J-d-2020-12.xlsx
22,Libyen,25.0,5.0,10.0,0.0,6.0,1.0,1.0,2.0,0.0,2.0,11.0,10.0,0.0,0.0,65.0,39.0,22.0,2019-12-01,7-80-Bew-RU-Total-J-d-2020-12.xlsx
23,Malawi,0.0,1.0,0.0,0.0,0.0,0.0,0.0,0.0,0.0,0.0,0.0,0.0,0.0,0.0,0.0,0.0,0.0,2019-12-01,7-80-Bew-RU-Total-J-d-2020-12.xlsx
24,Mali,14.0,5.0,5.0,0.0,8.0,0.0,1.0,6.0,0.0,1.0,6.0,6.0,0.0,0.0,44.0,34.0,10.0,2019-12-01,7-80-Bew-RU-Total-J-d-2020-12.xlsx
25,Marokko,138.0,43.0,98.0,2.0,61.0,7.0,1.0,44.0,1.0,12.0,10.0,5.0,0.0,4.0,302.0,190.0,121.0,2019-12-01,7-80-Bew-RU-Total-J-d-2020-12.xlsx
26,Mauretanien,5.0,0.0,3.0,0.0,1.0,0.0,0.0,0.0,0.0,0.0,0.0,0.0,0.0,0.0,5.0,3.0,3.0,2019-12-01,7-80-Bew-RU-Total-J-d-2020-12.xlsx
27,Mauritius,2.0,2.0,1.0,0.0,3.0,2.0,0.0,1.0,0.0,0.0,0.0,0.0,0.0,0.0,5.0,4.0,1.0,2019-12-01,7-80-Bew-RU-Total-J-d-2020-12.xlsx
28,Niger,3.0,3.0,2.0,0.0,1.0,0.0,0.0,1.0,0.0,0.0,0.0,0.0,0.0,0.0,7.0,5.0,2.0,2019-12-01,7-80-Bew-RU-Total-J-d-2020-12.xlsx
29,Nigeria,84.0,72.0,16.0,0.0,100.0,8.0,3.0,71.0,0.0,9.0,30.0,26.0,0.0,0.0,487.0,371.0,130.0,2019-12-01,7-80-Bew-RU-Total-J-d-2020-12.xlsx
30,Ruanda,3.0,0.0,3.0,0.0,0.0,0.0,0.0,0.0,0.0,0.0,0.0,0.0,0.0,0.0,1.0,1.0,0.0,2019-12-01,7-80-Bew-RU-Total-J-d-2020-12.xlsx
31,Sambia,0.0,0.0,0.0,0.0,1.0,1.0,0.0,0.0,0.0,0.0,0.0,0.0,0.0,0.0,1.0,0.0,1.0,2019-12-01,7-80-Bew-RU-Total-J-d-2020-12.xlsx
32,Senegal,20.0,20.0,8.0,0.0,21.0,4.0,2.0,15.0,1.0,0.0,6.0,7.0,0.0,0.0,69.0,51.0,21.0,2019-12-01,7-80-Bew-RU-Total-J-d-2020-12.xlsx
33,Sierra Leone,6.0,0.0,3.0,0.0,2.0,1.0,0.0,0.0,0.0,0.0,0.0,0.0,0.0,0.0,8.0,5.0,2.0,2019-12-01,7-80-Bew-RU-Total-J-d-2020-12.xlsx
34,Somalia,47.0,11.0,26.0,0.0,16.0,2.0,3.0,7.0,0.0,1.0,29.0,16.0,1.0,4.0,94.0,51.0,46.0,2019-12-01,7-80-Bew-RU-Total-J-d-2020-12.xlsx
35,Südafrika,0.0,0.0,0.0,0.0,1.0,1.0,0.0,0.0,0.0,0.0,1.0,1.0,0.0,0.0,6.0,6.0,0.0,2019-12-01,7-80-Bew-RU-Total-J-d-2020-12.xlsx
36,Sudan,13.0,11.0,3.0,0.0,15.0,1.0,2.0,10.0,1.0,0.0,6.0,4.0,0.0,1.0,31.0,25.0,12.0,2019-12-01,7-80-Bew-RU-Total-J-d-2020-12.xlsx
37,Südsudan,2.0,1.0,1.0,0.0,0.0,0.0,0.0,0.0,0.0,0.0,0.0,0.0,0.0,0.0,2.0,0.0,3.0,2019-12-01,7-80-Bew-RU-Total-J-d-2020-12.xlsx
38,Tansania,2.0,0.0,0.0,0.0,0.0,0.0,0.0,1.0,0.0,0.0,8.0,4.0,0.0,0.0,11.0,7.0,4.0,2019-12-01,7-80-Bew-RU-Total-J-d-2020-12.xlsx
39,Togo,5.0,4.0,1.0,0.0,1.0,0.0,1.0,0.0,0.0,0.0,1.0,0.0,0.0,1.0,10.0,3.0,8.0,2019-12-01,7-80-Bew-RU-Total-J-d-2020-12.xlsx
40,Tschad,4.0,0.0,3.0,0.0,1.0,1.0,0.0,0.0,0.0,0.0,0.0,0.0,0.0,0.0,4.0,2.0,1.0,2019-12-01,7-80-Bew-RU-Total-J-d-2020-12.xlsx
41,Tunesien,86.0,90.0,22.0,0.0,83.0,7.0,1.0,63.0,0.0,3.0,14.0,9.0,5.0,1.0,219.0,116.0,99.0,2019-12-01,7-80-Bew-RU-Total-J-d-2020-12.xlsx
42,Uganda,1.0,2.0,0.0,0.0,1.0,1.0,0.0,0.0,0.0,0.0,1.0,1.0,0.0,0.0,4.0,2.0,2.0,2019-12-01,7-80-Bew-RU-Total-J-d-2020-12.xlsx
43,Westsahara,1.0,0.0,0.0,0.0,0.0,0.0,0.0,0.0,0.0,0.0,0.0,0.0,0.0,0.0,2.0,0.0,1.0,2019-12-01,7-80-Bew-RU-Total-J-d-2020-12.xlsx
44,Zentralafr. Republik,0.0,0.0,0.0,0.0,0.0,0.0,0.0,0.0,0.0,0.0,0.0,0.0,0.0,0.0,4.0,1.0,3.0,2019-12-01,7-80-Bew-RU-Total-J-d-2020-12.xlsx
45,Zimbabwe,2.0,0.0,0.0,0.0,2.0,2.0,0.0,0.0,0.0,0.0,1.0,1.0,0.0,0.0,3.0,1.0,1.0,2019-12-01,7-80-Bew-RU-Total-J-d-2020-12.xlsx
46,Total Afrika,1567.0,588.0,798.0,14.0,948.0,82.0,62.0,635.0,19.0,102.0,327.0,261.0,7.0,22.0,3040.0,1832.0,1215.0,2019-12-01,7-80-Bew-RU-Total-J-d-2020-12.xlsx
47,Argentinien,0.0,0.0,0.0,0.0,0.0,0.0,0.0,0.0,0.0,0.0,1.0,1.0,0.0,0.0,8.0,6.0,2.0,2019-12-01,7-80-Bew-RU-Total-J-d-2020-12.xlsx
48,Bolivien,0.0,0.0,0.0,0.0,0.0,0.0,0.0,0.0,0.0,0.0,0.0,0.0,0.0,0.0,8.0,5.0,2.0,2019-12-01,7-80-Bew-RU-Total-J-d-2020-12.xlsx
49,Brasilien,8.0,3.0,2.0,0.0,3.0,1.0,0.0,1.0,0.0,0.0,3.0,3.0,0.0,0.0,113.0,98.0,17.0,2019-12-01,7-80-Bew-RU-Total-J-d-2020-12.xlsx
50,Chile,1.0,1.0,0.0,0.0,0.0,0.0,0.0,0.0,0.0,0.0,0.0,0.0,0.0,0.0,14.0,13.0,0.0,2019-12-01,7-80-Bew-RU-Total-J-d-2020-12.xlsx
51,Costa Rica,0.0,0.0,0.0,0.0,0.0,0.0,0.0,0.0,0.0,0.0,0.0,0.0,0.0,0.0,1.0,1.0,0.0,2019-12-01,7-80-Bew-RU-Total-J-d-2020-12.xlsx
52,Dominikanische Republik,5.0,4.0,2.0,0.0,6.0,0.0,0.0,6.0,0.0,0.0,1.0,1.0,0.0,0.0,48.0,39.0,11.0,2019-12-01,7-80-Bew-RU-Total-J-d-2020-12.xlsx
53,Ecuador,0.0,0.0,0.0,0.0,0.0,0.0,0.0,0.0,0.0,0.0,1.0,1.0,0.0,0.0,7.0,7.0,0.0,2019-12-01,7-80-Bew-RU-Total-J-d-2020-12.xlsx
54,El Salvador,0.0,0.0,0.0,0.0,7.0,7.0,0.0,0.0,0.0,0.0,0.0,0.0,0.0,0.0,8.0,3.0,6.0,2019-12-01,7-80-Bew-RU-Total-J-d-2020-12.xlsx
55,Guatemala,0.0,0.0,0.0,0.0,1.0,1.0,0.0,0.0,0.0,0.0,0.0,0.0,0.0,0.0,1.0,1.0,0.0,2019-12-01,7-80-Bew-RU-Total-J-d-2020-12.xlsx
56,Haiti,0.0,0.0,0.0,0.0,1.0,1.0,0.0,0.0,0.0,0.0,1.0,1.0,0.0,0.0,6.0,3.0,3.0,2019-12-01,7-80-Bew-RU-Total-J-d-2020-12.xlsx
57,Honduras,0.0,0.0,0.0,0.0,0.0,0.0,0.0,0.0,0.0,0.0,0.0,0.0,0.0,0.0,7.0,4.0,3.0,2019-12-01,7-80-Bew-RU-Total-J-d-2020-12.xlsx
58,Jamaika,3.0,0.0,2.0,1.0,0.0,0.0,0.0,0.0,0.0,0.0,0.0,0.0,0.0,0.0,4.0,0.0,2.0,2019-12-01,7-80-Bew-RU-Total-J-d-2020-12.xlsx
59,Kanada,0.0,0.0,0.0,0.0,0.0,0.0,0.0,0.0,0.0,0.0,0.0,0.0,0.0,0.0,1.0,1.0,0.0,2019-12-01,7-80-Bew-RU-Total-J-d-2020-12.xlsx
60,Kolumbien,7.0,7.0,0.0,0.0,44.0,34.0,1.0,5.0,0.0,0.0,6.0,6.0,0.0,0.0,98.0,78.0,21.0,2019-12-01,7-80-Bew-RU-Total-J-d-2020-12.xlsx
61,Kuba,4.0,4.0,2.0,0.0,5.0,3.0,1.0,0.0,0.0,0.0,2.0,2.0,0.0,0.0,6.0,7.0,0.0,2019-12-01,7-80-Bew-RU-Total-J-d-2020-12.xlsx
62,Mexiko,1.0,0.0,0.0,0.0,2.0,2.0,0.0,0.0,0.0,0.0,0.0,0.0,0.0,0.0,11.0,8.0,3.0,2019-12-01,7-80-Bew-RU-Total-J-d-2020-12.xlsx
63,Nicaragua,0.0,0.0,0.0,0.0,6.0,5.0,0.0,0.0,0.0,0.0,1.0,1.0,0.0,0.0,11.0,11.0,1.0,2019-12-01,7-80-Bew-RU-Total-J-d-2020-12.xlsx
64,Paraguay,0.0,0.0,0.0,0.0,0.0,0.0,0.0,0.0,0.0,0.0,0.0,0.0,0.0,0.0,7.0,7.0,0.0,2019-12-01,7-80-Bew-RU-Total-J-d-2020-12.xlsx
65,Peru,2.0,3.0,0.0,0.0,4.0,2.0,0.0,2.0,0.0,0.0,4.0,3.0,1.0,0.0,25.0,21.0,3.0,2019-12-01,7-80-Bew-RU-Total-J-d-2020-12.xlsx
66,Uruguay,1.0,1.0,0.0,0.0,1.0,0.0,0.0,0.0,0.0,1.0,0.0,0.0,0.0,0.0,3.0,2.0,0.0,2019-12-01,7-80-Bew-RU-Total-J-d-2020-12.xlsx
67,USA,1.0,1.0,0.0,0.0,8.0,7.0,0.0,1.0,0.0,0.0,0.0,0.0,0.0,0.0,25.0,15.0,11.0,2019-12-01,7-80-Bew-RU-Total-J-d-2020-12.xlsx
68,Venezuela,3.0,2.0,1.0,0.0,20.0,13.0,0.0,3.0,0.0,0.0,2.0,2.0,0.0,0.0,23.0,17.0,4.0,2019-12-01,7-80-Bew-RU-Total-J-d-2020-12.xlsx
69,Total Amerika,36.0,26.0,9.0,1.0,108.0,76.0,2.0,18.0,0.0,1.0,22.0,21.0,1.0,0.0,435.0,347.0,89.0,2019-12-01,7-80-Bew-RU-Total-J-d-2020-12.xlsx
70,Afghanistan,102.0,56.0,46.0,0.0,76.0,8.0,0.0,25.0,0.0,12.0,27.0,15.0,1.0,10.0,213.0,107.0,103.0,2019-12-01,7-80-Bew-RU-Total-J-d-2020-12.xlsx
71,Armenien,8.0,1.0,6.0,0.0,40.0,17.0,2.0,17.0,3.0,0.0,20.0,16.0,0.0,3.0,46.0,29.0,17.0,2019-12-01,7-80-Bew-RU-Total-J-d-2020-12.xlsx
72,Aserbaidschan,16.0,12.0,8.0,0.0,18.0,6.0,1.0,11.0,0.0,0.0,10.0,9.0,0.0,0.0,38.0,14.0,25.0,2019-12-01,7-80-Bew-RU-Total-J-d-2020-12.xlsx
73,Bangladesh,3.0,7.0,6.0,0.0,12.0,4.0,1.0,1.0,0.0,1.0,2.0,2.0,0.0,0.0,9.0,6.0,3.0,2019-12-01,7-80-Bew-RU-Total-J-d-2020-12.xlsx
74,Bhutan,2.0,0.0,0.0,0.0,0.0,0.0,0.0,0.0,0.0,0.0,0.0,0.0,0.0,0.0,0.0,0.0,0.0,2019-12-01,7-80-Bew-RU-Total-J-d-2020-12.xlsx
75,China (Volksrepublik),59.0,13.0,52.0,0.0,15.0,4.0,0.0,10.0,0.0,4.0,3.0,2.0,0.0,0.0,45.0,22.0,21.0,2019-12-01,7-80-Bew-RU-Total-J-d-2020-12.xlsx
76,Georgien,141.0,136.0,5.0,1.0,463.0,241.0,19.0,184.0,2.0,4.0,60.0,37.0,15.0,2.0,705.0,498.0,212.0,2019-12-01,7-80-Bew-RU-Total-J-d-2020-12.xlsx
77,Indien,9.0,5.0,4.0,0.0,5.0,1.0,0.0,2.0,0.0,0.0,3.0,2.0,0.0,0.0,25.0,18.0,7.0,2019-12-01,7-80-Bew-RU-Total-J-d-2020-12.xlsx
78,Irak,145.0,54.0,81.0,2.0,54.0,34.0,15.0,4.0,0.0,3.0,55.0,39.0,7.0,5.0,172.0,117.0,54.0,2019-12-01,7-80-Bew-RU-Total-J-d-2020-12.xlsx
79,Iran,144.0,11.0,50.0,0.0,33.0,16.0,0.0,10.0,0.0,2.0,16.0,16.0,0.0,0.0,159.0,79.0,79.0,2019-12-01,7-80-Bew-RU-Total-J-d-2020-12.xlsx
80,Israel,4.0,2.0,0.0,0.0,1.0,0.0,0.0,1.0,0.0,0.0,0.0,0.0,0.0,0.0,9.0,8.0,1.0,2019-12-01,7-80-Bew-RU-Total-J-d-2020-12.xlsx
81,Japan,0.0,0.0,0.0,0.0,0.0,0.0,0.0,0.0,0.0,0.0,0.0,0.0,0.0,0.0,1.0,1.0,0.0,2019-12-01,7-80-Bew-RU-Total-J-d-2020-12.xlsx
82,Jemen,0.0,0.0,6.0,0.0,0.0,0.0,0.0,0.0,0.0,0.0,0.0,0.0,0.0,0.0,6.0,4.0,1.0,2019-12-01,7-80-Bew-RU-Total-J-d-2020-12.xlsx
83,Jordanien,1.0,1.0,2.0,0.0,2.0,0.0,0.0,2.0,0.0,0.0,1.0,1.0,0.0,0.0,11.0,7.0,3.0,2019-12-01,7-80-Bew-RU-Total-J-d-2020-12.xlsx
84,Kambodscha,1.0,0.0,0.0,1.0,0.0,0.0,0.0,0.0,0.0,0.0,0.0,0.0,0.0,0.0,0.0,0.0,0.0,2019-12-01,7-80-Bew-RU-Total-J-d-2020-12.xlsx
85,Kasachstan,0.0,0.0,4.0,0.0,0.0,0.0,0.0,0.0,0.0,4.0,0.0,0.0,0.0,0.0,8.0,3.0,0.0,2019-12-01,7-80-Bew-RU-Total-J-d-2020-12.xlsx
86,Kirgisistan,3.0,0.0,0.0,0.0,1.0,0.0,1.0,0.0,0.0,0.0,1.0,1.0,0.0,0.0,1.0,1.0,0.0,2019-12-01,7-80-Bew-RU-Total-J-d-2020-12.xlsx
87,Korea (Süd),0.0,0.0,0.0,0.0,0.0,0.0,0.0,0.0,0.0,0.0,0.0,0.0,0.0,0.0,5.0,2.0,0.0,2019-12-01,7-80-Bew-RU-Total-J-d-2020-12.xlsx
88,Libanon,8.0,4.0,5.0,0.0,7.0,1.0,0.0,5.0,0.0,0.0,1.0,1.0,0.0,0.0,22.0,14.0,12.0,2019-12-01,7-80-Bew-RU-Total-J-d-2020-12.xlsx
89,Malaysia,0.0,0.0,0.0,0.0,0.0,0.0,0.0,0.0,0.0,0.0,0.0,0.0,0.0,0.0,1.0,1.0,0.0,2019-12-01,7-80-Bew-RU-Total-J-d-2020-12.xlsx
90,Mongolei,19.0,17.0,17.0,0.0,23.0,5.0,4.0,14.0,0.0,1.0,9.0,9.0,0.0,0.0,27.0,21.0,7.0,2019-12-01,7-80-Bew-RU-Total-J-d-2020-12.xlsx
91,Myanmar,0.0,0.0,0.0,0.0,0.0,0.0,0.0,0.0,0.0,0.0,1.0,1.0,0.0,0.0,1.0,1.0,0.0,2019-12-01,7-80-Bew-RU-Total-J-d-2020-12.xlsx
92,Nepal,4.0,16.0,2.0,0.0,9.0,0.0,1.0,3.0,0.0,4.0,2.0,2.0,0.0,0.0,13.0,11.0,2.0,2019-12-01,7-80-Bew-RU-Total-J-d-2020-12.xlsx
93,Pakistan,49.0,12.0,21.0,0.0,15.0,2.0,0.0,11.0,0.0,2.0,3.0,3.0,0.0,0.0,46.0,35.0,12.0,2019-12-01,7-80-Bew-RU-Total-J-d-2020-12.xlsx
94,Philippinen,0.0,0.0,0.0,0.0,0.0,0.0,0.0,0.0,0.0,0.0,2.0,2.0,0.0,0.0,10.0,10.0,0.0,2019-12-01,7-80-Bew-RU-Total-J-d-2020-12.xlsx
95,Saudi-Arabien,0.0,0.0,1.0,0.0,1.0,1.0,0.0,0.0,0.0,0.0,1.0,0.0,1.0,0.0,1.0,1.0,0.0,2019-12-01,7-80-Bew-RU-Total-J-d-2020-12.xlsx
96,Sri Lanka,333.0,292.0,60.0,0.0,198.0,7.0,0.0,166.0,0.0,7.0,54.0,52.0,0.0,2.0,362.0,108.0,232.0,2019-12-01,7-80-Bew-RU-Total-J-d-2020-12.xlsx
97,Syrien,7.0,4.0,4.0,0.0,13.0,8.0,0.0,1.0,0.0,0.0,18.0,13.0,0.0,1.0,65.0,44.0,14.0,2019-12-01,7-80-Bew-RU-Total-J-d-2020-12.xlsx
98,Tadschikistan,0.0,0.0,0.0,0.0,0.0,0.0,0.0,0.0,0.0,0.0,0.0,0.0,0.0,0.0,1.0,1.0,0.0,2019-12-01,7-80-Bew-RU-Total-J-d-2020-12.xlsx
99,Taiwan,0.0,0.0,0.0,0.0,1.0,1.0,0.0,0.0,0.0,0.0,0.0,0.0,0.0,0.0,3.0,1.0,2.0,2019-12-01,7-80-Bew-RU-Total-J-d-2020-12.xlsx
100,Thailand,1.0,1.0,0.0,0.0,1.0,0.0,0.0,1.0,0.0,0.0,1.0,1.0,0.0,0.0,10.0,9.0,1.0,2019-12-01,7-80-Bew-RU-Total-J-d-2020-12.xlsx
101,Usbekistan,0.0,0.0,0.0,0.0,0.0,0.0,0.0,0.0,0.0,0.0,0.0,0.0,0.0,0.0,5.0,3.0,2.0,2019-12-01,7-80-Bew-RU-Total-J-d-2020-12.xlsx
102,Vietnam,0.0,1.0,0.0,0.0,1.0,0.0,0.0,1.0,0.0,0.0,0.0,0.0,0.0,0.0,5.0,6.0,0.0,2019-12-01,7-80-Bew-RU-Total-J-d-2020-12.xlsx
103,Total Asien,1059.0,645.0,380.0,4.0,989.0,356.0,44.0,469.0,5.0,44.0,290.0,224.0,24.0,23.0,2025.0,1182.0,810.0,2019-12-01,7-80-Bew-RU-Total-J-d-2020-12.xlsx
104,Albanien,37.0,24.0,0.0,0.0,84.0,55.0,0.0,30.0,0.0,0.0,6.0,3.0,1.0,0.0,725.0,649.0,72.0,2019-12-01,7-80-Bew-RU-Total-J-d-2020-12.xlsx
105,Belarus,12.0,12.0,1.0,1.0,22.0,5.0,0.0,16.0,0.0,1.0,13.0,9.0,1.0,1.0,42.0,32.0,11.0,2019-12-01,7-80-Bew-RU-Total-J-d-2020-12.xlsx
106,Belgien,0.0,0.0,0.0,0.0,1.0,0.0,0.0,0.0,0.0,0.0,0.0,0.0,0.0,0.0,5.0,4.0,1.0,2019-12-01,7-80-Bew-RU-Total-J-d-2020-12.xlsx
107,Bosnien u. Herzegowina,23.0,22.0,0.0,0.0,30.0,10.0,2.0,19.0,0.0,1.0,5.0,5.0,0.0,0.0,73.0,61.0,12.0,2019-12-01,7-80-Bew-RU-Total-J-d-2020-12.xlsx
108,Bulgarien,0.0,0.0,0.0,0.0,1.0,1.0,0.0,0.0,0.0,0.0,3.0,3.0,0.0,0.0,31.0,31.0,1.0,2019-12-01,7-80-Bew-RU-Total-J-d-2020-12.xlsx
109,Deutschland,2.0,1.0,0.0,1.0,2.0,1.0,0.0,1.0,0.0,0.0,1.0,1.0,0.0,0.0,12.0,9.0,3.0,2019-12-01,7-80-Bew-RU-Total-J-d-2020-12.xlsx
110,Estland,0.0,0.0,0.0,0.0,0.0,0.0,0.0,0.0,0.0,0.0,0.0,0.0,0.0,0.0,3.0,2.0,1.0,2019-12-01,7-80-Bew-RU-Total-J-d-2020-12.xlsx
111,Frankreich,2.0,0.0,1.0,0.0,0.0,0.0,0.0,0.0,0.0,0.0,0.0,0.0,0.0,0.0,8.0,8.0,0.0,2019-12-01,7-80-Bew-RU-Total-J-d-2020-12.xlsx
112,Griechenland,0.0,0.0,0.0,0.0,0.0,0.0,0.0,0.0,0.0,0.0,0.0,0.0,0.0,0.0,4.0,4.0,0.0,2019-12-01,7-80-Bew-RU-Total-J-d-2020-12.xlsx
113,Grossbritannien,0.0,0.0,0.0,0.0,0.0,0.0,0.0,0.0,0.0,0.0,0.0,0.0,0.0,0.0,8.0,8.0,2.0,2019-12-01,7-80-Bew-RU-Total-J-d-2020-12.xlsx
114,Italien,1.0,0.0,0.0,0.0,4.0,4.0,0.0,0.0,0.0,0.0,0.0,0.0,0.0,0.0,32.0,27.0,4.0,2019-12-01,7-80-Bew-RU-Total-J-d-2020-12.xlsx
115,Kosovo,71.0,71.0,1.0,0.0,129.0,24.0,1.0,103.0,1.0,0.0,29.0,29.0,0.0,0.0,392.0,326.0,88.0,2019-12-01,7-80-Bew-RU-Total-J-d-2020-12.xlsx
116,Kroatien,0.0,0.0,0.0,0.0,0.0,0.0,0.0,0.0,0.0,0.0,0.0,0.0,0.0,0.0,27.0,23.0,3.0,2019-12-01,7-80-Bew-RU-Total-J-d-2020-12.xlsx
117,Lettland,0.0,0.0,0.0,0.0,0.0,0.0,0.0,0.0,0.0,0.0,0.0,0.0,0.0,0.0,5.0,6.0,0.0,2019-12-01,7-80-Bew-RU-Total-J-d-2020-12.xlsx
118,Litauen,1.0,1.0,0.0,0.0,1.0,0.0,0.0,1.0,0.0,0.0,0.0,0.0,0.0,0.0,32.0,25.0,8.0,2019-12-01,7-80-Bew-RU-Total-J-d-2020-12.xlsx
119,Nordmazedonien,50.0,54.0,2.0,1.0,64.0,18.0,0.0,39.0,0.0,1.0,16.0,12.0,4.0,0.0,185.0,149.0,38.0,2019-12-01,7-80-Bew-RU-Total-J-d-2020-12.xlsx
120,Moldova,9.0,10.0,1.0,0.0,21.0,8.0,0.0,12.0,0.0,1.0,3.0,3.0,0.0,0.0,46.0,30.0,11.0,2019-12-01,7-80-Bew-RU-Total-J-d-2020-12.xlsx
121,Montenegro,2.0,2.0,1.0,0.0,3.0,1.0,0.0,2.0,0.0,0.0,0.0,0.0,0.0,0.0,14.0,14.0,0.0,2019-12-01,7-80-Bew-RU-Total-J-d-2020-12.xlsx
122,Niederlande,0.0,0.0,0.0,0.0,1.0,0.0,0.0,0.0,0.0,0.0,0.0,0.0,0.0,0.0,19.0,15.0,4.0,2019-12-01,7-80-Bew-RU-Total-J-d-2020-12.xlsx
123,Österreich,0.0,0.0,0.0,0.0,0.0,0.0,0.0,0.0,0.0,0.0,0.0,0.0,0.0,0.0,4.0,3.0,1.0,2019-12-01,7-80-Bew-RU-Total-J-d-2020-12.xlsx
124,Polen,0.0,0.0,0.0,0.0,2.0,2.0,1.0,0.0,0.0,0.0,0.0,0.0,0.0,0.0,48.0,39.0,8.0,2019-12-01,7-80-Bew-RU-Total-J-d-2020-12.xlsx
125,Portugal,0.0,0.0,0.0,0.0,0.0,0.0,0.0,0.0,0.0,0.0,0.0,0.0,0.0,0.0,112.0,95.0,24.0,2019-12-01,7-80-Bew-RU-Total-J-d-2020-12.xlsx
126,Rumänien,2.0,0.0,0.0,0.0,2.0,1.0,0.0,0.0,0.0,0.0,9.0,8.0,0.0,0.0,373.0,311.0,62.0,2019-12-01,7-80-Bew-RU-Total-J-d-2020-12.xlsx
127,Russland,32.0,18.0,8.0,6.0,21.0,11.0,2.0,18.0,0.0,2.0,8.0,8.0,0.0,0.0,94.0,68.0,33.0,2019-12-01,7-80-Bew-RU-Total-J-d-2020-12.xlsx
128,Schweden,0.0,0.0,0.0,0.0,0.0,0.0,0.0,0.0,0.0,0.0,0.0,0.0,0.0,0.0,1.0,1.0,0.0,2019-12-01,7-80-Bew-RU-Total-J-d-2020-12.xlsx
129,Serbien,75.0,72.0,0.0,1.0,110.0,24.0,5.0,64.0,1.0,3.0,21.0,16.0,0.0,1.0,402.0,323.0,59.0,2019-12-01,7-80-Bew-RU-Total-J-d-2020-12.xlsx
130,Slowakische Republik,0.0,0.0,0.0,0.0,4.0,4.0,0.0,0.0,0.0,0.0,0.0,0.0,0.0,0.0,12.0,9.0,3.0,2019-12-01,7-80-Bew-RU-Total-J-d-2020-12.xlsx
131,Slowenien,0.0,0.0,0.0,0.0,1.0,1.0,0.0,0.0,0.0,0.0,0.0,0.0,0.0,0.0,4.0,4.0,0.0,2019-12-01,7-80-Bew-RU-Total-J-d-2020-12.xlsx
132,Spanien,0.0,0.0,0.0,0.0,5.0,4.0,0.0,0.0,0.0,0.0,1.0,1.0,0.0,0.0,71.0,63.0,7.0,2019-12-01,7-80-Bew-RU-Total-J-d-2020-12.xlsx
133,Tschechische Republik,0.0,0.0,0.0,0.0,0.0,0.0,0.0,0.0,0.0,0.0,0.0,0.0,0.0,0.0,8.0,6.0,2.0,2019-12-01,7-80-Bew-RU-Total-J-d-2020-12.xlsx
134,Tschechoslowakei,0.0,0.0,0.0,0.0,0.0,0.0,0.0,0.0,0.0,0.0,0.0,0.0,0.0,0.0,1.0,1.0,0.0,2019-12-01,7-80-Bew-RU-Total-J-d-2020-12.xlsx
135,Türkei,50.0,15.0,22.0,1.0,78.0,54.0,2.0,18.0,1.0,2.0,43.0,37.0,1.0,0.0,182.0,131.0,51.0,2019-12-01,7-80-Bew-RU-Total-J-d-2020-12.xlsx
136,Ukraine,16.0,16.0,1.0,0.0,55.0,35.0,1.0,17.0,0.0,0.0,13.0,13.0,0.0,0.0,88.0,68.0,19.0,2019-12-01,7-80-Bew-RU-Total-J-d-2020-12.xlsx
137,Ungarn,0.0,0.0,0.0,0.0,1.0,1.0,0.0,0.0,0.0,0.0,5.0,5.0,0.0,0.0,28.0,24.0,4.0,2019-12-01,7-80-Bew-RU-Total-J-d-2020-12.xlsx
138,Total Europa,385.0,318.0,38.0,11.0,642.0,264.0,14.0,340.0,3.0,11.0,176.0,153.0,7.0,2.0,3091.0,2569.0,532.0,2019-12-01,7-80-Bew-RU-Total-J-d-2020-12.xlsx
139,Australien,1.0,1.0,0.0,0.0,2.0,2.0,0.0,0.0,0.0,0.0,0.0,0.0,0.0,0.0,7.0,1.0,7.0,2019-12-01,7-80-Bew-RU-Total-J-d-2020-12.xlsx
140,Neuseeland,0.0,0.0,0.0,0.0,1.0,1.0,0.0,0.0,0.0,0.0,0.0,0.0,0.0,0.0,1.0,1.0,0.0,2019-12-01,7-80-Bew-RU-Total-J-d-2020-12.xlsx
141,Total Ozeanien,1.0,1.0,0.0,0.0,3.0,3.0,0.0,0.0,0.0,0.0,0.0,0.0,0.0,0.0,8.0,2.0,7.0,2019-12-01,7-80-Bew-RU-Total-J-d-2020-12.xlsx
142,Staatenlos,0.0,0.0,0.0,0.0,0.0,0.0,0.0,0.0,0.0,0.0,0.0,0.0,0.0,0.0,6.0,1.0,3.0,2019-12-01,7-80-Bew-RU-Total-J-d-2020-12.xlsx
143,Ohne Nationalität,9.0,1.0,6.0,0.0,2.0,0.0,0.0,1.0,0.0,1.0,1.0,0.0,0.0,0.0,38.0,16.0,19.0,2019-12-01,7-80-Bew-RU-Total-J-d-2020-12.xlsx
144,Staat unbekannt,61.0,13.0,58.0,0.0,15.0,1.0,0.0,4.0,3.0,4.0,4.0,2.0,0.0,0.0,42.0,36.0,14.0,2019-12-01,7-80-Bew-RU-Total-J-d-2020-12.xlsx
145,Total Herkunft unbek.,70.0,14.0,64.0,0.0,17.0,1.0,0.0,5.0,3.0,5.0,5.0,2.0,0.0,0.0,86.0,53.0,36.0,2019-12-01,7-80-Bew-RU-Total-J-d-2020-12.xlsx
146,Ägypten,16.0,6.0,0.0,6.0,8.0,2.0,0.0,5.0,0.0,0.0,1.0,2.0,0.0,0.0,24.0,8.0,16.0,2020-12-01,7-80-Bew-RU-Total-J-d-2020-12.xlsx
147,Algerien,334.0,144.0,1.0,208.0,142.0,8.0,13.0,74.0,5.0,49.0,106.0,46.0,3.0,49.0,446.0,207.0,296.0,2020-12-01,7-80-Bew-RU-Total-J-d-2020-12.xlsx
148,Angola,19.0,5.0,0.0,9.0,5.0,0.0,0.0,4.0,0.0,2.0,4.0,4.0,0.0,0.0,44.0,27.0,18.0,2020-12-01,7-80-Bew-RU-Total-J-d-2020-12.xlsx
149,Äquatorialguinea,0.0,0.0,0.0,1.0,0.0,0.0,0.0,0.0,0.0,0.0,0.0,0.0,0.0,0.0,1.0,1.0,0.0,2020-12-01,7-80-Bew-RU-Total-J-d-2020-12.xlsx
150,Äthiopien,106.0,42.0,0.0,108.0,48.0,3.0,5.0,35.0,2.0,2.0,14.0,12.0,0.0,1.0,72.0,24.0,43.0,2020-12-01,7-80-Bew-RU-Total-J-d-2020-12.xlsx
151,Benin,3.0,2.0,0.0,1.0,3.0,0.0,0.0,0.0,0.0,1.0,1.0,0.0,0.0,0.0,0.0,0.0,1.0,2020-12-01,7-80-Bew-RU-Total-J-d-2020-12.xlsx
152,Burkina Faso,3.0,1.0,0.0,5.0,2.0,1.0,0.0,0.0,0.0,2.0,1.0,1.0,0.0,0.0,8.0,4.0,9.0,2020-12-01,7-80-Bew-RU-Total-J-d-2020-12.xlsx
153,Burundi,0.0,0.0,0.0,1.0,1.0,1.0,0.0,0.0,0.0,0.0,1.0,1.0,0.0,0.0,3.0,2.0,1.0,2020-12-01,7-80-Bew-RU-Total-J-d-2020-12.xlsx
154,Côte d'Ivoire,13.0,5.0,0.0,9.0,2.0,0.0,2.0,0.0,0.0,1.0,3.0,3.0,0.0,0.0,17.0,12.0,7.0,2020-12-01,7-80-Bew-RU-Total-J-d-2020-12.xlsx
155,Dschibuti,2.0,1.0,0.0,1.0,0.0,0.0,0.0,1.0,0.0,0.0,0.0,0.0,0.0,0.0,5.0,1.0,4.0,2020-12-01,7-80-Bew-RU-Total-J-d-2020-12.xlsx
156,Eritrea,225.0,13.0,0.0,208.0,12.0,4.0,1.0,1.0,0.0,9.0,3.0,6.0,0.0,0.0,37.0,21.0,19.0,2020-12-01,7-80-Bew-RU-Total-J-d-2020-12.xlsx
157,Gabun,2.0,0.0,0.0,0.0,0.0,0.0,0.0,0.0,0.0,0.0,0.0,0.0,0.0,0.0,4.0,2.0,3.0,2020-12-01,7-80-Bew-RU-Total-J-d-2020-12.xlsx
158,Gambia,23.0,10.0,0.0,8.0,15.0,3.0,4.0,6.0,0.0,1.0,7.0,6.0,0.0,0.0,91.0,50.0,52.0,2020-12-01,7-80-Bew-RU-Total-J-d-2020-12.xlsx
159,Ghana,4.0,10.0,0.0,0.0,8.0,2.0,0.0,6.0,0.0,1.0,9.0,8.0,0.0,1.0,28.0,17.0,12.0,2020-12-01,7-80-Bew-RU-Total-J-d-2020-12.xlsx
160,Guinea,45.0,14.0,1.0,30.0,24.0,1.0,0.0,23.0,0.0,5.0,8.0,8.0,0.0,1.0,100.0,52.0,48.0,2020-12-01,7-80-Bew-RU-Total-J-d-2020-12.xlsx
161,Guinea-Bissau,5.0,2.0,0.0,1.0,3.0,0.0,0.0,1.0,0.0,2.0,2.0,1.0,0.0,0.0,15.0,13.0,4.0,2020-12-01,7-80-Bew-RU-Total-J-d-2020-12.xlsx
162,Kamerun,13.0,3.0,0.0,7.0,19.0,1.0,0.0,8.0,0.0,4.0,5.0,0.0,0.0,1.0,25.0,10.0,18.0,2020-12-01,7-80-Bew-RU-Total-J-d-2020-12.xlsx
163,Kapverden,0.0,0.0,0.0,2.0,0.0,0.0,0.0,0.0,0.0,0.0,0.0,0.0,0.0,0.0,0.0,0.0,0.0,2020-12-01,7-80-Bew-RU-Total-J-d-2020-12.xlsx
164,Kenia,1.0,2.0,0.0,1.0,3.0,0.0,0.0,0.0,0.0,0.0,1.0,1.0,0.0,0.0,5.0,4.0,1.0,2020-12-01,7-80-Bew-RU-Total-J-d-2020-12.xlsx
165,Kongo,2.0,0.0,0.0,0.0,0.0,0.0,0.0,0.0,0.0,0.0,0.0,0.0,0.0,0.0,2.0,0.0,1.0,2020-12-01,7-80-Bew-RU-Total-J-d-2020-12.xlsx
166,Kongo DR,35.0,4.0,0.0,10.0,5.0,1.0,0.0,4.0,0.0,1.0,5.0,5.0,0.0,0.0,20.0,9.0,8.0,2020-12-01,7-80-Bew-RU-Total-J-d-2020-12.xlsx
167,Liberia,2.0,0.0,0.0,1.0,0.0,0.0,0.0,0.0,0.0,0.0,0.0,0.0,0.0,0.0,7.0,2.0,4.0,2020-12-01,7-80-Bew-RU-Total-J-d-2020-12.xlsx
168,Libyen,23.0,4.0,0.0,10.0,6.0,0.0,0.0,0.0,0.0,1.0,6.0,4.0,0.0,5.0,46.0,22.0,21.0,2020-12-01,7-80-Bew-RU-Total-J-d-2020-12.xlsx
169,Malawi,0.0,0.0,0.0,0.0,0.0,0.0,0.0,0.0,0.0,0.0,0.0,0.0,0.0,0.0,1.0,0.0,0.0,2020-12-01,7-80-Bew-RU-Total-J-d-2020-12.xlsx
170,Mali,8.0,8.0,0.0,11.0,7.0,0.0,3.0,3.0,0.0,2.0,5.0,5.0,0.0,0.0,30.0,8.0,21.0,2020-12-01,7-80-Bew-RU-Total-J-d-2020-12.xlsx
171,Marokko,122.0,45.0,0.0,93.0,37.0,8.0,0.0,5.0,1.0,10.0,16.0,7.0,1.0,11.0,198.0,87.0,107.0,2020-12-01,7-80-Bew-RU-Total-J-d-2020-12.xlsx
172,Mauretanien,2.0,0.0,0.0,4.0,0.0,0.0,0.0,0.0,0.0,1.0,0.0,0.0,0.0,0.0,4.0,2.0,1.0,2020-12-01,7-80-Bew-RU-Total-J-d-2020-12.xlsx
173,Mauritius,0.0,0.0,0.0,0.0,1.0,0.0,0.0,0.0,0.0,0.0,0.0,0.0,0.0,0.0,3.0,2.0,1.0,2020-12-01,7-80-Bew-RU-Total-J-d-2020-12.xlsx
174,Mosambik,0.0,0.0,0.0,0.0,0.0,0.0,0.0,0.0,0.0,0.0,1.0,1.0,0.0,0.0,1.0,0.0,1.0,2020-12-01,7-80-Bew-RU-Total-J-d-2020-12.xlsx
175,Niger,3.0,0.0,0.0,2.0,1.0,0.0,0.0,0.0,0.0,0.0,0.0,0.0,0.0,0.0,9.0,2.0,7.0,2020-12-01,7-80-Bew-RU-Total-J-d-2020-12.xlsx
176,Nigeria,66.0,39.0,0.0,25.0,65.0,6.0,0.0,48.0,1.0,4.0,24.0,19.0,1.0,4.0,317.0,138.0,175.0,2020-12-01,7-80-Bew-RU-Total-J-d-2020-12.xlsx
177,Ruanda,1.0,1.0,0.0,0.0,0.0,0.0,0.0,0.0,0.0,0.0,0.0,0.0,0.0,0.0,2.0,1.0,0.0,2020-12-01,7-80-Bew-RU-Total-J-d-2020-12.xlsx
178,Sambia,0.0,0.0,0.0,0.0,0.0,0.0,0.0,0.0,0.0,0.0,0.0,0.0,0.0,0.0,0.0,0.0,1.0,2020-12-01,7-80-Bew-RU-Total-J-d-2020-12.xlsx
179,Senegal,9.0,5.0,0.0,7.0,8.0,3.0,0.0,3.0,0.0,1.0,5.0,4.0,0.0,1.0,45.0,16.0,32.0,2020-12-01,7-80-Bew-RU-Total-J-d-2020-12.xlsx
180,Sierra Leone,3.0,2.0,0.0,7.0,2.0,0.0,0.0,0.0,0.0,1.0,1.0,0.0,0.0,0.0,6.0,3.0,2.0,2020-12-01,7-80-Bew-RU-Total-J-d-2020-12.xlsx
181,Somalia,49.0,19.0,1.0,34.0,20.0,0.0,5.0,12.0,0.0,1.0,17.0,20.0,0.0,5.0,75.0,39.0,32.0,2020-12-01,7-80-Bew-RU-Total-J-d-2020-12.xlsx
182,Sudan,11.0,11.0,0.0,4.0,10.0,0.0,3.0,1.0,0.0,1.0,5.0,4.0,0.0,0.0,26.0,13.0,11.0,2020-12-01,7-80-Bew-RU-Total-J-d-2020-12.xlsx
183,Südsudan,1.0,0.0,0.0,0.0,0.0,0.0,0.0,0.0,0.0,0.0,0.0,0.0,0.0,0.0,1.0,0.0,0.0,2020-12-01,7-80-Bew-RU-Total-J-d-2020-12.xlsx
184,Tansania,2.0,6.0,0.0,1.0,3.0,1.0,0.0,1.0,0.0,0.0,2.0,2.0,0.0,0.0,2.0,1.0,0.0,2020-12-01,7-80-Bew-RU-Total-J-d-2020-12.xlsx
185,Togo,8.0,11.0,0.0,5.0,8.0,0.0,0.0,8.0,0.0,0.0,0.0,0.0,0.0,0.0,3.0,2.0,0.0,2020-12-01,7-80-Bew-RU-Total-J-d-2020-12.xlsx
186,Tschad,1.0,0.0,0.0,3.0,0.0,0.0,0.0,0.0,0.0,1.0,0.0,0.0,0.0,0.0,6.0,2.0,3.0,2020-12-01,7-80-Bew-RU-Total-J-d-2020-12.xlsx
187,Tunesien,77.0,51.0,1.0,43.0,80.0,7.0,2.0,65.0,1.0,12.0,14.0,9.0,0.0,1.0,180.0,63.0,116.0,2020-12-01,7-80-Bew-RU-Total-J-d-2020-12.xlsx
188,Uganda,4.0,0.0,0.0,4.0,0.0,0.0,0.0,0.0,0.0,0.0,1.0,1.0,0.0,0.0,2.0,1.0,0.0,2020-12-01,7-80-Bew-RU-Total-J-d-2020-12.xlsx
189,Westsahara,2.0,1.0,0.0,0.0,0.0,0.0,0.0,0.0,0.0,0.0,0.0,0.0,0.0,0.0,5.0,1.0,4.0,2020-12-01,7-80-Bew-RU-Total-J-d-2020-12.xlsx
190,Zentralafr. Republik,1.0,0.0,0.0,1.0,0.0,0.0,0.0,0.0,0.0,0.0,0.0,0.0,0.0,0.0,3.0,0.0,3.0,2020-12-01,7-80-Bew-RU-Total-J-d-2020-12.xlsx
191,Zimbabwe,2.0,2.0,0.0,0.0,3.0,0.0,0.0,1.0,0.0,0.0,1.0,1.0,0.0,0.0,7.0,1.0,4.0,2020-12-01,7-80-Bew-RU-Total-J-d-2020-12.xlsx
192,Total Afrika,1248.0,469.0,4.0,871.0,551.0,52.0,38.0,315.0,10.0,115.0,269.0,181.0,5.0,80.0,1926.0,870.0,1107.0,2020-12-01,7-80-Bew-RU-Total-J-d-2020-12.xlsx
193,Argentinien,0.0,0.0,0.0,0.0,0.0,0.0,0.0,0.0,0.0,0.0,0.0,0.0,0.0,0.0,5.0,3.0,2.0,2020-12-01,7-80-Bew-RU-Total-J-d-2020-12.xlsx
194,Bolivien,0.0,0.0,0.0,0.0,0.0,0.0,0.0,0.0,0.0,0.0,0.0,0.0,0.0,0.0,7.0,3.0,6.0,2020-12-01,7-80-Bew-RU-Total-J-d-2020-12.xlsx
195,Brasilien,4.0,3.0,0.0,0.0,5.0,4.0,0.0,2.0,0.0,0.0,3.0,3.0,0.0,0.0,98.0,73.0,22.0,2020-12-01,7-80-Bew-RU-Total-J-d-2020-12.xlsx
196,Chile,2.0,2.0,0.0,1.0,3.0,1.0,0.0,2.0,0.0,0.0,0.0,0.0,0.0,0.0,23.0,15.0,8.0,2020-12-01,7-80-Bew-RU-Total-J-d-2020-12.xlsx
197,Dominikanische Republik,3.0,2.0,0.0,1.0,4.0,0.0,0.0,4.0,0.0,0.0,0.0,0.0,0.0,0.0,32.0,17.0,12.0,2020-12-01,7-80-Bew-RU-Total-J-d-2020-12.xlsx
198,Ecuador,1.0,2.0,0.0,0.0,0.0,0.0,0.0,0.0,0.0,0.0,0.0,0.0,0.0,0.0,7.0,4.0,3.0,2020-12-01,7-80-Bew-RU-Total-J-d-2020-12.xlsx
199,El Salvador,0.0,0.0,0.0,0.0,14.0,14.0,0.0,0.0,0.0,0.0,6.0,3.0,0.0,0.0,15.0,3.0,9.0,2020-12-01,7-80-Bew-RU-Total-J-d-2020-12.xlsx
200,Haiti,0.0,0.0,0.0,0.0,2.0,2.0,0.0,0.0,0.0,0.0,0.0,0.0,0.0,0.0,3.0,3.0,0.0,2020-12-01,7-80-Bew-RU-Total-J-d-2020-12.xlsx
201,Honduras,1.0,1.0,0.0,0.0,1.0,0.0,0.0,0.0,0.0,1.0,0.0,0.0,0.0,0.0,1.0,1.0,1.0,2020-12-01,7-80-Bew-RU-Total-J-d-2020-12.xlsx
202,Jamaika,1.0,1.0,0.0,3.0,0.0,0.0,0.0,0.0,0.0,0.0,1.0,0.0,0.0,1.0,3.0,3.0,2.0,2020-12-01,7-80-Bew-RU-Total-J-d-2020-12.xlsx
203,Kanada,2.0,1.0,0.0,1.0,1.0,0.0,0.0,1.0,0.0,0.0,0.0,0.0,0.0,0.0,12.0,7.0,5.0,2020-12-01,7-80-Bew-RU-Total-J-d-2020-12.xlsx
204,Kolumbien,2.0,1.0,0.0,0.0,30.0,29.0,0.0,0.0,0.0,1.0,18.0,14.0,0.0,0.0,64.0,47.0,18.0,2020-12-01,7-80-Bew-RU-Total-J-d-2020-12.xlsx
205,Kuba,1.0,1.0,0.0,1.0,1.0,0.0,0.0,0.0,0.0,0.0,0.0,0.0,0.0,0.0,0.0,0.0,0.0,2020-12-01,7-80-Bew-RU-Total-J-d-2020-12.xlsx
206,Mexiko,1.0,1.0,0.0,0.0,2.0,1.0,0.0,0.0,0.0,0.0,0.0,0.0,0.0,0.0,7.0,3.0,4.0,2020-12-01,7-80-Bew-RU-Total-J-d-2020-12.xlsx
207,Nicaragua,0.0,0.0,0.0,0.0,1.0,1.0,0.0,0.0,0.0,0.0,0.0,0.0,0.0,0.0,1.0,0.0,1.0,2020-12-01,7-80-Bew-RU-Total-J-d-2020-12.xlsx
208,Paraguay,0.0,0.0,0.0,0.0,0.0,0.0,0.0,0.0,0.0,0.0,0.0,0.0,0.0,0.0,4.0,4.0,0.0,2020-12-01,7-80-Bew-RU-Total-J-d-2020-12.xlsx
209,Peru,1.0,0.0,0.0,0.0,0.0,0.0,0.0,0.0,0.0,0.0,0.0,0.0,0.0,0.0,7.0,5.0,1.0,2020-12-01,7-80-Bew-RU-Total-J-d-2020-12.xlsx
210,Uruguay,0.0,0.0,0.0,0.0,1.0,0.0,0.0,1.0,0.0,0.0,0.0,0.0,0.0,0.0,0.0,1.0,0.0,2020-12-01,7-80-Bew-RU-Total-J-d-2020-12.xlsx
211,USA,1.0,1.0,0.0,0.0,1.0,1.0,0.0,0.0,0.0,0.0,0.0,0.0,0.0,0.0,10.0,8.0,3.0,2020-12-01,7-80-Bew-RU-Total-J-d-2020-12.xlsx
212,Venezuela,9.0,6.0,0.0,1.0,8.0,4.0,0.0,2.0,0.0,5.0,7.0,4.0,0.0,2.0,20.0,7.0,11.0,2020-12-01,7-80-Bew-RU-Total-J-d-2020-12.xlsx
213,Total Amerika,29.0,22.0,0.0,8.0,74.0,57.0,0.0,12.0,0.0,7.0,35.0,24.0,0.0,3.0,319.0,207.0,108.0,2020-12-01,7-80-Bew-RU-Total-J-d-2020-12.xlsx
214,Afghanistan,74.0,30.0,0.0,45.0,34.0,7.0,0.0,19.0,1.0,20.0,22.0,17.0,0.0,4.0,183.0,67.0,119.0,2020-12-01,7-80-Bew-RU-Total-J-d-2020-12.xlsx
215,Armenien,12.0,6.0,1.0,0.0,28.0,7.0,3.0,10.0,0.0,9.0,11.0,11.0,0.0,1.0,26.0,15.0,12.0,2020-12-01,7-80-Bew-RU-Total-J-d-2020-12.xlsx
216,Aserbaidschan,2.0,5.0,0.0,0.0,4.0,0.0,2.0,2.0,0.0,0.0,4.0,4.0,0.0,0.0,6.0,6.0,0.0,2020-12-01,7-80-Bew-RU-Total-J-d-2020-12.xlsx
217,Bangladesh,2.0,1.0,0.0,0.0,1.0,1.0,1.0,0.0,0.0,2.0,2.0,1.0,0.0,0.0,7.0,6.0,1.0,2020-12-01,7-80-Bew-RU-Total-J-d-2020-12.xlsx
218,Bhutan,4.0,0.0,0.0,4.0,0.0,0.0,0.0,0.0,0.0,0.0,0.0,0.0,0.0,0.0,0.0,0.0,0.0,2020-12-01,7-80-Bew-RU-Total-J-d-2020-12.xlsx
219,China (Volksrepublik),41.0,5.0,0.0,56.0,8.0,2.0,0.0,2.0,0.0,3.0,3.0,1.0,0.0,1.0,32.0,17.0,15.0,2020-12-01,7-80-Bew-RU-Total-J-d-2020-12.xlsx
220,Georgien,118.0,109.0,0.0,3.0,278.0,131.0,8.0,142.0,0.0,1.0,142.0,107.0,20.0,6.0,510.0,262.0,229.0,2020-12-01,7-80-Bew-RU-Total-J-d-2020-12.xlsx
221,Indien,5.0,6.0,0.0,2.0,3.0,0.0,0.0,2.0,0.0,1.0,2.0,2.0,0.0,0.0,18.0,11.0,7.0,2020-12-01,7-80-Bew-RU-Total-J-d-2020-12.xlsx
222,Irak,197.0,29.0,0.0,103.0,49.0,16.0,10.0,17.0,0.0,5.0,47.0,38.0,1.0,5.0,203.0,95.0,122.0,2020-12-01,7-80-Bew-RU-Total-J-d-2020-12.xlsx
223,Iran,183.0,15.0,0.0,131.0,17.0,7.0,1.0,8.0,0.0,9.0,13.0,10.0,1.0,1.0,66.0,31.0,39.0,2020-12-01,7-80-Bew-RU-Total-J-d-2020-12.xlsx
224,Israel,0.0,0.0,0.0,1.0,1.0,1.0,0.0,0.0,0.0,0.0,0.0,0.0,0.0,0.0,6.0,3.0,2.0,2020-12-01,7-80-Bew-RU-Total-J-d-2020-12.xlsx
225,Japan,0.0,0.0,0.0,0.0,1.0,1.0,0.0,0.0,0.0,0.0,0.0,0.0,0.0,0.0,2.0,1.0,1.0,2020-12-01,7-80-Bew-RU-Total-J-d-2020-12.xlsx
226,Jemen,0.0,0.0,0.0,0.0,0.0,0.0,0.0,0.0,0.0,0.0,1.0,1.0,0.0,0.0,0.0,1.0,0.0,2020-12-01,7-80-Bew-RU-Total-J-d-2020-12.xlsx
227,Jordanien,1.0,1.0,0.0,0.0,0.0,0.0,0.0,0.0,0.0,0.0,0.0,0.0,0.0,0.0,2.0,2.0,0.0,2020-12-01,7-80-Bew-RU-Total-J-d-2020-12.xlsx
228,Kambodscha,1.0,0.0,0.0,0.0,0.0,0.0,0.0,0.0,0.0,0.0,0.0,0.0,0.0,0.0,0.0,0.0,0.0,2020-12-01,7-80-Bew-RU-Total-J-d-2020-12.xlsx
229,Kasachstan,1.0,1.0,0.0,0.0,1.0,0.0,0.0,1.0,0.0,0.0,0.0,0.0,0.0,0.0,2.0,1.0,6.0,2020-12-01,7-80-Bew-RU-Total-J-d-2020-12.xlsx
230,Korea (Süd),0.0,0.0,0.0,0.0,2.0,2.0,0.0,0.0,0.0,0.0,1.0,1.0,0.0,0.0,2.0,1.0,4.0,2020-12-01,7-80-Bew-RU-Total-J-d-2020-12.xlsx
231,Libanon,3.0,2.0,0.0,0.0,1.0,0.0,0.0,2.0,0.0,1.0,1.0,1.0,0.0,0.0,8.0,4.0,4.0,2020-12-01,7-80-Bew-RU-Total-J-d-2020-12.xlsx
232,Malaysia,0.0,0.0,0.0,0.0,0.0,0.0,0.0,0.0,0.0,0.0,2.0,2.0,0.0,0.0,2.0,2.0,0.0,2020-12-01,7-80-Bew-RU-Total-J-d-2020-12.xlsx
233,Mongolei,4.0,4.0,0.0,4.0,19.0,5.0,0.0,11.0,0.0,0.0,4.0,0.0,4.0,0.0,14.0,7.0,7.0,2020-12-01,7-80-Bew-RU-Total-J-d-2020-12.xlsx
234,Myanmar,0.0,0.0,0.0,0.0,0.0,0.0,0.0,0.0,0.0,0.0,0.0,0.0,0.0,0.0,5.0,1.0,4.0,2020-12-01,7-80-Bew-RU-Total-J-d-2020-12.xlsx
235,Nepal,3.0,1.0,0.0,3.0,4.0,3.0,0.0,2.0,0.0,0.0,1.0,1.0,0.0,0.0,7.0,4.0,3.0,2020-12-01,7-80-Bew-RU-Total-J-d-2020-12.xlsx
236,Oman,0.0,0.0,0.0,0.0,0.0,0.0,0.0,0.0,0.0,0.0,0.0,0.0,0.0,0.0,1.0,1.0,0.0,2020-12-01,7-80-Bew-RU-Total-J-d-2020-12.xlsx
237,Pakistan,39.0,17.0,0.0,28.0,19.0,5.0,0.0,9.0,0.0,2.0,8.0,5.0,0.0,4.0,46.0,18.0,29.0,2020-12-01,7-80-Bew-RU-Total-J-d-2020-12.xlsx
238,Philippinen,0.0,0.0,0.0,0.0,0.0,0.0,0.0,0.0,0.0,0.0,0.0,0.0,0.0,0.0,8.0,6.0,2.0,2020-12-01,7-80-Bew-RU-Total-J-d-2020-12.xlsx
239,Saudi-Arabien,0.0,0.0,0.0,0.0,0.0,0.0,0.0,0.0,0.0,0.0,0.0,0.0,0.0,0.0,1.0,0.0,1.0,2020-12-01,7-80-Bew-RU-Total-J-d-2020-12.xlsx
240,Sri Lanka,317.0,178.0,0.0,85.0,238.0,6.0,0.0,25.0,4.0,31.0,9.0,6.0,0.0,3.0,71.0,22.0,63.0,2020-12-01,7-80-Bew-RU-Total-J-d-2020-12.xlsx
241,Syrien,10.0,0.0,0.0,3.0,5.0,4.0,0.0,0.0,0.0,1.0,11.0,14.0,0.0,0.0,57.0,21.0,42.0,2020-12-01,7-80-Bew-RU-Total-J-d-2020-12.xlsx
242,Thailand,1.0,1.0,0.0,0.0,2.0,1.0,0.0,1.0,0.0,1.0,0.0,0.0,0.0,0.0,10.0,5.0,4.0,2020-12-01,7-80-Bew-RU-Total-J-d-2020-12.xlsx
243,Usbekistan,0.0,0.0,0.0,4.0,0.0,0.0,0.0,0.0,0.0,0.0,0.0,0.0,0.0,0.0,0.0,0.0,0.0,2020-12-01,7-80-Bew-RU-Total-J-d-2020-12.xlsx
244,Vietnam,1.0,0.0,0.0,0.0,1.0,1.0,0.0,0.0,0.0,0.0,1.0,0.0,0.0,1.0,7.0,4.0,3.0,2020-12-01,7-80-Bew-RU-Total-J-d-2020-12.xlsx
245,Total Asien,1019.0,411.0,1.0,472.0,716.0,200.0,25.0,253.0,5.0,86.0,285.0,222.0,26.0,26.0,1302.0,614.0,719.0,2020-12-01,7-80-Bew-RU-Total-J-d-2020-12.xlsx
246,Albanien,47.0,48.0,0.0,1.0,74.0,26.0,0.0,45.0,2.0,1.0,16.0,16.0,0.0,2.0,586.0,440.0,159.0,2020-12-01,7-80-Bew-RU-Total-J-d-2020-12.xlsx
247,Belarus,7.0,5.0,0.0,2.0,27.0,12.0,3.0,11.0,0.0,0.0,14.0,13.0,0.0,1.0,43.0,24.0,16.0,2020-12-01,7-80-Bew-RU-Total-J-d-2020-12.xlsx
248,Belgien,0.0,0.0,0.0,0.0,0.0,0.0,0.0,0.0,0.0,0.0,0.0,0.0,0.0,0.0,8.0,5.0,3.0,2020-12-01,7-80-Bew-RU-Total-J-d-2020-12.xlsx
249,Bosnien u. Herzegowina,17.0,14.0,0.0,4.0,11.0,2.0,0.0,8.0,1.0,1.0,4.0,3.0,0.0,0.0,38.0,28.0,12.0,2020-12-01,7-80-Bew-RU-Total-J-d-2020-12.xlsx
250,Bulgarien,1.0,1.0,0.0,0.0,1.0,0.0,0.0,1.0,0.0,0.0,1.0,1.0,0.0,0.0,25.0,14.0,8.0,2020-12-01,7-80-Bew-RU-Total-J-d-2020-12.xlsx
251,Deutschland,0.0,0.0,0.0,0.0,1.0,1.0,0.0,0.0,0.0,0.0,0.0,0.0,0.0,0.0,2.0,1.0,0.0,2020-12-01,7-80-Bew-RU-Total-J-d-2020-12.xlsx
252,Estland,0.0,0.0,0.0,0.0,0.0,0.0,0.0,0.0,0.0,0.0,0.0,0.0,0.0,0.0,4.0,2.0,2.0,2020-12-01,7-80-Bew-RU-Total-J-d-2020-12.xlsx
253,Frankreich,3.0,1.0,0.0,0.0,3.0,2.0,0.0,1.0,0.0,0.0,3.0,1.0,0.0,0.0,15.0,7.0,7.0,2020-12-01,7-80-Bew-RU-Total-J-d-2020-12.xlsx
254,Griechenland,0.0,0.0,0.0,0.0,0.0,0.0,0.0,0.0,0.0,0.0,0.0,0.0,0.0,0.0,7.0,4.0,3.0,2020-12-01,7-80-Bew-RU-Total-J-d-2020-12.xlsx
255,Grossbritannien,1.0,1.0,0.0,0.0,2.0,1.0,0.0,0.0,0.0,1.0,0.0,0.0,0.0,0.0,7.0,6.0,1.0,2020-12-01,7-80-Bew-RU-Total-J-d-2020-12.xlsx
256,Irland,0.0,0.0,0.0,0.0,0.0,0.0,0.0,0.0,0.0,0.0,0.0,0.0,0.0,0.0,1.0,1.0,0.0,2020-12-01,7-80-Bew-RU-Total-J-d-2020-12.xlsx
257,Italien,0.0,0.0,0.0,1.0,3.0,2.0,0.0,1.0,0.0,0.0,0.0,0.0,0.0,0.0,34.0,20.0,15.0,2020-12-01,7-80-Bew-RU-Total-J-d-2020-12.xlsx
258,Kosovo,57.0,51.0,0.0,11.0,85.0,22.0,3.0,61.0,0.0,0.0,16.0,12.0,0.0,3.0,257.0,171.0,101.0,2020-12-01,7-80-Bew-RU-Total-J-d-2020-12.xlsx
259,Kroatien,0.0,0.0,0.0,1.0,2.0,2.0,0.0,0.0,0.0,0.0,1.0,1.0,0.0,0.0,18.0,14.0,5.0,2020-12-01,7-80-Bew-RU-Total-J-d-2020-12.xlsx
260,Lettland,0.0,0.0,0.0,0.0,0.0,0.0,0.0,0.0,0.0,0.0,0.0,0.0,0.0,0.0,4.0,2.0,2.0,2020-12-01,7-80-Bew-RU-Total-J-d-2020-12.xlsx
261,Litauen,0.0,1.0,0.0,0.0,3.0,2.0,0.0,1.0,0.0,0.0,0.0,0.0,0.0,0.0,20.0,15.0,6.0,2020-12-01,7-80-Bew-RU-Total-J-d-2020-12.xlsx
262,Nordmazedonien,22.0,23.0,1.0,1.0,29.0,8.0,1.0,18.0,0.0,1.0,13.0,12.0,0.0,0.0,114.0,77.0,32.0,2020-12-01,7-80-Bew-RU-Total-J-d-2020-12.xlsx
263,Moldova,9.0,9.0,0.0,3.0,27.0,17.0,4.0,6.0,0.0,0.0,34.0,33.0,0.0,0.0,61.0,50.0,16.0,2020-12-01,7-80-Bew-RU-Total-J-d-2020-12.xlsx
264,Montenegro,1.0,1.0,0.0,1.0,0.0,0.0,0.0,0.0,0.0,0.0,0.0,0.0,0.0,0.0,6.0,5.0,1.0,2020-12-01,7-80-Bew-RU-Total-J-d-2020-12.xlsx
265,Niederlande,0.0,0.0,0.0,0.0,0.0,0.0,0.0,1.0,0.0,0.0,1.0,1.0,0.0,0.0,9.0,9.0,1.0,2020-12-01,7-80-Bew-RU-Total-J-d-2020-12.xlsx
266,Österreich,0.0,0.0,0.0,0.0,0.0,0.0,0.0,0.0,0.0,0.0,0.0,0.0,0.0,0.0,1.0,1.0,0.0,2020-12-01,7-80-Bew-RU-Total-J-d-2020-12.xlsx
267,Polen,0.0,0.0,0.0,0.0,0.0,0.0,0.0,0.0,0.0,0.0,0.0,0.0,0.0,0.0,34.0,21.0,13.0,2020-12-01,7-80-Bew-RU-Total-J-d-2020-12.xlsx
268,Portugal,1.0,1.0,0.0,1.0,0.0,0.0,0.0,0.0,0.0,0.0,0.0,0.0,0.0,0.0,84.0,66.0,20.0,2020-12-01,7-80-Bew-RU-Total-J-d-2020-12.xlsx
269,Rumänien,0.0,0.0,0.0,0.0,1.0,1.0,1.0,0.0,1.0,0.0,9.0,9.0,0.0,1.0,320.0,234.0,92.0,2020-12-01,7-80-Bew-RU-Total-J-d-2020-12.xlsx
270,Russland,34.0,26.0,9.0,5.0,17.0,8.0,1.0,7.0,0.0,2.0,13.0,13.0,0.0,0.0,88.0,35.0,51.0,2020-12-01,7-80-Bew-RU-Total-J-d-2020-12.xlsx
271,Serbien,54.0,42.0,1.0,6.0,46.0,11.0,1.0,38.0,0.0,2.0,9.0,6.0,1.0,1.0,260.0,173.0,85.0,2020-12-01,7-80-Bew-RU-Total-J-d-2020-12.xlsx
272,Slowakische Republik,0.0,0.0,0.0,0.0,1.0,1.0,0.0,0.0,0.0,0.0,0.0,0.0,0.0,0.0,19.0,7.0,11.0,2020-12-01,7-80-Bew-RU-Total-J-d-2020-12.xlsx
273,Slowenien,0.0,0.0,0.0,0.0,0.0,0.0,0.0,0.0,0.0,0.0,0.0,0.0,0.0,0.0,2.0,1.0,1.0,2020-12-01,7-80-Bew-RU-Total-J-d-2020-12.xlsx
274,Spanien,2.0,0.0,0.0,0.0,2.0,3.0,0.0,0.0,0.0,0.0,2.0,2.0,0.0,0.0,23.0,26.0,1.0,2020-12-01,7-80-Bew-RU-Total-J-d-2020-12.xlsx
275,Tschechische Republik,0.0,0.0,0.0,0.0,4.0,4.0,0.0,0.0,0.0,0.0,0.0,0.0,0.0,0.0,10.0,10.0,0.0,2020-12-01,7-80-Bew-RU-Total-J-d-2020-12.xlsx
276,Türkei,58.0,18.0,0.0,23.0,67.0,45.0,1.0,13.0,0.0,1.0,15.0,13.0,1.0,0.0,133.0,75.0,62.0,2020-12-01,7-80-Bew-RU-Total-J-d-2020-12.xlsx
277,Ukraine,7.0,7.0,1.0,0.0,25.0,14.0,0.0,6.0,0.0,0.0,6.0,4.0,0.0,0.0,52.0,36.0,17.0,2020-12-01,7-80-Bew-RU-Total-J-d-2020-12.xlsx
278,Ungarn,0.0,0.0,0.0,0.0,0.0,0.0,0.0,0.0,0.0,0.0,1.0,1.0,0.0,0.0,15.0,9.0,6.0,2020-12-01,7-80-Bew-RU-Total-J-d-2020-12.xlsx
279,Total Europa,321.0,249.0,12.0,60.0,431.0,184.0,15.0,218.0,4.0,9.0,158.0,141.0,2.0,8.0,2300.0,1589.0,749.0,2020-12-01,7-80-Bew-RU-Total-J-d-2020-12.xlsx
280,Australien,1.0,1.0,0.0,0.0,1.0,0.0,0.0,1.0,0.0,0.0,0.0,0.0,0.0,0.0,1.0,1.0,0.0,2020-12-01,7-80-Bew-RU-Total-J-d-2020-12.xlsx
281,Total Ozeanien,1.0,1.0,0.0,0.0,1.0,0.0,0.0,1.0,0.0,0.0,0.0,0.0,0.0,0.0,1.0,1.0,0.0,2020-12-01,7-80-Bew-RU-Total-J-d-2020-12.xlsx
282,Staatenlos,0.0,0.0,0.0,0.0,0.0,0.0,0.0,0.0,0.0,0.0,0.0,0.0,0.0,0.0,1.0,1.0,0.0,2020-12-01,7-80-Bew-RU-Total-J-d-2020-12.xlsx
283,Ohne Nationalität,13.0,3.0,0.0,8.0,2.0,0.0,0.0,2.0,0.0,2.0,1.0,0.0,0.0,2.0,15.0,5.0,6.0,2020-12-01,7-80-Bew-RU-Total-J-d-2020-12.xlsx
284,Staat unbekannt,68.0,9.0,1.0,77.0,10.0,2.0,0.0,3.0,0.0,4.0,3.0,3.0,0.0,0.0,31.0,16.0,13.0,2020-12-01,7-80-Bew-RU-Total-J-d-2020-12.xlsx
285,Total Herkunft unbek.,81.0,12.0,1.0,85.0,12.0,2.0,0.0,5.0,0.0,6.0,4.0,3.0,0.0,2.0,47.0,22.0,19.0,2020-12-01,7-80-Bew-RU-Total-J-d-2020-12.xlsx
