,index,Nation,BeginnIdentitätsabklärung,Identitätsabklärungpositiv,Identitätsabklärungnegativ,AbschreibungIdentitätsabklärung,BeginnPapierbeschaffung,Papierevorhanden,Papiereselbstbeschafft,Papierebeschafft,Papierenichtbeschafft,Abschreibung Papierbeschaffung,GesucheRückkehrhilfe,Rückkehrhilfebewilligt(inkl. teilweise),Rückkehrhilfe abgelehnt,Abschreibung Gesuch,BeginnAusreiseorganisation,AbschlussAusreiseorganisation,AbschreibungAusreiseorganisation,,.1,.2,.3,Datum,file_name
0,1,Ägypten,15.0,6.0,0.0,4.0,8.0,2.0,0.0,5.0,0.0,0.0,1.0,2.0,0.0,0.0,18.0,5.0,14.0,,,,,2020-12-01,7-81-Bew-RU-Asyl-J-d-2019-12.xlsx
1,2,Algerien,268.0,104.0,1.0,135.0,119.0,5.0,12.0,59.0,3.0,41.0,106.0,46.0,3.0,49.0,356.0,167.0,229.0,,,,,2020-12-01,7-81-Bew-RU-Asyl-J-d-2019-12.xlsx
2,3,Angola,16.0,5.0,0.0,8.0,5.0,0.0,0.0,4.0,0.0,2.0,4.0,4.0,0.0,0.0,40.0,24.0,17.0,,,,,2020-12-01,7-81-Bew-RU-Asyl-J-d-2019-12.xlsx
3,4,Äquatorialguinea,0.0,0.0,0.0,1.0,0.0,0.0,0.0,0.0,0.0,0.0,0.0,0.0,0.0,0.0,0.0,0.0,0.0,,,,,2020-12-01,7-81-Bew-RU-Asyl-J-d-2019-12.xlsx
4,5,Äthiopien,103.0,42.0,0.0,106.0,47.0,3.0,5.0,34.0,2.0,2.0,14.0,12.0,0.0,1.0,65.0,23.0,35.0,,,,,2020-12-01,7-81-Bew-RU-Asyl-J-d-2019-12.xlsx
5,6,Benin,2.0,1.0,0.0,0.0,2.0,0.0,0.0,0.0,0.0,1.0,1.0,0.0,0.0,0.0,0.0,0.0,1.0,,,,,2020-12-01,7-81-Bew-RU-Asyl-J-d-2019-12.xlsx
6,7,Burkina Faso,3.0,1.0,0.0,5.0,2.0,1.0,0.0,0.0,0.0,2.0,1.0,1.0,0.0,0.0,3.0,1.0,7.0,,,,,2020-12-01,7-81-Bew-RU-Asyl-J-d-2019-12.xlsx
7,8,Burundi,0.0,0.0,0.0,0.0,1.0,1.0,0.0,0.0,0.0,0.0,1.0,1.0,0.0,0.0,3.0,2.0,1.0,,,,,2020-12-01,7-81-Bew-RU-Asyl-J-d-2019-12.xlsx
8,9,Côte d'Ivoire,10.0,4.0,0.0,7.0,1.0,0.0,2.0,0.0,0.0,1.0,1.0,1.0,0.0,0.0,4.0,3.0,2.0,,,,,2020-12-01,7-81-Bew-RU-Asyl-J-d-2019-12.xlsx
9,10,Dschibuti,2.0,1.0,0.0,1.0,0.0,0.0,0.0,1.0,0.0,0.0,0.0,0.0,0.0,0.0,5.0,1.0,4.0,,,,,2020-12-01,7-81-Bew-RU-Asyl-J-d-2019-12.xlsx
10,11,Eritrea,224.0,12.0,0.0,207.0,11.0,3.0,1.0,1.0,0.0,9.0,3.0,6.0,0.0,0.0,33.0,17.0,5.0,,,,,2020-12-01,7-81-Bew-RU-Asyl-J-d-2019-12.xlsx
11,12,Gabun,2.0,0.0,0.0,0.0,0.0,0.0,0.0,0.0,0.0,0.0,0.0,0.0,0.0,0.0,4.0,1.0,3.0,,,,,2020-12-01,7-81-Bew-RU-Asyl-J-d-2019-12.xlsx
12,13,Gambia,18.0,8.0,0.0,7.0,12.0,3.0,4.0,3.0,0.0,1.0,7.0,6.0,0.0,0.0,28.0,13.0,20.0,,,,,2020-12-01,7-81-Bew-RU-Asyl-J-d-2019-12.xlsx
13,14,Ghana,4.0,10.0,0.0,0.0,8.0,2.0,0.0,6.0,0.0,1.0,9.0,8.0,0.0,1.0,24.0,13.0,11.0,,,,,2020-12-01,7-81-Bew-RU-Asyl-J-d-2019-12.xlsx
14,15,Guinea,31.0,11.0,1.0,23.0,21.0,1.0,0.0,18.0,0.0,5.0,8.0,8.0,0.0,1.0,57.0,21.0,32.0,,,,,2020-12-01,7-81-Bew-RU-Asyl-J-d-2019-12.xlsx
15,16,Guinea-Bissau,4.0,2.0,0.0,0.0,3.0,0.0,0.0,1.0,0.0,2.0,2.0,1.0,0.0,0.0,2.0,2.0,2.0,,,,,2020-12-01,7-81-Bew-RU-Asyl-J-d-2019-12.xlsx
16,17,Kamerun,10.0,2.0,0.0,5.0,16.0,1.0,0.0,7.0,0.0,3.0,5.0,0.0,0.0,1.0,17.0,5.0,16.0,,,,,2020-12-01,7-81-Bew-RU-Asyl-J-d-2019-12.xlsx
17,18,Kapverden,0.0,0.0,0.0,0.0,0.0,0.0,0.0,0.0,0.0,0.0,0.0,0.0,0.0,0.0,0.0,0.0,0.0,,,,,2020-12-01,7-81-Bew-RU-Asyl-J-d-2019-12.xlsx
18,19,Kenia,1.0,2.0,0.0,1.0,2.0,0.0,0.0,0.0,0.0,0.0,1.0,1.0,0.0,0.0,1.0,1.0,0.0,,,,,2020-12-01,7-81-Bew-RU-Asyl-J-d-2019-12.xlsx
19,20,Kongo,1.0,0.0,0.0,0.0,0.0,0.0,0.0,0.0,0.0,0.0,0.0,0.0,0.0,0.0,2.0,0.0,1.0,,,,,2020-12-01,7-81-Bew-RU-Asyl-J-d-2019-12.xlsx
20,21,Kongo DR,30.0,4.0,0.0,7.0,5.0,1.0,0.0,4.0,0.0,1.0,5.0,5.0,0.0,0.0,17.0,7.0,7.0,,,,,2020-12-01,7-81-Bew-RU-Asyl-J-d-2019-12.xlsx
21,22,Liberia,1.0,0.0,0.0,0.0,0.0,0.0,0.0,0.0,0.0,0.0,0.0,0.0,0.0,0.0,5.0,1.0,4.0,,,,,2020-12-01,7-81-Bew-RU-Asyl-J-d-2019-12.xlsx
22,23,Libyen,8.0,3.0,0.0,4.0,6.0,0.0,0.0,0.0,0.0,1.0,6.0,4.0,0.0,5.0,29.0,17.0,14.0,,,,,2020-12-01,7-81-Bew-RU-Asyl-J-d-2019-12.xlsx
23,24,Malawi,0.0,0.0,0.0,0.0,0.0,0.0,0.0,0.0,0.0,0.0,0.0,0.0,0.0,0.0,0.0,0.0,0.0,,,,,2020-12-01,7-81-Bew-RU-Asyl-J-d-2019-12.xlsx
24,25,Mali,7.0,8.0,0.0,10.0,5.0,0.0,3.0,2.0,0.0,1.0,5.0,5.0,0.0,0.0,18.0,5.0,14.0,,,,,2020-12-01,7-81-Bew-RU-Asyl-J-d-2019-12.xlsx
25,26,Marokko,92.0,34.0,0.0,72.0,32.0,7.0,0.0,3.0,1.0,9.0,16.0,7.0,1.0,11.0,132.0,53.0,81.0,,,,,2020-12-01,7-81-Bew-RU-Asyl-J-d-2019-12.xlsx
26,27,Mauretanien,1.0,0.0,0.0,4.0,0.0,0.0,0.0,0.0,0.0,1.0,0.0,0.0,0.0,0.0,2.0,1.0,0.0,,,,,2020-12-01,7-81-Bew-RU-Asyl-J-d-2019-12.xlsx
27,28,Mauritius,0.0,0.0,0.0,0.0,0.0,0.0,0.0,0.0,0.0,0.0,0.0,0.0,0.0,0.0,0.0,0.0,0.0,,,,,2020-12-01,7-81-Bew-RU-Asyl-J-d-2019-12.xlsx
28,29,Mosambik,0.0,0.0,0.0,0.0,0.0,0.0,0.0,0.0,0.0,0.0,0.0,0.0,0.0,0.0,0.0,0.0,0.0,,,,,2020-12-01,7-81-Bew-RU-Asyl-J-d-2019-12.xlsx
29,30,Niger,2.0,0.0,0.0,2.0,1.0,0.0,0.0,0.0,0.0,0.0,0.0,0.0,0.0,0.0,6.0,0.0,6.0,,,,,2020-12-01,7-81-Bew-RU-Asyl-J-d-2019-12.xlsx
30,31,Nigeria,49.0,26.0,0.0,20.0,44.0,3.0,0.0,31.0,1.0,3.0,24.0,19.0,1.0,4.0,143.0,60.0,79.0,,,,,2020-12-01,7-81-Bew-RU-Asyl-J-d-2019-12.xlsx
31,32,Ruanda,1.0,1.0,0.0,0.0,0.0,0.0,0.0,0.0,0.0,0.0,0.0,0.0,0.0,0.0,1.0,0.0,0.0,,,,,2020-12-01,7-81-Bew-RU-Asyl-J-d-2019-12.xlsx
32,33,Sambia,0.0,0.0,0.0,0.0,0.0,0.0,0.0,0.0,0.0,0.0,0.0,0.0,0.0,0.0,0.0,0.0,0.0,,,,,2020-12-01,7-81-Bew-RU-Asyl-J-d-2019-12.xlsx
33,34,Senegal,3.0,2.0,0.0,6.0,5.0,3.0,0.0,2.0,0.0,1.0,5.0,4.0,0.0,1.0,22.0,6.0,16.0,,,,,2020-12-01,7-81-Bew-RU-Asyl-J-d-2019-12.xlsx
34,35,Sierra Leone,3.0,1.0,0.0,4.0,1.0,0.0,0.0,0.0,0.0,1.0,1.0,0.0,0.0,0.0,3.0,1.0,2.0,,,,,2020-12-01,7-81-Bew-RU-Asyl-J-d-2019-12.xlsx
35,36,Somalia,45.0,18.0,0.0,34.0,19.0,0.0,5.0,11.0,0.0,1.0,16.0,20.0,0.0,5.0,60.0,27.0,22.0,,,,,2020-12-01,7-81-Bew-RU-Asyl-J-d-2019-12.xlsx
36,37,Sudan,10.0,10.0,0.0,4.0,9.0,0.0,3.0,1.0,0.0,1.0,5.0,4.0,0.0,0.0,19.0,11.0,6.0,,,,,2020-12-01,7-81-Bew-RU-Asyl-J-d-2019-12.xlsx
37,38,Südsudan,0.0,0.0,0.0,0.0,0.0,0.0,0.0,0.0,0.0,0.0,0.0,0.0,0.0,0.0,0.0,0.0,0.0,,,,,2020-12-01,7-81-Bew-RU-Asyl-J-d-2019-12.xlsx
38,39,Tansania,2.0,6.0,0.0,1.0,3.0,1.0,0.0,1.0,0.0,0.0,2.0,2.0,0.0,0.0,2.0,1.0,0.0,,,,,2020-12-01,7-81-Bew-RU-Asyl-J-d-2019-12.xlsx
39,40,Togo,7.0,11.0,0.0,5.0,8.0,0.0,0.0,8.0,0.0,0.0,0.0,0.0,0.0,0.0,1.0,0.0,0.0,,,,,2020-12-01,7-81-Bew-RU-Asyl-J-d-2019-12.xlsx
40,41,Tschad,1.0,0.0,0.0,3.0,0.0,0.0,0.0,0.0,0.0,1.0,0.0,0.0,0.0,0.0,1.0,1.0,0.0,,,,,2020-12-01,7-81-Bew-RU-Asyl-J-d-2019-12.xlsx
41,42,Tunesien,49.0,33.0,0.0,34.0,48.0,5.0,2.0,37.0,0.0,7.0,14.0,9.0,0.0,1.0,102.0,34.0,67.0,,,,,2020-12-01,7-81-Bew-RU-Asyl-J-d-2019-12.xlsx
42,43,Uganda,3.0,0.0,0.0,4.0,0.0,0.0,0.0,0.0,0.0,0.0,1.0,1.0,0.0,0.0,1.0,0.0,0.0,,,,,2020-12-01,7-81-Bew-RU-Asyl-J-d-2019-12.xlsx
43,44,Westsahara,2.0,1.0,0.0,0.0,0.0,0.0,0.0,0.0,0.0,0.0,0.0,0.0,0.0,0.0,5.0,1.0,4.0,,,,,2020-12-01,7-81-Bew-RU-Asyl-J-d-2019-12.xlsx
44,45,Zentralafr. Republik,1.0,0.0,0.0,1.0,0.0,0.0,0.0,0.0,0.0,0.0,0.0,0.0,0.0,0.0,3.0,0.0,1.0,,,,,2020-12-01,7-81-Bew-RU-Asyl-J-d-2019-12.xlsx
45,46,Zimbabwe,1.0,1.0,0.0,0.0,2.0,0.0,0.0,1.0,0.0,0.0,1.0,1.0,0.0,0.0,5.0,1.0,3.0,,,,,2020-12-01,7-81-Bew-RU-Asyl-J-d-2019-12.xlsx
46,49,Argentinien,0.0,0.0,0.0,0.0,0.0,0.0,0.0,0.0,0.0,0.0,0.0,0.0,0.0,0.0,0.0,0.0,0.0,,,,,2020-12-01,7-81-Bew-RU-Asyl-J-d-2019-12.xlsx
47,50,Bolivien,0.0,0.0,0.0,0.0,0.0,0.0,0.0,0.0,0.0,0.0,0.0,0.0,0.0,0.0,0.0,0.0,0.0,,,,,2020-12-01,7-81-Bew-RU-Asyl-J-d-2019-12.xlsx
48,51,Brasilien,0.0,0.0,0.0,0.0,3.0,3.0,0.0,0.0,0.0,0.0,2.0,2.0,0.0,0.0,5.0,4.0,1.0,,,,,2020-12-01,7-81-Bew-RU-Asyl-J-d-2019-12.xlsx
49,52,Chile,0.0,0.0,0.0,0.0,1.0,1.0,0.0,0.0,0.0,0.0,0.0,0.0,0.0,0.0,5.0,2.0,3.0,,,,,2020-12-01,7-81-Bew-RU-Asyl-J-d-2019-12.xlsx
50,53,Dominikanische Republik,0.0,0.0,0.0,0.0,1.0,0.0,0.0,1.0,0.0,0.0,0.0,0.0,0.0,0.0,0.0,0.0,0.0,,,,,2020-12-01,7-81-Bew-RU-Asyl-J-d-2019-12.xlsx
51,54,Ecuador,0.0,0.0,0.0,0.0,0.0,0.0,0.0,0.0,0.0,0.0,0.0,0.0,0.0,0.0,0.0,0.0,0.0,,,,,2020-12-01,7-81-Bew-RU-Asyl-J-d-2019-12.xlsx
52,55,El Salvador,0.0,0.0,0.0,0.0,14.0,14.0,0.0,0.0,0.0,0.0,6.0,3.0,0.0,0.0,15.0,3.0,9.0,,,,,2020-12-01,7-81-Bew-RU-Asyl-J-d-2019-12.xlsx
53,56,Haiti,0.0,0.0,0.0,0.0,2.0,2.0,0.0,0.0,0.0,0.0,0.0,0.0,0.0,0.0,3.0,3.0,0.0,,,,,2020-12-01,7-81-Bew-RU-Asyl-J-d-2019-12.xlsx
54,57,Honduras,0.0,0.0,0.0,0.0,0.0,0.0,0.0,0.0,0.0,0.0,0.0,0.0,0.0,0.0,0.0,0.0,0.0,,,,,2020-12-01,7-81-Bew-RU-Asyl-J-d-2019-12.xlsx
55,58,Jamaika,1.0,0.0,0.0,1.0,0.0,0.0,0.0,0.0,0.0,0.0,1.0,0.0,0.0,1.0,2.0,1.0,1.0,,,,,2020-12-01,7-81-Bew-RU-Asyl-J-d-2019-12.xlsx
56,59,Kanada,2.0,1.0,0.0,1.0,1.0,0.0,0.0,1.0,0.0,0.0,0.0,0.0,0.0,0.0,9.0,5.0,4.0,,,,,2020-12-01,7-81-Bew-RU-Asyl-J-d-2019-12.xlsx
57,60,Kolumbien,0.0,0.0,0.0,0.0,29.0,29.0,0.0,0.0,0.0,0.0,17.0,13.0,0.0,0.0,25.0,17.0,10.0,,,,,2020-12-01,7-81-Bew-RU-Asyl-J-d-2019-12.xlsx
58,61,Kuba,1.0,0.0,0.0,1.0,0.0,0.0,0.0,0.0,0.0,0.0,0.0,0.0,0.0,0.0,0.0,0.0,0.0,,,,,2020-12-01,7-81-Bew-RU-Asyl-J-d-2019-12.xlsx
59,62,Mexiko,1.0,1.0,0.0,0.0,2.0,1.0,0.0,0.0,0.0,0.0,0.0,0.0,0.0,0.0,2.0,1.0,1.0,,,,,2020-12-01,7-81-Bew-RU-Asyl-J-d-2019-12.xlsx
60,63,Nicaragua,0.0,0.0,0.0,0.0,1.0,1.0,0.0,0.0,0.0,0.0,0.0,0.0,0.0,0.0,1.0,0.0,1.0,,,,,2020-12-01,7-81-Bew-RU-Asyl-J-d-2019-12.xlsx
61,64,Paraguay,0.0,0.0,0.0,0.0,0.0,0.0,0.0,0.0,0.0,0.0,0.0,0.0,0.0,0.0,0.0,0.0,0.0,,,,,2020-12-01,7-81-Bew-RU-Asyl-J-d-2019-12.xlsx
62,65,Peru,0.0,0.0,0.0,0.0,0.0,0.0,0.0,0.0,0.0,0.0,0.0,0.0,0.0,0.0,0.0,0.0,0.0,,,,,2020-12-01,7-81-Bew-RU-Asyl-J-d-2019-12.xlsx
63,66,Uruguay,0.0,0.0,0.0,0.0,0.0,0.0,0.0,0.0,0.0,0.0,0.0,0.0,0.0,0.0,0.0,0.0,0.0,,,,,2020-12-01,7-81-Bew-RU-Asyl-J-d-2019-12.xlsx
64,67,USA,0.0,0.0,0.0,0.0,0.0,0.0,0.0,0.0,0.0,0.0,0.0,0.0,0.0,0.0,1.0,1.0,1.0,,,,,2020-12-01,7-81-Bew-RU-Asyl-J-d-2019-12.xlsx
65,68,Venezuela,6.0,4.0,0.0,1.0,7.0,4.0,0.0,2.0,0.0,5.0,6.0,3.0,0.0,2.0,9.0,2.0,4.0,,,,,2020-12-01,7-81-Bew-RU-Asyl-J-d-2019-12.xlsx
66,71,Afghanistan,73.0,29.0,0.0,45.0,33.0,7.0,0.0,18.0,1.0,20.0,22.0,17.0,0.0,4.0,170.0,58.0,99.0,,,,,2020-12-01,7-81-Bew-RU-Asyl-J-d-2019-12.xlsx
67,72,Armenien,12.0,6.0,1.0,0.0,28.0,7.0,3.0,10.0,0.0,9.0,11.0,11.0,0.0,1.0,25.0,15.0,11.0,,,,,2020-12-01,7-81-Bew-RU-Asyl-J-d-2019-12.xlsx
68,73,Aserbaidschan,2.0,5.0,0.0,0.0,4.0,0.0,2.0,2.0,0.0,0.0,4.0,4.0,0.0,0.0,5.0,5.0,0.0,,,,,2020-12-01,7-81-Bew-RU-Asyl-J-d-2019-12.xlsx
69,74,Bangladesh,1.0,1.0,0.0,0.0,1.0,1.0,1.0,0.0,0.0,2.0,2.0,1.0,0.0,0.0,4.0,3.0,1.0,,,,,2020-12-01,7-81-Bew-RU-Asyl-J-d-2019-12.xlsx
70,75,Bhutan,4.0,0.0,0.0,4.0,0.0,0.0,0.0,0.0,0.0,0.0,0.0,0.0,0.0,0.0,0.0,0.0,0.0,,,,,2020-12-01,7-81-Bew-RU-Asyl-J-d-2019-12.xlsx
71,76,China (Volksrepublik),41.0,4.0,0.0,54.0,7.0,2.0,0.0,1.0,0.0,3.0,3.0,1.0,0.0,1.0,11.0,5.0,4.0,,,,,2020-12-01,7-81-Bew-RU-Asyl-J-d-2019-12.xlsx
72,77,Georgien,109.0,102.0,0.0,3.0,260.0,124.0,8.0,130.0,0.0,1.0,142.0,107.0,20.0,6.0,445.0,231.0,201.0,,,,,2020-12-01,7-81-Bew-RU-Asyl-J-d-2019-12.xlsx
73,78,Indien,4.0,5.0,0.0,2.0,3.0,0.0,0.0,2.0,0.0,1.0,2.0,2.0,0.0,0.0,4.0,3.0,2.0,,,,,2020-12-01,7-81-Bew-RU-Asyl-J-d-2019-12.xlsx
74,79,Irak,192.0,27.0,0.0,96.0,45.0,16.0,9.0,16.0,0.0,5.0,45.0,36.0,1.0,5.0,165.0,76.0,87.0,,,,,2020-12-01,7-81-Bew-RU-Asyl-J-d-2019-12.xlsx
75,80,Iran,183.0,15.0,0.0,130.0,17.0,7.0,1.0,8.0,0.0,9.0,13.0,10.0,1.0,1.0,65.0,31.0,37.0,,,,,2020-12-01,7-81-Bew-RU-Asyl-J-d-2019-12.xlsx
76,81,Israel,0.0,0.0,0.0,1.0,1.0,1.0,0.0,0.0,0.0,0.0,0.0,0.0,0.0,0.0,2.0,0.0,1.0,,,,,2020-12-01,7-81-Bew-RU-Asyl-J-d-2019-12.xlsx
77,82,Japan,0.0,0.0,0.0,0.0,1.0,1.0,0.0,0.0,0.0,0.0,0.0,0.0,0.0,0.0,2.0,1.0,1.0,,,,,2020-12-01,7-81-Bew-RU-Asyl-J-d-2019-12.xlsx
78,83,Jemen,0.0,0.0,0.0,0.0,0.0,0.0,0.0,0.0,0.0,0.0,0.0,0.0,0.0,0.0,0.0,1.0,0.0,,,,,2020-12-01,7-81-Bew-RU-Asyl-J-d-2019-12.xlsx
79,84,Jordanien,1.0,0.0,0.0,0.0,0.0,0.0,0.0,0.0,0.0,0.0,0.0,0.0,0.0,0.0,0.0,0.0,0.0,,,,,2020-12-01,7-81-Bew-RU-Asyl-J-d-2019-12.xlsx
80,85,Kambodscha,0.0,0.0,0.0,0.0,0.0,0.0,0.0,0.0,0.0,0.0,0.0,0.0,0.0,0.0,0.0,0.0,0.0,,,,,2020-12-01,7-81-Bew-RU-Asyl-J-d-2019-12.xlsx
81,86,Kasachstan,1.0,1.0,0.0,0.0,1.0,0.0,0.0,1.0,0.0,0.0,0.0,0.0,0.0,0.0,0.0,0.0,5.0,,,,,2020-12-01,7-81-Bew-RU-Asyl-J-d-2019-12.xlsx
82,87,Korea (Süd),0.0,0.0,0.0,0.0,2.0,2.0,0.0,0.0,0.0,0.0,1.0,1.0,0.0,0.0,2.0,1.0,4.0,,,,,2020-12-01,7-81-Bew-RU-Asyl-J-d-2019-12.xlsx
83,88,Libanon,3.0,2.0,0.0,0.0,1.0,0.0,0.0,2.0,0.0,1.0,1.0,1.0,0.0,0.0,8.0,4.0,4.0,,,,,2020-12-01,7-81-Bew-RU-Asyl-J-d-2019-12.xlsx
84,89,Malaysia,0.0,0.0,0.0,0.0,0.0,0.0,0.0,0.0,0.0,0.0,1.0,1.0,0.0,0.0,1.0,1.0,0.0,,,,,2020-12-01,7-81-Bew-RU-Asyl-J-d-2019-12.xlsx
85,90,Mongolei,3.0,4.0,0.0,3.0,19.0,5.0,0.0,11.0,0.0,0.0,4.0,0.0,4.0,0.0,6.0,2.0,4.0,,,,,2020-12-01,7-81-Bew-RU-Asyl-J-d-2019-12.xlsx
86,91,Myanmar,0.0,0.0,0.0,0.0,0.0,0.0,0.0,0.0,0.0,0.0,0.0,0.0,0.0,0.0,5.0,1.0,4.0,,,,,2020-12-01,7-81-Bew-RU-Asyl-J-d-2019-12.xlsx
87,92,Nepal,3.0,1.0,0.0,3.0,3.0,3.0,0.0,1.0,0.0,0.0,1.0,1.0,0.0,0.0,6.0,3.0,3.0,,,,,2020-12-01,7-81-Bew-RU-Asyl-J-d-2019-12.xlsx
88,93,Oman,0.0,0.0,0.0,0.0,0.0,0.0,0.0,0.0,0.0,0.0,0.0,0.0,0.0,0.0,0.0,0.0,0.0,,,,,2020-12-01,7-81-Bew-RU-Asyl-J-d-2019-12.xlsx
89,94,Pakistan,37.0,15.0,0.0,27.0,16.0,5.0,0.0,6.0,0.0,2.0,8.0,5.0,0.0,4.0,37.0,13.0,25.0,,,,,2020-12-01,7-81-Bew-RU-Asyl-J-d-2019-12.xlsx
90,95,Philippinen,0.0,0.0,0.0,0.0,0.0,0.0,0.0,0.0,0.0,0.0,0.0,0.0,0.0,0.0,0.0,0.0,0.0,,,,,2020-12-01,7-81-Bew-RU-Asyl-J-d-2019-12.xlsx
91,96,Saudi-Arabien,0.0,0.0,0.0,0.0,0.0,0.0,0.0,0.0,0.0,0.0,0.0,0.0,0.0,0.0,1.0,0.0,1.0,,,,,2020-12-01,7-81-Bew-RU-Asyl-J-d-2019-12.xlsx
92,97,Sri Lanka,310.0,174.0,0.0,82.0,236.0,6.0,0.0,22.0,4.0,31.0,9.0,6.0,0.0,3.0,61.0,20.0,54.0,,,,,2020-12-01,7-81-Bew-RU-Asyl-J-d-2019-12.xlsx
93,98,Syrien,9.0,0.0,0.0,1.0,5.0,4.0,0.0,0.0,0.0,1.0,11.0,14.0,0.0,0.0,52.0,21.0,37.0,,,,,2020-12-01,7-81-Bew-RU-Asyl-J-d-2019-12.xlsx
94,99,Thailand,0.0,0.0,0.0,0.0,0.0,0.0,0.0,0.0,0.0,0.0,0.0,0.0,0.0,0.0,0.0,0.0,0.0,,,,,2020-12-01,7-81-Bew-RU-Asyl-J-d-2019-12.xlsx
95,100,Usbekistan,0.0,0.0,0.0,4.0,0.0,0.0,0.0,0.0,0.0,0.0,0.0,0.0,0.0,0.0,0.0,0.0,0.0,,,,,2020-12-01,7-81-Bew-RU-Asyl-J-d-2019-12.xlsx
96,101,Vietnam,1.0,0.0,0.0,0.0,1.0,1.0,0.0,0.0,0.0,0.0,1.0,0.0,0.0,1.0,6.0,3.0,3.0,,,,,2020-12-01,7-81-Bew-RU-Asyl-J-d-2019-12.xlsx
97,104,Albanien,18.0,17.0,0.0,0.0,44.0,25.0,0.0,18.0,2.0,0.0,14.0,14.0,0.0,2.0,103.0,51.0,57.0,,,,,2020-12-01,7-81-Bew-RU-Asyl-J-d-2019-12.xlsx
98,105,Belarus,6.0,3.0,0.0,2.0,24.0,11.0,3.0,9.0,0.0,0.0,14.0,13.0,0.0,1.0,34.0,18.0,11.0,,,,,2020-12-01,7-81-Bew-RU-Asyl-J-d-2019-12.xlsx
99,106,Belgien,0.0,0.0,0.0,0.0,0.0,0.0,0.0,0.0,0.0,0.0,0.0,0.0,0.0,0.0,1.0,0.0,1.0,,,,,2020-12-01,7-81-Bew-RU-Asyl-J-d-2019-12.xlsx
100,107,Bosnien u. Herzegowina,8.0,6.0,0.0,4.0,6.0,2.0,0.0,3.0,0.0,0.0,4.0,3.0,0.0,0.0,10.0,5.0,5.0,,,,,2020-12-01,7-81-Bew-RU-Asyl-J-d-2019-12.xlsx
101,108,Bulgarien,0.0,0.0,0.0,0.0,0.0,0.0,0.0,0.0,0.0,0.0,0.0,0.0,0.0,0.0,0.0,0.0,0.0,,,,,2020-12-01,7-81-Bew-RU-Asyl-J-d-2019-12.xlsx
102,109,Deutschland,0.0,0.0,0.0,0.0,1.0,1.0,0.0,0.0,0.0,0.0,0.0,0.0,0.0,0.0,0.0,0.0,0.0,,,,,2020-12-01,7-81-Bew-RU-Asyl-J-d-2019-12.xlsx
103,110,Estland,0.0,0.0,0.0,0.0,0.0,0.0,0.0,0.0,0.0,0.0,0.0,0.0,0.0,0.0,2.0,1.0,1.0,,,,,2020-12-01,7-81-Bew-RU-Asyl-J-d-2019-12.xlsx
104,111,Frankreich,1.0,1.0,0.0,0.0,3.0,2.0,0.0,1.0,0.0,0.0,3.0,1.0,0.0,0.0,4.0,1.0,2.0,,,,,2020-12-01,7-81-Bew-RU-Asyl-J-d-2019-12.xlsx
105,112,Griechenland,0.0,0.0,0.0,0.0,0.0,0.0,0.0,0.0,0.0,0.0,0.0,0.0,0.0,0.0,0.0,0.0,0.0,,,,,2020-12-01,7-81-Bew-RU-Asyl-J-d-2019-12.xlsx
106,113,Grossbritannien,0.0,0.0,0.0,0.0,2.0,1.0,0.0,0.0,0.0,1.0,0.0,0.0,0.0,0.0,2.0,1.0,1.0,,,,,2020-12-01,7-81-Bew-RU-Asyl-J-d-2019-12.xlsx
107,114,Irland,0.0,0.0,0.0,0.0,0.0,0.0,0.0,0.0,0.0,0.0,0.0,0.0,0.0,0.0,0.0,0.0,0.0,,,,,2020-12-01,7-81-Bew-RU-Asyl-J-d-2019-12.xlsx
108,115,Italien,0.0,0.0,0.0,0.0,2.0,2.0,0.0,0.0,0.0,0.0,0.0,0.0,0.0,0.0,0.0,0.0,0.0,,,,,2020-12-01,7-81-Bew-RU-Asyl-J-d-2019-12.xlsx
109,116,Kosovo,19.0,14.0,0.0,9.0,41.0,19.0,3.0,19.0,0.0,0.0,16.0,12.0,0.0,3.0,56.0,25.0,32.0,,,,,2020-12-01,7-81-Bew-RU-Asyl-J-d-2019-12.xlsx
110,117,Kroatien,0.0,0.0,0.0,0.0,2.0,2.0,0.0,0.0,0.0,0.0,1.0,1.0,0.0,0.0,1.0,1.0,0.0,,,,,2020-12-01,7-81-Bew-RU-Asyl-J-d-2019-12.xlsx
111,118,Lettland,0.0,0.0,0.0,0.0,0.0,0.0,0.0,0.0,0.0,0.0,0.0,0.0,0.0,0.0,0.0,0.0,0.0,,,,,2020-12-01,7-81-Bew-RU-Asyl-J-d-2019-12.xlsx
112,119,Litauen,0.0,1.0,0.0,0.0,3.0,2.0,0.0,1.0,0.0,0.0,0.0,0.0,0.0,0.0,3.0,1.0,1.0,,,,,2020-12-01,7-81-Bew-RU-Asyl-J-d-2019-12.xlsx
113,120,Nordmazedonien,6.0,7.0,0.0,0.0,13.0,7.0,0.0,6.0,0.0,0.0,13.0,12.0,0.0,0.0,29.0,14.0,14.0,,,,,2020-12-01,7-81-Bew-RU-Asyl-J-d-2019-12.xlsx
114,121,Moldova,5.0,5.0,0.0,3.0,23.0,15.0,4.0,4.0,0.0,0.0,34.0,33.0,0.0,0.0,42.0,38.0,9.0,,,,,2020-12-01,7-81-Bew-RU-Asyl-J-d-2019-12.xlsx
115,122,Montenegro,1.0,1.0,0.0,1.0,0.0,0.0,0.0,0.0,0.0,0.0,0.0,0.0,0.0,0.0,3.0,3.0,0.0,,,,,2020-12-01,7-81-Bew-RU-Asyl-J-d-2019-12.xlsx
116,123,Niederlande,0.0,0.0,0.0,0.0,0.0,0.0,0.0,1.0,0.0,0.0,1.0,1.0,0.0,0.0,2.0,2.0,0.0,,,,,2020-12-01,7-81-Bew-RU-Asyl-J-d-2019-12.xlsx
117,124,Österreich,0.0,0.0,0.0,0.0,0.0,0.0,0.0,0.0,0.0,0.0,0.0,0.0,0.0,0.0,0.0,0.0,0.0,,,,,2020-12-01,7-81-Bew-RU-Asyl-J-d-2019-12.xlsx
118,125,Polen,0.0,0.0,0.0,0.0,0.0,0.0,0.0,0.0,0.0,0.0,0.0,0.0,0.0,0.0,0.0,0.0,0.0,,,,,2020-12-01,7-81-Bew-RU-Asyl-J-d-2019-12.xlsx
119,126,Portugal,0.0,0.0,0.0,1.0,0.0,0.0,0.0,0.0,0.0,0.0,0.0,0.0,0.0,0.0,0.0,0.0,0.0,,,,,2020-12-01,7-81-Bew-RU-Asyl-J-d-2019-12.xlsx
120,127,Rumänien,0.0,0.0,0.0,0.0,1.0,1.0,1.0,0.0,1.0,0.0,0.0,0.0,0.0,1.0,0.0,0.0,0.0,,,,,2020-12-01,7-81-Bew-RU-Asyl-J-d-2019-12.xlsx
121,128,Russland,33.0,25.0,8.0,5.0,16.0,8.0,1.0,7.0,0.0,2.0,13.0,13.0,0.0,0.0,82.0,30.0,40.0,,,,,2020-12-01,7-81-Bew-RU-Asyl-J-d-2019-12.xlsx
122,129,Serbien,19.0,14.0,0.0,4.0,20.0,11.0,0.0,13.0,0.0,1.0,9.0,6.0,1.0,1.0,59.0,25.0,31.0,,,,,2020-12-01,7-81-Bew-RU-Asyl-J-d-2019-12.xlsx
123,130,Slowakische Republik,0.0,0.0,0.0,0.0,1.0,1.0,0.0,0.0,0.0,0.0,0.0,0.0,0.0,0.0,1.0,0.0,1.0,,,,,2020-12-01,7-81-Bew-RU-Asyl-J-d-2019-12.xlsx
124,131,Slowenien,0.0,0.0,0.0,0.0,0.0,0.0,0.0,0.0,0.0,0.0,0.0,0.0,0.0,0.0,0.0,0.0,0.0,,,,,2020-12-01,7-81-Bew-RU-Asyl-J-d-2019-12.xlsx
125,132,Spanien,0.0,0.0,0.0,0.0,2.0,3.0,0.0,0.0,0.0,0.0,0.0,0.0,0.0,0.0,0.0,0.0,0.0,,,,,2020-12-01,7-81-Bew-RU-Asyl-J-d-2019-12.xlsx
126,133,Tschechische Republik,0.0,0.0,0.0,0.0,4.0,4.0,0.0,0.0,0.0,0.0,0.0,0.0,0.0,0.0,4.0,4.0,0.0,,,,,2020-12-01,7-81-Bew-RU-Asyl-J-d-2019-12.xlsx
127,134,Türkei,46.0,7.0,0.0,19.0,53.0,40.0,0.0,5.0,0.0,0.0,15.0,13.0,1.0,0.0,83.0,41.0,39.0,,,,,2020-12-01,7-81-Bew-RU-Asyl-J-d-2019-12.xlsx
128,135,Ukraine,7.0,7.0,1.0,0.0,25.0,14.0,0.0,6.0,0.0,0.0,6.0,4.0,0.0,0.0,40.0,26.0,16.0,,,,,2020-12-01,7-81-Bew-RU-Asyl-J-d-2019-12.xlsx
129,136,Ungarn,0.0,0.0,0.0,0.0,0.0,0.0,0.0,0.0,0.0,0.0,0.0,0.0,0.0,0.0,0.0,0.0,0.0,,,,,2020-12-01,7-81-Bew-RU-Asyl-J-d-2019-12.xlsx
130,139,Australien,0.0,0.0,0.0,0.0,0.0,0.0,0.0,0.0,0.0,0.0,0.0,0.0,0.0,0.0,0.0,0.0,0.0,,,,,2020-12-01,7-81-Bew-RU-Asyl-J-d-2019-12.xlsx
131,142,Staatenlos,0.0,0.0,0.0,0.0,0.0,0.0,0.0,0.0,0.0,0.0,0.0,0.0,0.0,0.0,0.0,0.0,0.0,,,,,2020-12-01,7-81-Bew-RU-Asyl-J-d-2019-12.xlsx
132,143,Ohne Nationalität,10.0,3.0,0.0,3.0,2.0,0.0,0.0,2.0,0.0,2.0,1.0,0.0,0.0,2.0,10.0,3.0,4.0,,,,,2020-12-01,7-81-Bew-RU-Asyl-J-d-2019-12.xlsx
133,144,Staat unbekannt,66.0,9.0,1.0,72.0,10.0,2.0,0.0,3.0,0.0,4.0,2.0,2.0,0.0,0.0,20.0,9.0,10.0,,,,,2020-12-01,7-81-Bew-RU-Asyl-J-d-2019-12.xlsx
134,1,Ägypten,7.0,2.0,5.0,1.0,9.0,4.0,2.0,2.0,1.0,0.0,4.0,3.0,0.0,0.0,31.0,12.0,17.0,,,,,2019-12-01,7-81-Bew-RU-Asyl-J-d-2019-12.xlsx
135,2,Algerien,245.0,96.0,94.0,5.0,306.0,12.0,27.0,210.0,3.0,29.0,92.0,82.0,1.0,7.0,601.0,288.0,313.0,,,,,2019-12-01,7-81-Bew-RU-Asyl-J-d-2019-12.xlsx
136,3,Angola,7.0,2.0,7.0,0.0,4.0,2.0,0.0,2.0,0.0,0.0,1.0,0.0,0.0,0.0,55.0,29.0,31.0,,,,,2019-12-01,7-81-Bew-RU-Asyl-J-d-2019-12.xlsx
137,4,Äquatorialguinea,0.0,0.0,0.0,0.0,0.0,0.0,0.0,0.0,0.0,0.0,0.0,0.0,0.0,0.0,1.0,1.0,0.0,,,,,2019-12-01,7-81-Bew-RU-Asyl-J-d-2019-12.xlsx
138,5,Äthiopien,128.0,18.0,91.0,0.0,28.0,8.0,5.0,13.0,2.0,7.0,23.0,23.0,0.0,1.0,68.0,41.0,32.0,,,,,2019-12-01,7-81-Bew-RU-Asyl-J-d-2019-12.xlsx
139,6,Benin,2.0,0.0,1.0,0.0,3.0,0.0,0.0,2.0,0.0,0.0,0.0,0.0,0.0,0.0,6.0,2.0,4.0,,,,,2019-12-01,7-81-Bew-RU-Asyl-J-d-2019-12.xlsx
140,7,Burkina Faso,8.0,4.0,4.0,0.0,5.0,1.0,0.0,2.0,0.0,1.0,1.0,1.0,0.0,0.0,19.0,4.0,11.0,,,,,2019-12-01,7-81-Bew-RU-Asyl-J-d-2019-12.xlsx
141,8,Burundi,0.0,0.0,0.0,0.0,0.0,0.0,0.0,0.0,0.0,1.0,0.0,0.0,0.0,0.0,1.0,0.0,0.0,,,,,2019-12-01,7-81-Bew-RU-Asyl-J-d-2019-12.xlsx
142,9,Côte d'Ivoire,13.0,4.0,8.0,0.0,6.0,0.0,1.0,2.0,0.0,1.0,2.0,2.0,0.0,0.0,20.0,10.0,10.0,,,,,2019-12-01,7-81-Bew-RU-Asyl-J-d-2019-12.xlsx
143,10,Dschibuti,0.0,0.0,1.0,0.0,0.0,0.0,0.0,0.0,0.0,0.0,0.0,0.0,0.0,0.0,1.0,1.0,0.0,,,,,2019-12-01,7-81-Bew-RU-Asyl-J-d-2019-12.xlsx
144,11,Eritrea,429.0,19.0,260.0,1.0,19.0,5.0,5.0,4.0,1.0,16.0,26.0,19.0,0.0,1.0,74.0,44.0,23.0,,,,,2019-12-01,7-81-Bew-RU-Asyl-J-d-2019-12.xlsx
145,12,Gabun,0.0,0.0,0.0,0.0,0.0,0.0,0.0,0.0,0.0,0.0,0.0,0.0,0.0,0.0,0.0,0.0,0.0,,,,,2019-12-01,7-81-Bew-RU-Asyl-J-d-2019-12.xlsx
146,13,Gambia,16.0,11.0,11.0,0.0,26.0,4.0,4.0,24.0,0.0,2.0,29.0,24.0,0.0,1.0,96.0,58.0,38.0,,,,,2019-12-01,7-81-Bew-RU-Asyl-J-d-2019-12.xlsx
147,14,Ghana,4.0,1.0,3.0,0.0,8.0,2.0,0.0,1.0,0.0,1.0,3.0,3.0,0.0,0.0,23.0,9.0,15.0,,,,,2019-12-01,7-81-Bew-RU-Asyl-J-d-2019-12.xlsx
148,15,Guinea,71.0,44.0,34.0,0.0,64.0,0.0,0.0,50.0,2.0,7.0,10.0,5.0,0.0,1.0,116.0,74.0,41.0,,,,,2019-12-01,7-81-Bew-RU-Asyl-J-d-2019-12.xlsx
149,16,Guinea-Bissau,6.0,8.0,2.0,0.0,6.0,0.0,0.0,7.0,1.0,1.0,6.0,5.0,0.0,0.0,24.0,13.0,8.0,,,,,2019-12-01,7-81-Bew-RU-Asyl-J-d-2019-12.xlsx
150,17,Kamerun,15.0,14.0,9.0,1.0,11.0,0.0,0.0,9.0,0.0,0.0,2.0,1.0,0.0,0.0,32.0,14.0,15.0,,,,,2019-12-01,7-81-Bew-RU-Asyl-J-d-2019-12.xlsx
151,18,Kapverden,0.0,0.0,0.0,0.0,0.0,0.0,0.0,0.0,0.0,0.0,0.0,0.0,0.0,0.0,0.0,0.0,0.0,,,,,2019-12-01,7-81-Bew-RU-Asyl-J-d-2019-12.xlsx
152,19,Kenia,2.0,1.0,0.0,0.0,0.0,0.0,0.0,0.0,0.0,0.0,1.0,1.0,0.0,0.0,3.0,3.0,0.0,,,,,2019-12-01,7-81-Bew-RU-Asyl-J-d-2019-12.xlsx
153,20,Kongo,1.0,0.0,0.0,0.0,1.0,1.0,0.0,0.0,0.0,0.0,0.0,0.0,0.0,0.0,0.0,0.0,0.0,,,,,2019-12-01,7-81-Bew-RU-Asyl-J-d-2019-12.xlsx
154,21,Kongo DR,23.0,18.0,12.0,1.0,20.0,1.0,0.0,12.0,1.0,1.0,2.0,1.0,0.0,0.0,35.0,17.0,19.0,,,,,2019-12-01,7-81-Bew-RU-Asyl-J-d-2019-12.xlsx
155,22,Liberia,1.0,0.0,0.0,0.0,3.0,1.0,0.0,0.0,0.0,0.0,1.0,1.0,0.0,0.0,5.0,2.0,2.0,,,,,2019-12-01,7-81-Bew-RU-Asyl-J-d-2019-12.xlsx
156,23,Libyen,18.0,3.0,7.0,0.0,5.0,1.0,1.0,1.0,0.0,0.0,11.0,10.0,0.0,0.0,53.0,30.0,20.0,,,,,2019-12-01,7-81-Bew-RU-Asyl-J-d-2019-12.xlsx
157,24,Malawi,0.0,1.0,0.0,0.0,0.0,0.0,0.0,0.0,0.0,0.0,0.0,0.0,0.0,0.0,0.0,0.0,0.0,,,,,2019-12-01,7-81-Bew-RU-Asyl-J-d-2019-12.xlsx
158,25,Mali,14.0,5.0,5.0,0.0,8.0,0.0,1.0,6.0,0.0,1.0,6.0,6.0,0.0,0.0,24.0,15.0,8.0,,,,,2019-12-01,7-81-Bew-RU-Asyl-J-d-2019-12.xlsx
159,26,Marokko,101.0,29.0,76.0,1.0,50.0,6.0,1.0,36.0,0.0,11.0,10.0,5.0,0.0,4.0,231.0,137.0,100.0,,,,,2019-12-01,7-81-Bew-RU-Asyl-J-d-2019-12.xlsx
160,27,Mauretanien,5.0,0.0,3.0,0.0,1.0,0.0,0.0,0.0,0.0,0.0,0.0,0.0,0.0,0.0,2.0,0.0,3.0,,,,,2019-12-01,7-81-Bew-RU-Asyl-J-d-2019-12.xlsx
161,28,Mauritius,0.0,0.0,0.0,0.0,1.0,1.0,0.0,0.0,0.0,0.0,0.0,0.0,0.0,0.0,2.0,0.0,1.0,,,,,2019-12-01,7-81-Bew-RU-Asyl-J-d-2019-12.xlsx
162,29,Niger,3.0,3.0,2.0,0.0,1.0,0.0,0.0,1.0,0.0,0.0,0.0,0.0,0.0,0.0,6.0,4.0,2.0,,,,,2019-12-01,7-81-Bew-RU-Asyl-J-d-2019-12.xlsx
163,30,Nigeria,50.0,39.0,10.0,0.0,64.0,5.0,3.0,45.0,0.0,9.0,30.0,26.0,0.0,0.0,232.0,145.0,92.0,,,,,2019-12-01,7-81-Bew-RU-Asyl-J-d-2019-12.xlsx
164,31,Ruanda,3.0,0.0,3.0,0.0,0.0,0.0,0.0,0.0,0.0,0.0,0.0,0.0,0.0,0.0,1.0,1.0,0.0,,,,,2019-12-01,7-81-Bew-RU-Asyl-J-d-2019-12.xlsx
165,32,Sambia,0.0,0.0,0.0,0.0,1.0,1.0,0.0,0.0,0.0,0.0,0.0,0.0,0.0,0.0,1.0,0.0,1.0,,,,,2019-12-01,7-81-Bew-RU-Asyl-J-d-2019-12.xlsx
166,33,Senegal,11.0,11.0,7.0,0.0,15.0,4.0,2.0,9.0,1.0,0.0,6.0,7.0,0.0,0.0,36.0,27.0,12.0,,,,,2019-12-01,7-81-Bew-RU-Asyl-J-d-2019-12.xlsx
167,34,Sierra Leone,3.0,0.0,2.0,0.0,1.0,1.0,0.0,0.0,0.0,0.0,0.0,0.0,0.0,0.0,6.0,3.0,2.0,,,,,2019-12-01,7-81-Bew-RU-Asyl-J-d-2019-12.xlsx
168,35,Somalia,43.0,11.0,23.0,0.0,16.0,2.0,3.0,7.0,0.0,1.0,29.0,16.0,1.0,4.0,78.0,38.0,40.0,,,,,2019-12-01,7-81-Bew-RU-Asyl-J-d-2019-12.xlsx
169,36,Südafrika,0.0,0.0,0.0,0.0,1.0,1.0,0.0,0.0,0.0,0.0,1.0,1.0,0.0,0.0,2.0,2.0,0.0,,,,,2019-12-01,7-81-Bew-RU-Asyl-J-d-2019-12.xlsx
170,37,Sudan,11.0,8.0,2.0,0.0,12.0,1.0,2.0,8.0,1.0,0.0,6.0,4.0,0.0,1.0,24.0,19.0,10.0,,,,,2019-12-01,7-81-Bew-RU-Asyl-J-d-2019-12.xlsx
171,38,Südsudan,1.0,0.0,1.0,0.0,0.0,0.0,0.0,0.0,0.0,0.0,0.0,0.0,0.0,0.0,2.0,0.0,2.0,,,,,2019-12-01,7-81-Bew-RU-Asyl-J-d-2019-12.xlsx
172,39,Tansania,2.0,0.0,0.0,0.0,0.0,0.0,0.0,0.0,0.0,0.0,4.0,4.0,0.0,0.0,9.0,5.0,4.0,,,,,2019-12-01,7-81-Bew-RU-Asyl-J-d-2019-12.xlsx
173,40,Togo,5.0,4.0,1.0,0.0,1.0,0.0,1.0,0.0,0.0,0.0,1.0,0.0,0.0,1.0,9.0,2.0,8.0,,,,,2019-12-01,7-81-Bew-RU-Asyl-J-d-2019-12.xlsx
174,41,Tschad,3.0,0.0,2.0,0.0,1.0,1.0,0.0,0.0,0.0,0.0,0.0,0.0,0.0,0.0,3.0,2.0,1.0,,,,,2019-12-01,7-81-Bew-RU-Asyl-J-d-2019-12.xlsx
175,42,Tunesien,55.0,57.0,14.0,0.0,58.0,6.0,1.0,42.0,0.0,3.0,14.0,9.0,5.0,1.0,141.0,76.0,65.0,,,,,2019-12-01,7-81-Bew-RU-Asyl-J-d-2019-12.xlsx
176,43,Uganda,0.0,2.0,0.0,0.0,1.0,1.0,0.0,0.0,0.0,0.0,1.0,1.0,0.0,0.0,4.0,2.0,2.0,,,,,2019-12-01,7-81-Bew-RU-Asyl-J-d-2019-12.xlsx
177,44,Westsahara,0.0,0.0,0.0,0.0,0.0,0.0,0.0,0.0,0.0,0.0,0.0,0.0,0.0,0.0,2.0,0.0,1.0,,,,,2019-12-01,7-81-Bew-RU-Asyl-J-d-2019-12.xlsx
178,45,Zentralafr. Republik,0.0,0.0,0.0,0.0,0.0,0.0,0.0,0.0,0.0,0.0,0.0,0.0,0.0,0.0,4.0,1.0,3.0,,,,,2019-12-01,7-81-Bew-RU-Asyl-J-d-2019-12.xlsx
179,46,Zimbabwe,1.0,0.0,0.0,0.0,2.0,2.0,0.0,0.0,0.0,0.0,1.0,1.0,0.0,0.0,2.0,1.0,1.0,,,,,2019-12-01,7-81-Bew-RU-Asyl-J-d-2019-12.xlsx
180,49,Argentinien,0.0,0.0,0.0,0.0,0.0,0.0,0.0,0.0,0.0,0.0,0.0,0.0,0.0,0.0,0.0,0.0,0.0,,,,,2019-12-01,7-81-Bew-RU-Asyl-J-d-2019-12.xlsx
181,50,Bolivien,0.0,0.0,0.0,0.0,0.0,0.0,0.0,0.0,0.0,0.0,0.0,0.0,0.0,0.0,0.0,0.0,0.0,,,,,2019-12-01,7-81-Bew-RU-Asyl-J-d-2019-12.xlsx
182,51,Brasilien,0.0,0.0,0.0,0.0,0.0,0.0,0.0,0.0,0.0,0.0,0.0,0.0,0.0,0.0,3.0,3.0,0.0,,,,,2019-12-01,7-81-Bew-RU-Asyl-J-d-2019-12.xlsx
183,52,Chile,0.0,0.0,0.0,0.0,0.0,0.0,0.0,0.0,0.0,0.0,0.0,0.0,0.0,0.0,0.0,0.0,0.0,,,,,2019-12-01,7-81-Bew-RU-Asyl-J-d-2019-12.xlsx
184,53,Costa Rica,0.0,0.0,0.0,0.0,0.0,0.0,0.0,0.0,0.0,0.0,0.0,0.0,0.0,0.0,0.0,0.0,0.0,,,,,2019-12-01,7-81-Bew-RU-Asyl-J-d-2019-12.xlsx
185,54,Dominikanische Republik,0.0,0.0,0.0,0.0,0.0,0.0,0.0,0.0,0.0,0.0,0.0,0.0,0.0,0.0,0.0,0.0,0.0,,,,,2019-12-01,7-81-Bew-RU-Asyl-J-d-2019-12.xlsx
186,55,Ecuador,0.0,0.0,0.0,0.0,0.0,0.0,0.0,0.0,0.0,0.0,0.0,0.0,0.0,0.0,3.0,3.0,0.0,,,,,2019-12-01,7-81-Bew-RU-Asyl-J-d-2019-12.xlsx
187,56,El Salvador,0.0,0.0,0.0,0.0,7.0,7.0,0.0,0.0,0.0,0.0,0.0,0.0,0.0,0.0,7.0,2.0,6.0,,,,,2019-12-01,7-81-Bew-RU-Asyl-J-d-2019-12.xlsx
188,57,Guatemala,0.0,0.0,0.0,0.0,1.0,1.0,0.0,0.0,0.0,0.0,0.0,0.0,0.0,0.0,1.0,1.0,0.0,,,,,2019-12-01,7-81-Bew-RU-Asyl-J-d-2019-12.xlsx
189,58,Haiti,0.0,0.0,0.0,0.0,1.0,1.0,0.0,0.0,0.0,0.0,1.0,1.0,0.0,0.0,3.0,1.0,2.0,,,,,2019-12-01,7-81-Bew-RU-Asyl-J-d-2019-12.xlsx
190,59,Honduras,0.0,0.0,0.0,0.0,0.0,0.0,0.0,0.0,0.0,0.0,0.0,0.0,0.0,0.0,0.0,1.0,0.0,,,,,2019-12-01,7-81-Bew-RU-Asyl-J-d-2019-12.xlsx
191,60,Jamaika,0.0,0.0,0.0,1.0,0.0,0.0,0.0,0.0,0.0,0.0,0.0,0.0,0.0,0.0,1.0,0.0,1.0,,,,,2019-12-01,7-81-Bew-RU-Asyl-J-d-2019-12.xlsx
192,61,Kanada,0.0,0.0,0.0,0.0,0.0,0.0,0.0,0.0,0.0,0.0,0.0,0.0,0.0,0.0,0.0,0.0,0.0,,,,,2019-12-01,7-81-Bew-RU-Asyl-J-d-2019-12.xlsx
193,62,Kolumbien,4.0,4.0,0.0,0.0,40.0,34.0,1.0,1.0,0.0,0.0,6.0,6.0,0.0,0.0,45.0,36.0,9.0,,,,,2019-12-01,7-81-Bew-RU-Asyl-J-d-2019-12.xlsx
194,63,Kuba,1.0,2.0,0.0,0.0,4.0,2.0,1.0,0.0,0.0,0.0,2.0,2.0,0.0,0.0,4.0,4.0,0.0,,,,,2019-12-01,7-81-Bew-RU-Asyl-J-d-2019-12.xlsx
195,64,Mexiko,0.0,0.0,0.0,0.0,2.0,2.0,0.0,0.0,0.0,0.0,0.0,0.0,0.0,0.0,3.0,1.0,2.0,,,,,2019-12-01,7-81-Bew-RU-Asyl-J-d-2019-12.xlsx
196,65,Nicaragua,0.0,0.0,0.0,0.0,6.0,5.0,0.0,0.0,0.0,0.0,1.0,1.0,0.0,0.0,8.0,9.0,0.0,,,,,2019-12-01,7-81-Bew-RU-Asyl-J-d-2019-12.xlsx
197,66,Paraguay,0.0,0.0,0.0,0.0,0.0,0.0,0.0,0.0,0.0,0.0,0.0,0.0,0.0,0.0,0.0,0.0,0.0,,,,,2019-12-01,7-81-Bew-RU-Asyl-J-d-2019-12.xlsx
198,67,Peru,2.0,2.0,0.0,0.0,3.0,2.0,0.0,1.0,0.0,0.0,2.0,1.0,1.0,0.0,6.0,5.0,1.0,,,,,2019-12-01,7-81-Bew-RU-Asyl-J-d-2019-12.xlsx
199,68,Uruguay,0.0,0.0,0.0,0.0,0.0,0.0,0.0,0.0,0.0,0.0,0.0,0.0,0.0,0.0,0.0,0.0,0.0,,,,,2019-12-01,7-81-Bew-RU-Asyl-J-d-2019-12.xlsx
200,69,USA,0.0,0.0,0.0,0.0,7.0,7.0,0.0,0.0,0.0,0.0,0.0,0.0,0.0,0.0,13.0,7.0,7.0,,,,,2019-12-01,7-81-Bew-RU-Asyl-J-d-2019-12.xlsx
201,70,Venezuela,2.0,1.0,1.0,0.0,19.0,13.0,0.0,2.0,0.0,0.0,2.0,2.0,0.0,0.0,13.0,13.0,0.0,,,,,2019-12-01,7-81-Bew-RU-Asyl-J-d-2019-12.xlsx
202,73,Afghanistan,102.0,55.0,46.0,0.0,76.0,8.0,0.0,25.0,0.0,11.0,27.0,15.0,1.0,10.0,198.0,94.0,69.0,,,,,2019-12-01,7-81-Bew-RU-Asyl-J-d-2019-12.xlsx
203,74,Armenien,8.0,1.0,6.0,0.0,40.0,17.0,2.0,17.0,3.0,0.0,20.0,16.0,0.0,3.0,43.0,26.0,17.0,,,,,2019-12-01,7-81-Bew-RU-Asyl-J-d-2019-12.xlsx
204,75,Aserbaidschan,16.0,12.0,8.0,0.0,18.0,6.0,1.0,11.0,0.0,0.0,10.0,9.0,0.0,0.0,37.0,14.0,24.0,,,,,2019-12-01,7-81-Bew-RU-Asyl-J-d-2019-12.xlsx
205,76,Bangladesh,3.0,7.0,6.0,0.0,11.0,3.0,1.0,1.0,0.0,1.0,2.0,2.0,0.0,0.0,3.0,3.0,0.0,,,,,2019-12-01,7-81-Bew-RU-Asyl-J-d-2019-12.xlsx
206,77,Bhutan,2.0,0.0,0.0,0.0,0.0,0.0,0.0,0.0,0.0,0.0,0.0,0.0,0.0,0.0,0.0,0.0,0.0,,,,,2019-12-01,7-81-Bew-RU-Asyl-J-d-2019-12.xlsx
207,78,China (Volksrepublik),55.0,13.0,50.0,0.0,15.0,4.0,0.0,10.0,0.0,4.0,3.0,2.0,0.0,0.0,29.0,12.0,18.0,,,,,2019-12-01,7-81-Bew-RU-Asyl-J-d-2019-12.xlsx
208,79,Georgien,130.0,123.0,5.0,1.0,443.0,231.0,19.0,174.0,2.0,4.0,60.0,37.0,15.0,2.0,602.0,409.0,195.0,,,,,2019-12-01,7-81-Bew-RU-Asyl-J-d-2019-12.xlsx
209,80,Indien,8.0,4.0,4.0,0.0,3.0,1.0,0.0,1.0,0.0,0.0,3.0,2.0,0.0,0.0,15.0,8.0,6.0,,,,,2019-12-01,7-81-Bew-RU-Asyl-J-d-2019-12.xlsx
210,81,Irak,127.0,51.0,69.0,1.0,49.0,29.0,15.0,4.0,0.0,3.0,50.0,38.0,3.0,5.0,152.0,101.0,42.0,,,,,2019-12-01,7-81-Bew-RU-Asyl-J-d-2019-12.xlsx
211,82,Iran,143.0,11.0,50.0,0.0,33.0,16.0,0.0,10.0,0.0,2.0,16.0,16.0,0.0,0.0,147.0,71.0,72.0,,,,,2019-12-01,7-81-Bew-RU-Asyl-J-d-2019-12.xlsx
212,83,Israel,2.0,1.0,0.0,0.0,0.0,0.0,0.0,0.0,0.0,0.0,0.0,0.0,0.0,0.0,2.0,1.0,1.0,,,,,2019-12-01,7-81-Bew-RU-Asyl-J-d-2019-12.xlsx
213,84,Japan,0.0,0.0,0.0,0.0,0.0,0.0,0.0,0.0,0.0,0.0,0.0,0.0,0.0,0.0,1.0,1.0,0.0,,,,,2019-12-01,7-81-Bew-RU-Asyl-J-d-2019-12.xlsx
214,85,Jemen,0.0,0.0,6.0,0.0,0.0,0.0,0.0,0.0,0.0,0.0,0.0,0.0,0.0,0.0,6.0,4.0,1.0,,,,,2019-12-01,7-81-Bew-RU-Asyl-J-d-2019-12.xlsx
215,86,Jordanien,0.0,0.0,1.0,0.0,1.0,0.0,0.0,1.0,0.0,0.0,1.0,1.0,0.0,0.0,6.0,3.0,2.0,,,,,2019-12-01,7-81-Bew-RU-Asyl-J-d-2019-12.xlsx
216,87,Kambodscha,0.0,0.0,0.0,0.0,0.0,0.0,0.0,0.0,0.0,0.0,0.0,0.0,0.0,0.0,0.0,0.0,0.0,,,,,2019-12-01,7-81-Bew-RU-Asyl-J-d-2019-12.xlsx
217,88,Kasachstan,0.0,0.0,4.0,0.0,0.0,0.0,0.0,0.0,0.0,4.0,0.0,0.0,0.0,0.0,6.0,1.0,0.0,,,,,2019-12-01,7-81-Bew-RU-Asyl-J-d-2019-12.xlsx
218,89,Kirgisistan,3.0,0.0,0.0,0.0,1.0,0.0,1.0,0.0,0.0,0.0,1.0,1.0,0.0,0.0,1.0,1.0,0.0,,,,,2019-12-01,7-81-Bew-RU-Asyl-J-d-2019-12.xlsx
219,90,Korea (Süd),0.0,0.0,0.0,0.0,0.0,0.0,0.0,0.0,0.0,0.0,0.0,0.0,0.0,0.0,3.0,0.0,0.0,,,,,2019-12-01,7-81-Bew-RU-Asyl-J-d-2019-12.xlsx
220,91,Libanon,7.0,3.0,3.0,0.0,6.0,1.0,0.0,4.0,0.0,0.0,1.0,1.0,0.0,0.0,12.0,7.0,9.0,,,,,2019-12-01,7-81-Bew-RU-Asyl-J-d-2019-12.xlsx
221,92,Malaysia,0.0,0.0,0.0,0.0,0.0,0.0,0.0,0.0,0.0,0.0,0.0,0.0,0.0,0.0,0.0,0.0,0.0,,,,,2019-12-01,7-81-Bew-RU-Asyl-J-d-2019-12.xlsx
222,93,Mongolei,19.0,17.0,17.0,0.0,22.0,4.0,4.0,14.0,0.0,1.0,9.0,9.0,0.0,0.0,19.0,13.0,7.0,,,,,2019-12-01,7-81-Bew-RU-Asyl-J-d-2019-12.xlsx
223,94,Myanmar,0.0,0.0,0.0,0.0,0.0,0.0,0.0,0.0,0.0,0.0,1.0,1.0,0.0,0.0,1.0,1.0,0.0,,,,,2019-12-01,7-81-Bew-RU-Asyl-J-d-2019-12.xlsx
224,95,Nepal,3.0,15.0,2.0,0.0,9.0,0.0,1.0,3.0,0.0,4.0,2.0,2.0,0.0,0.0,13.0,11.0,2.0,,,,,2019-12-01,7-81-Bew-RU-Asyl-J-d-2019-12.xlsx
225,96,Pakistan,48.0,11.0,21.0,0.0,14.0,2.0,0.0,10.0,0.0,2.0,3.0,3.0,0.0,0.0,33.0,27.0,8.0,,,,,2019-12-01,7-81-Bew-RU-Asyl-J-d-2019-12.xlsx
226,97,Philippinen,0.0,0.0,0.0,0.0,0.0,0.0,0.0,0.0,0.0,0.0,0.0,0.0,0.0,0.0,0.0,0.0,0.0,,,,,2019-12-01,7-81-Bew-RU-Asyl-J-d-2019-12.xlsx
227,98,Saudi-Arabien,0.0,0.0,1.0,0.0,1.0,1.0,0.0,0.0,0.0,0.0,1.0,0.0,1.0,0.0,1.0,1.0,0.0,,,,,2019-12-01,7-81-Bew-RU-Asyl-J-d-2019-12.xlsx
228,99,Sri Lanka,322.0,284.0,54.0,0.0,193.0,7.0,0.0,163.0,0.0,7.0,54.0,52.0,0.0,2.0,337.0,95.0,222.0,,,,,2019-12-01,7-81-Bew-RU-Asyl-J-d-2019-12.xlsx
229,100,Syrien,4.0,3.0,4.0,0.0,13.0,8.0,0.0,1.0,0.0,0.0,18.0,13.0,0.0,1.0,58.0,38.0,7.0,,,,,2019-12-01,7-81-Bew-RU-Asyl-J-d-2019-12.xlsx
230,101,Tadschikistan,0.0,0.0,0.0,0.0,0.0,0.0,0.0,0.0,0.0,0.0,0.0,0.0,0.0,0.0,1.0,1.0,0.0,,,,,2019-12-01,7-81-Bew-RU-Asyl-J-d-2019-12.xlsx
231,102,Taiwan,0.0,0.0,0.0,0.0,1.0,1.0,0.0,0.0,0.0,0.0,0.0,0.0,0.0,0.0,3.0,1.0,2.0,,,,,2019-12-01,7-81-Bew-RU-Asyl-J-d-2019-12.xlsx
232,103,Thailand,0.0,0.0,0.0,0.0,0.0,0.0,0.0,0.0,0.0,0.0,0.0,0.0,0.0,0.0,0.0,0.0,0.0,,,,,2019-12-01,7-81-Bew-RU-Asyl-J-d-2019-12.xlsx
233,104,Usbekistan,0.0,0.0,0.0,0.0,0.0,0.0,0.0,0.0,0.0,0.0,0.0,0.0,0.0,0.0,3.0,1.0,2.0,,,,,2019-12-01,7-81-Bew-RU-Asyl-J-d-2019-12.xlsx
234,105,Vietnam,0.0,0.0,0.0,0.0,0.0,0.0,0.0,0.0,0.0,0.0,0.0,0.0,0.0,0.0,0.0,1.0,0.0,,,,,2019-12-01,7-81-Bew-RU-Asyl-J-d-2019-12.xlsx
235,108,Albanien,17.0,14.0,0.0,0.0,70.0,55.0,0.0,16.0,0.0,0.0,6.0,3.0,1.0,0.0,91.0,65.0,21.0,,,,,2019-12-01,7-81-Bew-RU-Asyl-J-d-2019-12.xlsx
236,109,Belarus,10.0,11.0,1.0,1.0,19.0,4.0,0.0,14.0,0.0,1.0,13.0,9.0,1.0,1.0,30.0,24.0,7.0,,,,,2019-12-01,7-81-Bew-RU-Asyl-J-d-2019-12.xlsx
237,110,Belgien,0.0,0.0,0.0,0.0,0.0,0.0,0.0,0.0,0.0,0.0,0.0,0.0,0.0,0.0,0.0,0.0,0.0,,,,,2019-12-01,7-81-Bew-RU-Asyl-J-d-2019-12.xlsx
238,111,Bosnien u. Herzegowina,17.0,16.0,0.0,0.0,24.0,10.0,2.0,14.0,0.0,0.0,5.0,5.0,0.0,0.0,24.0,18.0,6.0,,,,,2019-12-01,7-81-Bew-RU-Asyl-J-d-2019-12.xlsx
239,112,Bulgarien,0.0,0.0,0.0,0.0,1.0,1.0,0.0,0.0,0.0,0.0,0.0,0.0,0.0,0.0,0.0,0.0,0.0,,,,,2019-12-01,7-81-Bew-RU-Asyl-J-d-2019-12.xlsx
240,113,Deutschland,2.0,1.0,0.0,1.0,2.0,1.0,0.0,1.0,0.0,0.0,1.0,1.0,0.0,0.0,4.0,2.0,2.0,,,,,2019-12-01,7-81-Bew-RU-Asyl-J-d-2019-12.xlsx
241,114,Estland,0.0,0.0,0.0,0.0,0.0,0.0,0.0,0.0,0.0,0.0,0.0,0.0,0.0,0.0,0.0,0.0,0.0,,,,,2019-12-01,7-81-Bew-RU-Asyl-J-d-2019-12.xlsx
242,115,Frankreich,1.0,0.0,0.0,0.0,0.0,0.0,0.0,0.0,0.0,0.0,0.0,0.0,0.0,0.0,0.0,0.0,0.0,,,,,2019-12-01,7-81-Bew-RU-Asyl-J-d-2019-12.xlsx
243,116,Griechenland,0.0,0.0,0.0,0.0,0.0,0.0,0.0,0.0,0.0,0.0,0.0,0.0,0.0,0.0,0.0,0.0,0.0,,,,,2019-12-01,7-81-Bew-RU-Asyl-J-d-2019-12.xlsx
244,117,Grossbritannien,0.0,0.0,0.0,0.0,0.0,0.0,0.0,0.0,0.0,0.0,0.0,0.0,0.0,0.0,0.0,1.0,0.0,,,,,2019-12-01,7-81-Bew-RU-Asyl-J-d-2019-12.xlsx
245,118,Italien,0.0,0.0,0.0,0.0,4.0,4.0,0.0,0.0,0.0,0.0,0.0,0.0,0.0,0.0,0.0,0.0,0.0,,,,,2019-12-01,7-81-Bew-RU-Asyl-J-d-2019-12.xlsx
246,119,Kosovo,16.0,16.0,1.0,0.0,63.0,22.0,1.0,40.0,1.0,0.0,28.0,28.0,0.0,0.0,112.0,79.0,45.0,,,,,2019-12-01,7-81-Bew-RU-Asyl-J-d-2019-12.xlsx
247,120,Kroatien,0.0,0.0,0.0,0.0,0.0,0.0,0.0,0.0,0.0,0.0,0.0,0.0,0.0,0.0,1.0,1.0,0.0,,,,,2019-12-01,7-81-Bew-RU-Asyl-J-d-2019-12.xlsx
248,121,Lettland,0.0,0.0,0.0,0.0,0.0,0.0,0.0,0.0,0.0,0.0,0.0,0.0,0.0,0.0,0.0,0.0,0.0,,,,,2019-12-01,7-81-Bew-RU-Asyl-J-d-2019-12.xlsx
249,122,Litauen,0.0,0.0,0.0,0.0,0.0,0.0,0.0,0.0,0.0,0.0,0.0,0.0,0.0,0.0,0.0,0.0,0.0,,,,,2019-12-01,7-81-Bew-RU-Asyl-J-d-2019-12.xlsx
250,123,Nordmazedonien,24.0,24.0,0.0,1.0,37.0,18.0,0.0,13.0,0.0,1.0,16.0,12.0,4.0,0.0,49.0,35.0,15.0,,,,,2019-12-01,7-81-Bew-RU-Asyl-J-d-2019-12.xlsx
251,124,Moldova,8.0,7.0,1.0,0.0,14.0,7.0,0.0,7.0,0.0,0.0,3.0,3.0,0.0,0.0,19.0,6.0,8.0,,,,,2019-12-01,7-81-Bew-RU-Asyl-J-d-2019-12.xlsx
252,125,Montenegro,1.0,1.0,0.0,0.0,2.0,1.0,0.0,1.0,0.0,0.0,0.0,0.0,0.0,0.0,1.0,1.0,0.0,,,,,2019-12-01,7-81-Bew-RU-Asyl-J-d-2019-12.xlsx
253,126,Niederlande,0.0,0.0,0.0,0.0,1.0,0.0,0.0,0.0,0.0,0.0,0.0,0.0,0.0,0.0,0.0,0.0,0.0,,,,,2019-12-01,7-81-Bew-RU-Asyl-J-d-2019-12.xlsx
254,127,Österreich,0.0,0.0,0.0,0.0,0.0,0.0,0.0,0.0,0.0,0.0,0.0,0.0,0.0,0.0,0.0,0.0,0.0,,,,,2019-12-01,7-81-Bew-RU-Asyl-J-d-2019-12.xlsx
255,128,Polen,0.0,0.0,0.0,0.0,2.0,2.0,1.0,0.0,0.0,0.0,0.0,0.0,0.0,0.0,0.0,0.0,0.0,,,,,2019-12-01,7-81-Bew-RU-Asyl-J-d-2019-12.xlsx
256,129,Portugal,0.0,0.0,0.0,0.0,0.0,0.0,0.0,0.0,0.0,0.0,0.0,0.0,0.0,0.0,1.0,1.0,0.0,,,,,2019-12-01,7-81-Bew-RU-Asyl-J-d-2019-12.xlsx
257,130,Rumänien,2.0,0.0,0.0,0.0,2.0,1.0,0.0,0.0,0.0,0.0,1.0,0.0,0.0,0.0,4.0,4.0,1.0,,,,,2019-12-01,7-81-Bew-RU-Asyl-J-d-2019-12.xlsx
258,131,Russland,31.0,17.0,8.0,6.0,20.0,11.0,2.0,17.0,0.0,2.0,8.0,8.0,0.0,0.0,74.0,52.0,28.0,,,,,2019-12-01,7-81-Bew-RU-Asyl-J-d-2019-12.xlsx
259,132,Schweden,0.0,0.0,0.0,0.0,0.0,0.0,0.0,0.0,0.0,0.0,0.0,0.0,0.0,0.0,0.0,0.0,0.0,,,,,2019-12-01,7-81-Bew-RU-Asyl-J-d-2019-12.xlsx
260,133,Serbien,40.0,40.0,0.0,1.0,75.0,22.0,4.0,34.0,1.0,1.0,20.0,15.0,0.0,1.0,89.0,48.0,39.0,,,,,2019-12-01,7-81-Bew-RU-Asyl-J-d-2019-12.xlsx
261,134,Slowakische Republik,0.0,0.0,0.0,0.0,2.0,2.0,0.0,0.0,0.0,0.0,0.0,0.0,0.0,0.0,3.0,0.0,2.0,,,,,2019-12-01,7-81-Bew-RU-Asyl-J-d-2019-12.xlsx
262,135,Slowenien,0.0,0.0,0.0,0.0,1.0,1.0,0.0,0.0,0.0,0.0,0.0,0.0,0.0,0.0,1.0,1.0,0.0,,,,,2019-12-01,7-81-Bew-RU-Asyl-J-d-2019-12.xlsx
263,136,Spanien,0.0,0.0,0.0,0.0,5.0,4.0,0.0,0.0,0.0,0.0,0.0,0.0,0.0,0.0,3.0,2.0,0.0,,,,,2019-12-01,7-81-Bew-RU-Asyl-J-d-2019-12.xlsx
264,137,Tschechische Republik,0.0,0.0,0.0,0.0,0.0,0.0,0.0,0.0,0.0,0.0,0.0,0.0,0.0,0.0,1.0,1.0,0.0,,,,,2019-12-01,7-81-Bew-RU-Asyl-J-d-2019-12.xlsx
265,138,Tschechoslowakei,0.0,0.0,0.0,0.0,0.0,0.0,0.0,0.0,0.0,0.0,0.0,0.0,0.0,0.0,0.0,0.0,0.0,,,,,2019-12-01,7-81-Bew-RU-Asyl-J-d-2019-12.xlsx
266,139,Türkei,38.0,11.0,20.0,0.0,73.0,54.0,2.0,14.0,1.0,2.0,43.0,37.0,1.0,0.0,126.0,87.0,38.0,,,,,2019-12-01,7-81-Bew-RU-Asyl-J-d-2019-12.xlsx
267,140,Ukraine,14.0,13.0,1.0,0.0,52.0,35.0,1.0,14.0,0.0,0.0,13.0,13.0,0.0,0.0,65.0,49.0,9.0,,,,,2019-12-01,7-81-Bew-RU-Asyl-J-d-2019-12.xlsx
268,141,Ungarn,0.0,0.0,0.0,0.0,1.0,1.0,0.0,0.0,0.0,0.0,0.0,0.0,0.0,0.0,3.0,3.0,0.0,,,,,2019-12-01,7-81-Bew-RU-Asyl-J-d-2019-12.xlsx
269,144,Australien,1.0,1.0,0.0,0.0,2.0,2.0,0.0,0.0,0.0,0.0,0.0,0.0,0.0,0.0,4.0,0.0,5.0,,,,,2019-12-01,7-81-Bew-RU-Asyl-J-d-2019-12.xlsx
270,145,Neuseeland,0.0,0.0,0.0,0.0,1.0,1.0,0.0,0.0,0.0,0.0,0.0,0.0,0.0,0.0,1.0,1.0,0.0,,,,,2019-12-01,7-81-Bew-RU-Asyl-J-d-2019-12.xlsx
271,148,Staatenlos,0.0,0.0,0.0,0.0,0.0,0.0,0.0,0.0,0.0,0.0,0.0,0.0,0.0,0.0,4.0,1.0,2.0,,,,,2019-12-01,7-81-Bew-RU-Asyl-J-d-2019-12.xlsx
272,149,Ohne Nationalität,5.0,1.0,0.0,0.0,2.0,0.0,0.0,1.0,0.0,1.0,1.0,0.0,0.0,0.0,33.0,12.0,16.0,,,,,2019-12-01,7-81-Bew-RU-Asyl-J-d-2019-12.xlsx
273,150,Staat unbekannt,53.0,13.0,53.0,0.0,15.0,1.0,0.0,4.0,3.0,4.0,4.0,2.0,0.0,0.0,22.0,17.0,12.0,,,,,2019-12-01,7-81-Bew-RU-Asyl-J-d-2019-12.xlsx
