,Nation,BeginnIdentitätsabklärung,Identitätsabklärungpositiv,Identitätsabklärungnegativ,AbschreibungIdentitätsabklärung,BeginnPapierbeschaffung,Papierevorhanden,Papiereselbstbeschafft,Papierebeschafft,Papierenichtbeschafft,Abschreibung Papierbeschaffung,GesucheRückkehrhilfe,Rückkehrhilfebewilligt(inkl. teilweise),Rückkehrhilfe abgelehnt,Abschreibung Gesuch,BeginnAusreiseorganisation,AbschlussAusreiseorganisation,AbschreibungAusreiseorganisation,Datum,file_name,name_of_sem_statistics,flow_or_stock
0,Ägypten,15.0,6.0,0.0,4.0,8.0,2.0,0.0,5.0,0.0,0.0,1.0,2.0,0.0,0.0,18.0,5.0,14.0,2020-12-01,7-81-Bew-RU-Asyl-J-d-2019-12.xlsx,7-81,flow
1,Algerien,268.0,104.0,1.0,135.0,119.0,5.0,12.0,59.0,3.0,41.0,106.0,46.0,3.0,49.0,356.0,167.0,229.0,2020-12-01,7-81-Bew-RU-Asyl-J-d-2019-12.xlsx,7-81,flow
2,Angola,16.0,5.0,0.0,8.0,5.0,0.0,0.0,4.0,0.0,2.0,4.0,4.0,0.0,0.0,40.0,24.0,17.0,2020-12-01,7-81-Bew-RU-Asyl-J-d-2019-12.xlsx,7-81,flow
3,Äquatorialguinea,0.0,0.0,0.0,1.0,0.0,0.0,0.0,0.0,0.0,0.0,0.0,0.0,0.0,0.0,0.0,0.0,0.0,2020-12-01,7-81-Bew-RU-Asyl-J-d-2019-12.xlsx,7-81,flow
4,Äthiopien,103.0,42.0,0.0,106.0,47.0,3.0,5.0,34.0,2.0,2.0,14.0,12.0,0.0,1.0,65.0,23.0,35.0,2020-12-01,7-81-Bew-RU-Asyl-J-d-2019-12.xlsx,7-81,flow
5,Benin,2.0,1.0,0.0,0.0,2.0,0.0,0.0,0.0,0.0,1.0,1.0,0.0,0.0,0.0,0.0,0.0,1.0,2020-12-01,7-81-Bew-RU-Asyl-J-d-2019-12.xlsx,7-81,flow
6,Burkina Faso,3.0,1.0,0.0,5.0,2.0,1.0,0.0,0.0,0.0,2.0,1.0,1.0,0.0,0.0,3.0,1.0,7.0,2020-12-01,7-81-Bew-RU-Asyl-J-d-2019-12.xlsx,7-81,flow
7,Burundi,0.0,0.0,0.0,0.0,1.0,1.0,0.0,0.0,0.0,0.0,1.0,1.0,0.0,0.0,3.0,2.0,1.0,2020-12-01,7-81-Bew-RU-Asyl-J-d-2019-12.xlsx,7-81,flow
8,Côte d'Ivoire,10.0,4.0,0.0,7.0,1.0,0.0,2.0,0.0,0.0,1.0,1.0,1.0,0.0,0.0,4.0,3.0,2.0,2020-12-01,7-81-Bew-RU-Asyl-J-d-2019-12.xlsx,7-81,flow
9,Dschibuti,2.0,1.0,0.0,1.0,0.0,0.0,0.0,1.0,0.0,0.0,0.0,0.0,0.0,0.0,5.0,1.0,4.0,2020-12-01,7-81-Bew-RU-Asyl-J-d-2019-12.xlsx,7-81,flow
10,Eritrea,224.0,12.0,0.0,207.0,11.0,3.0,1.0,1.0,0.0,9.0,3.0,6.0,0.0,0.0,33.0,17.0,5.0,2020-12-01,7-81-Bew-RU-Asyl-J-d-2019-12.xlsx,7-81,flow
11,Gabun,2.0,0.0,0.0,0.0,0.0,0.0,0.0,0.0,0.0,0.0,0.0,0.0,0.0,0.0,4.0,1.0,3.0,2020-12-01,7-81-Bew-RU-Asyl-J-d-2019-12.xlsx,7-81,flow
12,Gambia,18.0,8.0,0.0,7.0,12.0,3.0,4.0,3.0,0.0,1.0,7.0,6.0,0.0,0.0,28.0,13.0,20.0,2020-12-01,7-81-Bew-RU-Asyl-J-d-2019-12.xlsx,7-81,flow
13,Ghana,4.0,10.0,0.0,0.0,8.0,2.0,0.0,6.0,0.0,1.0,9.0,8.0,0.0,1.0,24.0,13.0,11.0,2020-12-01,7-81-Bew-RU-Asyl-J-d-2019-12.xlsx,7-81,flow
14,Guinea,31.0,11.0,1.0,23.0,21.0,1.0,0.0,18.0,0.0,5.0,8.0,8.0,0.0,1.0,57.0,21.0,32.0,2020-12-01,7-81-Bew-RU-Asyl-J-d-2019-12.xlsx,7-81,flow
15,Guinea-Bissau,4.0,2.0,0.0,0.0,3.0,0.0,0.0,1.0,0.0,2.0,2.0,1.0,0.0,0.0,2.0,2.0,2.0,2020-12-01,7-81-Bew-RU-Asyl-J-d-2019-12.xlsx,7-81,flow
16,Kamerun,10.0,2.0,0.0,5.0,16.0,1.0,0.0,7.0,0.0,3.0,5.0,0.0,0.0,1.0,17.0,5.0,16.0,2020-12-01,7-81-Bew-RU-Asyl-J-d-2019-12.xlsx,7-81,flow
17,Kapverden,0.0,0.0,0.0,0.0,0.0,0.0,0.0,0.0,0.0,0.0,0.0,0.0,0.0,0.0,0.0,0.0,0.0,2020-12-01,7-81-Bew-RU-Asyl-J-d-2019-12.xlsx,7-81,flow
18,Kenia,1.0,2.0,0.0,1.0,2.0,0.0,0.0,0.0,0.0,0.0,1.0,1.0,0.0,0.0,1.0,1.0,0.0,2020-12-01,7-81-Bew-RU-Asyl-J-d-2019-12.xlsx,7-81,flow
19,Kongo,1.0,0.0,0.0,0.0,0.0,0.0,0.0,0.0,0.0,0.0,0.0,0.0,0.0,0.0,2.0,0.0,1.0,2020-12-01,7-81-Bew-RU-Asyl-J-d-2019-12.xlsx,7-81,flow
20,Kongo DR,30.0,4.0,0.0,7.0,5.0,1.0,0.0,4.0,0.0,1.0,5.0,5.0,0.0,0.0,17.0,7.0,7.0,2020-12-01,7-81-Bew-RU-Asyl-J-d-2019-12.xlsx,7-81,flow
21,Liberia,1.0,0.0,0.0,0.0,0.0,0.0,0.0,0.0,0.0,0.0,0.0,0.0,0.0,0.0,5.0,1.0,4.0,2020-12-01,7-81-Bew-RU-Asyl-J-d-2019-12.xlsx,7-81,flow
22,Libyen,8.0,3.0,0.0,4.0,6.0,0.0,0.0,0.0,0.0,1.0,6.0,4.0,0.0,5.0,29.0,17.0,14.0,2020-12-01,7-81-Bew-RU-Asyl-J-d-2019-12.xlsx,7-81,flow
23,Malawi,0.0,0.0,0.0,0.0,0.0,0.0,0.0,0.0,0.0,0.0,0.0,0.0,0.0,0.0,0.0,0.0,0.0,2020-12-01,7-81-Bew-RU-Asyl-J-d-2019-12.xlsx,7-81,flow
24,Mali,7.0,8.0,0.0,10.0,5.0,0.0,3.0,2.0,0.0,1.0,5.0,5.0,0.0,0.0,18.0,5.0,14.0,2020-12-01,7-81-Bew-RU-Asyl-J-d-2019-12.xlsx,7-81,flow
25,Marokko,92.0,34.0,0.0,72.0,32.0,7.0,0.0,3.0,1.0,9.0,16.0,7.0,1.0,11.0,132.0,53.0,81.0,2020-12-01,7-81-Bew-RU-Asyl-J-d-2019-12.xlsx,7-81,flow
26,Mauretanien,1.0,0.0,0.0,4.0,0.0,0.0,0.0,0.0,0.0,1.0,0.0,0.0,0.0,0.0,2.0,1.0,0.0,2020-12-01,7-81-Bew-RU-Asyl-J-d-2019-12.xlsx,7-81,flow
27,Mauritius,0.0,0.0,0.0,0.0,0.0,0.0,0.0,0.0,0.0,0.0,0.0,0.0,0.0,0.0,0.0,0.0,0.0,2020-12-01,7-81-Bew-RU-Asyl-J-d-2019-12.xlsx,7-81,flow
28,Mosambik,0.0,0.0,0.0,0.0,0.0,0.0,0.0,0.0,0.0,0.0,0.0,0.0,0.0,0.0,0.0,0.0,0.0,2020-12-01,7-81-Bew-RU-Asyl-J-d-2019-12.xlsx,7-81,flow
29,Niger,2.0,0.0,0.0,2.0,1.0,0.0,0.0,0.0,0.0,0.0,0.0,0.0,0.0,0.0,6.0,0.0,6.0,2020-12-01,7-81-Bew-RU-Asyl-J-d-2019-12.xlsx,7-81,flow
30,Nigeria,49.0,26.0,0.0,20.0,44.0,3.0,0.0,31.0,1.0,3.0,24.0,19.0,1.0,4.0,143.0,60.0,79.0,2020-12-01,7-81-Bew-RU-Asyl-J-d-2019-12.xlsx,7-81,flow
31,Ruanda,1.0,1.0,0.0,0.0,0.0,0.0,0.0,0.0,0.0,0.0,0.0,0.0,0.0,0.0,1.0,0.0,0.0,2020-12-01,7-81-Bew-RU-Asyl-J-d-2019-12.xlsx,7-81,flow
32,Sambia,0.0,0.0,0.0,0.0,0.0,0.0,0.0,0.0,0.0,0.0,0.0,0.0,0.0,0.0,0.0,0.0,0.0,2020-12-01,7-81-Bew-RU-Asyl-J-d-2019-12.xlsx,7-81,flow
33,Senegal,3.0,2.0,0.0,6.0,5.0,3.0,0.0,2.0,0.0,1.0,5.0,4.0,0.0,1.0,22.0,6.0,16.0,2020-12-01,7-81-Bew-RU-Asyl-J-d-2019-12.xlsx,7-81,flow
34,Sierra Leone,3.0,1.0,0.0,4.0,1.0,0.0,0.0,0.0,0.0,1.0,1.0,0.0,0.0,0.0,3.0,1.0,2.0,2020-12-01,7-81-Bew-RU-Asyl-J-d-2019-12.xlsx,7-81,flow
35,Somalia,45.0,18.0,0.0,34.0,19.0,0.0,5.0,11.0,0.0,1.0,16.0,20.0,0.0,5.0,60.0,27.0,22.0,2020-12-01,7-81-Bew-RU-Asyl-J-d-2019-12.xlsx,7-81,flow
36,Sudan,10.0,10.0,0.0,4.0,9.0,0.0,3.0,1.0,0.0,1.0,5.0,4.0,0.0,0.0,19.0,11.0,6.0,2020-12-01,7-81-Bew-RU-Asyl-J-d-2019-12.xlsx,7-81,flow
37,Südsudan,0.0,0.0,0.0,0.0,0.0,0.0,0.0,0.0,0.0,0.0,0.0,0.0,0.0,0.0,0.0,0.0,0.0,2020-12-01,7-81-Bew-RU-Asyl-J-d-2019-12.xlsx,7-81,flow
38,Tansania,2.0,6.0,0.0,1.0,3.0,1.0,0.0,1.0,0.0,0.0,2.0,2.0,0.0,0.0,2.0,1.0,0.0,2020-12-01,7-81-Bew-RU-Asyl-J-d-2019-12.xlsx,7-81,flow
39,Togo,7.0,11.0,0.0,5.0,8.0,0.0,0.0,8.0,0.0,0.0,0.0,0.0,0.0,0.0,1.0,0.0,0.0,2020-12-01,7-81-Bew-RU-Asyl-J-d-2019-12.xlsx,7-81,flow
40,Tschad,1.0,0.0,0.0,3.0,0.0,0.0,0.0,0.0,0.0,1.0,0.0,0.0,0.0,0.0,1.0,1.0,0.0,2020-12-01,7-81-Bew-RU-Asyl-J-d-2019-12.xlsx,7-81,flow
41,Tunesien,49.0,33.0,0.0,34.0,48.0,5.0,2.0,37.0,0.0,7.0,14.0,9.0,0.0,1.0,102.0,34.0,67.0,2020-12-01,7-81-Bew-RU-Asyl-J-d-2019-12.xlsx,7-81,flow
42,Uganda,3.0,0.0,0.0,4.0,0.0,0.0,0.0,0.0,0.0,0.0,1.0,1.0,0.0,0.0,1.0,0.0,0.0,2020-12-01,7-81-Bew-RU-Asyl-J-d-2019-12.xlsx,7-81,flow
43,Westsahara,2.0,1.0,0.0,0.0,0.0,0.0,0.0,0.0,0.0,0.0,0.0,0.0,0.0,0.0,5.0,1.0,4.0,2020-12-01,7-81-Bew-RU-Asyl-J-d-2019-12.xlsx,7-81,flow
44,Zentralafr. Republik,1.0,0.0,0.0,1.0,0.0,0.0,0.0,0.0,0.0,0.0,0.0,0.0,0.0,0.0,3.0,0.0,1.0,2020-12-01,7-81-Bew-RU-Asyl-J-d-2019-12.xlsx,7-81,flow
45,Zimbabwe,1.0,1.0,0.0,0.0,2.0,0.0,0.0,1.0,0.0,0.0,1.0,1.0,0.0,0.0,5.0,1.0,3.0,2020-12-01,7-81-Bew-RU-Asyl-J-d-2019-12.xlsx,7-81,flow
46,Total Afrika,1032.0,370.0,2.0,725.0,446.0,42.0,37.0,240.0,7.0,98.0,265.0,178.0,5.0,80.0,1239.0,526.0,726.0,2020-12-01,7-81-Bew-RU-Asyl-J-d-2019-12.xlsx,7-81,flow
47,Argentinien,0.0,0.0,0.0,0.0,0.0,0.0,0.0,0.0,0.0,0.0,0.0,0.0,0.0,0.0,0.0,0.0,0.0,2020-12-01,7-81-Bew-RU-Asyl-J-d-2019-12.xlsx,7-81,flow
48,Bolivien,0.0,0.0,0.0,0.0,0.0,0.0,0.0,0.0,0.0,0.0,0.0,0.0,0.0,0.0,0.0,0.0,0.0,2020-12-01,7-81-Bew-RU-Asyl-J-d-2019-12.xlsx,7-81,flow
49,Brasilien,0.0,0.0,0.0,0.0,3.0,3.0,0.0,0.0,0.0,0.0,2.0,2.0,0.0,0.0,5.0,4.0,1.0,2020-12-01,7-81-Bew-RU-Asyl-J-d-2019-12.xlsx,7-81,flow
50,Chile,0.0,0.0,0.0,0.0,1.0,1.0,0.0,0.0,0.0,0.0,0.0,0.0,0.0,0.0,5.0,2.0,3.0,2020-12-01,7-81-Bew-RU-Asyl-J-d-2019-12.xlsx,7-81,flow
51,Dominikanische Republik,0.0,0.0,0.0,0.0,1.0,0.0,0.0,1.0,0.0,0.0,0.0,0.0,0.0,0.0,0.0,0.0,0.0,2020-12-01,7-81-Bew-RU-Asyl-J-d-2019-12.xlsx,7-81,flow
52,Ecuador,0.0,0.0,0.0,0.0,0.0,0.0,0.0,0.0,0.0,0.0,0.0,0.0,0.0,0.0,0.0,0.0,0.0,2020-12-01,7-81-Bew-RU-Asyl-J-d-2019-12.xlsx,7-81,flow
53,El Salvador,0.0,0.0,0.0,0.0,14.0,14.0,0.0,0.0,0.0,0.0,6.0,3.0,0.0,0.0,15.0,3.0,9.0,2020-12-01,7-81-Bew-RU-Asyl-J-d-2019-12.xlsx,7-81,flow
54,Haiti,0.0,0.0,0.0,0.0,2.0,2.0,0.0,0.0,0.0,0.0,0.0,0.0,0.0,0.0,3.0,3.0,0.0,2020-12-01,7-81-Bew-RU-Asyl-J-d-2019-12.xlsx,7-81,flow
55,Honduras,0.0,0.0,0.0,0.0,0.0,0.0,0.0,0.0,0.0,0.0,0.0,0.0,0.0,0.0,0.0,0.0,0.0,2020-12-01,7-81-Bew-RU-Asyl-J-d-2019-12.xlsx,7-81,flow
56,Jamaika,1.0,0.0,0.0,1.0,0.0,0.0,0.0,0.0,0.0,0.0,1.0,0.0,0.0,1.0,2.0,1.0,1.0,2020-12-01,7-81-Bew-RU-Asyl-J-d-2019-12.xlsx,7-81,flow
57,Kanada,2.0,1.0,0.0,1.0,1.0,0.0,0.0,1.0,0.0,0.0,0.0,0.0,0.0,0.0,9.0,5.0,4.0,2020-12-01,7-81-Bew-RU-Asyl-J-d-2019-12.xlsx,7-81,flow
58,Kolumbien,0.0,0.0,0.0,0.0,29.0,29.0,0.0,0.0,0.0,0.0,17.0,13.0,0.0,0.0,25.0,17.0,10.0,2020-12-01,7-81-Bew-RU-Asyl-J-d-2019-12.xlsx,7-81,flow
59,Kuba,1.0,0.0,0.0,1.0,0.0,0.0,0.0,0.0,0.0,0.0,0.0,0.0,0.0,0.0,0.0,0.0,0.0,2020-12-01,7-81-Bew-RU-Asyl-J-d-2019-12.xlsx,7-81,flow
60,Mexiko,1.0,1.0,0.0,0.0,2.0,1.0,0.0,0.0,0.0,0.0,0.0,0.0,0.0,0.0,2.0,1.0,1.0,2020-12-01,7-81-Bew-RU-Asyl-J-d-2019-12.xlsx,7-81,flow
61,Nicaragua,0.0,0.0,0.0,0.0,1.0,1.0,0.0,0.0,0.0,0.0,0.0,0.0,0.0,0.0,1.0,0.0,1.0,2020-12-01,7-81-Bew-RU-Asyl-J-d-2019-12.xlsx,7-81,flow
62,Paraguay,0.0,0.0,0.0,0.0,0.0,0.0,0.0,0.0,0.0,0.0,0.0,0.0,0.0,0.0,0.0,0.0,0.0,2020-12-01,7-81-Bew-RU-Asyl-J-d-2019-12.xlsx,7-81,flow
63,Peru,0.0,0.0,0.0,0.0,0.0,0.0,0.0,0.0,0.0,0.0,0.0,0.0,0.0,0.0,0.0,0.0,0.0,2020-12-01,7-81-Bew-RU-Asyl-J-d-2019-12.xlsx,7-81,flow
64,Uruguay,0.0,0.0,0.0,0.0,0.0,0.0,0.0,0.0,0.0,0.0,0.0,0.0,0.0,0.0,0.0,0.0,0.0,2020-12-01,7-81-Bew-RU-Asyl-J-d-2019-12.xlsx,7-81,flow
65,USA,0.0,0.0,0.0,0.0,0.0,0.0,0.0,0.0,0.0,0.0,0.0,0.0,0.0,0.0,1.0,1.0,1.0,2020-12-01,7-81-Bew-RU-Asyl-J-d-2019-12.xlsx,7-81,flow
66,Venezuela,6.0,4.0,0.0,1.0,7.0,4.0,0.0,2.0,0.0,5.0,6.0,3.0,0.0,2.0,9.0,2.0,4.0,2020-12-01,7-81-Bew-RU-Asyl-J-d-2019-12.xlsx,7-81,flow
67,Total Amerika,11.0,6.0,0.0,4.0,61.0,55.0,0.0,4.0,0.0,5.0,32.0,21.0,0.0,3.0,77.0,39.0,35.0,2020-12-01,7-81-Bew-RU-Asyl-J-d-2019-12.xlsx,7-81,flow
68,Afghanistan,73.0,29.0,0.0,45.0,33.0,7.0,0.0,18.0,1.0,20.0,22.0,17.0,0.0,4.0,170.0,58.0,99.0,2020-12-01,7-81-Bew-RU-Asyl-J-d-2019-12.xlsx,7-81,flow
69,Armenien,12.0,6.0,1.0,0.0,28.0,7.0,3.0,10.0,0.0,9.0,11.0,11.0,0.0,1.0,25.0,15.0,11.0,2020-12-01,7-81-Bew-RU-Asyl-J-d-2019-12.xlsx,7-81,flow
70,Aserbaidschan,2.0,5.0,0.0,0.0,4.0,0.0,2.0,2.0,0.0,0.0,4.0,4.0,0.0,0.0,5.0,5.0,0.0,2020-12-01,7-81-Bew-RU-Asyl-J-d-2019-12.xlsx,7-81,flow
71,Bangladesh,1.0,1.0,0.0,0.0,1.0,1.0,1.0,0.0,0.0,2.0,2.0,1.0,0.0,0.0,4.0,3.0,1.0,2020-12-01,7-81-Bew-RU-Asyl-J-d-2019-12.xlsx,7-81,flow
72,Bhutan,4.0,0.0,0.0,4.0,0.0,0.0,0.0,0.0,0.0,0.0,0.0,0.0,0.0,0.0,0.0,0.0,0.0,2020-12-01,7-81-Bew-RU-Asyl-J-d-2019-12.xlsx,7-81,flow
73,China (Volksrepublik),41.0,4.0,0.0,54.0,7.0,2.0,0.0,1.0,0.0,3.0,3.0,1.0,0.0,1.0,11.0,5.0,4.0,2020-12-01,7-81-Bew-RU-Asyl-J-d-2019-12.xlsx,7-81,flow
74,Georgien,109.0,102.0,0.0,3.0,260.0,124.0,8.0,130.0,0.0,1.0,142.0,107.0,20.0,6.0,445.0,231.0,201.0,2020-12-01,7-81-Bew-RU-Asyl-J-d-2019-12.xlsx,7-81,flow
75,Indien,4.0,5.0,0.0,2.0,3.0,0.0,0.0,2.0,0.0,1.0,2.0,2.0,0.0,0.0,4.0,3.0,2.0,2020-12-01,7-81-Bew-RU-Asyl-J-d-2019-12.xlsx,7-81,flow
76,Irak,192.0,27.0,0.0,96.0,45.0,16.0,9.0,16.0,0.0,5.0,45.0,36.0,1.0,5.0,165.0,76.0,87.0,2020-12-01,7-81-Bew-RU-Asyl-J-d-2019-12.xlsx,7-81,flow
77,Iran,183.0,15.0,0.0,130.0,17.0,7.0,1.0,8.0,0.0,9.0,13.0,10.0,1.0,1.0,65.0,31.0,37.0,2020-12-01,7-81-Bew-RU-Asyl-J-d-2019-12.xlsx,7-81,flow
78,Israel,0.0,0.0,0.0,1.0,1.0,1.0,0.0,0.0,0.0,0.0,0.0,0.0,0.0,0.0,2.0,0.0,1.0,2020-12-01,7-81-Bew-RU-Asyl-J-d-2019-12.xlsx,7-81,flow
79,Japan,0.0,0.0,0.0,0.0,1.0,1.0,0.0,0.0,0.0,0.0,0.0,0.0,0.0,0.0,2.0,1.0,1.0,2020-12-01,7-81-Bew-RU-Asyl-J-d-2019-12.xlsx,7-81,flow
80,Jemen,0.0,0.0,0.0,0.0,0.0,0.0,0.0,0.0,0.0,0.0,0.0,0.0,0.0,0.0,0.0,1.0,0.0,2020-12-01,7-81-Bew-RU-Asyl-J-d-2019-12.xlsx,7-81,flow
81,Jordanien,1.0,0.0,0.0,0.0,0.0,0.0,0.0,0.0,0.0,0.0,0.0,0.0,0.0,0.0,0.0,0.0,0.0,2020-12-01,7-81-Bew-RU-Asyl-J-d-2019-12.xlsx,7-81,flow
82,Kambodscha,0.0,0.0,0.0,0.0,0.0,0.0,0.0,0.0,0.0,0.0,0.0,0.0,0.0,0.0,0.0,0.0,0.0,2020-12-01,7-81-Bew-RU-Asyl-J-d-2019-12.xlsx,7-81,flow
83,Kasachstan,1.0,1.0,0.0,0.0,1.0,0.0,0.0,1.0,0.0,0.0,0.0,0.0,0.0,0.0,0.0,0.0,5.0,2020-12-01,7-81-Bew-RU-Asyl-J-d-2019-12.xlsx,7-81,flow
84,Korea (Süd),0.0,0.0,0.0,0.0,2.0,2.0,0.0,0.0,0.0,0.0,1.0,1.0,0.0,0.0,2.0,1.0,4.0,2020-12-01,7-81-Bew-RU-Asyl-J-d-2019-12.xlsx,7-81,flow
85,Libanon,3.0,2.0,0.0,0.0,1.0,0.0,0.0,2.0,0.0,1.0,1.0,1.0,0.0,0.0,8.0,4.0,4.0,2020-12-01,7-81-Bew-RU-Asyl-J-d-2019-12.xlsx,7-81,flow
86,Malaysia,0.0,0.0,0.0,0.0,0.0,0.0,0.0,0.0,0.0,0.0,1.0,1.0,0.0,0.0,1.0,1.0,0.0,2020-12-01,7-81-Bew-RU-Asyl-J-d-2019-12.xlsx,7-81,flow
87,Mongolei,3.0,4.0,0.0,3.0,19.0,5.0,0.0,11.0,0.0,0.0,4.0,0.0,4.0,0.0,6.0,2.0,4.0,2020-12-01,7-81-Bew-RU-Asyl-J-d-2019-12.xlsx,7-81,flow
88,Myanmar,0.0,0.0,0.0,0.0,0.0,0.0,0.0,0.0,0.0,0.0,0.0,0.0,0.0,0.0,5.0,1.0,4.0,2020-12-01,7-81-Bew-RU-Asyl-J-d-2019-12.xlsx,7-81,flow
89,Nepal,3.0,1.0,0.0,3.0,3.0,3.0,0.0,1.0,0.0,0.0,1.0,1.0,0.0,0.0,6.0,3.0,3.0,2020-12-01,7-81-Bew-RU-Asyl-J-d-2019-12.xlsx,7-81,flow
90,Oman,0.0,0.0,0.0,0.0,0.0,0.0,0.0,0.0,0.0,0.0,0.0,0.0,0.0,0.0,0.0,0.0,0.0,2020-12-01,7-81-Bew-RU-Asyl-J-d-2019-12.xlsx,7-81,flow
91,Pakistan,37.0,15.0,0.0,27.0,16.0,5.0,0.0,6.0,0.0,2.0,8.0,5.0,0.0,4.0,37.0,13.0,25.0,2020-12-01,7-81-Bew-RU-Asyl-J-d-2019-12.xlsx,7-81,flow
92,Philippinen,0.0,0.0,0.0,0.0,0.0,0.0,0.0,0.0,0.0,0.0,0.0,0.0,0.0,0.0,0.0,0.0,0.0,2020-12-01,7-81-Bew-RU-Asyl-J-d-2019-12.xlsx,7-81,flow
93,Saudi-Arabien,0.0,0.0,0.0,0.0,0.0,0.0,0.0,0.0,0.0,0.0,0.0,0.0,0.0,0.0,1.0,0.0,1.0,2020-12-01,7-81-Bew-RU-Asyl-J-d-2019-12.xlsx,7-81,flow
94,Sri Lanka,310.0,174.0,0.0,82.0,236.0,6.0,0.0,22.0,4.0,31.0,9.0,6.0,0.0,3.0,61.0,20.0,54.0,2020-12-01,7-81-Bew-RU-Asyl-J-d-2019-12.xlsx,7-81,flow
95,Syrien,9.0,0.0,0.0,1.0,5.0,4.0,0.0,0.0,0.0,1.0,11.0,14.0,0.0,0.0,52.0,21.0,37.0,2020-12-01,7-81-Bew-RU-Asyl-J-d-2019-12.xlsx,7-81,flow
96,Thailand,0.0,0.0,0.0,0.0,0.0,0.0,0.0,0.0,0.0,0.0,0.0,0.0,0.0,0.0,0.0,0.0,0.0,2020-12-01,7-81-Bew-RU-Asyl-J-d-2019-12.xlsx,7-81,flow
97,Usbekistan,0.0,0.0,0.0,4.0,0.0,0.0,0.0,0.0,0.0,0.0,0.0,0.0,0.0,0.0,0.0,0.0,0.0,2020-12-01,7-81-Bew-RU-Asyl-J-d-2019-12.xlsx,7-81,flow
98,Vietnam,1.0,0.0,0.0,0.0,1.0,1.0,0.0,0.0,0.0,0.0,1.0,0.0,0.0,1.0,6.0,3.0,3.0,2020-12-01,7-81-Bew-RU-Asyl-J-d-2019-12.xlsx,7-81,flow
99,Total Asien,989.0,391.0,1.0,455.0,684.0,192.0,24.0,230.0,5.0,85.0,281.0,218.0,26.0,26.0,1083.0,498.0,588.0,2020-12-01,7-81-Bew-RU-Asyl-J-d-2019-12.xlsx,7-81,flow
100,Albanien,18.0,17.0,0.0,0.0,44.0,25.0,0.0,18.0,2.0,0.0,14.0,14.0,0.0,2.0,103.0,51.0,57.0,2020-12-01,7-81-Bew-RU-Asyl-J-d-2019-12.xlsx,7-81,flow
101,Belarus,6.0,3.0,0.0,2.0,24.0,11.0,3.0,9.0,0.0,0.0,14.0,13.0,0.0,1.0,34.0,18.0,11.0,2020-12-01,7-81-Bew-RU-Asyl-J-d-2019-12.xlsx,7-81,flow
102,Belgien,0.0,0.0,0.0,0.0,0.0,0.0,0.0,0.0,0.0,0.0,0.0,0.0,0.0,0.0,1.0,0.0,1.0,2020-12-01,7-81-Bew-RU-Asyl-J-d-2019-12.xlsx,7-81,flow
103,Bosnien u. Herzegowina,8.0,6.0,0.0,4.0,6.0,2.0,0.0,3.0,0.0,0.0,4.0,3.0,0.0,0.0,10.0,5.0,5.0,2020-12-01,7-81-Bew-RU-Asyl-J-d-2019-12.xlsx,7-81,flow
104,Bulgarien,0.0,0.0,0.0,0.0,0.0,0.0,0.0,0.0,0.0,0.0,0.0,0.0,0.0,0.0,0.0,0.0,0.0,2020-12-01,7-81-Bew-RU-Asyl-J-d-2019-12.xlsx,7-81,flow
105,Deutschland,0.0,0.0,0.0,0.0,1.0,1.0,0.0,0.0,0.0,0.0,0.0,0.0,0.0,0.0,0.0,0.0,0.0,2020-12-01,7-81-Bew-RU-Asyl-J-d-2019-12.xlsx,7-81,flow
106,Estland,0.0,0.0,0.0,0.0,0.0,0.0,0.0,0.0,0.0,0.0,0.0,0.0,0.0,0.0,2.0,1.0,1.0,2020-12-01,7-81-Bew-RU-Asyl-J-d-2019-12.xlsx,7-81,flow
107,Frankreich,1.0,1.0,0.0,0.0,3.0,2.0,0.0,1.0,0.0,0.0,3.0,1.0,0.0,0.0,4.0,1.0,2.0,2020-12-01,7-81-Bew-RU-Asyl-J-d-2019-12.xlsx,7-81,flow
108,Griechenland,0.0,0.0,0.0,0.0,0.0,0.0,0.0,0.0,0.0,0.0,0.0,0.0,0.0,0.0,0.0,0.0,0.0,2020-12-01,7-81-Bew-RU-Asyl-J-d-2019-12.xlsx,7-81,flow
109,Grossbritannien,0.0,0.0,0.0,0.0,2.0,1.0,0.0,0.0,0.0,1.0,0.0,0.0,0.0,0.0,2.0,1.0,1.0,2020-12-01,7-81-Bew-RU-Asyl-J-d-2019-12.xlsx,7-81,flow
110,Irland,0.0,0.0,0.0,0.0,0.0,0.0,0.0,0.0,0.0,0.0,0.0,0.0,0.0,0.0,0.0,0.0,0.0,2020-12-01,7-81-Bew-RU-Asyl-J-d-2019-12.xlsx,7-81,flow
111,Italien,0.0,0.0,0.0,0.0,2.0,2.0,0.0,0.0,0.0,0.0,0.0,0.0,0.0,0.0,0.0,0.0,0.0,2020-12-01,7-81-Bew-RU-Asyl-J-d-2019-12.xlsx,7-81,flow
112,Kosovo,19.0,14.0,0.0,9.0,41.0,19.0,3.0,19.0,0.0,0.0,16.0,12.0,0.0,3.0,56.0,25.0,32.0,2020-12-01,7-81-Bew-RU-Asyl-J-d-2019-12.xlsx,7-81,flow
113,Kroatien,0.0,0.0,0.0,0.0,2.0,2.0,0.0,0.0,0.0,0.0,1.0,1.0,0.0,0.0,1.0,1.0,0.0,2020-12-01,7-81-Bew-RU-Asyl-J-d-2019-12.xlsx,7-81,flow
114,Lettland,0.0,0.0,0.0,0.0,0.0,0.0,0.0,0.0,0.0,0.0,0.0,0.0,0.0,0.0,0.0,0.0,0.0,2020-12-01,7-81-Bew-RU-Asyl-J-d-2019-12.xlsx,7-81,flow
115,Litauen,0.0,1.0,0.0,0.0,3.0,2.0,0.0,1.0,0.0,0.0,0.0,0.0,0.0,0.0,3.0,1.0,1.0,2020-12-01,7-81-Bew-RU-Asyl-J-d-2019-12.xlsx,7-81,flow
116,Nordmazedonien,6.0,7.0,0.0,0.0,13.0,7.0,0.0,6.0,0.0,0.0,13.0,12.0,0.0,0.0,29.0,14.0,14.0,2020-12-01,7-81-Bew-RU-Asyl-J-d-2019-12.xlsx,7-81,flow
117,Moldova,5.0,5.0,0.0,3.0,23.0,15.0,4.0,4.0,0.0,0.0,34.0,33.0,0.0,0.0,42.0,38.0,9.0,2020-12-01,7-81-Bew-RU-Asyl-J-d-2019-12.xlsx,7-81,flow
118,Montenegro,1.0,1.0,0.0,1.0,0.0,0.0,0.0,0.0,0.0,0.0,0.0,0.0,0.0,0.0,3.0,3.0,0.0,2020-12-01,7-81-Bew-RU-Asyl-J-d-2019-12.xlsx,7-81,flow
119,Niederlande,0.0,0.0,0.0,0.0,0.0,0.0,0.0,1.0,0.0,0.0,1.0,1.0,0.0,0.0,2.0,2.0,0.0,2020-12-01,7-81-Bew-RU-Asyl-J-d-2019-12.xlsx,7-81,flow
120,Österreich,0.0,0.0,0.0,0.0,0.0,0.0,0.0,0.0,0.0,0.0,0.0,0.0,0.0,0.0,0.0,0.0,0.0,2020-12-01,7-81-Bew-RU-Asyl-J-d-2019-12.xlsx,7-81,flow
121,Polen,0.0,0.0,0.0,0.0,0.0,0.0,0.0,0.0,0.0,0.0,0.0,0.0,0.0,0.0,0.0,0.0,0.0,2020-12-01,7-81-Bew-RU-Asyl-J-d-2019-12.xlsx,7-81,flow
122,Portugal,0.0,0.0,0.0,1.0,0.0,0.0,0.0,0.0,0.0,0.0,0.0,0.0,0.0,0.0,0.0,0.0,0.0,2020-12-01,7-81-Bew-RU-Asyl-J-d-2019-12.xlsx,7-81,flow
123,Rumänien,0.0,0.0,0.0,0.0,1.0,1.0,1.0,0.0,1.0,0.0,0.0,0.0,0.0,1.0,0.0,0.0,0.0,2020-12-01,7-81-Bew-RU-Asyl-J-d-2019-12.xlsx,7-81,flow
124,Russland,33.0,25.0,8.0,5.0,16.0,8.0,1.0,7.0,0.0,2.0,13.0,13.0,0.0,0.0,82.0,30.0,40.0,2020-12-01,7-81-Bew-RU-Asyl-J-d-2019-12.xlsx,7-81,flow
125,Serbien,19.0,14.0,0.0,4.0,20.0,11.0,0.0,13.0,0.0,1.0,9.0,6.0,1.0,1.0,59.0,25.0,31.0,2020-12-01,7-81-Bew-RU-Asyl-J-d-2019-12.xlsx,7-81,flow
126,Slowakische Republik,0.0,0.0,0.0,0.0,1.0,1.0,0.0,0.0,0.0,0.0,0.0,0.0,0.0,0.0,1.0,0.0,1.0,2020-12-01,7-81-Bew-RU-Asyl-J-d-2019-12.xlsx,7-81,flow
127,Slowenien,0.0,0.0,0.0,0.0,0.0,0.0,0.0,0.0,0.0,0.0,0.0,0.0,0.0,0.0,0.0,0.0,0.0,2020-12-01,7-81-Bew-RU-Asyl-J-d-2019-12.xlsx,7-81,flow
128,Spanien,0.0,0.0,0.0,0.0,2.0,3.0,0.0,0.0,0.0,0.0,0.0,0.0,0.0,0.0,0.0,0.0,0.0,2020-12-01,7-81-Bew-RU-Asyl-J-d-2019-12.xlsx,7-81,flow
129,Tschechische Republik,0.0,0.0,0.0,0.0,4.0,4.0,0.0,0.0,0.0,0.0,0.0,0.0,0.0,0.0,4.0,4.0,0.0,2020-12-01,7-81-Bew-RU-Asyl-J-d-2019-12.xlsx,7-81,flow
130,Türkei,46.0,7.0,0.0,19.0,53.0,40.0,0.0,5.0,0.0,0.0,15.0,13.0,1.0,0.0,83.0,41.0,39.0,2020-12-01,7-81-Bew-RU-Asyl-J-d-2019-12.xlsx,7-81,flow
131,Ukraine,7.0,7.0,1.0,0.0,25.0,14.0,0.0,6.0,0.0,0.0,6.0,4.0,0.0,0.0,40.0,26.0,16.0,2020-12-01,7-81-Bew-RU-Asyl-J-d-2019-12.xlsx,7-81,flow
132,Ungarn,0.0,0.0,0.0,0.0,0.0,0.0,0.0,0.0,0.0,0.0,0.0,0.0,0.0,0.0,0.0,0.0,0.0,2020-12-01,7-81-Bew-RU-Asyl-J-d-2019-12.xlsx,7-81,flow
133,Total Europa,169.0,108.0,9.0,48.0,286.0,171.0,12.0,93.0,3.0,4.0,143.0,126.0,2.0,8.0,561.0,287.0,261.0,2020-12-01,7-81-Bew-RU-Asyl-J-d-2019-12.xlsx,7-81,flow
134,Australien,0.0,0.0,0.0,0.0,0.0,0.0,0.0,0.0,0.0,0.0,0.0,0.0,0.0,0.0,0.0,0.0,0.0,2020-12-01,7-81-Bew-RU-Asyl-J-d-2019-12.xlsx,7-81,flow
135,Total Ozeanien,0.0,0.0,0.0,0.0,0.0,0.0,0.0,0.0,0.0,0.0,0.0,0.0,0.0,0.0,0.0,0.0,0.0,2020-12-01,7-81-Bew-RU-Asyl-J-d-2019-12.xlsx,7-81,flow
136,Staatenlos,0.0,0.0,0.0,0.0,0.0,0.0,0.0,0.0,0.0,0.0,0.0,0.0,0.0,0.0,0.0,0.0,0.0,2020-12-01,7-81-Bew-RU-Asyl-J-d-2019-12.xlsx,7-81,flow
137,Ohne Nationalität,10.0,3.0,0.0,3.0,2.0,0.0,0.0,2.0,0.0,2.0,1.0,0.0,0.0,2.0,10.0,3.0,4.0,2020-12-01,7-81-Bew-RU-Asyl-J-d-2019-12.xlsx,7-81,flow
138,Staat unbekannt,66.0,9.0,1.0,72.0,10.0,2.0,0.0,3.0,0.0,4.0,2.0,2.0,0.0,0.0,20.0,9.0,10.0,2020-12-01,7-81-Bew-RU-Asyl-J-d-2019-12.xlsx,7-81,flow
139,Total Herkunft unbek.,76.0,12.0,1.0,75.0,12.0,2.0,0.0,5.0,0.0,6.0,3.0,2.0,0.0,2.0,30.0,12.0,14.0,2020-12-01,7-81-Bew-RU-Asyl-J-d-2019-12.xlsx,7-81,flow
140,Ägypten,7.0,2.0,5.0,1.0,9.0,4.0,2.0,2.0,1.0,0.0,4.0,3.0,0.0,0.0,31.0,12.0,17.0,2019-12-01,7-81-Bew-RU-Asyl-J-d-2019-12.xlsx,7-81,flow
141,Algerien,245.0,96.0,94.0,5.0,306.0,12.0,27.0,210.0,3.0,29.0,92.0,82.0,1.0,7.0,601.0,288.0,313.0,2019-12-01,7-81-Bew-RU-Asyl-J-d-2019-12.xlsx,7-81,flow
142,Angola,7.0,2.0,7.0,0.0,4.0,2.0,0.0,2.0,0.0,0.0,1.0,0.0,0.0,0.0,55.0,29.0,31.0,2019-12-01,7-81-Bew-RU-Asyl-J-d-2019-12.xlsx,7-81,flow
143,Äquatorialguinea,0.0,0.0,0.0,0.0,0.0,0.0,0.0,0.0,0.0,0.0,0.0,0.0,0.0,0.0,1.0,1.0,0.0,2019-12-01,7-81-Bew-RU-Asyl-J-d-2019-12.xlsx,7-81,flow
144,Äthiopien,128.0,18.0,91.0,0.0,28.0,8.0,5.0,13.0,2.0,7.0,23.0,23.0,0.0,1.0,68.0,41.0,32.0,2019-12-01,7-81-Bew-RU-Asyl-J-d-2019-12.xlsx,7-81,flow
145,Benin,2.0,0.0,1.0,0.0,3.0,0.0,0.0,2.0,0.0,0.0,0.0,0.0,0.0,0.0,6.0,2.0,4.0,2019-12-01,7-81-Bew-RU-Asyl-J-d-2019-12.xlsx,7-81,flow
146,Burkina Faso,8.0,4.0,4.0,0.0,5.0,1.0,0.0,2.0,0.0,1.0,1.0,1.0,0.0,0.0,19.0,4.0,11.0,2019-12-01,7-81-Bew-RU-Asyl-J-d-2019-12.xlsx,7-81,flow
147,Burundi,0.0,0.0,0.0,0.0,0.0,0.0,0.0,0.0,0.0,1.0,0.0,0.0,0.0,0.0,1.0,0.0,0.0,2019-12-01,7-81-Bew-RU-Asyl-J-d-2019-12.xlsx,7-81,flow
148,Côte d'Ivoire,13.0,4.0,8.0,0.0,6.0,0.0,1.0,2.0,0.0,1.0,2.0,2.0,0.0,0.0,20.0,10.0,10.0,2019-12-01,7-81-Bew-RU-Asyl-J-d-2019-12.xlsx,7-81,flow
149,Dschibuti,0.0,0.0,1.0,0.0,0.0,0.0,0.0,0.0,0.0,0.0,0.0,0.0,0.0,0.0,1.0,1.0,0.0,2019-12-01,7-81-Bew-RU-Asyl-J-d-2019-12.xlsx,7-81,flow
150,Eritrea,429.0,19.0,260.0,1.0,19.0,5.0,5.0,4.0,1.0,16.0,26.0,19.0,0.0,1.0,74.0,44.0,23.0,2019-12-01,7-81-Bew-RU-Asyl-J-d-2019-12.xlsx,7-81,flow
151,Gabun,0.0,0.0,0.0,0.0,0.0,0.0,0.0,0.0,0.0,0.0,0.0,0.0,0.0,0.0,0.0,0.0,0.0,2019-12-01,7-81-Bew-RU-Asyl-J-d-2019-12.xlsx,7-81,flow
152,Gambia,16.0,11.0,11.0,0.0,26.0,4.0,4.0,24.0,0.0,2.0,29.0,24.0,0.0,1.0,96.0,58.0,38.0,2019-12-01,7-81-Bew-RU-Asyl-J-d-2019-12.xlsx,7-81,flow
153,Ghana,4.0,1.0,3.0,0.0,8.0,2.0,0.0,1.0,0.0,1.0,3.0,3.0,0.0,0.0,23.0,9.0,15.0,2019-12-01,7-81-Bew-RU-Asyl-J-d-2019-12.xlsx,7-81,flow
154,Guinea,71.0,44.0,34.0,0.0,64.0,0.0,0.0,50.0,2.0,7.0,10.0,5.0,0.0,1.0,116.0,74.0,41.0,2019-12-01,7-81-Bew-RU-Asyl-J-d-2019-12.xlsx,7-81,flow
155,Guinea-Bissau,6.0,8.0,2.0,0.0,6.0,0.0,0.0,7.0,1.0,1.0,6.0,5.0,0.0,0.0,24.0,13.0,8.0,2019-12-01,7-81-Bew-RU-Asyl-J-d-2019-12.xlsx,7-81,flow
156,Kamerun,15.0,14.0,9.0,1.0,11.0,0.0,0.0,9.0,0.0,0.0,2.0,1.0,0.0,0.0,32.0,14.0,15.0,2019-12-01,7-81-Bew-RU-Asyl-J-d-2019-12.xlsx,7-81,flow
157,Kapverden,0.0,0.0,0.0,0.0,0.0,0.0,0.0,0.0,0.0,0.0,0.0,0.0,0.0,0.0,0.0,0.0,0.0,2019-12-01,7-81-Bew-RU-Asyl-J-d-2019-12.xlsx,7-81,flow
158,Kenia,2.0,1.0,0.0,0.0,0.0,0.0,0.0,0.0,0.0,0.0,1.0,1.0,0.0,0.0,3.0,3.0,0.0,2019-12-01,7-81-Bew-RU-Asyl-J-d-2019-12.xlsx,7-81,flow
159,Kongo,1.0,0.0,0.0,0.0,1.0,1.0,0.0,0.0,0.0,0.0,0.0,0.0,0.0,0.0,0.0,0.0,0.0,2019-12-01,7-81-Bew-RU-Asyl-J-d-2019-12.xlsx,7-81,flow
160,Kongo DR,23.0,18.0,12.0,1.0,20.0,1.0,0.0,12.0,1.0,1.0,2.0,1.0,0.0,0.0,35.0,17.0,19.0,2019-12-01,7-81-Bew-RU-Asyl-J-d-2019-12.xlsx,7-81,flow
161,Liberia,1.0,0.0,0.0,0.0,3.0,1.0,0.0,0.0,0.0,0.0,1.0,1.0,0.0,0.0,5.0,2.0,2.0,2019-12-01,7-81-Bew-RU-Asyl-J-d-2019-12.xlsx,7-81,flow
162,Libyen,18.0,3.0,7.0,0.0,5.0,1.0,1.0,1.0,0.0,0.0,11.0,10.0,0.0,0.0,53.0,30.0,20.0,2019-12-01,7-81-Bew-RU-Asyl-J-d-2019-12.xlsx,7-81,flow
163,Malawi,0.0,1.0,0.0,0.0,0.0,0.0,0.0,0.0,0.0,0.0,0.0,0.0,0.0,0.0,0.0,0.0,0.0,2019-12-01,7-81-Bew-RU-Asyl-J-d-2019-12.xlsx,7-81,flow
164,Mali,14.0,5.0,5.0,0.0,8.0,0.0,1.0,6.0,0.0,1.0,6.0,6.0,0.0,0.0,24.0,15.0,8.0,2019-12-01,7-81-Bew-RU-Asyl-J-d-2019-12.xlsx,7-81,flow
165,Marokko,101.0,29.0,76.0,1.0,50.0,6.0,1.0,36.0,0.0,11.0,10.0,5.0,0.0,4.0,231.0,137.0,100.0,2019-12-01,7-81-Bew-RU-Asyl-J-d-2019-12.xlsx,7-81,flow
166,Mauretanien,5.0,0.0,3.0,0.0,1.0,0.0,0.0,0.0,0.0,0.0,0.0,0.0,0.0,0.0,2.0,0.0,3.0,2019-12-01,7-81-Bew-RU-Asyl-J-d-2019-12.xlsx,7-81,flow
167,Mauritius,0.0,0.0,0.0,0.0,1.0,1.0,0.0,0.0,0.0,0.0,0.0,0.0,0.0,0.0,2.0,0.0,1.0,2019-12-01,7-81-Bew-RU-Asyl-J-d-2019-12.xlsx,7-81,flow
168,Niger,3.0,3.0,2.0,0.0,1.0,0.0,0.0,1.0,0.0,0.0,0.0,0.0,0.0,0.0,6.0,4.0,2.0,2019-12-01,7-81-Bew-RU-Asyl-J-d-2019-12.xlsx,7-81,flow
169,Nigeria,50.0,39.0,10.0,0.0,64.0,5.0,3.0,45.0,0.0,9.0,30.0,26.0,0.0,0.0,232.0,145.0,92.0,2019-12-01,7-81-Bew-RU-Asyl-J-d-2019-12.xlsx,7-81,flow
170,Ruanda,3.0,0.0,3.0,0.0,0.0,0.0,0.0,0.0,0.0,0.0,0.0,0.0,0.0,0.0,1.0,1.0,0.0,2019-12-01,7-81-Bew-RU-Asyl-J-d-2019-12.xlsx,7-81,flow
171,Sambia,0.0,0.0,0.0,0.0,1.0,1.0,0.0,0.0,0.0,0.0,0.0,0.0,0.0,0.0,1.0,0.0,1.0,2019-12-01,7-81-Bew-RU-Asyl-J-d-2019-12.xlsx,7-81,flow
172,Senegal,11.0,11.0,7.0,0.0,15.0,4.0,2.0,9.0,1.0,0.0,6.0,7.0,0.0,0.0,36.0,27.0,12.0,2019-12-01,7-81-Bew-RU-Asyl-J-d-2019-12.xlsx,7-81,flow
173,Sierra Leone,3.0,0.0,2.0,0.0,1.0,1.0,0.0,0.0,0.0,0.0,0.0,0.0,0.0,0.0,6.0,3.0,2.0,2019-12-01,7-81-Bew-RU-Asyl-J-d-2019-12.xlsx,7-81,flow
174,Somalia,43.0,11.0,23.0,0.0,16.0,2.0,3.0,7.0,0.0,1.0,29.0,16.0,1.0,4.0,78.0,38.0,40.0,2019-12-01,7-81-Bew-RU-Asyl-J-d-2019-12.xlsx,7-81,flow
175,Südafrika,0.0,0.0,0.0,0.0,1.0,1.0,0.0,0.0,0.0,0.0,1.0,1.0,0.0,0.0,2.0,2.0,0.0,2019-12-01,7-81-Bew-RU-Asyl-J-d-2019-12.xlsx,7-81,flow
176,Sudan,11.0,8.0,2.0,0.0,12.0,1.0,2.0,8.0,1.0,0.0,6.0,4.0,0.0,1.0,24.0,19.0,10.0,2019-12-01,7-81-Bew-RU-Asyl-J-d-2019-12.xlsx,7-81,flow
177,Südsudan,1.0,0.0,1.0,0.0,0.0,0.0,0.0,0.0,0.0,0.0,0.0,0.0,0.0,0.0,2.0,0.0,2.0,2019-12-01,7-81-Bew-RU-Asyl-J-d-2019-12.xlsx,7-81,flow
178,Tansania,2.0,0.0,0.0,0.0,0.0,0.0,0.0,0.0,0.0,0.0,4.0,4.0,0.0,0.0,9.0,5.0,4.0,2019-12-01,7-81-Bew-RU-Asyl-J-d-2019-12.xlsx,7-81,flow
179,Togo,5.0,4.0,1.0,0.0,1.0,0.0,1.0,0.0,0.0,0.0,1.0,0.0,0.0,1.0,9.0,2.0,8.0,2019-12-01,7-81-Bew-RU-Asyl-J-d-2019-12.xlsx,7-81,flow
180,Tschad,3.0,0.0,2.0,0.0,1.0,1.0,0.0,0.0,0.0,0.0,0.0,0.0,0.0,0.0,3.0,2.0,1.0,2019-12-01,7-81-Bew-RU-Asyl-J-d-2019-12.xlsx,7-81,flow
181,Tunesien,55.0,57.0,14.0,0.0,58.0,6.0,1.0,42.0,0.0,3.0,14.0,9.0,5.0,1.0,141.0,76.0,65.0,2019-12-01,7-81-Bew-RU-Asyl-J-d-2019-12.xlsx,7-81,flow
182,Uganda,0.0,2.0,0.0,0.0,1.0,1.0,0.0,0.0,0.0,0.0,1.0,1.0,0.0,0.0,4.0,2.0,2.0,2019-12-01,7-81-Bew-RU-Asyl-J-d-2019-12.xlsx,7-81,flow
183,Westsahara,0.0,0.0,0.0,0.0,0.0,0.0,0.0,0.0,0.0,0.0,0.0,0.0,0.0,0.0,2.0,0.0,1.0,2019-12-01,7-81-Bew-RU-Asyl-J-d-2019-12.xlsx,7-81,flow
184,Zentralafr. Republik,0.0,0.0,0.0,0.0,0.0,0.0,0.0,0.0,0.0,0.0,0.0,0.0,0.0,0.0,4.0,1.0,3.0,2019-12-01,7-81-Bew-RU-Asyl-J-d-2019-12.xlsx,7-81,flow
185,Zimbabwe,1.0,0.0,0.0,0.0,2.0,2.0,0.0,0.0,0.0,0.0,1.0,1.0,0.0,0.0,2.0,1.0,1.0,2019-12-01,7-81-Bew-RU-Asyl-J-d-2019-12.xlsx,7-81,flow
186,Total Afrika,1307.0,415.0,700.0,10.0,758.0,74.0,59.0,495.0,13.0,92.0,323.0,261.0,7.0,22.0,2085.0,1132.0,957.0,2019-12-01,7-81-Bew-RU-Asyl-J-d-2019-12.xlsx,7-81,flow
187,Argentinien,0.0,0.0,0.0,0.0,0.0,0.0,0.0,0.0,0.0,0.0,0.0,0.0,0.0,0.0,0.0,0.0,0.0,2019-12-01,7-81-Bew-RU-Asyl-J-d-2019-12.xlsx,7-81,flow
188,Bolivien,0.0,0.0,0.0,0.0,0.0,0.0,0.0,0.0,0.0,0.0,0.0,0.0,0.0,0.0,0.0,0.0,0.0,2019-12-01,7-81-Bew-RU-Asyl-J-d-2019-12.xlsx,7-81,flow
189,Brasilien,0.0,0.0,0.0,0.0,0.0,0.0,0.0,0.0,0.0,0.0,0.0,0.0,0.0,0.0,3.0,3.0,0.0,2019-12-01,7-81-Bew-RU-Asyl-J-d-2019-12.xlsx,7-81,flow
190,Chile,0.0,0.0,0.0,0.0,0.0,0.0,0.0,0.0,0.0,0.0,0.0,0.0,0.0,0.0,0.0,0.0,0.0,2019-12-01,7-81-Bew-RU-Asyl-J-d-2019-12.xlsx,7-81,flow
191,Costa Rica,0.0,0.0,0.0,0.0,0.0,0.0,0.0,0.0,0.0,0.0,0.0,0.0,0.0,0.0,0.0,0.0,0.0,2019-12-01,7-81-Bew-RU-Asyl-J-d-2019-12.xlsx,7-81,flow
192,Dominikanische Republik,0.0,0.0,0.0,0.0,0.0,0.0,0.0,0.0,0.0,0.0,0.0,0.0,0.0,0.0,0.0,0.0,0.0,2019-12-01,7-81-Bew-RU-Asyl-J-d-2019-12.xlsx,7-81,flow
193,Ecuador,0.0,0.0,0.0,0.0,0.0,0.0,0.0,0.0,0.0,0.0,0.0,0.0,0.0,0.0,3.0,3.0,0.0,2019-12-01,7-81-Bew-RU-Asyl-J-d-2019-12.xlsx,7-81,flow
194,El Salvador,0.0,0.0,0.0,0.0,7.0,7.0,0.0,0.0,0.0,0.0,0.0,0.0,0.0,0.0,7.0,2.0,6.0,2019-12-01,7-81-Bew-RU-Asyl-J-d-2019-12.xlsx,7-81,flow
195,Guatemala,0.0,0.0,0.0,0.0,1.0,1.0,0.0,0.0,0.0,0.0,0.0,0.0,0.0,0.0,1.0,1.0,0.0,2019-12-01,7-81-Bew-RU-Asyl-J-d-2019-12.xlsx,7-81,flow
196,Haiti,0.0,0.0,0.0,0.0,1.0,1.0,0.0,0.0,0.0,0.0,1.0,1.0,0.0,0.0,3.0,1.0,2.0,2019-12-01,7-81-Bew-RU-Asyl-J-d-2019-12.xlsx,7-81,flow
197,Honduras,0.0,0.0,0.0,0.0,0.0,0.0,0.0,0.0,0.0,0.0,0.0,0.0,0.0,0.0,0.0,1.0,0.0,2019-12-01,7-81-Bew-RU-Asyl-J-d-2019-12.xlsx,7-81,flow
198,Jamaika,0.0,0.0,0.0,1.0,0.0,0.0,0.0,0.0,0.0,0.0,0.0,0.0,0.0,0.0,1.0,0.0,1.0,2019-12-01,7-81-Bew-RU-Asyl-J-d-2019-12.xlsx,7-81,flow
199,Kanada,0.0,0.0,0.0,0.0,0.0,0.0,0.0,0.0,0.0,0.0,0.0,0.0,0.0,0.0,0.0,0.0,0.0,2019-12-01,7-81-Bew-RU-Asyl-J-d-2019-12.xlsx,7-81,flow
200,Kolumbien,4.0,4.0,0.0,0.0,40.0,34.0,1.0,1.0,0.0,0.0,6.0,6.0,0.0,0.0,45.0,36.0,9.0,2019-12-01,7-81-Bew-RU-Asyl-J-d-2019-12.xlsx,7-81,flow
201,Kuba,1.0,2.0,0.0,0.0,4.0,2.0,1.0,0.0,0.0,0.0,2.0,2.0,0.0,0.0,4.0,4.0,0.0,2019-12-01,7-81-Bew-RU-Asyl-J-d-2019-12.xlsx,7-81,flow
202,Mexiko,0.0,0.0,0.0,0.0,2.0,2.0,0.0,0.0,0.0,0.0,0.0,0.0,0.0,0.0,3.0,1.0,2.0,2019-12-01,7-81-Bew-RU-Asyl-J-d-2019-12.xlsx,7-81,flow
203,Nicaragua,0.0,0.0,0.0,0.0,6.0,5.0,0.0,0.0,0.0,0.0,1.0,1.0,0.0,0.0,8.0,9.0,0.0,2019-12-01,7-81-Bew-RU-Asyl-J-d-2019-12.xlsx,7-81,flow
204,Paraguay,0.0,0.0,0.0,0.0,0.0,0.0,0.0,0.0,0.0,0.0,0.0,0.0,0.0,0.0,0.0,0.0,0.0,2019-12-01,7-81-Bew-RU-Asyl-J-d-2019-12.xlsx,7-81,flow
205,Peru,2.0,2.0,0.0,0.0,3.0,2.0,0.0,1.0,0.0,0.0,2.0,1.0,1.0,0.0,6.0,5.0,1.0,2019-12-01,7-81-Bew-RU-Asyl-J-d-2019-12.xlsx,7-81,flow
206,Uruguay,0.0,0.0,0.0,0.0,0.0,0.0,0.0,0.0,0.0,0.0,0.0,0.0,0.0,0.0,0.0,0.0,0.0,2019-12-01,7-81-Bew-RU-Asyl-J-d-2019-12.xlsx,7-81,flow
207,USA,0.0,0.0,0.0,0.0,7.0,7.0,0.0,0.0,0.0,0.0,0.0,0.0,0.0,0.0,13.0,7.0,7.0,2019-12-01,7-81-Bew-RU-Asyl-J-d-2019-12.xlsx,7-81,flow
208,Venezuela,2.0,1.0,1.0,0.0,19.0,13.0,0.0,2.0,0.0,0.0,2.0,2.0,0.0,0.0,13.0,13.0,0.0,2019-12-01,7-81-Bew-RU-Asyl-J-d-2019-12.xlsx,7-81,flow
209,Total Amerika,9.0,9.0,1.0,1.0,90.0,74.0,2.0,4.0,0.0,0.0,14.0,13.0,1.0,0.0,110.0,86.0,28.0,2019-12-01,7-81-Bew-RU-Asyl-J-d-2019-12.xlsx,7-81,flow
210,Afghanistan,102.0,55.0,46.0,0.0,76.0,8.0,0.0,25.0,0.0,11.0,27.0,15.0,1.0,10.0,198.0,94.0,69.0,2019-12-01,7-81-Bew-RU-Asyl-J-d-2019-12.xlsx,7-81,flow
211,Armenien,8.0,1.0,6.0,0.0,40.0,17.0,2.0,17.0,3.0,0.0,20.0,16.0,0.0,3.0,43.0,26.0,17.0,2019-12-01,7-81-Bew-RU-Asyl-J-d-2019-12.xlsx,7-81,flow
212,Aserbaidschan,16.0,12.0,8.0,0.0,18.0,6.0,1.0,11.0,0.0,0.0,10.0,9.0,0.0,0.0,37.0,14.0,24.0,2019-12-01,7-81-Bew-RU-Asyl-J-d-2019-12.xlsx,7-81,flow
213,Bangladesh,3.0,7.0,6.0,0.0,11.0,3.0,1.0,1.0,0.0,1.0,2.0,2.0,0.0,0.0,3.0,3.0,0.0,2019-12-01,7-81-Bew-RU-Asyl-J-d-2019-12.xlsx,7-81,flow
214,Bhutan,2.0,0.0,0.0,0.0,0.0,0.0,0.0,0.0,0.0,0.0,0.0,0.0,0.0,0.0,0.0,0.0,0.0,2019-12-01,7-81-Bew-RU-Asyl-J-d-2019-12.xlsx,7-81,flow
215,China (Volksrepublik),55.0,13.0,50.0,0.0,15.0,4.0,0.0,10.0,0.0,4.0,3.0,2.0,0.0,0.0,29.0,12.0,18.0,2019-12-01,7-81-Bew-RU-Asyl-J-d-2019-12.xlsx,7-81,flow
216,Georgien,130.0,123.0,5.0,1.0,443.0,231.0,19.0,174.0,2.0,4.0,60.0,37.0,15.0,2.0,602.0,409.0,195.0,2019-12-01,7-81-Bew-RU-Asyl-J-d-2019-12.xlsx,7-81,flow
217,Indien,8.0,4.0,4.0,0.0,3.0,1.0,0.0,1.0,0.0,0.0,3.0,2.0,0.0,0.0,15.0,8.0,6.0,2019-12-01,7-81-Bew-RU-Asyl-J-d-2019-12.xlsx,7-81,flow
218,Irak,127.0,51.0,69.0,1.0,49.0,29.0,15.0,4.0,0.0,3.0,50.0,38.0,3.0,5.0,152.0,101.0,42.0,2019-12-01,7-81-Bew-RU-Asyl-J-d-2019-12.xlsx,7-81,flow
219,Iran,143.0,11.0,50.0,0.0,33.0,16.0,0.0,10.0,0.0,2.0,16.0,16.0,0.0,0.0,147.0,71.0,72.0,2019-12-01,7-81-Bew-RU-Asyl-J-d-2019-12.xlsx,7-81,flow
220,Israel,2.0,1.0,0.0,0.0,0.0,0.0,0.0,0.0,0.0,0.0,0.0,0.0,0.0,0.0,2.0,1.0,1.0,2019-12-01,7-81-Bew-RU-Asyl-J-d-2019-12.xlsx,7-81,flow
221,Japan,0.0,0.0,0.0,0.0,0.0,0.0,0.0,0.0,0.0,0.0,0.0,0.0,0.0,0.0,1.0,1.0,0.0,2019-12-01,7-81-Bew-RU-Asyl-J-d-2019-12.xlsx,7-81,flow
222,Jemen,0.0,0.0,6.0,0.0,0.0,0.0,0.0,0.0,0.0,0.0,0.0,0.0,0.0,0.0,6.0,4.0,1.0,2019-12-01,7-81-Bew-RU-Asyl-J-d-2019-12.xlsx,7-81,flow
223,Jordanien,0.0,0.0,1.0,0.0,1.0,0.0,0.0,1.0,0.0,0.0,1.0,1.0,0.0,0.0,6.0,3.0,2.0,2019-12-01,7-81-Bew-RU-Asyl-J-d-2019-12.xlsx,7-81,flow
224,Kambodscha,0.0,0.0,0.0,0.0,0.0,0.0,0.0,0.0,0.0,0.0,0.0,0.0,0.0,0.0,0.0,0.0,0.0,2019-12-01,7-81-Bew-RU-Asyl-J-d-2019-12.xlsx,7-81,flow
225,Kasachstan,0.0,0.0,4.0,0.0,0.0,0.0,0.0,0.0,0.0,4.0,0.0,0.0,0.0,0.0,6.0,1.0,0.0,2019-12-01,7-81-Bew-RU-Asyl-J-d-2019-12.xlsx,7-81,flow
226,Kirgisistan,3.0,0.0,0.0,0.0,1.0,0.0,1.0,0.0,0.0,0.0,1.0,1.0,0.0,0.0,1.0,1.0,0.0,2019-12-01,7-81-Bew-RU-Asyl-J-d-2019-12.xlsx,7-81,flow
227,Korea (Süd),0.0,0.0,0.0,0.0,0.0,0.0,0.0,0.0,0.0,0.0,0.0,0.0,0.0,0.0,3.0,0.0,0.0,2019-12-01,7-81-Bew-RU-Asyl-J-d-2019-12.xlsx,7-81,flow
228,Libanon,7.0,3.0,3.0,0.0,6.0,1.0,0.0,4.0,0.0,0.0,1.0,1.0,0.0,0.0,12.0,7.0,9.0,2019-12-01,7-81-Bew-RU-Asyl-J-d-2019-12.xlsx,7-81,flow
229,Malaysia,0.0,0.0,0.0,0.0,0.0,0.0,0.0,0.0,0.0,0.0,0.0,0.0,0.0,0.0,0.0,0.0,0.0,2019-12-01,7-81-Bew-RU-Asyl-J-d-2019-12.xlsx,7-81,flow
230,Mongolei,19.0,17.0,17.0,0.0,22.0,4.0,4.0,14.0,0.0,1.0,9.0,9.0,0.0,0.0,19.0,13.0,7.0,2019-12-01,7-81-Bew-RU-Asyl-J-d-2019-12.xlsx,7-81,flow
231,Myanmar,0.0,0.0,0.0,0.0,0.0,0.0,0.0,0.0,0.0,0.0,1.0,1.0,0.0,0.0,1.0,1.0,0.0,2019-12-01,7-81-Bew-RU-Asyl-J-d-2019-12.xlsx,7-81,flow
232,Nepal,3.0,15.0,2.0,0.0,9.0,0.0,1.0,3.0,0.0,4.0,2.0,2.0,0.0,0.0,13.0,11.0,2.0,2019-12-01,7-81-Bew-RU-Asyl-J-d-2019-12.xlsx,7-81,flow
233,Pakistan,48.0,11.0,21.0,0.0,14.0,2.0,0.0,10.0,0.0,2.0,3.0,3.0,0.0,0.0,33.0,27.0,8.0,2019-12-01,7-81-Bew-RU-Asyl-J-d-2019-12.xlsx,7-81,flow
234,Philippinen,0.0,0.0,0.0,0.0,0.0,0.0,0.0,0.0,0.0,0.0,0.0,0.0,0.0,0.0,0.0,0.0,0.0,2019-12-01,7-81-Bew-RU-Asyl-J-d-2019-12.xlsx,7-81,flow
235,Saudi-Arabien,0.0,0.0,1.0,0.0,1.0,1.0,0.0,0.0,0.0,0.0,1.0,0.0,1.0,0.0,1.0,1.0,0.0,2019-12-01,7-81-Bew-RU-Asyl-J-d-2019-12.xlsx,7-81,flow
236,Sri Lanka,322.0,284.0,54.0,0.0,193.0,7.0,0.0,163.0,0.0,7.0,54.0,52.0,0.0,2.0,337.0,95.0,222.0,2019-12-01,7-81-Bew-RU-Asyl-J-d-2019-12.xlsx,7-81,flow
237,Syrien,4.0,3.0,4.0,0.0,13.0,8.0,0.0,1.0,0.0,0.0,18.0,13.0,0.0,1.0,58.0,38.0,7.0,2019-12-01,7-81-Bew-RU-Asyl-J-d-2019-12.xlsx,7-81,flow
238,Tadschikistan,0.0,0.0,0.0,0.0,0.0,0.0,0.0,0.0,0.0,0.0,0.0,0.0,0.0,0.0,1.0,1.0,0.0,2019-12-01,7-81-Bew-RU-Asyl-J-d-2019-12.xlsx,7-81,flow
239,Taiwan,0.0,0.0,0.0,0.0,1.0,1.0,0.0,0.0,0.0,0.0,0.0,0.0,0.0,0.0,3.0,1.0,2.0,2019-12-01,7-81-Bew-RU-Asyl-J-d-2019-12.xlsx,7-81,flow
240,Thailand,0.0,0.0,0.0,0.0,0.0,0.0,0.0,0.0,0.0,0.0,0.0,0.0,0.0,0.0,0.0,0.0,0.0,2019-12-01,7-81-Bew-RU-Asyl-J-d-2019-12.xlsx,7-81,flow
241,Usbekistan,0.0,0.0,0.0,0.0,0.0,0.0,0.0,0.0,0.0,0.0,0.0,0.0,0.0,0.0,3.0,1.0,2.0,2019-12-01,7-81-Bew-RU-Asyl-J-d-2019-12.xlsx,7-81,flow
242,Vietnam,0.0,0.0,0.0,0.0,0.0,0.0,0.0,0.0,0.0,0.0,0.0,0.0,0.0,0.0,0.0,1.0,0.0,2019-12-01,7-81-Bew-RU-Asyl-J-d-2019-12.xlsx,7-81,flow
243,Total Asien,1002.0,611.0,357.0,2.0,949.0,339.0,44.0,449.0,5.0,43.0,282.0,220.0,20.0,23.0,1732.0,946.0,706.0,2019-12-01,7-81-Bew-RU-Asyl-J-d-2019-12.xlsx,7-81,flow
244,Albanien,17.0,14.0,0.0,0.0,70.0,55.0,0.0,16.0,0.0,0.0,6.0,3.0,1.0,0.0,91.0,65.0,21.0,2019-12-01,7-81-Bew-RU-Asyl-J-d-2019-12.xlsx,7-81,flow
245,Belarus,10.0,11.0,1.0,1.0,19.0,4.0,0.0,14.0,0.0,1.0,13.0,9.0,1.0,1.0,30.0,24.0,7.0,2019-12-01,7-81-Bew-RU-Asyl-J-d-2019-12.xlsx,7-81,flow
246,Belgien,0.0,0.0,0.0,0.0,0.0,0.0,0.0,0.0,0.0,0.0,0.0,0.0,0.0,0.0,0.0,0.0,0.0,2019-12-01,7-81-Bew-RU-Asyl-J-d-2019-12.xlsx,7-81,flow
247,Bosnien u. Herzegowina,17.0,16.0,0.0,0.0,24.0,10.0,2.0,14.0,0.0,0.0,5.0,5.0,0.0,0.0,24.0,18.0,6.0,2019-12-01,7-81-Bew-RU-Asyl-J-d-2019-12.xlsx,7-81,flow
248,Bulgarien,0.0,0.0,0.0,0.0,1.0,1.0,0.0,0.0,0.0,0.0,0.0,0.0,0.0,0.0,0.0,0.0,0.0,2019-12-01,7-81-Bew-RU-Asyl-J-d-2019-12.xlsx,7-81,flow
249,Deutschland,2.0,1.0,0.0,1.0,2.0,1.0,0.0,1.0,0.0,0.0,1.0,1.0,0.0,0.0,4.0,2.0,2.0,2019-12-01,7-81-Bew-RU-Asyl-J-d-2019-12.xlsx,7-81,flow
250,Estland,0.0,0.0,0.0,0.0,0.0,0.0,0.0,0.0,0.0,0.0,0.0,0.0,0.0,0.0,0.0,0.0,0.0,2019-12-01,7-81-Bew-RU-Asyl-J-d-2019-12.xlsx,7-81,flow
251,Frankreich,1.0,0.0,0.0,0.0,0.0,0.0,0.0,0.0,0.0,0.0,0.0,0.0,0.0,0.0,0.0,0.0,0.0,2019-12-01,7-81-Bew-RU-Asyl-J-d-2019-12.xlsx,7-81,flow
252,Griechenland,0.0,0.0,0.0,0.0,0.0,0.0,0.0,0.0,0.0,0.0,0.0,0.0,0.0,0.0,0.0,0.0,0.0,2019-12-01,7-81-Bew-RU-Asyl-J-d-2019-12.xlsx,7-81,flow
253,Grossbritannien,0.0,0.0,0.0,0.0,0.0,0.0,0.0,0.0,0.0,0.0,0.0,0.0,0.0,0.0,0.0,1.0,0.0,2019-12-01,7-81-Bew-RU-Asyl-J-d-2019-12.xlsx,7-81,flow
254,Italien,0.0,0.0,0.0,0.0,4.0,4.0,0.0,0.0,0.0,0.0,0.0,0.0,0.0,0.0,0.0,0.0,0.0,2019-12-01,7-81-Bew-RU-Asyl-J-d-2019-12.xlsx,7-81,flow
255,Kosovo,16.0,16.0,1.0,0.0,63.0,22.0,1.0,40.0,1.0,0.0,28.0,28.0,0.0,0.0,112.0,79.0,45.0,2019-12-01,7-81-Bew-RU-Asyl-J-d-2019-12.xlsx,7-81,flow
256,Kroatien,0.0,0.0,0.0,0.0,0.0,0.0,0.0,0.0,0.0,0.0,0.0,0.0,0.0,0.0,1.0,1.0,0.0,2019-12-01,7-81-Bew-RU-Asyl-J-d-2019-12.xlsx,7-81,flow
257,Lettland,0.0,0.0,0.0,0.0,0.0,0.0,0.0,0.0,0.0,0.0,0.0,0.0,0.0,0.0,0.0,0.0,0.0,2019-12-01,7-81-Bew-RU-Asyl-J-d-2019-12.xlsx,7-81,flow
258,Litauen,0.0,0.0,0.0,0.0,0.0,0.0,0.0,0.0,0.0,0.0,0.0,0.0,0.0,0.0,0.0,0.0,0.0,2019-12-01,7-81-Bew-RU-Asyl-J-d-2019-12.xlsx,7-81,flow
259,Nordmazedonien,24.0,24.0,0.0,1.0,37.0,18.0,0.0,13.0,0.0,1.0,16.0,12.0,4.0,0.0,49.0,35.0,15.0,2019-12-01,7-81-Bew-RU-Asyl-J-d-2019-12.xlsx,7-81,flow
260,Moldova,8.0,7.0,1.0,0.0,14.0,7.0,0.0,7.0,0.0,0.0,3.0,3.0,0.0,0.0,19.0,6.0,8.0,2019-12-01,7-81-Bew-RU-Asyl-J-d-2019-12.xlsx,7-81,flow
261,Montenegro,1.0,1.0,0.0,0.0,2.0,1.0,0.0,1.0,0.0,0.0,0.0,0.0,0.0,0.0,1.0,1.0,0.0,2019-12-01,7-81-Bew-RU-Asyl-J-d-2019-12.xlsx,7-81,flow
262,Niederlande,0.0,0.0,0.0,0.0,1.0,0.0,0.0,0.0,0.0,0.0,0.0,0.0,0.0,0.0,0.0,0.0,0.0,2019-12-01,7-81-Bew-RU-Asyl-J-d-2019-12.xlsx,7-81,flow
263,Österreich,0.0,0.0,0.0,0.0,0.0,0.0,0.0,0.0,0.0,0.0,0.0,0.0,0.0,0.0,0.0,0.0,0.0,2019-12-01,7-81-Bew-RU-Asyl-J-d-2019-12.xlsx,7-81,flow
264,Polen,0.0,0.0,0.0,0.0,2.0,2.0,1.0,0.0,0.0,0.0,0.0,0.0,0.0,0.0,0.0,0.0,0.0,2019-12-01,7-81-Bew-RU-Asyl-J-d-2019-12.xlsx,7-81,flow
265,Portugal,0.0,0.0,0.0,0.0,0.0,0.0,0.0,0.0,0.0,0.0,0.0,0.0,0.0,0.0,1.0,1.0,0.0,2019-12-01,7-81-Bew-RU-Asyl-J-d-2019-12.xlsx,7-81,flow
266,Rumänien,2.0,0.0,0.0,0.0,2.0,1.0,0.0,0.0,0.0,0.0,1.0,0.0,0.0,0.0,4.0,4.0,1.0,2019-12-01,7-81-Bew-RU-Asyl-J-d-2019-12.xlsx,7-81,flow
267,Russland,31.0,17.0,8.0,6.0,20.0,11.0,2.0,17.0,0.0,2.0,8.0,8.0,0.0,0.0,74.0,52.0,28.0,2019-12-01,7-81-Bew-RU-Asyl-J-d-2019-12.xlsx,7-81,flow
268,Schweden,0.0,0.0,0.0,0.0,0.0,0.0,0.0,0.0,0.0,0.0,0.0,0.0,0.0,0.0,0.0,0.0,0.0,2019-12-01,7-81-Bew-RU-Asyl-J-d-2019-12.xlsx,7-81,flow
269,Serbien,40.0,40.0,0.0,1.0,75.0,22.0,4.0,34.0,1.0,1.0,20.0,15.0,0.0,1.0,89.0,48.0,39.0,2019-12-01,7-81-Bew-RU-Asyl-J-d-2019-12.xlsx,7-81,flow
270,Slowakische Republik,0.0,0.0,0.0,0.0,2.0,2.0,0.0,0.0,0.0,0.0,0.0,0.0,0.0,0.0,3.0,0.0,2.0,2019-12-01,7-81-Bew-RU-Asyl-J-d-2019-12.xlsx,7-81,flow
271,Slowenien,0.0,0.0,0.0,0.0,1.0,1.0,0.0,0.0,0.0,0.0,0.0,0.0,0.0,0.0,1.0,1.0,0.0,2019-12-01,7-81-Bew-RU-Asyl-J-d-2019-12.xlsx,7-81,flow
272,Spanien,0.0,0.0,0.0,0.0,5.0,4.0,0.0,0.0,0.0,0.0,0.0,0.0,0.0,0.0,3.0,2.0,0.0,2019-12-01,7-81-Bew-RU-Asyl-J-d-2019-12.xlsx,7-81,flow
273,Tschechische Republik,0.0,0.0,0.0,0.0,0.0,0.0,0.0,0.0,0.0,0.0,0.0,0.0,0.0,0.0,1.0,1.0,0.0,2019-12-01,7-81-Bew-RU-Asyl-J-d-2019-12.xlsx,7-81,flow
274,Tschechoslowakei,0.0,0.0,0.0,0.0,0.0,0.0,0.0,0.0,0.0,0.0,0.0,0.0,0.0,0.0,0.0,0.0,0.0,2019-12-01,7-81-Bew-RU-Asyl-J-d-2019-12.xlsx,7-81,flow
275,Türkei,38.0,11.0,20.0,0.0,73.0,54.0,2.0,14.0,1.0,2.0,43.0,37.0,1.0,0.0,126.0,87.0,38.0,2019-12-01,7-81-Bew-RU-Asyl-J-d-2019-12.xlsx,7-81,flow
276,Ukraine,14.0,13.0,1.0,0.0,52.0,35.0,1.0,14.0,0.0,0.0,13.0,13.0,0.0,0.0,65.0,49.0,9.0,2019-12-01,7-81-Bew-RU-Asyl-J-d-2019-12.xlsx,7-81,flow
277,Ungarn,0.0,0.0,0.0,0.0,1.0,1.0,0.0,0.0,0.0,0.0,0.0,0.0,0.0,0.0,3.0,3.0,0.0,2019-12-01,7-81-Bew-RU-Asyl-J-d-2019-12.xlsx,7-81,flow
278,Total Europa,221.0,171.0,32.0,10.0,470.0,256.0,13.0,185.0,3.0,7.0,157.0,134.0,7.0,2.0,701.0,480.0,221.0,2019-12-01,7-81-Bew-RU-Asyl-J-d-2019-12.xlsx,7-81,flow
279,Australien,1.0,1.0,0.0,0.0,2.0,2.0,0.0,0.0,0.0,0.0,0.0,0.0,0.0,0.0,4.0,0.0,5.0,2019-12-01,7-81-Bew-RU-Asyl-J-d-2019-12.xlsx,7-81,flow
280,Neuseeland,0.0,0.0,0.0,0.0,1.0,1.0,0.0,0.0,0.0,0.0,0.0,0.0,0.0,0.0,1.0,1.0,0.0,2019-12-01,7-81-Bew-RU-Asyl-J-d-2019-12.xlsx,7-81,flow
281,Total Ozeanien,1.0,1.0,0.0,0.0,3.0,3.0,0.0,0.0,0.0,0.0,0.0,0.0,0.0,0.0,5.0,1.0,5.0,2019-12-01,7-81-Bew-RU-Asyl-J-d-2019-12.xlsx,7-81,flow
282,Staatenlos,0.0,0.0,0.0,0.0,0.0,0.0,0.0,0.0,0.0,0.0,0.0,0.0,0.0,0.0,4.0,1.0,2.0,2019-12-01,7-81-Bew-RU-Asyl-J-d-2019-12.xlsx,7-81,flow
283,Ohne Nationalität,5.0,1.0,0.0,0.0,2.0,0.0,0.0,1.0,0.0,1.0,1.0,0.0,0.0,0.0,33.0,12.0,16.0,2019-12-01,7-81-Bew-RU-Asyl-J-d-2019-12.xlsx,7-81,flow
284,Staat unbekannt,53.0,13.0,53.0,0.0,15.0,1.0,0.0,4.0,3.0,4.0,4.0,2.0,0.0,0.0,22.0,17.0,12.0,2019-12-01,7-81-Bew-RU-Asyl-J-d-2019-12.xlsx,7-81,flow
285,Total Herkunft unbek.,58.0,14.0,53.0,0.0,17.0,1.0,0.0,5.0,3.0,5.0,5.0,2.0,0.0,0.0,59.0,30.0,30.0,2019-12-01,7-81-Bew-RU-Asyl-J-d-2019-12.xlsx,7-81,flow
