,Nation,BeginnIdentitätsabklärung,Identitätsabklärungpositiv,Identitätsabklärungnegativ,AbschreibungIdentitätsabklärung,BeginnPapierbeschaffung,Papierevorhanden,Papiereselbstbeschafft,Papierebeschafft,Papierenichtbeschafft,Abschreibung Papierbeschaffung,GesucheRückkehrhilfe,Rückkehrhilfebewilligt(inkl. teilweise),Rückkehrhilfe abgelehnt,Abschreibung Gesuch,BeginnAusreiseorganisation,AbschlussAusreiseorganisation,AbschreibungAusreiseorganisation,Datum,file_name,name_of_sem_statistics,flow_or_stock
0,Ägypten,1.0,0.0,0.0,2.0,0.0,0.0,0.0,0.0,0.0,0.0,0.0,0.0,0.0,0.0,6.0,3.0,2.0,2020-12-01,7-82-Bew-RU-AIG-J-d-2019-12.xlsx,7-82,flow
1,Algerien,66.0,40.0,0.0,73.0,23.0,3.0,1.0,15.0,2.0,8.0,0.0,0.0,0.0,0.0,90.0,40.0,64.0,2020-12-01,7-82-Bew-RU-AIG-J-d-2019-12.xlsx,7-82,flow
2,Angola,3.0,0.0,0.0,1.0,0.0,0.0,0.0,0.0,0.0,0.0,0.0,0.0,0.0,0.0,4.0,3.0,1.0,2020-12-01,7-82-Bew-RU-AIG-J-d-2019-12.xlsx,7-82,flow
3,Äquatorialguinea,0.0,0.0,0.0,0.0,0.0,0.0,0.0,0.0,0.0,0.0,0.0,0.0,0.0,0.0,1.0,1.0,0.0,2020-12-01,7-82-Bew-RU-AIG-J-d-2019-12.xlsx,7-82,flow
4,Äthiopien,3.0,0.0,0.0,2.0,1.0,0.0,0.0,1.0,0.0,0.0,0.0,0.0,0.0,0.0,7.0,1.0,6.0,2020-12-01,7-82-Bew-RU-AIG-J-d-2019-12.xlsx,7-82,flow
5,Benin,1.0,1.0,0.0,1.0,1.0,0.0,0.0,0.0,0.0,0.0,0.0,0.0,0.0,0.0,0.0,0.0,0.0,2020-12-01,7-82-Bew-RU-AIG-J-d-2019-12.xlsx,7-82,flow
6,Burkina Faso,0.0,0.0,0.0,0.0,0.0,0.0,0.0,0.0,0.0,0.0,0.0,0.0,0.0,0.0,5.0,3.0,2.0,2020-12-01,7-82-Bew-RU-AIG-J-d-2019-12.xlsx,7-82,flow
7,Burundi,0.0,0.0,0.0,1.0,0.0,0.0,0.0,0.0,0.0,0.0,0.0,0.0,0.0,0.0,0.0,0.0,0.0,2020-12-01,7-82-Bew-RU-AIG-J-d-2019-12.xlsx,7-82,flow
8,Côte d'Ivoire,3.0,1.0,0.0,2.0,1.0,0.0,0.0,0.0,0.0,0.0,2.0,2.0,0.0,0.0,13.0,9.0,5.0,2020-12-01,7-82-Bew-RU-AIG-J-d-2019-12.xlsx,7-82,flow
9,Dschibuti,0.0,0.0,0.0,0.0,0.0,0.0,0.0,0.0,0.0,0.0,0.0,0.0,0.0,0.0,0.0,0.0,0.0,2020-12-01,7-82-Bew-RU-AIG-J-d-2019-12.xlsx,7-82,flow
10,Eritrea,1.0,1.0,0.0,1.0,1.0,1.0,0.0,0.0,0.0,0.0,0.0,0.0,0.0,0.0,4.0,4.0,1.0,2020-12-01,7-82-Bew-RU-AIG-J-d-2019-12.xlsx,7-82,flow
11,Gabun,0.0,0.0,0.0,0.0,0.0,0.0,0.0,0.0,0.0,0.0,0.0,0.0,0.0,0.0,0.0,1.0,0.0,2020-12-01,7-82-Bew-RU-AIG-J-d-2019-12.xlsx,7-82,flow
12,Gambia,5.0,2.0,0.0,1.0,3.0,0.0,0.0,3.0,0.0,0.0,0.0,0.0,0.0,0.0,63.0,37.0,32.0,2020-12-01,7-82-Bew-RU-AIG-J-d-2019-12.xlsx,7-82,flow
13,Ghana,0.0,0.0,0.0,0.0,0.0,0.0,0.0,0.0,0.0,0.0,0.0,0.0,0.0,0.0,4.0,4.0,1.0,2020-12-01,7-82-Bew-RU-AIG-J-d-2019-12.xlsx,7-82,flow
14,Guinea,14.0,3.0,0.0,7.0,3.0,0.0,0.0,5.0,0.0,0.0,0.0,0.0,0.0,0.0,43.0,31.0,16.0,2020-12-01,7-82-Bew-RU-AIG-J-d-2019-12.xlsx,7-82,flow
15,Guinea-Bissau,1.0,0.0,0.0,1.0,0.0,0.0,0.0,0.0,0.0,0.0,0.0,0.0,0.0,0.0,13.0,11.0,2.0,2020-12-01,7-82-Bew-RU-AIG-J-d-2019-12.xlsx,7-82,flow
16,Kamerun,3.0,1.0,0.0,2.0,3.0,0.0,0.0,1.0,0.0,1.0,0.0,0.0,0.0,0.0,8.0,5.0,2.0,2020-12-01,7-82-Bew-RU-AIG-J-d-2019-12.xlsx,7-82,flow
17,Kapverden,0.0,0.0,0.0,2.0,0.0,0.0,0.0,0.0,0.0,0.0,0.0,0.0,0.0,0.0,0.0,0.0,0.0,2020-12-01,7-82-Bew-RU-AIG-J-d-2019-12.xlsx,7-82,flow
18,Kenia,0.0,0.0,0.0,0.0,1.0,0.0,0.0,0.0,0.0,0.0,0.0,0.0,0.0,0.0,4.0,3.0,1.0,2020-12-01,7-82-Bew-RU-AIG-J-d-2019-12.xlsx,7-82,flow
19,Kongo,1.0,0.0,0.0,0.0,0.0,0.0,0.0,0.0,0.0,0.0,0.0,0.0,0.0,0.0,0.0,0.0,0.0,2020-12-01,7-82-Bew-RU-AIG-J-d-2019-12.xlsx,7-82,flow
20,Kongo DR,5.0,0.0,0.0,3.0,0.0,0.0,0.0,0.0,0.0,0.0,0.0,0.0,0.0,0.0,3.0,2.0,1.0,2020-12-01,7-82-Bew-RU-AIG-J-d-2019-12.xlsx,7-82,flow
21,Liberia,1.0,0.0,0.0,1.0,0.0,0.0,0.0,0.0,0.0,0.0,0.0,0.0,0.0,0.0,2.0,1.0,0.0,2020-12-01,7-82-Bew-RU-AIG-J-d-2019-12.xlsx,7-82,flow
22,Libyen,15.0,1.0,0.0,6.0,0.0,0.0,0.0,0.0,0.0,0.0,0.0,0.0,0.0,0.0,17.0,5.0,7.0,2020-12-01,7-82-Bew-RU-AIG-J-d-2019-12.xlsx,7-82,flow
23,Malawi,0.0,0.0,0.0,0.0,0.0,0.0,0.0,0.0,0.0,0.0,0.0,0.0,0.0,0.0,1.0,0.0,0.0,2020-12-01,7-82-Bew-RU-AIG-J-d-2019-12.xlsx,7-82,flow
24,Mali,1.0,0.0,0.0,1.0,2.0,0.0,0.0,1.0,0.0,1.0,0.0,0.0,0.0,0.0,12.0,3.0,7.0,2020-12-01,7-82-Bew-RU-AIG-J-d-2019-12.xlsx,7-82,flow
25,Marokko,30.0,11.0,0.0,21.0,5.0,1.0,0.0,2.0,0.0,1.0,0.0,0.0,0.0,0.0,66.0,34.0,26.0,2020-12-01,7-82-Bew-RU-AIG-J-d-2019-12.xlsx,7-82,flow
26,Mauretanien,1.0,0.0,0.0,0.0,0.0,0.0,0.0,0.0,0.0,0.0,0.0,0.0,0.0,0.0,2.0,1.0,1.0,2020-12-01,7-82-Bew-RU-AIG-J-d-2019-12.xlsx,7-82,flow
27,Mauritius,0.0,0.0,0.0,0.0,1.0,0.0,0.0,0.0,0.0,0.0,0.0,0.0,0.0,0.0,3.0,2.0,1.0,2020-12-01,7-82-Bew-RU-AIG-J-d-2019-12.xlsx,7-82,flow
28,Mosambik,0.0,0.0,0.0,0.0,0.0,0.0,0.0,0.0,0.0,0.0,1.0,1.0,0.0,0.0,1.0,0.0,1.0,2020-12-01,7-82-Bew-RU-AIG-J-d-2019-12.xlsx,7-82,flow
29,Niger,1.0,0.0,0.0,0.0,0.0,0.0,0.0,0.0,0.0,0.0,0.0,0.0,0.0,0.0,3.0,2.0,1.0,2020-12-01,7-82-Bew-RU-AIG-J-d-2019-12.xlsx,7-82,flow
30,Nigeria,17.0,13.0,0.0,5.0,21.0,3.0,0.0,17.0,0.0,1.0,0.0,0.0,0.0,0.0,174.0,78.0,95.0,2020-12-01,7-82-Bew-RU-AIG-J-d-2019-12.xlsx,7-82,flow
31,Ruanda,0.0,0.0,0.0,0.0,0.0,0.0,0.0,0.0,0.0,0.0,0.0,0.0,0.0,0.0,1.0,1.0,0.0,2020-12-01,7-82-Bew-RU-AIG-J-d-2019-12.xlsx,7-82,flow
32,Sambia,0.0,0.0,0.0,0.0,0.0,0.0,0.0,0.0,0.0,0.0,0.0,0.0,0.0,0.0,0.0,0.0,1.0,2020-12-01,7-82-Bew-RU-AIG-J-d-2019-12.xlsx,7-82,flow
33,Senegal,6.0,3.0,0.0,1.0,3.0,0.0,0.0,1.0,0.0,0.0,0.0,0.0,0.0,0.0,23.0,10.0,16.0,2020-12-01,7-82-Bew-RU-AIG-J-d-2019-12.xlsx,7-82,flow
34,Sierra Leone,0.0,1.0,0.0,3.0,1.0,0.0,0.0,0.0,0.0,0.0,0.0,0.0,0.0,0.0,3.0,2.0,0.0,2020-12-01,7-82-Bew-RU-AIG-J-d-2019-12.xlsx,7-82,flow
35,Somalia,4.0,1.0,1.0,0.0,1.0,0.0,0.0,1.0,0.0,0.0,1.0,0.0,0.0,0.0,15.0,12.0,3.0,2020-12-01,7-82-Bew-RU-AIG-J-d-2019-12.xlsx,7-82,flow
36,Sudan,1.0,1.0,0.0,0.0,1.0,0.0,0.0,0.0,0.0,0.0,0.0,0.0,0.0,0.0,7.0,2.0,5.0,2020-12-01,7-82-Bew-RU-AIG-J-d-2019-12.xlsx,7-82,flow
37,Südsudan,1.0,0.0,0.0,0.0,0.0,0.0,0.0,0.0,0.0,0.0,0.0,0.0,0.0,0.0,1.0,0.0,0.0,2020-12-01,7-82-Bew-RU-AIG-J-d-2019-12.xlsx,7-82,flow
38,Tansania,0.0,0.0,0.0,0.0,0.0,0.0,0.0,0.0,0.0,0.0,0.0,0.0,0.0,0.0,0.0,0.0,0.0,2020-12-01,7-82-Bew-RU-AIG-J-d-2019-12.xlsx,7-82,flow
39,Togo,1.0,0.0,0.0,0.0,0.0,0.0,0.0,0.0,0.0,0.0,0.0,0.0,0.0,0.0,2.0,2.0,0.0,2020-12-01,7-82-Bew-RU-AIG-J-d-2019-12.xlsx,7-82,flow
40,Tschad,0.0,0.0,0.0,0.0,0.0,0.0,0.0,0.0,0.0,0.0,0.0,0.0,0.0,0.0,5.0,1.0,3.0,2020-12-01,7-82-Bew-RU-AIG-J-d-2019-12.xlsx,7-82,flow
41,Tunesien,28.0,18.0,1.0,9.0,32.0,2.0,0.0,28.0,1.0,5.0,0.0,0.0,0.0,0.0,78.0,29.0,49.0,2020-12-01,7-82-Bew-RU-AIG-J-d-2019-12.xlsx,7-82,flow
42,Uganda,1.0,0.0,0.0,0.0,0.0,0.0,0.0,0.0,0.0,0.0,0.0,0.0,0.0,0.0,1.0,1.0,0.0,2020-12-01,7-82-Bew-RU-AIG-J-d-2019-12.xlsx,7-82,flow
43,Westsahara,0.0,0.0,0.0,0.0,0.0,0.0,0.0,0.0,0.0,0.0,0.0,0.0,0.0,0.0,0.0,0.0,0.0,2020-12-01,7-82-Bew-RU-AIG-J-d-2019-12.xlsx,7-82,flow
44,Zentralafr. Republik,0.0,0.0,0.0,0.0,0.0,0.0,0.0,0.0,0.0,0.0,0.0,0.0,0.0,0.0,0.0,0.0,0.0,2020-12-01,7-82-Bew-RU-AIG-J-d-2019-12.xlsx,7-82,flow
45,Zimbabwe,1.0,1.0,0.0,0.0,1.0,0.0,0.0,0.0,0.0,0.0,0.0,0.0,0.0,0.0,2.0,0.0,1.0,2020-12-01,7-82-Bew-RU-AIG-J-d-2019-12.xlsx,7-82,flow
46,Total Afrika,216.0,99.0,2.0,146.0,105.0,10.0,1.0,75.0,3.0,17.0,4.0,3.0,0.0,0.0,687.0,344.0,353.0,2020-12-01,7-82-Bew-RU-AIG-J-d-2019-12.xlsx,7-82,flow
47,Argentinien,0.0,0.0,0.0,0.0,0.0,0.0,0.0,0.0,0.0,0.0,0.0,0.0,0.0,0.0,5.0,3.0,2.0,2020-12-01,7-82-Bew-RU-AIG-J-d-2019-12.xlsx,7-82,flow
48,Bolivien,0.0,0.0,0.0,0.0,0.0,0.0,0.0,0.0,0.0,0.0,0.0,0.0,0.0,0.0,7.0,3.0,6.0,2020-12-01,7-82-Bew-RU-AIG-J-d-2019-12.xlsx,7-82,flow
49,Brasilien,4.0,3.0,0.0,0.0,2.0,1.0,0.0,2.0,0.0,0.0,1.0,1.0,0.0,0.0,93.0,69.0,21.0,2020-12-01,7-82-Bew-RU-AIG-J-d-2019-12.xlsx,7-82,flow
50,Chile,2.0,2.0,0.0,1.0,2.0,0.0,0.0,2.0,0.0,0.0,0.0,0.0,0.0,0.0,18.0,13.0,5.0,2020-12-01,7-82-Bew-RU-AIG-J-d-2019-12.xlsx,7-82,flow
51,Dominikanische Republik,3.0,2.0,0.0,1.0,3.0,0.0,0.0,3.0,0.0,0.0,0.0,0.0,0.0,0.0,32.0,17.0,12.0,2020-12-01,7-82-Bew-RU-AIG-J-d-2019-12.xlsx,7-82,flow
52,Ecuador,1.0,2.0,0.0,0.0,0.0,0.0,0.0,0.0,0.0,0.0,0.0,0.0,0.0,0.0,7.0,4.0,3.0,2020-12-01,7-82-Bew-RU-AIG-J-d-2019-12.xlsx,7-82,flow
53,El Salvador,0.0,0.0,0.0,0.0,0.0,0.0,0.0,0.0,0.0,0.0,0.0,0.0,0.0,0.0,0.0,0.0,0.0,2020-12-01,7-82-Bew-RU-AIG-J-d-2019-12.xlsx,7-82,flow
54,Haiti,0.0,0.0,0.0,0.0,0.0,0.0,0.0,0.0,0.0,0.0,0.0,0.0,0.0,0.0,0.0,0.0,0.0,2020-12-01,7-82-Bew-RU-AIG-J-d-2019-12.xlsx,7-82,flow
55,Honduras,1.0,1.0,0.0,0.0,1.0,0.0,0.0,0.0,0.0,1.0,0.0,0.0,0.0,0.0,1.0,1.0,1.0,2020-12-01,7-82-Bew-RU-AIG-J-d-2019-12.xlsx,7-82,flow
56,Jamaika,0.0,1.0,0.0,2.0,0.0,0.0,0.0,0.0,0.0,0.0,0.0,0.0,0.0,0.0,1.0,2.0,1.0,2020-12-01,7-82-Bew-RU-AIG-J-d-2019-12.xlsx,7-82,flow
57,Kanada,0.0,0.0,0.0,0.0,0.0,0.0,0.0,0.0,0.0,0.0,0.0,0.0,0.0,0.0,3.0,2.0,1.0,2020-12-01,7-82-Bew-RU-AIG-J-d-2019-12.xlsx,7-82,flow
58,Kolumbien,2.0,1.0,0.0,0.0,1.0,0.0,0.0,0.0,0.0,1.0,1.0,1.0,0.0,0.0,39.0,30.0,8.0,2020-12-01,7-82-Bew-RU-AIG-J-d-2019-12.xlsx,7-82,flow
59,Kuba,0.0,1.0,0.0,0.0,1.0,0.0,0.0,0.0,0.0,0.0,0.0,0.0,0.0,0.0,0.0,0.0,0.0,2020-12-01,7-82-Bew-RU-AIG-J-d-2019-12.xlsx,7-82,flow
60,Mexiko,0.0,0.0,0.0,0.0,0.0,0.0,0.0,0.0,0.0,0.0,0.0,0.0,0.0,0.0,5.0,2.0,3.0,2020-12-01,7-82-Bew-RU-AIG-J-d-2019-12.xlsx,7-82,flow
61,Nicaragua,0.0,0.0,0.0,0.0,0.0,0.0,0.0,0.0,0.0,0.0,0.0,0.0,0.0,0.0,0.0,0.0,0.0,2020-12-01,7-82-Bew-RU-AIG-J-d-2019-12.xlsx,7-82,flow
62,Paraguay,0.0,0.0,0.0,0.0,0.0,0.0,0.0,0.0,0.0,0.0,0.0,0.0,0.0,0.0,4.0,4.0,0.0,2020-12-01,7-82-Bew-RU-AIG-J-d-2019-12.xlsx,7-82,flow
63,Peru,1.0,0.0,0.0,0.0,0.0,0.0,0.0,0.0,0.0,0.0,0.0,0.0,0.0,0.0,7.0,5.0,1.0,2020-12-01,7-82-Bew-RU-AIG-J-d-2019-12.xlsx,7-82,flow
64,Uruguay,0.0,0.0,0.0,0.0,1.0,0.0,0.0,1.0,0.0,0.0,0.0,0.0,0.0,0.0,0.0,1.0,0.0,2020-12-01,7-82-Bew-RU-AIG-J-d-2019-12.xlsx,7-82,flow
65,USA,1.0,1.0,0.0,0.0,1.0,1.0,0.0,0.0,0.0,0.0,0.0,0.0,0.0,0.0,9.0,7.0,2.0,2020-12-01,7-82-Bew-RU-AIG-J-d-2019-12.xlsx,7-82,flow
66,Venezuela,3.0,2.0,0.0,0.0,1.0,0.0,0.0,0.0,0.0,0.0,1.0,1.0,0.0,0.0,11.0,5.0,7.0,2020-12-01,7-82-Bew-RU-AIG-J-d-2019-12.xlsx,7-82,flow
67,Total Amerika,18.0,16.0,0.0,4.0,13.0,2.0,0.0,8.0,0.0,2.0,3.0,3.0,0.0,0.0,242.0,168.0,73.0,2020-12-01,7-82-Bew-RU-AIG-J-d-2019-12.xlsx,7-82,flow
68,Afghanistan,1.0,1.0,0.0,0.0,1.0,0.0,0.0,1.0,0.0,0.0,0.0,0.0,0.0,0.0,13.0,9.0,2.0,2020-12-01,7-82-Bew-RU-AIG-J-d-2019-12.xlsx,7-82,flow
69,Armenien,0.0,0.0,0.0,0.0,0.0,0.0,0.0,0.0,0.0,0.0,0.0,0.0,0.0,0.0,1.0,0.0,1.0,2020-12-01,7-82-Bew-RU-AIG-J-d-2019-12.xlsx,7-82,flow
70,Aserbaidschan,0.0,0.0,0.0,0.0,0.0,0.0,0.0,0.0,0.0,0.0,0.0,0.0,0.0,0.0,1.0,1.0,0.0,2020-12-01,7-82-Bew-RU-AIG-J-d-2019-12.xlsx,7-82,flow
71,Bangladesh,1.0,0.0,0.0,0.0,0.0,0.0,0.0,0.0,0.0,0.0,0.0,0.0,0.0,0.0,3.0,3.0,0.0,2020-12-01,7-82-Bew-RU-AIG-J-d-2019-12.xlsx,7-82,flow
72,Bhutan,0.0,0.0,0.0,0.0,0.0,0.0,0.0,0.0,0.0,0.0,0.0,0.0,0.0,0.0,0.0,0.0,0.0,2020-12-01,7-82-Bew-RU-AIG-J-d-2019-12.xlsx,7-82,flow
73,China (Volksrepublik),0.0,1.0,0.0,2.0,1.0,0.0,0.0,1.0,0.0,0.0,0.0,0.0,0.0,0.0,21.0,12.0,11.0,2020-12-01,7-82-Bew-RU-AIG-J-d-2019-12.xlsx,7-82,flow
74,Georgien,9.0,7.0,0.0,0.0,18.0,7.0,0.0,12.0,0.0,0.0,0.0,0.0,0.0,0.0,65.0,31.0,28.0,2020-12-01,7-82-Bew-RU-AIG-J-d-2019-12.xlsx,7-82,flow
75,Indien,1.0,1.0,0.0,0.0,0.0,0.0,0.0,0.0,0.0,0.0,0.0,0.0,0.0,0.0,14.0,8.0,5.0,2020-12-01,7-82-Bew-RU-AIG-J-d-2019-12.xlsx,7-82,flow
76,Irak,5.0,2.0,0.0,7.0,4.0,0.0,1.0,1.0,0.0,0.0,2.0,2.0,0.0,0.0,38.0,19.0,21.0,2020-12-01,7-82-Bew-RU-AIG-J-d-2019-12.xlsx,7-82,flow
77,Iran,0.0,0.0,0.0,1.0,0.0,0.0,0.0,0.0,0.0,0.0,0.0,0.0,0.0,0.0,1.0,0.0,1.0,2020-12-01,7-82-Bew-RU-AIG-J-d-2019-12.xlsx,7-82,flow
78,Israel,0.0,0.0,0.0,0.0,0.0,0.0,0.0,0.0,0.0,0.0,0.0,0.0,0.0,0.0,4.0,3.0,1.0,2020-12-01,7-82-Bew-RU-AIG-J-d-2019-12.xlsx,7-82,flow
79,Japan,0.0,0.0,0.0,0.0,0.0,0.0,0.0,0.0,0.0,0.0,0.0,0.0,0.0,0.0,0.0,0.0,0.0,2020-12-01,7-82-Bew-RU-AIG-J-d-2019-12.xlsx,7-82,flow
80,Jemen,0.0,0.0,0.0,0.0,0.0,0.0,0.0,0.0,0.0,0.0,1.0,1.0,0.0,0.0,0.0,0.0,0.0,2020-12-01,7-82-Bew-RU-AIG-J-d-2019-12.xlsx,7-82,flow
81,Jordanien,0.0,1.0,0.0,0.0,0.0,0.0,0.0,0.0,0.0,0.0,0.0,0.0,0.0,0.0,2.0,2.0,0.0,2020-12-01,7-82-Bew-RU-AIG-J-d-2019-12.xlsx,7-82,flow
82,Kambodscha,1.0,0.0,0.0,0.0,0.0,0.0,0.0,0.0,0.0,0.0,0.0,0.0,0.0,0.0,0.0,0.0,0.0,2020-12-01,7-82-Bew-RU-AIG-J-d-2019-12.xlsx,7-82,flow
83,Kasachstan,0.0,0.0,0.0,0.0,0.0,0.0,0.0,0.0,0.0,0.0,0.0,0.0,0.0,0.0,2.0,1.0,1.0,2020-12-01,7-82-Bew-RU-AIG-J-d-2019-12.xlsx,7-82,flow
84,Korea (Süd),0.0,0.0,0.0,0.0,0.0,0.0,0.0,0.0,0.0,0.0,0.0,0.0,0.0,0.0,0.0,0.0,0.0,2020-12-01,7-82-Bew-RU-AIG-J-d-2019-12.xlsx,7-82,flow
85,Libanon,0.0,0.0,0.0,0.0,0.0,0.0,0.0,0.0,0.0,0.0,0.0,0.0,0.0,0.0,0.0,0.0,0.0,2020-12-01,7-82-Bew-RU-AIG-J-d-2019-12.xlsx,7-82,flow
86,Malaysia,0.0,0.0,0.0,0.0,0.0,0.0,0.0,0.0,0.0,0.0,1.0,1.0,0.0,0.0,1.0,1.0,0.0,2020-12-01,7-82-Bew-RU-AIG-J-d-2019-12.xlsx,7-82,flow
87,Mongolei,1.0,0.0,0.0,1.0,0.0,0.0,0.0,0.0,0.0,0.0,0.0,0.0,0.0,0.0,8.0,5.0,3.0,2020-12-01,7-82-Bew-RU-AIG-J-d-2019-12.xlsx,7-82,flow
88,Myanmar,0.0,0.0,0.0,0.0,0.0,0.0,0.0,0.0,0.0,0.0,0.0,0.0,0.0,0.0,0.0,0.0,0.0,2020-12-01,7-82-Bew-RU-AIG-J-d-2019-12.xlsx,7-82,flow
89,Nepal,0.0,0.0,0.0,0.0,1.0,0.0,0.0,1.0,0.0,0.0,0.0,0.0,0.0,0.0,1.0,1.0,0.0,2020-12-01,7-82-Bew-RU-AIG-J-d-2019-12.xlsx,7-82,flow
90,Oman,0.0,0.0,0.0,0.0,0.0,0.0,0.0,0.0,0.0,0.0,0.0,0.0,0.0,0.0,1.0,1.0,0.0,2020-12-01,7-82-Bew-RU-AIG-J-d-2019-12.xlsx,7-82,flow
91,Pakistan,2.0,2.0,0.0,1.0,3.0,0.0,0.0,3.0,0.0,0.0,0.0,0.0,0.0,0.0,9.0,5.0,4.0,2020-12-01,7-82-Bew-RU-AIG-J-d-2019-12.xlsx,7-82,flow
92,Philippinen,0.0,0.0,0.0,0.0,0.0,0.0,0.0,0.0,0.0,0.0,0.0,0.0,0.0,0.0,8.0,6.0,2.0,2020-12-01,7-82-Bew-RU-AIG-J-d-2019-12.xlsx,7-82,flow
93,Saudi-Arabien,0.0,0.0,0.0,0.0,0.0,0.0,0.0,0.0,0.0,0.0,0.0,0.0,0.0,0.0,0.0,0.0,0.0,2020-12-01,7-82-Bew-RU-AIG-J-d-2019-12.xlsx,7-82,flow
94,Sri Lanka,7.0,4.0,0.0,3.0,2.0,0.0,0.0,3.0,0.0,0.0,0.0,0.0,0.0,0.0,10.0,2.0,9.0,2020-12-01,7-82-Bew-RU-AIG-J-d-2019-12.xlsx,7-82,flow
95,Syrien,1.0,0.0,0.0,2.0,0.0,0.0,0.0,0.0,0.0,0.0,0.0,0.0,0.0,0.0,5.0,0.0,4.0,2020-12-01,7-82-Bew-RU-AIG-J-d-2019-12.xlsx,7-82,flow
96,Thailand,1.0,1.0,0.0,0.0,2.0,1.0,0.0,1.0,0.0,1.0,0.0,0.0,0.0,0.0,10.0,5.0,4.0,2020-12-01,7-82-Bew-RU-AIG-J-d-2019-12.xlsx,7-82,flow
97,Usbekistan,0.0,0.0,0.0,0.0,0.0,0.0,0.0,0.0,0.0,0.0,0.0,0.0,0.0,0.0,0.0,0.0,0.0,2020-12-01,7-82-Bew-RU-AIG-J-d-2019-12.xlsx,7-82,flow
98,Vietnam,0.0,0.0,0.0,0.0,0.0,0.0,0.0,0.0,0.0,0.0,0.0,0.0,0.0,0.0,1.0,1.0,0.0,2020-12-01,7-82-Bew-RU-AIG-J-d-2019-12.xlsx,7-82,flow
99,Total Asien,30.0,20.0,0.0,17.0,32.0,8.0,1.0,23.0,0.0,1.0,4.0,4.0,0.0,0.0,219.0,116.0,97.0,2020-12-01,7-82-Bew-RU-AIG-J-d-2019-12.xlsx,7-82,flow
100,Albanien,29.0,31.0,0.0,1.0,30.0,1.0,0.0,27.0,0.0,1.0,2.0,2.0,0.0,0.0,483.0,389.0,102.0,2020-12-01,7-82-Bew-RU-AIG-J-d-2019-12.xlsx,7-82,flow
101,Belarus,1.0,2.0,0.0,0.0,3.0,1.0,0.0,2.0,0.0,0.0,0.0,0.0,0.0,0.0,9.0,6.0,3.0,2020-12-01,7-82-Bew-RU-AIG-J-d-2019-12.xlsx,7-82,flow
102,Belgien,0.0,0.0,0.0,0.0,0.0,0.0,0.0,0.0,0.0,0.0,0.0,0.0,0.0,0.0,7.0,5.0,2.0,2020-12-01,7-82-Bew-RU-AIG-J-d-2019-12.xlsx,7-82,flow
103,Bosnien u. Herzegowina,9.0,8.0,0.0,0.0,5.0,0.0,0.0,5.0,1.0,1.0,0.0,0.0,0.0,0.0,28.0,23.0,7.0,2020-12-01,7-82-Bew-RU-AIG-J-d-2019-12.xlsx,7-82,flow
104,Bulgarien,1.0,1.0,0.0,0.0,1.0,0.0,0.0,1.0,0.0,0.0,1.0,1.0,0.0,0.0,25.0,14.0,8.0,2020-12-01,7-82-Bew-RU-AIG-J-d-2019-12.xlsx,7-82,flow
105,Deutschland,0.0,0.0,0.0,0.0,0.0,0.0,0.0,0.0,0.0,0.0,0.0,0.0,0.0,0.0,2.0,1.0,0.0,2020-12-01,7-82-Bew-RU-AIG-J-d-2019-12.xlsx,7-82,flow
106,Estland,0.0,0.0,0.0,0.0,0.0,0.0,0.0,0.0,0.0,0.0,0.0,0.0,0.0,0.0,2.0,1.0,1.0,2020-12-01,7-82-Bew-RU-AIG-J-d-2019-12.xlsx,7-82,flow
107,Frankreich,2.0,0.0,0.0,0.0,0.0,0.0,0.0,0.0,0.0,0.0,0.0,0.0,0.0,0.0,11.0,6.0,5.0,2020-12-01,7-82-Bew-RU-AIG-J-d-2019-12.xlsx,7-82,flow
108,Griechenland,0.0,0.0,0.0,0.0,0.0,0.0,0.0,0.0,0.0,0.0,0.0,0.0,0.0,0.0,7.0,4.0,3.0,2020-12-01,7-82-Bew-RU-AIG-J-d-2019-12.xlsx,7-82,flow
109,Grossbritannien,1.0,1.0,0.0,0.0,0.0,0.0,0.0,0.0,0.0,0.0,0.0,0.0,0.0,0.0,5.0,5.0,0.0,2020-12-01,7-82-Bew-RU-AIG-J-d-2019-12.xlsx,7-82,flow
110,Irland,0.0,0.0,0.0,0.0,0.0,0.0,0.0,0.0,0.0,0.0,0.0,0.0,0.0,0.0,1.0,1.0,0.0,2020-12-01,7-82-Bew-RU-AIG-J-d-2019-12.xlsx,7-82,flow
111,Italien,0.0,0.0,0.0,1.0,1.0,0.0,0.0,1.0,0.0,0.0,0.0,0.0,0.0,0.0,34.0,20.0,15.0,2020-12-01,7-82-Bew-RU-AIG-J-d-2019-12.xlsx,7-82,flow
112,Kosovo,38.0,37.0,0.0,2.0,44.0,3.0,0.0,42.0,0.0,0.0,0.0,0.0,0.0,0.0,201.0,146.0,69.0,2020-12-01,7-82-Bew-RU-AIG-J-d-2019-12.xlsx,7-82,flow
113,Kroatien,0.0,0.0,0.0,1.0,0.0,0.0,0.0,0.0,0.0,0.0,0.0,0.0,0.0,0.0,17.0,13.0,5.0,2020-12-01,7-82-Bew-RU-AIG-J-d-2019-12.xlsx,7-82,flow
114,Lettland,0.0,0.0,0.0,0.0,0.0,0.0,0.0,0.0,0.0,0.0,0.0,0.0,0.0,0.0,4.0,2.0,2.0,2020-12-01,7-82-Bew-RU-AIG-J-d-2019-12.xlsx,7-82,flow
115,Litauen,0.0,0.0,0.0,0.0,0.0,0.0,0.0,0.0,0.0,0.0,0.0,0.0,0.0,0.0,17.0,14.0,4.0,2020-12-01,7-82-Bew-RU-AIG-J-d-2019-12.xlsx,7-82,flow
116,Nordmazedonien,16.0,16.0,1.0,1.0,16.0,1.0,1.0,12.0,0.0,1.0,0.0,0.0,0.0,0.0,85.0,63.0,18.0,2020-12-01,7-82-Bew-RU-AIG-J-d-2019-12.xlsx,7-82,flow
117,Moldova,4.0,4.0,0.0,0.0,4.0,2.0,0.0,2.0,0.0,0.0,0.0,0.0,0.0,0.0,19.0,12.0,7.0,2020-12-01,7-82-Bew-RU-AIG-J-d-2019-12.xlsx,7-82,flow
118,Montenegro,0.0,0.0,0.0,0.0,0.0,0.0,0.0,0.0,0.0,0.0,0.0,0.0,0.0,0.0,3.0,2.0,1.0,2020-12-01,7-82-Bew-RU-AIG-J-d-2019-12.xlsx,7-82,flow
119,Niederlande,0.0,0.0,0.0,0.0,0.0,0.0,0.0,0.0,0.0,0.0,0.0,0.0,0.0,0.0,7.0,7.0,1.0,2020-12-01,7-82-Bew-RU-AIG-J-d-2019-12.xlsx,7-82,flow
120,Österreich,0.0,0.0,0.0,0.0,0.0,0.0,0.0,0.0,0.0,0.0,0.0,0.0,0.0,0.0,1.0,1.0,0.0,2020-12-01,7-82-Bew-RU-AIG-J-d-2019-12.xlsx,7-82,flow
121,Polen,0.0,0.0,0.0,0.0,0.0,0.0,0.0,0.0,0.0,0.0,0.0,0.0,0.0,0.0,34.0,21.0,13.0,2020-12-01,7-82-Bew-RU-AIG-J-d-2019-12.xlsx,7-82,flow
122,Portugal,1.0,1.0,0.0,0.0,0.0,0.0,0.0,0.0,0.0,0.0,0.0,0.0,0.0,0.0,84.0,66.0,20.0,2020-12-01,7-82-Bew-RU-AIG-J-d-2019-12.xlsx,7-82,flow
123,Rumänien,0.0,0.0,0.0,0.0,0.0,0.0,0.0,0.0,0.0,0.0,9.0,9.0,0.0,0.0,320.0,234.0,92.0,2020-12-01,7-82-Bew-RU-AIG-J-d-2019-12.xlsx,7-82,flow
124,Russland,1.0,1.0,1.0,0.0,1.0,0.0,0.0,0.0,0.0,0.0,0.0,0.0,0.0,0.0,6.0,5.0,1.0,2020-12-01,7-82-Bew-RU-AIG-J-d-2019-12.xlsx,7-82,flow
125,Serbien,35.0,28.0,1.0,2.0,26.0,0.0,1.0,25.0,0.0,1.0,0.0,0.0,0.0,0.0,201.0,148.0,52.0,2020-12-01,7-82-Bew-RU-AIG-J-d-2019-12.xlsx,7-82,flow
126,Slowakische Republik,0.0,0.0,0.0,0.0,0.0,0.0,0.0,0.0,0.0,0.0,0.0,0.0,0.0,0.0,18.0,7.0,10.0,2020-12-01,7-82-Bew-RU-AIG-J-d-2019-12.xlsx,7-82,flow
127,Slowenien,0.0,0.0,0.0,0.0,0.0,0.0,0.0,0.0,0.0,0.0,0.0,0.0,0.0,0.0,2.0,1.0,1.0,2020-12-01,7-82-Bew-RU-AIG-J-d-2019-12.xlsx,7-82,flow
128,Spanien,2.0,0.0,0.0,0.0,0.0,0.0,0.0,0.0,0.0,0.0,2.0,2.0,0.0,0.0,23.0,26.0,1.0,2020-12-01,7-82-Bew-RU-AIG-J-d-2019-12.xlsx,7-82,flow
129,Tschechische Republik,0.0,0.0,0.0,0.0,0.0,0.0,0.0,0.0,0.0,0.0,0.0,0.0,0.0,0.0,6.0,6.0,0.0,2020-12-01,7-82-Bew-RU-AIG-J-d-2019-12.xlsx,7-82,flow
130,Türkei,12.0,11.0,0.0,4.0,14.0,5.0,1.0,8.0,0.0,1.0,0.0,0.0,0.0,0.0,50.0,34.0,18.0,2020-12-01,7-82-Bew-RU-AIG-J-d-2019-12.xlsx,7-82,flow
131,Ukraine,0.0,0.0,0.0,0.0,0.0,0.0,0.0,0.0,0.0,0.0,0.0,0.0,0.0,0.0,12.0,10.0,1.0,2020-12-01,7-82-Bew-RU-AIG-J-d-2019-12.xlsx,7-82,flow
132,Ungarn,0.0,0.0,0.0,0.0,0.0,0.0,0.0,0.0,0.0,0.0,1.0,1.0,0.0,0.0,15.0,9.0,6.0,2020-12-01,7-82-Bew-RU-AIG-J-d-2019-12.xlsx,7-82,flow
133,Total Europa,152.0,141.0,3.0,12.0,145.0,13.0,3.0,125.0,1.0,5.0,15.0,15.0,0.0,0.0,1739.0,1302.0,468.0,2020-12-01,7-82-Bew-RU-AIG-J-d-2019-12.xlsx,7-82,flow
134,Australien,1.0,1.0,0.0,0.0,1.0,0.0,0.0,1.0,0.0,0.0,0.0,0.0,0.0,0.0,1.0,1.0,0.0,2020-12-01,7-82-Bew-RU-AIG-J-d-2019-12.xlsx,7-82,flow
135,Total Ozeanien,1.0,1.0,0.0,0.0,1.0,0.0,0.0,1.0,0.0,0.0,0.0,0.0,0.0,0.0,1.0,1.0,0.0,2020-12-01,7-82-Bew-RU-AIG-J-d-2019-12.xlsx,7-82,flow
136,Staatenlos,0.0,0.0,0.0,0.0,0.0,0.0,0.0,0.0,0.0,0.0,0.0,0.0,0.0,0.0,1.0,1.0,0.0,2020-12-01,7-82-Bew-RU-AIG-J-d-2019-12.xlsx,7-82,flow
137,Ohne Nationalität,3.0,0.0,0.0,5.0,0.0,0.0,0.0,0.0,0.0,0.0,0.0,0.0,0.0,0.0,5.0,2.0,2.0,2020-12-01,7-82-Bew-RU-AIG-J-d-2019-12.xlsx,7-82,flow
138,Staat unbekannt,2.0,0.0,0.0,5.0,0.0,0.0,0.0,0.0,0.0,0.0,1.0,1.0,0.0,0.0,11.0,7.0,3.0,2020-12-01,7-82-Bew-RU-AIG-J-d-2019-12.xlsx,7-82,flow
139,Total Herkunft unbek.,5.0,0.0,0.0,10.0,0.0,0.0,0.0,0.0,0.0,0.0,1.0,1.0,0.0,0.0,17.0,10.0,5.0,2020-12-01,7-82-Bew-RU-AIG-J-d-2019-12.xlsx,7-82,flow
140,Ägypten,0.0,1.0,1.0,0.0,1.0,0.0,0.0,1.0,0.0,0.0,0.0,0.0,0.0,0.0,5.0,4.0,1.0,2019-12-01,7-82-Bew-RU-AIG-J-d-2019-12.xlsx,7-82,flow
141,Algerien,83.0,43.0,27.0,2.0,62.0,0.0,0.0,43.0,4.0,7.0,0.0,0.0,0.0,0.0,151.0,82.0,71.0,2019-12-01,7-82-Bew-RU-AIG-J-d-2019-12.xlsx,7-82,flow
142,Angola,2.0,2.0,0.0,0.0,1.0,0.0,0.0,1.0,0.0,0.0,0.0,0.0,0.0,0.0,3.0,3.0,2.0,2019-12-01,7-82-Bew-RU-AIG-J-d-2019-12.xlsx,7-82,flow
143,Äquatorialguinea,0.0,0.0,1.0,0.0,0.0,0.0,0.0,0.0,0.0,0.0,0.0,0.0,0.0,0.0,1.0,0.0,1.0,2019-12-01,7-82-Bew-RU-AIG-J-d-2019-12.xlsx,7-82,flow
144,Äthiopien,0.0,0.0,0.0,0.0,0.0,0.0,0.0,0.0,0.0,0.0,0.0,0.0,0.0,0.0,15.0,7.0,8.0,2019-12-01,7-82-Bew-RU-AIG-J-d-2019-12.xlsx,7-82,flow
145,Benin,2.0,1.0,0.0,0.0,1.0,0.0,0.0,1.0,0.0,0.0,0.0,0.0,0.0,0.0,3.0,0.0,2.0,2019-12-01,7-82-Bew-RU-AIG-J-d-2019-12.xlsx,7-82,flow
146,Burkina Faso,0.0,0.0,0.0,0.0,0.0,0.0,0.0,0.0,0.0,0.0,0.0,0.0,0.0,0.0,2.0,1.0,0.0,2019-12-01,7-82-Bew-RU-AIG-J-d-2019-12.xlsx,7-82,flow
147,Burundi,1.0,0.0,0.0,0.0,0.0,0.0,0.0,0.0,0.0,0.0,0.0,0.0,0.0,0.0,0.0,0.0,0.0,2019-12-01,7-82-Bew-RU-AIG-J-d-2019-12.xlsx,7-82,flow
148,Côte d'Ivoire,2.0,0.0,3.0,0.0,0.0,0.0,0.0,0.0,0.0,0.0,0.0,0.0,0.0,0.0,7.0,6.0,1.0,2019-12-01,7-82-Bew-RU-AIG-J-d-2019-12.xlsx,7-82,flow
149,Dschibuti,1.0,0.0,0.0,0.0,0.0,0.0,0.0,0.0,0.0,0.0,0.0,0.0,0.0,0.0,0.0,0.0,0.0,2019-12-01,7-82-Bew-RU-AIG-J-d-2019-12.xlsx,7-82,flow
150,Eritrea,1.0,0.0,0.0,0.0,2.0,1.0,0.0,0.0,0.0,0.0,0.0,0.0,0.0,0.0,5.0,4.0,0.0,2019-12-01,7-82-Bew-RU-AIG-J-d-2019-12.xlsx,7-82,flow
151,Gabun,1.0,0.0,0.0,0.0,0.0,0.0,0.0,0.0,0.0,0.0,0.0,0.0,0.0,0.0,4.0,1.0,1.0,2019-12-01,7-82-Bew-RU-AIG-J-d-2019-12.xlsx,7-82,flow
152,Gambia,4.0,3.0,2.0,0.0,4.0,0.0,0.0,3.0,1.0,0.0,0.0,0.0,0.0,0.0,91.0,72.0,16.0,2019-12-01,7-82-Bew-RU-AIG-J-d-2019-12.xlsx,7-82,flow
153,Ghana,1.0,0.0,0.0,0.0,1.0,1.0,0.0,0.0,0.0,0.0,0.0,0.0,0.0,0.0,9.0,8.0,1.0,2019-12-01,7-82-Bew-RU-AIG-J-d-2019-12.xlsx,7-82,flow
154,Guinea,16.0,11.0,9.0,0.0,13.0,0.0,0.0,10.0,0.0,0.0,0.0,0.0,0.0,0.0,99.0,73.0,20.0,2019-12-01,7-82-Bew-RU-AIG-J-d-2019-12.xlsx,7-82,flow
155,Guinea-Bissau,2.0,2.0,0.0,0.0,1.0,0.0,1.0,0.0,0.0,0.0,0.0,0.0,0.0,0.0,25.0,18.0,5.0,2019-12-01,7-82-Bew-RU-AIG-J-d-2019-12.xlsx,7-82,flow
156,Kamerun,5.0,8.0,2.0,0.0,13.0,0.0,0.0,13.0,0.0,0.0,0.0,0.0,0.0,0.0,17.0,10.0,7.0,2019-12-01,7-82-Bew-RU-AIG-J-d-2019-12.xlsx,7-82,flow
157,Kapverden,2.0,3.0,0.0,0.0,3.0,0.0,2.0,1.0,0.0,0.0,0.0,0.0,0.0,0.0,2.0,1.0,2.0,2019-12-01,7-82-Bew-RU-AIG-J-d-2019-12.xlsx,7-82,flow
158,Kenia,0.0,1.0,1.0,0.0,1.0,0.0,0.0,0.0,0.0,0.0,0.0,0.0,0.0,0.0,4.0,2.0,2.0,2019-12-01,7-82-Bew-RU-AIG-J-d-2019-12.xlsx,7-82,flow
159,Kongo,0.0,0.0,0.0,0.0,0.0,0.0,0.0,0.0,0.0,0.0,0.0,0.0,0.0,0.0,0.0,0.0,0.0,2019-12-01,7-82-Bew-RU-AIG-J-d-2019-12.xlsx,7-82,flow
160,Kongo DR,3.0,1.0,4.0,1.0,1.0,0.0,0.0,1.0,0.0,0.0,0.0,0.0,0.0,0.0,2.0,1.0,1.0,2019-12-01,7-82-Bew-RU-AIG-J-d-2019-12.xlsx,7-82,flow
161,Liberia,0.0,0.0,1.0,0.0,1.0,0.0,0.0,0.0,0.0,0.0,0.0,0.0,0.0,0.0,0.0,0.0,0.0,2019-12-01,7-82-Bew-RU-AIG-J-d-2019-12.xlsx,7-82,flow
162,Libyen,7.0,2.0,3.0,0.0,1.0,0.0,0.0,1.0,0.0,2.0,0.0,0.0,0.0,0.0,12.0,9.0,2.0,2019-12-01,7-82-Bew-RU-AIG-J-d-2019-12.xlsx,7-82,flow
163,Malawi,0.0,0.0,0.0,0.0,0.0,0.0,0.0,0.0,0.0,0.0,0.0,0.0,0.0,0.0,0.0,0.0,0.0,2019-12-01,7-82-Bew-RU-AIG-J-d-2019-12.xlsx,7-82,flow
164,Mali,0.0,0.0,0.0,0.0,0.0,0.0,0.0,0.0,0.0,0.0,0.0,0.0,0.0,0.0,20.0,19.0,2.0,2019-12-01,7-82-Bew-RU-AIG-J-d-2019-12.xlsx,7-82,flow
165,Marokko,37.0,14.0,22.0,1.0,11.0,1.0,0.0,8.0,1.0,1.0,0.0,0.0,0.0,0.0,71.0,53.0,20.0,2019-12-01,7-82-Bew-RU-AIG-J-d-2019-12.xlsx,7-82,flow
166,Mauretanien,0.0,0.0,0.0,0.0,0.0,0.0,0.0,0.0,0.0,0.0,0.0,0.0,0.0,0.0,3.0,3.0,0.0,2019-12-01,7-82-Bew-RU-AIG-J-d-2019-12.xlsx,7-82,flow
167,Mauritius,2.0,2.0,1.0,0.0,2.0,1.0,0.0,1.0,0.0,0.0,0.0,0.0,0.0,0.0,3.0,4.0,0.0,2019-12-01,7-82-Bew-RU-AIG-J-d-2019-12.xlsx,7-82,flow
168,Niger,0.0,0.0,0.0,0.0,0.0,0.0,0.0,0.0,0.0,0.0,0.0,0.0,0.0,0.0,1.0,1.0,0.0,2019-12-01,7-82-Bew-RU-AIG-J-d-2019-12.xlsx,7-82,flow
169,Nigeria,34.0,33.0,6.0,0.0,36.0,3.0,0.0,26.0,0.0,0.0,0.0,0.0,0.0,0.0,255.0,226.0,38.0,2019-12-01,7-82-Bew-RU-AIG-J-d-2019-12.xlsx,7-82,flow
170,Ruanda,0.0,0.0,0.0,0.0,0.0,0.0,0.0,0.0,0.0,0.0,0.0,0.0,0.0,0.0,0.0,0.0,0.0,2019-12-01,7-82-Bew-RU-AIG-J-d-2019-12.xlsx,7-82,flow
171,Sambia,0.0,0.0,0.0,0.0,0.0,0.0,0.0,0.0,0.0,0.0,0.0,0.0,0.0,0.0,0.0,0.0,0.0,2019-12-01,7-82-Bew-RU-AIG-J-d-2019-12.xlsx,7-82,flow
172,Senegal,9.0,9.0,1.0,0.0,6.0,0.0,0.0,6.0,0.0,0.0,0.0,0.0,0.0,0.0,33.0,24.0,9.0,2019-12-01,7-82-Bew-RU-AIG-J-d-2019-12.xlsx,7-82,flow
173,Sierra Leone,3.0,0.0,1.0,0.0,1.0,0.0,0.0,0.0,0.0,0.0,0.0,0.0,0.0,0.0,2.0,2.0,0.0,2019-12-01,7-82-Bew-RU-AIG-J-d-2019-12.xlsx,7-82,flow
174,Somalia,4.0,0.0,3.0,0.0,0.0,0.0,0.0,0.0,0.0,0.0,0.0,0.0,0.0,0.0,16.0,13.0,4.0,2019-12-01,7-82-Bew-RU-AIG-J-d-2019-12.xlsx,7-82,flow
175,Südafrika,0.0,0.0,0.0,0.0,0.0,0.0,0.0,0.0,0.0,0.0,0.0,0.0,0.0,0.0,4.0,4.0,0.0,2019-12-01,7-82-Bew-RU-AIG-J-d-2019-12.xlsx,7-82,flow
176,Sudan,2.0,3.0,1.0,0.0,3.0,0.0,0.0,2.0,0.0,0.0,0.0,0.0,0.0,0.0,7.0,6.0,2.0,2019-12-01,7-82-Bew-RU-AIG-J-d-2019-12.xlsx,7-82,flow
177,Südsudan,1.0,1.0,0.0,0.0,0.0,0.0,0.0,0.0,0.0,0.0,0.0,0.0,0.0,0.0,0.0,0.0,1.0,2019-12-01,7-82-Bew-RU-AIG-J-d-2019-12.xlsx,7-82,flow
178,Tansania,0.0,0.0,0.0,0.0,0.0,0.0,0.0,1.0,0.0,0.0,4.0,0.0,0.0,0.0,2.0,2.0,0.0,2019-12-01,7-82-Bew-RU-AIG-J-d-2019-12.xlsx,7-82,flow
179,Togo,0.0,0.0,0.0,0.0,0.0,0.0,0.0,0.0,0.0,0.0,0.0,0.0,0.0,0.0,1.0,1.0,0.0,2019-12-01,7-82-Bew-RU-AIG-J-d-2019-12.xlsx,7-82,flow
180,Tschad,1.0,0.0,1.0,0.0,0.0,0.0,0.0,0.0,0.0,0.0,0.0,0.0,0.0,0.0,1.0,0.0,0.0,2019-12-01,7-82-Bew-RU-AIG-J-d-2019-12.xlsx,7-82,flow
181,Tunesien,31.0,33.0,8.0,0.0,25.0,1.0,0.0,21.0,0.0,0.0,0.0,0.0,0.0,0.0,78.0,40.0,34.0,2019-12-01,7-82-Bew-RU-AIG-J-d-2019-12.xlsx,7-82,flow
182,Uganda,1.0,0.0,0.0,0.0,0.0,0.0,0.0,0.0,0.0,0.0,0.0,0.0,0.0,0.0,0.0,0.0,0.0,2019-12-01,7-82-Bew-RU-AIG-J-d-2019-12.xlsx,7-82,flow
183,Westsahara,1.0,0.0,0.0,0.0,0.0,0.0,0.0,0.0,0.0,0.0,0.0,0.0,0.0,0.0,0.0,0.0,0.0,2019-12-01,7-82-Bew-RU-AIG-J-d-2019-12.xlsx,7-82,flow
184,Zentralafr. Republik,0.0,0.0,0.0,0.0,0.0,0.0,0.0,0.0,0.0,0.0,0.0,0.0,0.0,0.0,0.0,0.0,0.0,2019-12-01,7-82-Bew-RU-AIG-J-d-2019-12.xlsx,7-82,flow
185,Zimbabwe,1.0,0.0,0.0,0.0,0.0,0.0,0.0,0.0,0.0,0.0,0.0,0.0,0.0,0.0,1.0,0.0,0.0,2019-12-01,7-82-Bew-RU-AIG-J-d-2019-12.xlsx,7-82,flow
186,Total Afrika,260.0,173.0,98.0,4.0,190.0,8.0,3.0,140.0,6.0,10.0,4.0,0.0,0.0,0.0,955.0,700.0,253.0,2019-12-01,7-82-Bew-RU-AIG-J-d-2019-12.xlsx,7-82,flow
187,Argentinien,0.0,0.0,0.0,0.0,0.0,0.0,0.0,0.0,0.0,0.0,1.0,1.0,0.0,0.0,8.0,6.0,2.0,2019-12-01,7-82-Bew-RU-AIG-J-d-2019-12.xlsx,7-82,flow
188,Bolivien,0.0,0.0,0.0,0.0,0.0,0.0,0.0,0.0,0.0,0.0,0.0,0.0,0.0,0.0,8.0,5.0,2.0,2019-12-01,7-82-Bew-RU-AIG-J-d-2019-12.xlsx,7-82,flow
189,Brasilien,8.0,3.0,2.0,0.0,3.0,1.0,0.0,1.0,0.0,0.0,3.0,3.0,0.0,0.0,110.0,95.0,17.0,2019-12-01,7-82-Bew-RU-AIG-J-d-2019-12.xlsx,7-82,flow
190,Chile,1.0,1.0,0.0,0.0,0.0,0.0,0.0,0.0,0.0,0.0,0.0,0.0,0.0,0.0,14.0,13.0,0.0,2019-12-01,7-82-Bew-RU-AIG-J-d-2019-12.xlsx,7-82,flow
191,Costa Rica,0.0,0.0,0.0,0.0,0.0,0.0,0.0,0.0,0.0,0.0,0.0,0.0,0.0,0.0,1.0,1.0,0.0,2019-12-01,7-82-Bew-RU-AIG-J-d-2019-12.xlsx,7-82,flow
192,Dominikanische Republik,5.0,4.0,2.0,0.0,6.0,0.0,0.0,6.0,0.0,0.0,1.0,1.0,0.0,0.0,48.0,39.0,11.0,2019-12-01,7-82-Bew-RU-AIG-J-d-2019-12.xlsx,7-82,flow
193,Ecuador,0.0,0.0,0.0,0.0,0.0,0.0,0.0,0.0,0.0,0.0,1.0,1.0,0.0,0.0,4.0,4.0,0.0,2019-12-01,7-82-Bew-RU-AIG-J-d-2019-12.xlsx,7-82,flow
194,El Salvador,0.0,0.0,0.0,0.0,0.0,0.0,0.0,0.0,0.0,0.0,0.0,0.0,0.0,0.0,1.0,1.0,0.0,2019-12-01,7-82-Bew-RU-AIG-J-d-2019-12.xlsx,7-82,flow
195,Guatemala,0.0,0.0,0.0,0.0,0.0,0.0,0.0,0.0,0.0,0.0,0.0,0.0,0.0,0.0,0.0,0.0,0.0,2019-12-01,7-82-Bew-RU-AIG-J-d-2019-12.xlsx,7-82,flow
196,Haiti,0.0,0.0,0.0,0.0,0.0,0.0,0.0,0.0,0.0,0.0,0.0,0.0,0.0,0.0,3.0,2.0,1.0,2019-12-01,7-82-Bew-RU-AIG-J-d-2019-12.xlsx,7-82,flow
197,Honduras,0.0,0.0,0.0,0.0,0.0,0.0,0.0,0.0,0.0,0.0,0.0,0.0,0.0,0.0,7.0,3.0,3.0,2019-12-01,7-82-Bew-RU-AIG-J-d-2019-12.xlsx,7-82,flow
198,Jamaika,3.0,0.0,2.0,0.0,0.0,0.0,0.0,0.0,0.0,0.0,0.0,0.0,0.0,0.0,3.0,0.0,1.0,2019-12-01,7-82-Bew-RU-AIG-J-d-2019-12.xlsx,7-82,flow
199,Kanada,0.0,0.0,0.0,0.0,0.0,0.0,0.0,0.0,0.0,0.0,0.0,0.0,0.0,0.0,1.0,1.0,0.0,2019-12-01,7-82-Bew-RU-AIG-J-d-2019-12.xlsx,7-82,flow
200,Kolumbien,3.0,3.0,0.0,0.0,4.0,0.0,0.0,4.0,0.0,0.0,0.0,0.0,0.0,0.0,53.0,42.0,12.0,2019-12-01,7-82-Bew-RU-AIG-J-d-2019-12.xlsx,7-82,flow
201,Kuba,3.0,2.0,2.0,0.0,1.0,1.0,0.0,0.0,0.0,0.0,0.0,0.0,0.0,0.0,2.0,3.0,0.0,2019-12-01,7-82-Bew-RU-AIG-J-d-2019-12.xlsx,7-82,flow
202,Mexiko,1.0,0.0,0.0,0.0,0.0,0.0,0.0,0.0,0.0,0.0,0.0,0.0,0.0,0.0,8.0,7.0,1.0,2019-12-01,7-82-Bew-RU-AIG-J-d-2019-12.xlsx,7-82,flow
203,Nicaragua,0.0,0.0,0.0,0.0,0.0,0.0,0.0,0.0,0.0,0.0,0.0,0.0,0.0,0.0,3.0,2.0,1.0,2019-12-01,7-82-Bew-RU-AIG-J-d-2019-12.xlsx,7-82,flow
204,Paraguay,0.0,0.0,0.0,0.0,0.0,0.0,0.0,0.0,0.0,0.0,0.0,0.0,0.0,0.0,7.0,7.0,0.0,2019-12-01,7-82-Bew-RU-AIG-J-d-2019-12.xlsx,7-82,flow
205,Peru,0.0,1.0,0.0,0.0,1.0,0.0,0.0,1.0,0.0,0.0,2.0,2.0,0.0,0.0,19.0,16.0,2.0,2019-12-01,7-82-Bew-RU-AIG-J-d-2019-12.xlsx,7-82,flow
206,Uruguay,1.0,1.0,0.0,0.0,1.0,0.0,0.0,0.0,0.0,1.0,0.0,0.0,0.0,0.0,3.0,2.0,0.0,2019-12-01,7-82-Bew-RU-AIG-J-d-2019-12.xlsx,7-82,flow
207,USA,1.0,1.0,0.0,0.0,1.0,0.0,0.0,1.0,0.0,0.0,0.0,0.0,0.0,0.0,12.0,8.0,4.0,2019-12-01,7-82-Bew-RU-AIG-J-d-2019-12.xlsx,7-82,flow
208,Venezuela,1.0,1.0,0.0,0.0,1.0,0.0,0.0,1.0,0.0,0.0,0.0,0.0,0.0,0.0,10.0,4.0,4.0,2019-12-01,7-82-Bew-RU-AIG-J-d-2019-12.xlsx,7-82,flow
209,Total Amerika,27.0,17.0,8.0,0.0,18.0,2.0,0.0,14.0,0.0,1.0,8.0,8.0,0.0,0.0,325.0,261.0,61.0,2019-12-01,7-82-Bew-RU-AIG-J-d-2019-12.xlsx,7-82,flow
210,Afghanistan,0.0,1.0,0.0,0.0,0.0,0.0,0.0,0.0,0.0,1.0,0.0,0.0,0.0,0.0,15.0,13.0,4.0,2019-12-01,7-82-Bew-RU-AIG-J-d-2019-12.xlsx,7-82,flow
211,Armenien,0.0,0.0,0.0,0.0,0.0,0.0,0.0,0.0,0.0,0.0,0.0,0.0,0.0,0.0,3.0,3.0,0.0,2019-12-01,7-82-Bew-RU-AIG-J-d-2019-12.xlsx,7-82,flow
212,Aserbaidschan,0.0,0.0,0.0,0.0,0.0,0.0,0.0,0.0,0.0,0.0,0.0,0.0,0.0,0.0,1.0,0.0,1.0,2019-12-01,7-82-Bew-RU-AIG-J-d-2019-12.xlsx,7-82,flow
213,Bangladesh,0.0,0.0,0.0,0.0,1.0,1.0,0.0,0.0,0.0,0.0,0.0,0.0,0.0,0.0,6.0,3.0,3.0,2019-12-01,7-82-Bew-RU-AIG-J-d-2019-12.xlsx,7-82,flow
214,Bhutan,0.0,0.0,0.0,0.0,0.0,0.0,0.0,0.0,0.0,0.0,0.0,0.0,0.0,0.0,0.0,0.0,0.0,2019-12-01,7-82-Bew-RU-AIG-J-d-2019-12.xlsx,7-82,flow
215,China (Volksrepublik),4.0,0.0,2.0,0.0,0.0,0.0,0.0,0.0,0.0,0.0,0.0,0.0,0.0,0.0,16.0,10.0,3.0,2019-12-01,7-82-Bew-RU-AIG-J-d-2019-12.xlsx,7-82,flow
216,Georgien,11.0,13.0,0.0,0.0,20.0,10.0,0.0,10.0,0.0,0.0,0.0,0.0,0.0,0.0,103.0,89.0,17.0,2019-12-01,7-82-Bew-RU-AIG-J-d-2019-12.xlsx,7-82,flow
217,Indien,1.0,1.0,0.0,0.0,2.0,0.0,0.0,1.0,0.0,0.0,0.0,0.0,0.0,0.0,10.0,10.0,1.0,2019-12-01,7-82-Bew-RU-AIG-J-d-2019-12.xlsx,7-82,flow
218,Irak,18.0,3.0,12.0,1.0,5.0,5.0,0.0,0.0,0.0,0.0,5.0,1.0,4.0,0.0,20.0,16.0,2.0,2019-12-01,7-82-Bew-RU-AIG-J-d-2019-12.xlsx,7-82,flow
219,Iran,1.0,0.0,0.0,0.0,0.0,0.0,0.0,0.0,0.0,0.0,0.0,0.0,0.0,0.0,12.0,8.0,3.0,2019-12-01,7-82-Bew-RU-AIG-J-d-2019-12.xlsx,7-82,flow
220,Israel,2.0,1.0,0.0,0.0,1.0,0.0,0.0,1.0,0.0,0.0,0.0,0.0,0.0,0.0,7.0,7.0,0.0,2019-12-01,7-82-Bew-RU-AIG-J-d-2019-12.xlsx,7-82,flow
221,Japan,0.0,0.0,0.0,0.0,0.0,0.0,0.0,0.0,0.0,0.0,0.0,0.0,0.0,0.0,0.0,0.0,0.0,2019-12-01,7-82-Bew-RU-AIG-J-d-2019-12.xlsx,7-82,flow
222,Jemen,0.0,0.0,0.0,0.0,0.0,0.0,0.0,0.0,0.0,0.0,0.0,0.0,0.0,0.0,0.0,0.0,0.0,2019-12-01,7-82-Bew-RU-AIG-J-d-2019-12.xlsx,7-82,flow
223,Jordanien,1.0,1.0,1.0,0.0,1.0,0.0,0.0,1.0,0.0,0.0,0.0,0.0,0.0,0.0,5.0,4.0,1.0,2019-12-01,7-82-Bew-RU-AIG-J-d-2019-12.xlsx,7-82,flow
224,Kambodscha,1.0,0.0,0.0,1.0,0.0,0.0,0.0,0.0,0.0,0.0,0.0,0.0,0.0,0.0,0.0,0.0,0.0,2019-12-01,7-82-Bew-RU-AIG-J-d-2019-12.xlsx,7-82,flow
225,Kasachstan,0.0,0.0,0.0,0.0,0.0,0.0,0.0,0.0,0.0,0.0,0.0,0.0,0.0,0.0,2.0,2.0,0.0,2019-12-01,7-82-Bew-RU-AIG-J-d-2019-12.xlsx,7-82,flow
226,Kirgisistan,0.0,0.0,0.0,0.0,0.0,0.0,0.0,0.0,0.0,0.0,0.0,0.0,0.0,0.0,0.0,0.0,0.0,2019-12-01,7-82-Bew-RU-AIG-J-d-2019-12.xlsx,7-82,flow
227,Korea (Süd),0.0,0.0,0.0,0.0,0.0,0.0,0.0,0.0,0.0,0.0,0.0,0.0,0.0,0.0,2.0,2.0,0.0,2019-12-01,7-82-Bew-RU-AIG-J-d-2019-12.xlsx,7-82,flow
228,Libanon,1.0,1.0,2.0,0.0,1.0,0.0,0.0,1.0,0.0,0.0,0.0,0.0,0.0,0.0,10.0,7.0,3.0,2019-12-01,7-82-Bew-RU-AIG-J-d-2019-12.xlsx,7-82,flow
229,Malaysia,0.0,0.0,0.0,0.0,0.0,0.0,0.0,0.0,0.0,0.0,0.0,0.0,0.0,0.0,1.0,1.0,0.0,2019-12-01,7-82-Bew-RU-AIG-J-d-2019-12.xlsx,7-82,flow
230,Mongolei,0.0,0.0,0.0,0.0,1.0,1.0,0.0,0.0,0.0,0.0,0.0,0.0,0.0,0.0,8.0,8.0,0.0,2019-12-01,7-82-Bew-RU-AIG-J-d-2019-12.xlsx,7-82,flow
231,Myanmar,0.0,0.0,0.0,0.0,0.0,0.0,0.0,0.0,0.0,0.0,0.0,0.0,0.0,0.0,0.0,0.0,0.0,2019-12-01,7-82-Bew-RU-AIG-J-d-2019-12.xlsx,7-82,flow
232,Nepal,1.0,1.0,0.0,0.0,0.0,0.0,0.0,0.0,0.0,0.0,0.0,0.0,0.0,0.0,0.0,0.0,0.0,2019-12-01,7-82-Bew-RU-AIG-J-d-2019-12.xlsx,7-82,flow
233,Pakistan,1.0,1.0,0.0,0.0,1.0,0.0,0.0,1.0,0.0,0.0,0.0,0.0,0.0,0.0,13.0,8.0,4.0,2019-12-01,7-82-Bew-RU-AIG-J-d-2019-12.xlsx,7-82,flow
234,Philippinen,0.0,0.0,0.0,0.0,0.0,0.0,0.0,0.0,0.0,0.0,2.0,2.0,0.0,0.0,10.0,10.0,0.0,2019-12-01,7-82-Bew-RU-AIG-J-d-2019-12.xlsx,7-82,flow
235,Saudi-Arabien,0.0,0.0,0.0,0.0,0.0,0.0,0.0,0.0,0.0,0.0,0.0,0.0,0.0,0.0,0.0,0.0,0.0,2019-12-01,7-82-Bew-RU-AIG-J-d-2019-12.xlsx,7-82,flow
236,Sri Lanka,11.0,8.0,6.0,0.0,5.0,0.0,0.0,3.0,0.0,0.0,0.0,0.0,0.0,0.0,25.0,13.0,10.0,2019-12-01,7-82-Bew-RU-AIG-J-d-2019-12.xlsx,7-82,flow
237,Syrien,3.0,1.0,0.0,0.0,0.0,0.0,0.0,0.0,0.0,0.0,0.0,0.0,0.0,0.0,7.0,6.0,1.0,2019-12-01,7-82-Bew-RU-AIG-J-d-2019-12.xlsx,7-82,flow
238,Tadschikistan,0.0,0.0,0.0,0.0,0.0,0.0,0.0,0.0,0.0,0.0,0.0,0.0,0.0,0.0,0.0,0.0,0.0,2019-12-01,7-82-Bew-RU-AIG-J-d-2019-12.xlsx,7-82,flow
239,Taiwan,0.0,0.0,0.0,0.0,0.0,0.0,0.0,0.0,0.0,0.0,0.0,0.0,0.0,0.0,0.0,0.0,0.0,2019-12-01,7-82-Bew-RU-AIG-J-d-2019-12.xlsx,7-82,flow
240,Thailand,1.0,1.0,0.0,0.0,1.0,0.0,0.0,1.0,0.0,0.0,1.0,1.0,0.0,0.0,10.0,9.0,1.0,2019-12-01,7-82-Bew-RU-AIG-J-d-2019-12.xlsx,7-82,flow
241,Usbekistan,0.0,0.0,0.0,0.0,0.0,0.0,0.0,0.0,0.0,0.0,0.0,0.0,0.0,0.0,2.0,2.0,0.0,2019-12-01,7-82-Bew-RU-AIG-J-d-2019-12.xlsx,7-82,flow
242,Vietnam,0.0,1.0,0.0,0.0,1.0,0.0,0.0,1.0,0.0,0.0,0.0,0.0,0.0,0.0,5.0,5.0,0.0,2019-12-01,7-82-Bew-RU-AIG-J-d-2019-12.xlsx,7-82,flow
243,Total Asien,57.0,34.0,23.0,2.0,40.0,17.0,0.0,20.0,0.0,1.0,8.0,4.0,4.0,0.0,293.0,236.0,54.0,2019-12-01,7-82-Bew-RU-AIG-J-d-2019-12.xlsx,7-82,flow
244,Albanien,20.0,10.0,0.0,0.0,14.0,0.0,0.0,14.0,0.0,0.0,0.0,0.0,0.0,0.0,634.0,584.0,51.0,2019-12-01,7-82-Bew-RU-AIG-J-d-2019-12.xlsx,7-82,flow
245,Belarus,2.0,1.0,0.0,0.0,3.0,1.0,0.0,2.0,0.0,0.0,0.0,0.0,0.0,0.0,12.0,8.0,4.0,2019-12-01,7-82-Bew-RU-AIG-J-d-2019-12.xlsx,7-82,flow
246,Belgien,0.0,0.0,0.0,0.0,1.0,0.0,0.0,0.0,0.0,0.0,0.0,0.0,0.0,0.0,5.0,4.0,1.0,2019-12-01,7-82-Bew-RU-AIG-J-d-2019-12.xlsx,7-82,flow
247,Bosnien u. Herzegowina,6.0,6.0,0.0,0.0,6.0,0.0,0.0,5.0,0.0,1.0,0.0,0.0,0.0,0.0,49.0,43.0,6.0,2019-12-01,7-82-Bew-RU-AIG-J-d-2019-12.xlsx,7-82,flow
248,Bulgarien,0.0,0.0,0.0,0.0,0.0,0.0,0.0,0.0,0.0,0.0,3.0,3.0,0.0,0.0,31.0,31.0,1.0,2019-12-01,7-82-Bew-RU-AIG-J-d-2019-12.xlsx,7-82,flow
249,Deutschland,0.0,0.0,0.0,0.0,0.0,0.0,0.0,0.0,0.0,0.0,0.0,0.0,0.0,0.0,8.0,7.0,1.0,2019-12-01,7-82-Bew-RU-AIG-J-d-2019-12.xlsx,7-82,flow
250,Estland,0.0,0.0,0.0,0.0,0.0,0.0,0.0,0.0,0.0,0.0,0.0,0.0,0.0,0.0,3.0,2.0,1.0,2019-12-01,7-82-Bew-RU-AIG-J-d-2019-12.xlsx,7-82,flow
251,Frankreich,1.0,0.0,1.0,0.0,0.0,0.0,0.0,0.0,0.0,0.0,0.0,0.0,0.0,0.0,8.0,8.0,0.0,2019-12-01,7-82-Bew-RU-AIG-J-d-2019-12.xlsx,7-82,flow
252,Griechenland,0.0,0.0,0.0,0.0,0.0,0.0,0.0,0.0,0.0,0.0,0.0,0.0,0.0,0.0,4.0,4.0,0.0,2019-12-01,7-82-Bew-RU-AIG-J-d-2019-12.xlsx,7-82,flow
253,Grossbritannien,0.0,0.0,0.0,0.0,0.0,0.0,0.0,0.0,0.0,0.0,0.0,0.0,0.0,0.0,8.0,7.0,2.0,2019-12-01,7-82-Bew-RU-AIG-J-d-2019-12.xlsx,7-82,flow
254,Italien,1.0,0.0,0.0,0.0,0.0,0.0,0.0,0.0,0.0,0.0,0.0,0.0,0.0,0.0,32.0,27.0,4.0,2019-12-01,7-82-Bew-RU-AIG-J-d-2019-12.xlsx,7-82,flow
255,Kosovo,55.0,55.0,0.0,0.0,66.0,2.0,0.0,63.0,0.0,0.0,1.0,1.0,0.0,0.0,280.0,247.0,43.0,2019-12-01,7-82-Bew-RU-AIG-J-d-2019-12.xlsx,7-82,flow
256,Kroatien,0.0,0.0,0.0,0.0,0.0,0.0,0.0,0.0,0.0,0.0,0.0,0.0,0.0,0.0,26.0,22.0,3.0,2019-12-01,7-82-Bew-RU-AIG-J-d-2019-12.xlsx,7-82,flow
257,Lettland,0.0,0.0,0.0,0.0,0.0,0.0,0.0,0.0,0.0,0.0,0.0,0.0,0.0,0.0,5.0,6.0,0.0,2019-12-01,7-82-Bew-RU-AIG-J-d-2019-12.xlsx,7-82,flow
258,Litauen,1.0,1.0,0.0,0.0,1.0,0.0,0.0,1.0,0.0,0.0,0.0,0.0,0.0,0.0,32.0,25.0,8.0,2019-12-01,7-82-Bew-RU-AIG-J-d-2019-12.xlsx,7-82,flow
259,Nordmazedonien,26.0,30.0,2.0,0.0,27.0,0.0,0.0,26.0,0.0,0.0,0.0,0.0,0.0,0.0,136.0,114.0,23.0,2019-12-01,7-82-Bew-RU-AIG-J-d-2019-12.xlsx,7-82,flow
260,Moldova,1.0,3.0,0.0,0.0,7.0,1.0,0.0,5.0,0.0,1.0,0.0,0.0,0.0,0.0,27.0,24.0,3.0,2019-12-01,7-82-Bew-RU-AIG-J-d-2019-12.xlsx,7-82,flow
261,Montenegro,1.0,1.0,1.0,0.0,1.0,0.0,0.0,1.0,0.0,0.0,0.0,0.0,0.0,0.0,13.0,13.0,0.0,2019-12-01,7-82-Bew-RU-AIG-J-d-2019-12.xlsx,7-82,flow
262,Niederlande,0.0,0.0,0.0,0.0,0.0,0.0,0.0,0.0,0.0,0.0,0.0,0.0,0.0,0.0,19.0,15.0,4.0,2019-12-01,7-82-Bew-RU-AIG-J-d-2019-12.xlsx,7-82,flow
263,Österreich,0.0,0.0,0.0,0.0,0.0,0.0,0.0,0.0,0.0,0.0,0.0,0.0,0.0,0.0,4.0,3.0,1.0,2019-12-01,7-82-Bew-RU-AIG-J-d-2019-12.xlsx,7-82,flow
264,Polen,0.0,0.0,0.0,0.0,0.0,0.0,0.0,0.0,0.0,0.0,0.0,0.0,0.0,0.0,48.0,39.0,8.0,2019-12-01,7-82-Bew-RU-AIG-J-d-2019-12.xlsx,7-82,flow
265,Portugal,0.0,0.0,0.0,0.0,0.0,0.0,0.0,0.0,0.0,0.0,0.0,0.0,0.0,0.0,111.0,94.0,24.0,2019-12-01,7-82-Bew-RU-AIG-J-d-2019-12.xlsx,7-82,flow
266,Rumänien,0.0,0.0,0.0,0.0,0.0,0.0,0.0,0.0,0.0,0.0,8.0,8.0,0.0,0.0,369.0,307.0,61.0,2019-12-01,7-82-Bew-RU-AIG-J-d-2019-12.xlsx,7-82,flow
267,Russland,1.0,1.0,0.0,0.0,1.0,0.0,0.0,1.0,0.0,0.0,0.0,0.0,0.0,0.0,20.0,16.0,3.0,2019-12-01,7-82-Bew-RU-AIG-J-d-2019-12.xlsx,7-82,flow
268,Schweden,0.0,0.0,0.0,0.0,0.0,0.0,0.0,0.0,0.0,0.0,0.0,0.0,0.0,0.0,1.0,1.0,0.0,2019-12-01,7-82-Bew-RU-AIG-J-d-2019-12.xlsx,7-82,flow
269,Serbien,35.0,32.0,0.0,0.0,35.0,2.0,1.0,30.0,0.0,2.0,1.0,1.0,0.0,0.0,313.0,275.0,20.0,2019-12-01,7-82-Bew-RU-AIG-J-d-2019-12.xlsx,7-82,flow
270,Slowakische Republik,0.0,0.0,0.0,0.0,2.0,2.0,0.0,0.0,0.0,0.0,0.0,0.0,0.0,0.0,9.0,9.0,0.0,2019-12-01,7-82-Bew-RU-AIG-J-d-2019-12.xlsx,7-82,flow
271,Slowenien,0.0,0.0,0.0,0.0,0.0,0.0,0.0,0.0,0.0,0.0,0.0,0.0,0.0,0.0,3.0,3.0,0.0,2019-12-01,7-82-Bew-RU-AIG-J-d-2019-12.xlsx,7-82,flow
272,Spanien,0.0,0.0,0.0,0.0,0.0,0.0,0.0,0.0,0.0,0.0,1.0,1.0,0.0,0.0,68.0,61.0,6.0,2019-12-01,7-82-Bew-RU-AIG-J-d-2019-12.xlsx,7-82,flow
273,Tschechische Republik,0.0,0.0,0.0,0.0,0.0,0.0,0.0,0.0,0.0,0.0,0.0,0.0,0.0,0.0,7.0,5.0,2.0,2019-12-01,7-82-Bew-RU-AIG-J-d-2019-12.xlsx,7-82,flow
274,Tschechoslowakei,0.0,0.0,0.0,0.0,0.0,0.0,0.0,0.0,0.0,0.0,0.0,0.0,0.0,0.0,1.0,1.0,0.0,2019-12-01,7-82-Bew-RU-AIG-J-d-2019-12.xlsx,7-82,flow
275,Türkei,12.0,4.0,2.0,1.0,5.0,0.0,0.0,4.0,0.0,0.0,0.0,0.0,0.0,0.0,56.0,44.0,13.0,2019-12-01,7-82-Bew-RU-AIG-J-d-2019-12.xlsx,7-82,flow
276,Ukraine,2.0,3.0,0.0,0.0,3.0,0.0,0.0,3.0,0.0,0.0,0.0,0.0,0.0,0.0,23.0,19.0,4.0,2019-12-01,7-82-Bew-RU-AIG-J-d-2019-12.xlsx,7-82,flow
277,Ungarn,0.0,0.0,0.0,0.0,0.0,0.0,0.0,0.0,0.0,0.0,5.0,5.0,0.0,0.0,25.0,21.0,4.0,2019-12-01,7-82-Bew-RU-AIG-J-d-2019-12.xlsx,7-82,flow
278,Total Europa,164.0,147.0,6.0,1.0,172.0,8.0,1.0,155.0,0.0,4.0,19.0,19.0,0.0,0.0,2390.0,2089.0,301.0,2019-12-01,7-82-Bew-RU-AIG-J-d-2019-12.xlsx,7-82,flow
279,Australien,0.0,0.0,0.0,0.0,0.0,0.0,0.0,0.0,0.0,0.0,0.0,0.0,0.0,0.0,3.0,1.0,2.0,2019-12-01,7-82-Bew-RU-AIG-J-d-2019-12.xlsx,7-82,flow
280,Neuseeland,0.0,0.0,0.0,0.0,0.0,0.0,0.0,0.0,0.0,0.0,0.0,0.0,0.0,0.0,0.0,0.0,0.0,2019-12-01,7-82-Bew-RU-AIG-J-d-2019-12.xlsx,7-82,flow
281,Total Ozeanien,0.0,0.0,0.0,0.0,0.0,0.0,0.0,0.0,0.0,0.0,0.0,0.0,0.0,0.0,3.0,1.0,2.0,2019-12-01,7-82-Bew-RU-AIG-J-d-2019-12.xlsx,7-82,flow
282,Staatenlos,0.0,0.0,0.0,0.0,0.0,0.0,0.0,0.0,0.0,0.0,0.0,0.0,0.0,0.0,2.0,0.0,1.0,2019-12-01,7-82-Bew-RU-AIG-J-d-2019-12.xlsx,7-82,flow
283,Ohne Nationalität,4.0,0.0,6.0,0.0,0.0,0.0,0.0,0.0,0.0,0.0,0.0,0.0,0.0,0.0,5.0,4.0,1.0,2019-12-01,7-82-Bew-RU-AIG-J-d-2019-12.xlsx,7-82,flow
284,Staat unbekannt,8.0,0.0,5.0,0.0,0.0,0.0,0.0,0.0,0.0,0.0,0.0,0.0,0.0,0.0,20.0,19.0,2.0,2019-12-01,7-82-Bew-RU-AIG-J-d-2019-12.xlsx,7-82,flow
285,Total Herkunft unbek.,12.0,0.0,11.0,0.0,0.0,0.0,0.0,0.0,0.0,0.0,0.0,0.0,0.0,0.0,27.0,23.0,4.0,2019-12-01,7-82-Bew-RU-AIG-J-d-2019-12.xlsx,7-82,flow
