,Nation,BeginnIdentitätsabklärung,Identitätsabklärungpositiv,Identitätsabklärungnegativ,AbschreibungIdentitätsabklärung,BeginnPapierbeschaffung,Papierevorhanden,Papiereselbstbeschafft,Papierebeschafft,Papierenichtbeschafft,Abschreibung Papierbeschaffung,GesucheRückkehrhilfe,Rückkehrhilfebewilligt(inkl. teilweise),Rückkehrhilfe abgelehnt,Abschreibung Gesuch,BeginnAusreiseorganisation,AbschlussAusreiseorganisation,AbschreibungAusreiseorganisation,Datum,file_name,name_of_sem_statistics,flow_or_stock,yearly_or_monthly
0,Ägypten,1.0,0.0,0.0,2.0,0.0,0.0,0.0,0.0,0.0,0.0,0.0,0.0,0.0,0.0,6.0,3.0,2.0,2020-12-01,7-82-Bew-RU-AIG-J-d-2019-12.xlsx,7-82,flow,yearly
1,Algerien,66.0,40.0,0.0,73.0,23.0,3.0,1.0,15.0,2.0,8.0,0.0,0.0,0.0,0.0,90.0,40.0,64.0,2020-12-01,7-82-Bew-RU-AIG-J-d-2019-12.xlsx,7-82,flow,yearly
2,Angola,3.0,0.0,0.0,1.0,0.0,0.0,0.0,0.0,0.0,0.0,0.0,0.0,0.0,0.0,4.0,3.0,1.0,2020-12-01,7-82-Bew-RU-AIG-J-d-2019-12.xlsx,7-82,flow,yearly
3,Äquatorialguinea,0.0,0.0,0.0,0.0,0.0,0.0,0.0,0.0,0.0,0.0,0.0,0.0,0.0,0.0,1.0,1.0,0.0,2020-12-01,7-82-Bew-RU-AIG-J-d-2019-12.xlsx,7-82,flow,yearly
4,Äthiopien,3.0,0.0,0.0,2.0,1.0,0.0,0.0,1.0,0.0,0.0,0.0,0.0,0.0,0.0,7.0,1.0,6.0,2020-12-01,7-82-Bew-RU-AIG-J-d-2019-12.xlsx,7-82,flow,yearly
5,Benin,1.0,1.0,0.0,1.0,1.0,0.0,0.0,0.0,0.0,0.0,0.0,0.0,0.0,0.0,0.0,0.0,0.0,2020-12-01,7-82-Bew-RU-AIG-J-d-2019-12.xlsx,7-82,flow,yearly
6,Burkina Faso,0.0,0.0,0.0,0.0,0.0,0.0,0.0,0.0,0.0,0.0,0.0,0.0,0.0,0.0,5.0,3.0,2.0,2020-12-01,7-82-Bew-RU-AIG-J-d-2019-12.xlsx,7-82,flow,yearly
7,Burundi,0.0,0.0,0.0,1.0,0.0,0.0,0.0,0.0,0.0,0.0,0.0,0.0,0.0,0.0,0.0,0.0,0.0,2020-12-01,7-82-Bew-RU-AIG-J-d-2019-12.xlsx,7-82,flow,yearly
8,Côte d'Ivoire,3.0,1.0,0.0,2.0,1.0,0.0,0.0,0.0,0.0,0.0,2.0,2.0,0.0,0.0,13.0,9.0,5.0,2020-12-01,7-82-Bew-RU-AIG-J-d-2019-12.xlsx,7-82,flow,yearly
9,Dschibuti,0.0,0.0,0.0,0.0,0.0,0.0,0.0,0.0,0.0,0.0,0.0,0.0,0.0,0.0,0.0,0.0,0.0,2020-12-01,7-82-Bew-RU-AIG-J-d-2019-12.xlsx,7-82,flow,yearly
10,Eritrea,1.0,1.0,0.0,1.0,1.0,1.0,0.0,0.0,0.0,0.0,0.0,0.0,0.0,0.0,4.0,4.0,1.0,2020-12-01,7-82-Bew-RU-AIG-J-d-2019-12.xlsx,7-82,flow,yearly
11,Gabun,0.0,0.0,0.0,0.0,0.0,0.0,0.0,0.0,0.0,0.0,0.0,0.0,0.0,0.0,0.0,1.0,0.0,2020-12-01,7-82-Bew-RU-AIG-J-d-2019-12.xlsx,7-82,flow,yearly
12,Gambia,5.0,2.0,0.0,1.0,3.0,0.0,0.0,3.0,0.0,0.0,0.0,0.0,0.0,0.0,63.0,37.0,32.0,2020-12-01,7-82-Bew-RU-AIG-J-d-2019-12.xlsx,7-82,flow,yearly
13,Ghana,0.0,0.0,0.0,0.0,0.0,0.0,0.0,0.0,0.0,0.0,0.0,0.0,0.0,0.0,4.0,4.0,1.0,2020-12-01,7-82-Bew-RU-AIG-J-d-2019-12.xlsx,7-82,flow,yearly
14,Guinea,14.0,3.0,0.0,7.0,3.0,0.0,0.0,5.0,0.0,0.0,0.0,0.0,0.0,0.0,43.0,31.0,16.0,2020-12-01,7-82-Bew-RU-AIG-J-d-2019-12.xlsx,7-82,flow,yearly
15,Guinea-Bissau,1.0,0.0,0.0,1.0,0.0,0.0,0.0,0.0,0.0,0.0,0.0,0.0,0.0,0.0,13.0,11.0,2.0,2020-12-01,7-82-Bew-RU-AIG-J-d-2019-12.xlsx,7-82,flow,yearly
16,Kamerun,3.0,1.0,0.0,2.0,3.0,0.0,0.0,1.0,0.0,1.0,0.0,0.0,0.0,0.0,8.0,5.0,2.0,2020-12-01,7-82-Bew-RU-AIG-J-d-2019-12.xlsx,7-82,flow,yearly
17,Kapverden,0.0,0.0,0.0,2.0,0.0,0.0,0.0,0.0,0.0,0.0,0.0,0.0,0.0,0.0,0.0,0.0,0.0,2020-12-01,7-82-Bew-RU-AIG-J-d-2019-12.xlsx,7-82,flow,yearly
18,Kenia,0.0,0.0,0.0,0.0,1.0,0.0,0.0,0.0,0.0,0.0,0.0,0.0,0.0,0.0,4.0,3.0,1.0,2020-12-01,7-82-Bew-RU-AIG-J-d-2019-12.xlsx,7-82,flow,yearly
19,Kongo,1.0,0.0,0.0,0.0,0.0,0.0,0.0,0.0,0.0,0.0,0.0,0.0,0.0,0.0,0.0,0.0,0.0,2020-12-01,7-82-Bew-RU-AIG-J-d-2019-12.xlsx,7-82,flow,yearly
20,Kongo DR,5.0,0.0,0.0,3.0,0.0,0.0,0.0,0.0,0.0,0.0,0.0,0.0,0.0,0.0,3.0,2.0,1.0,2020-12-01,7-82-Bew-RU-AIG-J-d-2019-12.xlsx,7-82,flow,yearly
21,Liberia,1.0,0.0,0.0,1.0,0.0,0.0,0.0,0.0,0.0,0.0,0.0,0.0,0.0,0.0,2.0,1.0,0.0,2020-12-01,7-82-Bew-RU-AIG-J-d-2019-12.xlsx,7-82,flow,yearly
22,Libyen,15.0,1.0,0.0,6.0,0.0,0.0,0.0,0.0,0.0,0.0,0.0,0.0,0.0,0.0,17.0,5.0,7.0,2020-12-01,7-82-Bew-RU-AIG-J-d-2019-12.xlsx,7-82,flow,yearly
23,Malawi,0.0,0.0,0.0,0.0,0.0,0.0,0.0,0.0,0.0,0.0,0.0,0.0,0.0,0.0,1.0,0.0,0.0,2020-12-01,7-82-Bew-RU-AIG-J-d-2019-12.xlsx,7-82,flow,yearly
24,Mali,1.0,0.0,0.0,1.0,2.0,0.0,0.0,1.0,0.0,1.0,0.0,0.0,0.0,0.0,12.0,3.0,7.0,2020-12-01,7-82-Bew-RU-AIG-J-d-2019-12.xlsx,7-82,flow,yearly
25,Marokko,30.0,11.0,0.0,21.0,5.0,1.0,0.0,2.0,0.0,1.0,0.0,0.0,0.0,0.0,66.0,34.0,26.0,2020-12-01,7-82-Bew-RU-AIG-J-d-2019-12.xlsx,7-82,flow,yearly
26,Mauretanien,1.0,0.0,0.0,0.0,0.0,0.0,0.0,0.0,0.0,0.0,0.0,0.0,0.0,0.0,2.0,1.0,1.0,2020-12-01,7-82-Bew-RU-AIG-J-d-2019-12.xlsx,7-82,flow,yearly
27,Mauritius,0.0,0.0,0.0,0.0,1.0,0.0,0.0,0.0,0.0,0.0,0.0,0.0,0.0,0.0,3.0,2.0,1.0,2020-12-01,7-82-Bew-RU-AIG-J-d-2019-12.xlsx,7-82,flow,yearly
28,Mosambik,0.0,0.0,0.0,0.0,0.0,0.0,0.0,0.0,0.0,0.0,1.0,1.0,0.0,0.0,1.0,0.0,1.0,2020-12-01,7-82-Bew-RU-AIG-J-d-2019-12.xlsx,7-82,flow,yearly
29,Niger,1.0,0.0,0.0,0.0,0.0,0.0,0.0,0.0,0.0,0.0,0.0,0.0,0.0,0.0,3.0,2.0,1.0,2020-12-01,7-82-Bew-RU-AIG-J-d-2019-12.xlsx,7-82,flow,yearly
30,Nigeria,17.0,13.0,0.0,5.0,21.0,3.0,0.0,17.0,0.0,1.0,0.0,0.0,0.0,0.0,174.0,78.0,95.0,2020-12-01,7-82-Bew-RU-AIG-J-d-2019-12.xlsx,7-82,flow,yearly
31,Ruanda,0.0,0.0,0.0,0.0,0.0,0.0,0.0,0.0,0.0,0.0,0.0,0.0,0.0,0.0,1.0,1.0,0.0,2020-12-01,7-82-Bew-RU-AIG-J-d-2019-12.xlsx,7-82,flow,yearly
32,Sambia,0.0,0.0,0.0,0.0,0.0,0.0,0.0,0.0,0.0,0.0,0.0,0.0,0.0,0.0,0.0,0.0,1.0,2020-12-01,7-82-Bew-RU-AIG-J-d-2019-12.xlsx,7-82,flow,yearly
33,Senegal,6.0,3.0,0.0,1.0,3.0,0.0,0.0,1.0,0.0,0.0,0.0,0.0,0.0,0.0,23.0,10.0,16.0,2020-12-01,7-82-Bew-RU-AIG-J-d-2019-12.xlsx,7-82,flow,yearly
34,Sierra Leone,0.0,1.0,0.0,3.0,1.0,0.0,0.0,0.0,0.0,0.0,0.0,0.0,0.0,0.0,3.0,2.0,0.0,2020-12-01,7-82-Bew-RU-AIG-J-d-2019-12.xlsx,7-82,flow,yearly
35,Somalia,4.0,1.0,1.0,0.0,1.0,0.0,0.0,1.0,0.0,0.0,1.0,0.0,0.0,0.0,15.0,12.0,3.0,2020-12-01,7-82-Bew-RU-AIG-J-d-2019-12.xlsx,7-82,flow,yearly
36,Sudan,1.0,1.0,0.0,0.0,1.0,0.0,0.0,0.0,0.0,0.0,0.0,0.0,0.0,0.0,7.0,2.0,5.0,2020-12-01,7-82-Bew-RU-AIG-J-d-2019-12.xlsx,7-82,flow,yearly
37,Südsudan,1.0,0.0,0.0,0.0,0.0,0.0,0.0,0.0,0.0,0.0,0.0,0.0,0.0,0.0,1.0,0.0,0.0,2020-12-01,7-82-Bew-RU-AIG-J-d-2019-12.xlsx,7-82,flow,yearly
38,Tansania,0.0,0.0,0.0,0.0,0.0,0.0,0.0,0.0,0.0,0.0,0.0,0.0,0.0,0.0,0.0,0.0,0.0,2020-12-01,7-82-Bew-RU-AIG-J-d-2019-12.xlsx,7-82,flow,yearly
39,Togo,1.0,0.0,0.0,0.0,0.0,0.0,0.0,0.0,0.0,0.0,0.0,0.0,0.0,0.0,2.0,2.0,0.0,2020-12-01,7-82-Bew-RU-AIG-J-d-2019-12.xlsx,7-82,flow,yearly
40,Tschad,0.0,0.0,0.0,0.0,0.0,0.0,0.0,0.0,0.0,0.0,0.0,0.0,0.0,0.0,5.0,1.0,3.0,2020-12-01,7-82-Bew-RU-AIG-J-d-2019-12.xlsx,7-82,flow,yearly
41,Tunesien,28.0,18.0,1.0,9.0,32.0,2.0,0.0,28.0,1.0,5.0,0.0,0.0,0.0,0.0,78.0,29.0,49.0,2020-12-01,7-82-Bew-RU-AIG-J-d-2019-12.xlsx,7-82,flow,yearly
42,Uganda,1.0,0.0,0.0,0.0,0.0,0.0,0.0,0.0,0.0,0.0,0.0,0.0,0.0,0.0,1.0,1.0,0.0,2020-12-01,7-82-Bew-RU-AIG-J-d-2019-12.xlsx,7-82,flow,yearly
43,Westsahara,0.0,0.0,0.0,0.0,0.0,0.0,0.0,0.0,0.0,0.0,0.0,0.0,0.0,0.0,0.0,0.0,0.0,2020-12-01,7-82-Bew-RU-AIG-J-d-2019-12.xlsx,7-82,flow,yearly
44,Zentralafr. Republik,0.0,0.0,0.0,0.0,0.0,0.0,0.0,0.0,0.0,0.0,0.0,0.0,0.0,0.0,0.0,0.0,0.0,2020-12-01,7-82-Bew-RU-AIG-J-d-2019-12.xlsx,7-82,flow,yearly
45,Zimbabwe,1.0,1.0,0.0,0.0,1.0,0.0,0.0,0.0,0.0,0.0,0.0,0.0,0.0,0.0,2.0,0.0,1.0,2020-12-01,7-82-Bew-RU-AIG-J-d-2019-12.xlsx,7-82,flow,yearly
46,Total Afrika,216.0,99.0,2.0,146.0,105.0,10.0,1.0,75.0,3.0,17.0,4.0,3.0,0.0,0.0,687.0,344.0,353.0,2020-12-01,7-82-Bew-RU-AIG-J-d-2019-12.xlsx,7-82,flow,yearly
47,Argentinien,0.0,0.0,0.0,0.0,0.0,0.0,0.0,0.0,0.0,0.0,0.0,0.0,0.0,0.0,5.0,3.0,2.0,2020-12-01,7-82-Bew-RU-AIG-J-d-2019-12.xlsx,7-82,flow,yearly
48,Bolivien,0.0,0.0,0.0,0.0,0.0,0.0,0.0,0.0,0.0,0.0,0.0,0.0,0.0,0.0,7.0,3.0,6.0,2020-12-01,7-82-Bew-RU-AIG-J-d-2019-12.xlsx,7-82,flow,yearly
49,Brasilien,4.0,3.0,0.0,0.0,2.0,1.0,0.0,2.0,0.0,0.0,1.0,1.0,0.0,0.0,93.0,69.0,21.0,2020-12-01,7-82-Bew-RU-AIG-J-d-2019-12.xlsx,7-82,flow,yearly
50,Chile,2.0,2.0,0.0,1.0,2.0,0.0,0.0,2.0,0.0,0.0,0.0,0.0,0.0,0.0,18.0,13.0,5.0,2020-12-01,7-82-Bew-RU-AIG-J-d-2019-12.xlsx,7-82,flow,yearly
51,Dominikanische Republik,3.0,2.0,0.0,1.0,3.0,0.0,0.0,3.0,0.0,0.0,0.0,0.0,0.0,0.0,32.0,17.0,12.0,2020-12-01,7-82-Bew-RU-AIG-J-d-2019-12.xlsx,7-82,flow,yearly
52,Ecuador,1.0,2.0,0.0,0.0,0.0,0.0,0.0,0.0,0.0,0.0,0.0,0.0,0.0,0.0,7.0,4.0,3.0,2020-12-01,7-82-Bew-RU-AIG-J-d-2019-12.xlsx,7-82,flow,yearly
53,El Salvador,0.0,0.0,0.0,0.0,0.0,0.0,0.0,0.0,0.0,0.0,0.0,0.0,0.0,0.0,0.0,0.0,0.0,2020-12-01,7-82-Bew-RU-AIG-J-d-2019-12.xlsx,7-82,flow,yearly
54,Haiti,0.0,0.0,0.0,0.0,0.0,0.0,0.0,0.0,0.0,0.0,0.0,0.0,0.0,0.0,0.0,0.0,0.0,2020-12-01,7-82-Bew-RU-AIG-J-d-2019-12.xlsx,7-82,flow,yearly
55,Honduras,1.0,1.0,0.0,0.0,1.0,0.0,0.0,0.0,0.0,1.0,0.0,0.0,0.0,0.0,1.0,1.0,1.0,2020-12-01,7-82-Bew-RU-AIG-J-d-2019-12.xlsx,7-82,flow,yearly
56,Jamaika,0.0,1.0,0.0,2.0,0.0,0.0,0.0,0.0,0.0,0.0,0.0,0.0,0.0,0.0,1.0,2.0,1.0,2020-12-01,7-82-Bew-RU-AIG-J-d-2019-12.xlsx,7-82,flow,yearly
57,Kanada,0.0,0.0,0.0,0.0,0.0,0.0,0.0,0.0,0.0,0.0,0.0,0.0,0.0,0.0,3.0,2.0,1.0,2020-12-01,7-82-Bew-RU-AIG-J-d-2019-12.xlsx,7-82,flow,yearly
58,Kolumbien,2.0,1.0,0.0,0.0,1.0,0.0,0.0,0.0,0.0,1.0,1.0,1.0,0.0,0.0,39.0,30.0,8.0,2020-12-01,7-82-Bew-RU-AIG-J-d-2019-12.xlsx,7-82,flow,yearly
59,Kuba,0.0,1.0,0.0,0.0,1.0,0.0,0.0,0.0,0.0,0.0,0.0,0.0,0.0,0.0,0.0,0.0,0.0,2020-12-01,7-82-Bew-RU-AIG-J-d-2019-12.xlsx,7-82,flow,yearly
60,Mexiko,0.0,0.0,0.0,0.0,0.0,0.0,0.0,0.0,0.0,0.0,0.0,0.0,0.0,0.0,5.0,2.0,3.0,2020-12-01,7-82-Bew-RU-AIG-J-d-2019-12.xlsx,7-82,flow,yearly
61,Nicaragua,0.0,0.0,0.0,0.0,0.0,0.0,0.0,0.0,0.0,0.0,0.0,0.0,0.0,0.0,0.0,0.0,0.0,2020-12-01,7-82-Bew-RU-AIG-J-d-2019-12.xlsx,7-82,flow,yearly
62,Paraguay,0.0,0.0,0.0,0.0,0.0,0.0,0.0,0.0,0.0,0.0,0.0,0.0,0.0,0.0,4.0,4.0,0.0,2020-12-01,7-82-Bew-RU-AIG-J-d-2019-12.xlsx,7-82,flow,yearly
63,Peru,1.0,0.0,0.0,0.0,0.0,0.0,0.0,0.0,0.0,0.0,0.0,0.0,0.0,0.0,7.0,5.0,1.0,2020-12-01,7-82-Bew-RU-AIG-J-d-2019-12.xlsx,7-82,flow,yearly
64,Uruguay,0.0,0.0,0.0,0.0,1.0,0.0,0.0,1.0,0.0,0.0,0.0,0.0,0.0,0.0,0.0,1.0,0.0,2020-12-01,7-82-Bew-RU-AIG-J-d-2019-12.xlsx,7-82,flow,yearly
65,USA,1.0,1.0,0.0,0.0,1.0,1.0,0.0,0.0,0.0,0.0,0.0,0.0,0.0,0.0,9.0,7.0,2.0,2020-12-01,7-82-Bew-RU-AIG-J-d-2019-12.xlsx,7-82,flow,yearly
66,Venezuela,3.0,2.0,0.0,0.0,1.0,0.0,0.0,0.0,0.0,0.0,1.0,1.0,0.0,0.0,11.0,5.0,7.0,2020-12-01,7-82-Bew-RU-AIG-J-d-2019-12.xlsx,7-82,flow,yearly
67,Total Amerika,18.0,16.0,0.0,4.0,13.0,2.0,0.0,8.0,0.0,2.0,3.0,3.0,0.0,0.0,242.0,168.0,73.0,2020-12-01,7-82-Bew-RU-AIG-J-d-2019-12.xlsx,7-82,flow,yearly
68,Afghanistan,1.0,1.0,0.0,0.0,1.0,0.0,0.0,1.0,0.0,0.0,0.0,0.0,0.0,0.0,13.0,9.0,2.0,2020-12-01,7-82-Bew-RU-AIG-J-d-2019-12.xlsx,7-82,flow,yearly
69,Armenien,0.0,0.0,0.0,0.0,0.0,0.0,0.0,0.0,0.0,0.0,0.0,0.0,0.0,0.0,1.0,0.0,1.0,2020-12-01,7-82-Bew-RU-AIG-J-d-2019-12.xlsx,7-82,flow,yearly
70,Aserbaidschan,0.0,0.0,0.0,0.0,0.0,0.0,0.0,0.0,0.0,0.0,0.0,0.0,0.0,0.0,1.0,1.0,0.0,2020-12-01,7-82-Bew-RU-AIG-J-d-2019-12.xlsx,7-82,flow,yearly
71,Bangladesh,1.0,0.0,0.0,0.0,0.0,0.0,0.0,0.0,0.0,0.0,0.0,0.0,0.0,0.0,3.0,3.0,0.0,2020-12-01,7-82-Bew-RU-AIG-J-d-2019-12.xlsx,7-82,flow,yearly
72,Bhutan,0.0,0.0,0.0,0.0,0.0,0.0,0.0,0.0,0.0,0.0,0.0,0.0,0.0,0.0,0.0,0.0,0.0,2020-12-01,7-82-Bew-RU-AIG-J-d-2019-12.xlsx,7-82,flow,yearly
73,China (Volksrepublik),0.0,1.0,0.0,2.0,1.0,0.0,0.0,1.0,0.0,0.0,0.0,0.0,0.0,0.0,21.0,12.0,11.0,2020-12-01,7-82-Bew-RU-AIG-J-d-2019-12.xlsx,7-82,flow,yearly
74,Georgien,9.0,7.0,0.0,0.0,18.0,7.0,0.0,12.0,0.0,0.0,0.0,0.0,0.0,0.0,65.0,31.0,28.0,2020-12-01,7-82-Bew-RU-AIG-J-d-2019-12.xlsx,7-82,flow,yearly
75,Indien,1.0,1.0,0.0,0.0,0.0,0.0,0.0,0.0,0.0,0.0,0.0,0.0,0.0,0.0,14.0,8.0,5.0,2020-12-01,7-82-Bew-RU-AIG-J-d-2019-12.xlsx,7-82,flow,yearly
76,Irak,5.0,2.0,0.0,7.0,4.0,0.0,1.0,1.0,0.0,0.0,2.0,2.0,0.0,0.0,38.0,19.0,21.0,2020-12-01,7-82-Bew-RU-AIG-J-d-2019-12.xlsx,7-82,flow,yearly
77,Iran,0.0,0.0,0.0,1.0,0.0,0.0,0.0,0.0,0.0,0.0,0.0,0.0,0.0,0.0,1.0,0.0,1.0,2020-12-01,7-82-Bew-RU-AIG-J-d-2019-12.xlsx,7-82,flow,yearly
78,Israel,0.0,0.0,0.0,0.0,0.0,0.0,0.0,0.0,0.0,0.0,0.0,0.0,0.0,0.0,4.0,3.0,1.0,2020-12-01,7-82-Bew-RU-AIG-J-d-2019-12.xlsx,7-82,flow,yearly
79,Japan,0.0,0.0,0.0,0.0,0.0,0.0,0.0,0.0,0.0,0.0,0.0,0.0,0.0,0.0,0.0,0.0,0.0,2020-12-01,7-82-Bew-RU-AIG-J-d-2019-12.xlsx,7-82,flow,yearly
80,Jemen,0.0,0.0,0.0,0.0,0.0,0.0,0.0,0.0,0.0,0.0,1.0,1.0,0.0,0.0,0.0,0.0,0.0,2020-12-01,7-82-Bew-RU-AIG-J-d-2019-12.xlsx,7-82,flow,yearly
81,Jordanien,0.0,1.0,0.0,0.0,0.0,0.0,0.0,0.0,0.0,0.0,0.0,0.0,0.0,0.0,2.0,2.0,0.0,2020-12-01,7-82-Bew-RU-AIG-J-d-2019-12.xlsx,7-82,flow,yearly
82,Kambodscha,1.0,0.0,0.0,0.0,0.0,0.0,0.0,0.0,0.0,0.0,0.0,0.0,0.0,0.0,0.0,0.0,0.0,2020-12-01,7-82-Bew-RU-AIG-J-d-2019-12.xlsx,7-82,flow,yearly
83,Kasachstan,0.0,0.0,0.0,0.0,0.0,0.0,0.0,0.0,0.0,0.0,0.0,0.0,0.0,0.0,2.0,1.0,1.0,2020-12-01,7-82-Bew-RU-AIG-J-d-2019-12.xlsx,7-82,flow,yearly
84,Korea (Süd),0.0,0.0,0.0,0.0,0.0,0.0,0.0,0.0,0.0,0.0,0.0,0.0,0.0,0.0,0.0,0.0,0.0,2020-12-01,7-82-Bew-RU-AIG-J-d-2019-12.xlsx,7-82,flow,yearly
85,Libanon,0.0,0.0,0.0,0.0,0.0,0.0,0.0,0.0,0.0,0.0,0.0,0.0,0.0,0.0,0.0,0.0,0.0,2020-12-01,7-82-Bew-RU-AIG-J-d-2019-12.xlsx,7-82,flow,yearly
86,Malaysia,0.0,0.0,0.0,0.0,0.0,0.0,0.0,0.0,0.0,0.0,1.0,1.0,0.0,0.0,1.0,1.0,0.0,2020-12-01,7-82-Bew-RU-AIG-J-d-2019-12.xlsx,7-82,flow,yearly
87,Mongolei,1.0,0.0,0.0,1.0,0.0,0.0,0.0,0.0,0.0,0.0,0.0,0.0,0.0,0.0,8.0,5.0,3.0,2020-12-01,7-82-Bew-RU-AIG-J-d-2019-12.xlsx,7-82,flow,yearly
88,Myanmar,0.0,0.0,0.0,0.0,0.0,0.0,0.0,0.0,0.0,0.0,0.0,0.0,0.0,0.0,0.0,0.0,0.0,2020-12-01,7-82-Bew-RU-AIG-J-d-2019-12.xlsx,7-82,flow,yearly
89,Nepal,0.0,0.0,0.0,0.0,1.0,0.0,0.0,1.0,0.0,0.0,0.0,0.0,0.0,0.0,1.0,1.0,0.0,2020-12-01,7-82-Bew-RU-AIG-J-d-2019-12.xlsx,7-82,flow,yearly
90,Oman,0.0,0.0,0.0,0.0,0.0,0.0,0.0,0.0,0.0,0.0,0.0,0.0,0.0,0.0,1.0,1.0,0.0,2020-12-01,7-82-Bew-RU-AIG-J-d-2019-12.xlsx,7-82,flow,yearly
91,Pakistan,2.0,2.0,0.0,1.0,3.0,0.0,0.0,3.0,0.0,0.0,0.0,0.0,0.0,0.0,9.0,5.0,4.0,2020-12-01,7-82-Bew-RU-AIG-J-d-2019-12.xlsx,7-82,flow,yearly
92,Philippinen,0.0,0.0,0.0,0.0,0.0,0.0,0.0,0.0,0.0,0.0,0.0,0.0,0.0,0.0,8.0,6.0,2.0,2020-12-01,7-82-Bew-RU-AIG-J-d-2019-12.xlsx,7-82,flow,yearly
93,Saudi-Arabien,0.0,0.0,0.0,0.0,0.0,0.0,0.0,0.0,0.0,0.0,0.0,0.0,0.0,0.0,0.0,0.0,0.0,2020-12-01,7-82-Bew-RU-AIG-J-d-2019-12.xlsx,7-82,flow,yearly
94,Sri Lanka,7.0,4.0,0.0,3.0,2.0,0.0,0.0,3.0,0.0,0.0,0.0,0.0,0.0,0.0,10.0,2.0,9.0,2020-12-01,7-82-Bew-RU-AIG-J-d-2019-12.xlsx,7-82,flow,yearly
95,Syrien,1.0,0.0,0.0,2.0,0.0,0.0,0.0,0.0,0.0,0.0,0.0,0.0,0.0,0.0,5.0,0.0,4.0,2020-12-01,7-82-Bew-RU-AIG-J-d-2019-12.xlsx,7-82,flow,yearly
96,Thailand,1.0,1.0,0.0,0.0,2.0,1.0,0.0,1.0,0.0,1.0,0.0,0.0,0.0,0.0,10.0,5.0,4.0,2020-12-01,7-82-Bew-RU-AIG-J-d-2019-12.xlsx,7-82,flow,yearly
97,Usbekistan,0.0,0.0,0.0,0.0,0.0,0.0,0.0,0.0,0.0,0.0,0.0,0.0,0.0,0.0,0.0,0.0,0.0,2020-12-01,7-82-Bew-RU-AIG-J-d-2019-12.xlsx,7-82,flow,yearly
98,Vietnam,0.0,0.0,0.0,0.0,0.0,0.0,0.0,0.0,0.0,0.0,0.0,0.0,0.0,0.0,1.0,1.0,0.0,2020-12-01,7-82-Bew-RU-AIG-J-d-2019-12.xlsx,7-82,flow,yearly
99,Total Asien,30.0,20.0,0.0,17.0,32.0,8.0,1.0,23.0,0.0,1.0,4.0,4.0,0.0,0.0,219.0,116.0,97.0,2020-12-01,7-82-Bew-RU-AIG-J-d-2019-12.xlsx,7-82,flow,yearly
100,Albanien,29.0,31.0,0.0,1.0,30.0,1.0,0.0,27.0,0.0,1.0,2.0,2.0,0.0,0.0,483.0,389.0,102.0,2020-12-01,7-82-Bew-RU-AIG-J-d-2019-12.xlsx,7-82,flow,yearly
101,Belarus,1.0,2.0,0.0,0.0,3.0,1.0,0.0,2.0,0.0,0.0,0.0,0.0,0.0,0.0,9.0,6.0,3.0,2020-12-01,7-82-Bew-RU-AIG-J-d-2019-12.xlsx,7-82,flow,yearly
102,Belgien,0.0,0.0,0.0,0.0,0.0,0.0,0.0,0.0,0.0,0.0,0.0,0.0,0.0,0.0,7.0,5.0,2.0,2020-12-01,7-82-Bew-RU-AIG-J-d-2019-12.xlsx,7-82,flow,yearly
103,Bosnien u. Herzegowina,9.0,8.0,0.0,0.0,5.0,0.0,0.0,5.0,1.0,1.0,0.0,0.0,0.0,0.0,28.0,23.0,7.0,2020-12-01,7-82-Bew-RU-AIG-J-d-2019-12.xlsx,7-82,flow,yearly
104,Bulgarien,1.0,1.0,0.0,0.0,1.0,0.0,0.0,1.0,0.0,0.0,1.0,1.0,0.0,0.0,25.0,14.0,8.0,2020-12-01,7-82-Bew-RU-AIG-J-d-2019-12.xlsx,7-82,flow,yearly
105,Deutschland,0.0,0.0,0.0,0.0,0.0,0.0,0.0,0.0,0.0,0.0,0.0,0.0,0.0,0.0,2.0,1.0,0.0,2020-12-01,7-82-Bew-RU-AIG-J-d-2019-12.xlsx,7-82,flow,yearly
106,Estland,0.0,0.0,0.0,0.0,0.0,0.0,0.0,0.0,0.0,0.0,0.0,0.0,0.0,0.0,2.0,1.0,1.0,2020-12-01,7-82-Bew-RU-AIG-J-d-2019-12.xlsx,7-82,flow,yearly
107,Frankreich,2.0,0.0,0.0,0.0,0.0,0.0,0.0,0.0,0.0,0.0,0.0,0.0,0.0,0.0,11.0,6.0,5.0,2020-12-01,7-82-Bew-RU-AIG-J-d-2019-12.xlsx,7-82,flow,yearly
108,Griechenland,0.0,0.0,0.0,0.0,0.0,0.0,0.0,0.0,0.0,0.0,0.0,0.0,0.0,0.0,7.0,4.0,3.0,2020-12-01,7-82-Bew-RU-AIG-J-d-2019-12.xlsx,7-82,flow,yearly
109,Grossbritannien,1.0,1.0,0.0,0.0,0.0,0.0,0.0,0.0,0.0,0.0,0.0,0.0,0.0,0.0,5.0,5.0,0.0,2020-12-01,7-82-Bew-RU-AIG-J-d-2019-12.xlsx,7-82,flow,yearly
110,Irland,0.0,0.0,0.0,0.0,0.0,0.0,0.0,0.0,0.0,0.0,0.0,0.0,0.0,0.0,1.0,1.0,0.0,2020-12-01,7-82-Bew-RU-AIG-J-d-2019-12.xlsx,7-82,flow,yearly
111,Italien,0.0,0.0,0.0,1.0,1.0,0.0,0.0,1.0,0.0,0.0,0.0,0.0,0.0,0.0,34.0,20.0,15.0,2020-12-01,7-82-Bew-RU-AIG-J-d-2019-12.xlsx,7-82,flow,yearly
112,Kosovo,38.0,37.0,0.0,2.0,44.0,3.0,0.0,42.0,0.0,0.0,0.0,0.0,0.0,0.0,201.0,146.0,69.0,2020-12-01,7-82-Bew-RU-AIG-J-d-2019-12.xlsx,7-82,flow,yearly
113,Kroatien,0.0,0.0,0.0,1.0,0.0,0.0,0.0,0.0,0.0,0.0,0.0,0.0,0.0,0.0,17.0,13.0,5.0,2020-12-01,7-82-Bew-RU-AIG-J-d-2019-12.xlsx,7-82,flow,yearly
114,Lettland,0.0,0.0,0.0,0.0,0.0,0.0,0.0,0.0,0.0,0.0,0.0,0.0,0.0,0.0,4.0,2.0,2.0,2020-12-01,7-82-Bew-RU-AIG-J-d-2019-12.xlsx,7-82,flow,yearly
115,Litauen,0.0,0.0,0.0,0.0,0.0,0.0,0.0,0.0,0.0,0.0,0.0,0.0,0.0,0.0,17.0,14.0,4.0,2020-12-01,7-82-Bew-RU-AIG-J-d-2019-12.xlsx,7-82,flow,yearly
116,Nordmazedonien,16.0,16.0,1.0,1.0,16.0,1.0,1.0,12.0,0.0,1.0,0.0,0.0,0.0,0.0,85.0,63.0,18.0,2020-12-01,7-82-Bew-RU-AIG-J-d-2019-12.xlsx,7-82,flow,yearly
117,Moldova,4.0,4.0,0.0,0.0,4.0,2.0,0.0,2.0,0.0,0.0,0.0,0.0,0.0,0.0,19.0,12.0,7.0,2020-12-01,7-82-Bew-RU-AIG-J-d-2019-12.xlsx,7-82,flow,yearly
118,Montenegro,0.0,0.0,0.0,0.0,0.0,0.0,0.0,0.0,0.0,0.0,0.0,0.0,0.0,0.0,3.0,2.0,1.0,2020-12-01,7-82-Bew-RU-AIG-J-d-2019-12.xlsx,7-82,flow,yearly
119,Niederlande,0.0,0.0,0.0,0.0,0.0,0.0,0.0,0.0,0.0,0.0,0.0,0.0,0.0,0.0,7.0,7.0,1.0,2020-12-01,7-82-Bew-RU-AIG-J-d-2019-12.xlsx,7-82,flow,yearly
120,Österreich,0.0,0.0,0.0,0.0,0.0,0.0,0.0,0.0,0.0,0.0,0.0,0.0,0.0,0.0,1.0,1.0,0.0,2020-12-01,7-82-Bew-RU-AIG-J-d-2019-12.xlsx,7-82,flow,yearly
121,Polen,0.0,0.0,0.0,0.0,0.0,0.0,0.0,0.0,0.0,0.0,0.0,0.0,0.0,0.0,34.0,21.0,13.0,2020-12-01,7-82-Bew-RU-AIG-J-d-2019-12.xlsx,7-82,flow,yearly
122,Portugal,1.0,1.0,0.0,0.0,0.0,0.0,0.0,0.0,0.0,0.0,0.0,0.0,0.0,0.0,84.0,66.0,20.0,2020-12-01,7-82-Bew-RU-AIG-J-d-2019-12.xlsx,7-82,flow,yearly
123,Rumänien,0.0,0.0,0.0,0.0,0.0,0.0,0.0,0.0,0.0,0.0,9.0,9.0,0.0,0.0,320.0,234.0,92.0,2020-12-01,7-82-Bew-RU-AIG-J-d-2019-12.xlsx,7-82,flow,yearly
124,Russland,1.0,1.0,1.0,0.0,1.0,0.0,0.0,0.0,0.0,0.0,0.0,0.0,0.0,0.0,6.0,5.0,1.0,2020-12-01,7-82-Bew-RU-AIG-J-d-2019-12.xlsx,7-82,flow,yearly
125,Serbien,35.0,28.0,1.0,2.0,26.0,0.0,1.0,25.0,0.0,1.0,0.0,0.0,0.0,0.0,201.0,148.0,52.0,2020-12-01,7-82-Bew-RU-AIG-J-d-2019-12.xlsx,7-82,flow,yearly
126,Slowakische Republik,0.0,0.0,0.0,0.0,0.0,0.0,0.0,0.0,0.0,0.0,0.0,0.0,0.0,0.0,18.0,7.0,10.0,2020-12-01,7-82-Bew-RU-AIG-J-d-2019-12.xlsx,7-82,flow,yearly
127,Slowenien,0.0,0.0,0.0,0.0,0.0,0.0,0.0,0.0,0.0,0.0,0.0,0.0,0.0,0.0,2.0,1.0,1.0,2020-12-01,7-82-Bew-RU-AIG-J-d-2019-12.xlsx,7-82,flow,yearly
128,Spanien,2.0,0.0,0.0,0.0,0.0,0.0,0.0,0.0,0.0,0.0,2.0,2.0,0.0,0.0,23.0,26.0,1.0,2020-12-01,7-82-Bew-RU-AIG-J-d-2019-12.xlsx,7-82,flow,yearly
129,Tschechische Republik,0.0,0.0,0.0,0.0,0.0,0.0,0.0,0.0,0.0,0.0,0.0,0.0,0.0,0.0,6.0,6.0,0.0,2020-12-01,7-82-Bew-RU-AIG-J-d-2019-12.xlsx,7-82,flow,yearly
130,Türkei,12.0,11.0,0.0,4.0,14.0,5.0,1.0,8.0,0.0,1.0,0.0,0.0,0.0,0.0,50.0,34.0,18.0,2020-12-01,7-82-Bew-RU-AIG-J-d-2019-12.xlsx,7-82,flow,yearly
131,Ukraine,0.0,0.0,0.0,0.0,0.0,0.0,0.0,0.0,0.0,0.0,0.0,0.0,0.0,0.0,12.0,10.0,1.0,2020-12-01,7-82-Bew-RU-AIG-J-d-2019-12.xlsx,7-82,flow,yearly
132,Ungarn,0.0,0.0,0.0,0.0,0.0,0.0,0.0,0.0,0.0,0.0,1.0,1.0,0.0,0.0,15.0,9.0,6.0,2020-12-01,7-82-Bew-RU-AIG-J-d-2019-12.xlsx,7-82,flow,yearly
133,Total Europa,152.0,141.0,3.0,12.0,145.0,13.0,3.0,125.0,1.0,5.0,15.0,15.0,0.0,0.0,1739.0,1302.0,468.0,2020-12-01,7-82-Bew-RU-AIG-J-d-2019-12.xlsx,7-82,flow,yearly
134,Australien,1.0,1.0,0.0,0.0,1.0,0.0,0.0,1.0,0.0,0.0,0.0,0.0,0.0,0.0,1.0,1.0,0.0,2020-12-01,7-82-Bew-RU-AIG-J-d-2019-12.xlsx,7-82,flow,yearly
135,Total Ozeanien,1.0,1.0,0.0,0.0,1.0,0.0,0.0,1.0,0.0,0.0,0.0,0.0,0.0,0.0,1.0,1.0,0.0,2020-12-01,7-82-Bew-RU-AIG-J-d-2019-12.xlsx,7-82,flow,yearly
136,Staatenlos,0.0,0.0,0.0,0.0,0.0,0.0,0.0,0.0,0.0,0.0,0.0,0.0,0.0,0.0,1.0,1.0,0.0,2020-12-01,7-82-Bew-RU-AIG-J-d-2019-12.xlsx,7-82,flow,yearly
137,Ohne Nationalität,3.0,0.0,0.0,5.0,0.0,0.0,0.0,0.0,0.0,0.0,0.0,0.0,0.0,0.0,5.0,2.0,2.0,2020-12-01,7-82-Bew-RU-AIG-J-d-2019-12.xlsx,7-82,flow,yearly
138,Staat unbekannt,2.0,0.0,0.0,5.0,0.0,0.0,0.0,0.0,0.0,0.0,1.0,1.0,0.0,0.0,11.0,7.0,3.0,2020-12-01,7-82-Bew-RU-AIG-J-d-2019-12.xlsx,7-82,flow,yearly
139,Total Herkunft unbek.,5.0,0.0,0.0,10.0,0.0,0.0,0.0,0.0,0.0,0.0,1.0,1.0,0.0,0.0,17.0,10.0,5.0,2020-12-01,7-82-Bew-RU-AIG-J-d-2019-12.xlsx,7-82,flow,yearly
140,Ägypten,0.0,1.0,1.0,0.0,1.0,0.0,0.0,1.0,0.0,0.0,0.0,0.0,0.0,0.0,5.0,4.0,1.0,2019-12-01,7-82-Bew-RU-AIG-J-d-2019-12.xlsx,7-82,flow,yearly
141,Algerien,83.0,43.0,27.0,2.0,62.0,0.0,0.0,43.0,4.0,7.0,0.0,0.0,0.0,0.0,151.0,82.0,71.0,2019-12-01,7-82-Bew-RU-AIG-J-d-2019-12.xlsx,7-82,flow,yearly
142,Angola,2.0,2.0,0.0,0.0,1.0,0.0,0.0,1.0,0.0,0.0,0.0,0.0,0.0,0.0,3.0,3.0,2.0,2019-12-01,7-82-Bew-RU-AIG-J-d-2019-12.xlsx,7-82,flow,yearly
143,Äquatorialguinea,0.0,0.0,1.0,0.0,0.0,0.0,0.0,0.0,0.0,0.0,0.0,0.0,0.0,0.0,1.0,0.0,1.0,2019-12-01,7-82-Bew-RU-AIG-J-d-2019-12.xlsx,7-82,flow,yearly
144,Äthiopien,0.0,0.0,0.0,0.0,0.0,0.0,0.0,0.0,0.0,0.0,0.0,0.0,0.0,0.0,15.0,7.0,8.0,2019-12-01,7-82-Bew-RU-AIG-J-d-2019-12.xlsx,7-82,flow,yearly
145,Benin,2.0,1.0,0.0,0.0,1.0,0.0,0.0,1.0,0.0,0.0,0.0,0.0,0.0,0.0,3.0,0.0,2.0,2019-12-01,7-82-Bew-RU-AIG-J-d-2019-12.xlsx,7-82,flow,yearly
146,Burkina Faso,0.0,0.0,0.0,0.0,0.0,0.0,0.0,0.0,0.0,0.0,0.0,0.0,0.0,0.0,2.0,1.0,0.0,2019-12-01,7-82-Bew-RU-AIG-J-d-2019-12.xlsx,7-82,flow,yearly
147,Burundi,1.0,0.0,0.0,0.0,0.0,0.0,0.0,0.0,0.0,0.0,0.0,0.0,0.0,0.0,0.0,0.0,0.0,2019-12-01,7-82-Bew-RU-AIG-J-d-2019-12.xlsx,7-82,flow,yearly
148,Côte d'Ivoire,2.0,0.0,3.0,0.0,0.0,0.0,0.0,0.0,0.0,0.0,0.0,0.0,0.0,0.0,7.0,6.0,1.0,2019-12-01,7-82-Bew-RU-AIG-J-d-2019-12.xlsx,7-82,flow,yearly
149,Dschibuti,1.0,0.0,0.0,0.0,0.0,0.0,0.0,0.0,0.0,0.0,0.0,0.0,0.0,0.0,0.0,0.0,0.0,2019-12-01,7-82-Bew-RU-AIG-J-d-2019-12.xlsx,7-82,flow,yearly
150,Eritrea,1.0,0.0,0.0,0.0,2.0,1.0,0.0,0.0,0.0,0.0,0.0,0.0,0.0,0.0,5.0,4.0,0.0,2019-12-01,7-82-Bew-RU-AIG-J-d-2019-12.xlsx,7-82,flow,yearly
151,Gabun,1.0,0.0,0.0,0.0,0.0,0.0,0.0,0.0,0.0,0.0,0.0,0.0,0.0,0.0,4.0,1.0,1.0,2019-12-01,7-82-Bew-RU-AIG-J-d-2019-12.xlsx,7-82,flow,yearly
152,Gambia,4.0,3.0,2.0,0.0,4.0,0.0,0.0,3.0,1.0,0.0,0.0,0.0,0.0,0.0,91.0,72.0,16.0,2019-12-01,7-82-Bew-RU-AIG-J-d-2019-12.xlsx,7-82,flow,yearly
153,Ghana,1.0,0.0,0.0,0.0,1.0,1.0,0.0,0.0,0.0,0.0,0.0,0.0,0.0,0.0,9.0,8.0,1.0,2019-12-01,7-82-Bew-RU-AIG-J-d-2019-12.xlsx,7-82,flow,yearly
154,Guinea,16.0,11.0,9.0,0.0,13.0,0.0,0.0,10.0,0.0,0.0,0.0,0.0,0.0,0.0,99.0,73.0,20.0,2019-12-01,7-82-Bew-RU-AIG-J-d-2019-12.xlsx,7-82,flow,yearly
155,Guinea-Bissau,2.0,2.0,0.0,0.0,1.0,0.0,1.0,0.0,0.0,0.0,0.0,0.0,0.0,0.0,25.0,18.0,5.0,2019-12-01,7-82-Bew-RU-AIG-J-d-2019-12.xlsx,7-82,flow,yearly
156,Kamerun,5.0,8.0,2.0,0.0,13.0,0.0,0.0,13.0,0.0,0.0,0.0,0.0,0.0,0.0,17.0,10.0,7.0,2019-12-01,7-82-Bew-RU-AIG-J-d-2019-12.xlsx,7-82,flow,yearly
157,Kapverden,2.0,3.0,0.0,0.0,3.0,0.0,2.0,1.0,0.0,0.0,0.0,0.0,0.0,0.0,2.0,1.0,2.0,2019-12-01,7-82-Bew-RU-AIG-J-d-2019-12.xlsx,7-82,flow,yearly
158,Kenia,0.0,1.0,1.0,0.0,1.0,0.0,0.0,0.0,0.0,0.0,0.0,0.0,0.0,0.0,4.0,2.0,2.0,2019-12-01,7-82-Bew-RU-AIG-J-d-2019-12.xlsx,7-82,flow,yearly
159,Kongo,0.0,0.0,0.0,0.0,0.0,0.0,0.0,0.0,0.0,0.0,0.0,0.0,0.0,0.0,0.0,0.0,0.0,2019-12-01,7-82-Bew-RU-AIG-J-d-2019-12.xlsx,7-82,flow,yearly
160,Kongo DR,3.0,1.0,4.0,1.0,1.0,0.0,0.0,1.0,0.0,0.0,0.0,0.0,0.0,0.0,2.0,1.0,1.0,2019-12-01,7-82-Bew-RU-AIG-J-d-2019-12.xlsx,7-82,flow,yearly
161,Liberia,0.0,0.0,1.0,0.0,1.0,0.0,0.0,0.0,0.0,0.0,0.0,0.0,0.0,0.0,0.0,0.0,0.0,2019-12-01,7-82-Bew-RU-AIG-J-d-2019-12.xlsx,7-82,flow,yearly
162,Libyen,7.0,2.0,3.0,0.0,1.0,0.0,0.0,1.0,0.0,2.0,0.0,0.0,0.0,0.0,12.0,9.0,2.0,2019-12-01,7-82-Bew-RU-AIG-J-d-2019-12.xlsx,7-82,flow,yearly
163,Malawi,0.0,0.0,0.0,0.0,0.0,0.0,0.0,0.0,0.0,0.0,0.0,0.0,0.0,0.0,0.0,0.0,0.0,2019-12-01,7-82-Bew-RU-AIG-J-d-2019-12.xlsx,7-82,flow,yearly
164,Mali,0.0,0.0,0.0,0.0,0.0,0.0,0.0,0.0,0.0,0.0,0.0,0.0,0.0,0.0,20.0,19.0,2.0,2019-12-01,7-82-Bew-RU-AIG-J-d-2019-12.xlsx,7-82,flow,yearly
165,Marokko,37.0,14.0,22.0,1.0,11.0,1.0,0.0,8.0,1.0,1.0,0.0,0.0,0.0,0.0,71.0,53.0,20.0,2019-12-01,7-82-Bew-RU-AIG-J-d-2019-12.xlsx,7-82,flow,yearly
166,Mauretanien,0.0,0.0,0.0,0.0,0.0,0.0,0.0,0.0,0.0,0.0,0.0,0.0,0.0,0.0,3.0,3.0,0.0,2019-12-01,7-82-Bew-RU-AIG-J-d-2019-12.xlsx,7-82,flow,yearly
167,Mauritius,2.0,2.0,1.0,0.0,2.0,1.0,0.0,1.0,0.0,0.0,0.0,0.0,0.0,0.0,3.0,4.0,0.0,2019-12-01,7-82-Bew-RU-AIG-J-d-2019-12.xlsx,7-82,flow,yearly
168,Niger,0.0,0.0,0.0,0.0,0.0,0.0,0.0,0.0,0.0,0.0,0.0,0.0,0.0,0.0,1.0,1.0,0.0,2019-12-01,7-82-Bew-RU-AIG-J-d-2019-12.xlsx,7-82,flow,yearly
169,Nigeria,34.0,33.0,6.0,0.0,36.0,3.0,0.0,26.0,0.0,0.0,0.0,0.0,0.0,0.0,255.0,226.0,38.0,2019-12-01,7-82-Bew-RU-AIG-J-d-2019-12.xlsx,7-82,flow,yearly
170,Ruanda,0.0,0.0,0.0,0.0,0.0,0.0,0.0,0.0,0.0,0.0,0.0,0.0,0.0,0.0,0.0,0.0,0.0,2019-12-01,7-82-Bew-RU-AIG-J-d-2019-12.xlsx,7-82,flow,yearly
171,Sambia,0.0,0.0,0.0,0.0,0.0,0.0,0.0,0.0,0.0,0.0,0.0,0.0,0.0,0.0,0.0,0.0,0.0,2019-12-01,7-82-Bew-RU-AIG-J-d-2019-12.xlsx,7-82,flow,yearly
172,Senegal,9.0,9.0,1.0,0.0,6.0,0.0,0.0,6.0,0.0,0.0,0.0,0.0,0.0,0.0,33.0,24.0,9.0,2019-12-01,7-82-Bew-RU-AIG-J-d-2019-12.xlsx,7-82,flow,yearly
173,Sierra Leone,3.0,0.0,1.0,0.0,1.0,0.0,0.0,0.0,0.0,0.0,0.0,0.0,0.0,0.0,2.0,2.0,0.0,2019-12-01,7-82-Bew-RU-AIG-J-d-2019-12.xlsx,7-82,flow,yearly
174,Somalia,4.0,0.0,3.0,0.0,0.0,0.0,0.0,0.0,0.0,0.0,0.0,0.0,0.0,0.0,16.0,13.0,4.0,2019-12-01,7-82-Bew-RU-AIG-J-d-2019-12.xlsx,7-82,flow,yearly
175,Südafrika,0.0,0.0,0.0,0.0,0.0,0.0,0.0,0.0,0.0,0.0,0.0,0.0,0.0,0.0,4.0,4.0,0.0,2019-12-01,7-82-Bew-RU-AIG-J-d-2019-12.xlsx,7-82,flow,yearly
176,Sudan,2.0,3.0,1.0,0.0,3.0,0.0,0.0,2.0,0.0,0.0,0.0,0.0,0.0,0.0,7.0,6.0,2.0,2019-12-01,7-82-Bew-RU-AIG-J-d-2019-12.xlsx,7-82,flow,yearly
177,Südsudan,1.0,1.0,0.0,0.0,0.0,0.0,0.0,0.0,0.0,0.0,0.0,0.0,0.0,0.0,0.0,0.0,1.0,2019-12-01,7-82-Bew-RU-AIG-J-d-2019-12.xlsx,7-82,flow,yearly
178,Tansania,0.0,0.0,0.0,0.0,0.0,0.0,0.0,1.0,0.0,0.0,4.0,0.0,0.0,0.0,2.0,2.0,0.0,2019-12-01,7-82-Bew-RU-AIG-J-d-2019-12.xlsx,7-82,flow,yearly
179,Togo,0.0,0.0,0.0,0.0,0.0,0.0,0.0,0.0,0.0,0.0,0.0,0.0,0.0,0.0,1.0,1.0,0.0,2019-12-01,7-82-Bew-RU-AIG-J-d-2019-12.xlsx,7-82,flow,yearly
180,Tschad,1.0,0.0,1.0,0.0,0.0,0.0,0.0,0.0,0.0,0.0,0.0,0.0,0.0,0.0,1.0,0.0,0.0,2019-12-01,7-82-Bew-RU-AIG-J-d-2019-12.xlsx,7-82,flow,yearly
181,Tunesien,31.0,33.0,8.0,0.0,25.0,1.0,0.0,21.0,0.0,0.0,0.0,0.0,0.0,0.0,78.0,40.0,34.0,2019-12-01,7-82-Bew-RU-AIG-J-d-2019-12.xlsx,7-82,flow,yearly
182,Uganda,1.0,0.0,0.0,0.0,0.0,0.0,0.0,0.0,0.0,0.0,0.0,0.0,0.0,0.0,0.0,0.0,0.0,2019-12-01,7-82-Bew-RU-AIG-J-d-2019-12.xlsx,7-82,flow,yearly
183,Westsahara,1.0,0.0,0.0,0.0,0.0,0.0,0.0,0.0,0.0,0.0,0.0,0.0,0.0,0.0,0.0,0.0,0.0,2019-12-01,7-82-Bew-RU-AIG-J-d-2019-12.xlsx,7-82,flow,yearly
184,Zentralafr. Republik,0.0,0.0,0.0,0.0,0.0,0.0,0.0,0.0,0.0,0.0,0.0,0.0,0.0,0.0,0.0,0.0,0.0,2019-12-01,7-82-Bew-RU-AIG-J-d-2019-12.xlsx,7-82,flow,yearly
185,Zimbabwe,1.0,0.0,0.0,0.0,0.0,0.0,0.0,0.0,0.0,0.0,0.0,0.0,0.0,0.0,1.0,0.0,0.0,2019-12-01,7-82-Bew-RU-AIG-J-d-2019-12.xlsx,7-82,flow,yearly
186,Total Afrika,260.0,173.0,98.0,4.0,190.0,8.0,3.0,140.0,6.0,10.0,4.0,0.0,0.0,0.0,955.0,700.0,253.0,2019-12-01,7-82-Bew-RU-AIG-J-d-2019-12.xlsx,7-82,flow,yearly
187,Argentinien,0.0,0.0,0.0,0.0,0.0,0.0,0.0,0.0,0.0,0.0,1.0,1.0,0.0,0.0,8.0,6.0,2.0,2019-12-01,7-82-Bew-RU-AIG-J-d-2019-12.xlsx,7-82,flow,yearly
188,Bolivien,0.0,0.0,0.0,0.0,0.0,0.0,0.0,0.0,0.0,0.0,0.0,0.0,0.0,0.0,8.0,5.0,2.0,2019-12-01,7-82-Bew-RU-AIG-J-d-2019-12.xlsx,7-82,flow,yearly
189,Brasilien,8.0,3.0,2.0,0.0,3.0,1.0,0.0,1.0,0.0,0.0,3.0,3.0,0.0,0.0,110.0,95.0,17.0,2019-12-01,7-82-Bew-RU-AIG-J-d-2019-12.xlsx,7-82,flow,yearly
190,Chile,1.0,1.0,0.0,0.0,0.0,0.0,0.0,0.0,0.0,0.0,0.0,0.0,0.0,0.0,14.0,13.0,0.0,2019-12-01,7-82-Bew-RU-AIG-J-d-2019-12.xlsx,7-82,flow,yearly
191,Costa Rica,0.0,0.0,0.0,0.0,0.0,0.0,0.0,0.0,0.0,0.0,0.0,0.0,0.0,0.0,1.0,1.0,0.0,2019-12-01,7-82-Bew-RU-AIG-J-d-2019-12.xlsx,7-82,flow,yearly
192,Dominikanische Republik,5.0,4.0,2.0,0.0,6.0,0.0,0.0,6.0,0.0,0.0,1.0,1.0,0.0,0.0,48.0,39.0,11.0,2019-12-01,7-82-Bew-RU-AIG-J-d-2019-12.xlsx,7-82,flow,yearly
193,Ecuador,0.0,0.0,0.0,0.0,0.0,0.0,0.0,0.0,0.0,0.0,1.0,1.0,0.0,0.0,4.0,4.0,0.0,2019-12-01,7-82-Bew-RU-AIG-J-d-2019-12.xlsx,7-82,flow,yearly
194,El Salvador,0.0,0.0,0.0,0.0,0.0,0.0,0.0,0.0,0.0,0.0,0.0,0.0,0.0,0.0,1.0,1.0,0.0,2019-12-01,7-82-Bew-RU-AIG-J-d-2019-12.xlsx,7-82,flow,yearly
195,Guatemala,0.0,0.0,0.0,0.0,0.0,0.0,0.0,0.0,0.0,0.0,0.0,0.0,0.0,0.0,0.0,0.0,0.0,2019-12-01,7-82-Bew-RU-AIG-J-d-2019-12.xlsx,7-82,flow,yearly
196,Haiti,0.0,0.0,0.0,0.0,0.0,0.0,0.0,0.0,0.0,0.0,0.0,0.0,0.0,0.0,3.0,2.0,1.0,2019-12-01,7-82-Bew-RU-AIG-J-d-2019-12.xlsx,7-82,flow,yearly
197,Honduras,0.0,0.0,0.0,0.0,0.0,0.0,0.0,0.0,0.0,0.0,0.0,0.0,0.0,0.0,7.0,3.0,3.0,2019-12-01,7-82-Bew-RU-AIG-J-d-2019-12.xlsx,7-82,flow,yearly
198,Jamaika,3.0,0.0,2.0,0.0,0.0,0.0,0.0,0.0,0.0,0.0,0.0,0.0,0.0,0.0,3.0,0.0,1.0,2019-12-01,7-82-Bew-RU-AIG-J-d-2019-12.xlsx,7-82,flow,yearly
199,Kanada,0.0,0.0,0.0,0.0,0.0,0.0,0.0,0.0,0.0,0.0,0.0,0.0,0.0,0.0,1.0,1.0,0.0,2019-12-01,7-82-Bew-RU-AIG-J-d-2019-12.xlsx,7-82,flow,yearly
200,Kolumbien,3.0,3.0,0.0,0.0,4.0,0.0,0.0,4.0,0.0,0.0,0.0,0.0,0.0,0.0,53.0,42.0,12.0,2019-12-01,7-82-Bew-RU-AIG-J-d-2019-12.xlsx,7-82,flow,yearly
201,Kuba,3.0,2.0,2.0,0.0,1.0,1.0,0.0,0.0,0.0,0.0,0.0,0.0,0.0,0.0,2.0,3.0,0.0,2019-12-01,7-82-Bew-RU-AIG-J-d-2019-12.xlsx,7-82,flow,yearly
202,Mexiko,1.0,0.0,0.0,0.0,0.0,0.0,0.0,0.0,0.0,0.0,0.0,0.0,0.0,0.0,8.0,7.0,1.0,2019-12-01,7-82-Bew-RU-AIG-J-d-2019-12.xlsx,7-82,flow,yearly
203,Nicaragua,0.0,0.0,0.0,0.0,0.0,0.0,0.0,0.0,0.0,0.0,0.0,0.0,0.0,0.0,3.0,2.0,1.0,2019-12-01,7-82-Bew-RU-AIG-J-d-2019-12.xlsx,7-82,flow,yearly
204,Paraguay,0.0,0.0,0.0,0.0,0.0,0.0,0.0,0.0,0.0,0.0,0.0,0.0,0.0,0.0,7.0,7.0,0.0,2019-12-01,7-82-Bew-RU-AIG-J-d-2019-12.xlsx,7-82,flow,yearly
205,Peru,0.0,1.0,0.0,0.0,1.0,0.0,0.0,1.0,0.0,0.0,2.0,2.0,0.0,0.0,19.0,16.0,2.0,2019-12-01,7-82-Bew-RU-AIG-J-d-2019-12.xlsx,7-82,flow,yearly
206,Uruguay,1.0,1.0,0.0,0.0,1.0,0.0,0.0,0.0,0.0,1.0,0.0,0.0,0.0,0.0,3.0,2.0,0.0,2019-12-01,7-82-Bew-RU-AIG-J-d-2019-12.xlsx,7-82,flow,yearly
207,USA,1.0,1.0,0.0,0.0,1.0,0.0,0.0,1.0,0.0,0.0,0.0,0.0,0.0,0.0,12.0,8.0,4.0,2019-12-01,7-82-Bew-RU-AIG-J-d-2019-12.xlsx,7-82,flow,yearly
208,Venezuela,1.0,1.0,0.0,0.0,1.0,0.0,0.0,1.0,0.0,0.0,0.0,0.0,0.0,0.0,10.0,4.0,4.0,2019-12-01,7-82-Bew-RU-AIG-J-d-2019-12.xlsx,7-82,flow,yearly
209,Total Amerika,27.0,17.0,8.0,0.0,18.0,2.0,0.0,14.0,0.0,1.0,8.0,8.0,0.0,0.0,325.0,261.0,61.0,2019-12-01,7-82-Bew-RU-AIG-J-d-2019-12.xlsx,7-82,flow,yearly
210,Afghanistan,0.0,1.0,0.0,0.0,0.0,0.0,0.0,0.0,0.0,1.0,0.0,0.0,0.0,0.0,15.0,13.0,4.0,2019-12-01,7-82-Bew-RU-AIG-J-d-2019-12.xlsx,7-82,flow,yearly
211,Armenien,0.0,0.0,0.0,0.0,0.0,0.0,0.0,0.0,0.0,0.0,0.0,0.0,0.0,0.0,3.0,3.0,0.0,2019-12-01,7-82-Bew-RU-AIG-J-d-2019-12.xlsx,7-82,flow,yearly
212,Aserbaidschan,0.0,0.0,0.0,0.0,0.0,0.0,0.0,0.0,0.0,0.0,0.0,0.0,0.0,0.0,1.0,0.0,1.0,2019-12-01,7-82-Bew-RU-AIG-J-d-2019-12.xlsx,7-82,flow,yearly
213,Bangladesh,0.0,0.0,0.0,0.0,1.0,1.0,0.0,0.0,0.0,0.0,0.0,0.0,0.0,0.0,6.0,3.0,3.0,2019-12-01,7-82-Bew-RU-AIG-J-d-2019-12.xlsx,7-82,flow,yearly
214,Bhutan,0.0,0.0,0.0,0.0,0.0,0.0,0.0,0.0,0.0,0.0,0.0,0.0,0.0,0.0,0.0,0.0,0.0,2019-12-01,7-82-Bew-RU-AIG-J-d-2019-12.xlsx,7-82,flow,yearly
215,China (Volksrepublik),4.0,0.0,2.0,0.0,0.0,0.0,0.0,0.0,0.0,0.0,0.0,0.0,0.0,0.0,16.0,10.0,3.0,2019-12-01,7-82-Bew-RU-AIG-J-d-2019-12.xlsx,7-82,flow,yearly
216,Georgien,11.0,13.0,0.0,0.0,20.0,10.0,0.0,10.0,0.0,0.0,0.0,0.0,0.0,0.0,103.0,89.0,17.0,2019-12-01,7-82-Bew-RU-AIG-J-d-2019-12.xlsx,7-82,flow,yearly
217,Indien,1.0,1.0,0.0,0.0,2.0,0.0,0.0,1.0,0.0,0.0,0.0,0.0,0.0,0.0,10.0,10.0,1.0,2019-12-01,7-82-Bew-RU-AIG-J-d-2019-12.xlsx,7-82,flow,yearly
218,Irak,18.0,3.0,12.0,1.0,5.0,5.0,0.0,0.0,0.0,0.0,5.0,1.0,4.0,0.0,20.0,16.0,2.0,2019-12-01,7-82-Bew-RU-AIG-J-d-2019-12.xlsx,7-82,flow,yearly
219,Iran,1.0,0.0,0.0,0.0,0.0,0.0,0.0,0.0,0.0,0.0,0.0,0.0,0.0,0.0,12.0,8.0,3.0,2019-12-01,7-82-Bew-RU-AIG-J-d-2019-12.xlsx,7-82,flow,yearly
220,Israel,2.0,1.0,0.0,0.0,1.0,0.0,0.0,1.0,0.0,0.0,0.0,0.0,0.0,0.0,7.0,7.0,0.0,2019-12-01,7-82-Bew-RU-AIG-J-d-2019-12.xlsx,7-82,flow,yearly
221,Japan,0.0,0.0,0.0,0.0,0.0,0.0,0.0,0.0,0.0,0.0,0.0,0.0,0.0,0.0,0.0,0.0,0.0,2019-12-01,7-82-Bew-RU-AIG-J-d-2019-12.xlsx,7-82,flow,yearly
222,Jemen,0.0,0.0,0.0,0.0,0.0,0.0,0.0,0.0,0.0,0.0,0.0,0.0,0.0,0.0,0.0,0.0,0.0,2019-12-01,7-82-Bew-RU-AIG-J-d-2019-12.xlsx,7-82,flow,yearly
223,Jordanien,1.0,1.0,1.0,0.0,1.0,0.0,0.0,1.0,0.0,0.0,0.0,0.0,0.0,0.0,5.0,4.0,1.0,2019-12-01,7-82-Bew-RU-AIG-J-d-2019-12.xlsx,7-82,flow,yearly
224,Kambodscha,1.0,0.0,0.0,1.0,0.0,0.0,0.0,0.0,0.0,0.0,0.0,0.0,0.0,0.0,0.0,0.0,0.0,2019-12-01,7-82-Bew-RU-AIG-J-d-2019-12.xlsx,7-82,flow,yearly
225,Kasachstan,0.0,0.0,0.0,0.0,0.0,0.0,0.0,0.0,0.0,0.0,0.0,0.0,0.0,0.0,2.0,2.0,0.0,2019-12-01,7-82-Bew-RU-AIG-J-d-2019-12.xlsx,7-82,flow,yearly
226,Kirgisistan,0.0,0.0,0.0,0.0,0.0,0.0,0.0,0.0,0.0,0.0,0.0,0.0,0.0,0.0,0.0,0.0,0.0,2019-12-01,7-82-Bew-RU-AIG-J-d-2019-12.xlsx,7-82,flow,yearly
227,Korea (Süd),0.0,0.0,0.0,0.0,0.0,0.0,0.0,0.0,0.0,0.0,0.0,0.0,0.0,0.0,2.0,2.0,0.0,2019-12-01,7-82-Bew-RU-AIG-J-d-2019-12.xlsx,7-82,flow,yearly
228,Libanon,1.0,1.0,2.0,0.0,1.0,0.0,0.0,1.0,0.0,0.0,0.0,0.0,0.0,0.0,10.0,7.0,3.0,2019-12-01,7-82-Bew-RU-AIG-J-d-2019-12.xlsx,7-82,flow,yearly
229,Malaysia,0.0,0.0,0.0,0.0,0.0,0.0,0.0,0.0,0.0,0.0,0.0,0.0,0.0,0.0,1.0,1.0,0.0,2019-12-01,7-82-Bew-RU-AIG-J-d-2019-12.xlsx,7-82,flow,yearly
230,Mongolei,0.0,0.0,0.0,0.0,1.0,1.0,0.0,0.0,0.0,0.0,0.0,0.0,0.0,0.0,8.0,8.0,0.0,2019-12-01,7-82-Bew-RU-AIG-J-d-2019-12.xlsx,7-82,flow,yearly
231,Myanmar,0.0,0.0,0.0,0.0,0.0,0.0,0.0,0.0,0.0,0.0,0.0,0.0,0.0,0.0,0.0,0.0,0.0,2019-12-01,7-82-Bew-RU-AIG-J-d-2019-12.xlsx,7-82,flow,yearly
232,Nepal,1.0,1.0,0.0,0.0,0.0,0.0,0.0,0.0,0.0,0.0,0.0,0.0,0.0,0.0,0.0,0.0,0.0,2019-12-01,7-82-Bew-RU-AIG-J-d-2019-12.xlsx,7-82,flow,yearly
233,Pakistan,1.0,1.0,0.0,0.0,1.0,0.0,0.0,1.0,0.0,0.0,0.0,0.0,0.0,0.0,13.0,8.0,4.0,2019-12-01,7-82-Bew-RU-AIG-J-d-2019-12.xlsx,7-82,flow,yearly
234,Philippinen,0.0,0.0,0.0,0.0,0.0,0.0,0.0,0.0,0.0,0.0,2.0,2.0,0.0,0.0,10.0,10.0,0.0,2019-12-01,7-82-Bew-RU-AIG-J-d-2019-12.xlsx,7-82,flow,yearly
235,Saudi-Arabien,0.0,0.0,0.0,0.0,0.0,0.0,0.0,0.0,0.0,0.0,0.0,0.0,0.0,0.0,0.0,0.0,0.0,2019-12-01,7-82-Bew-RU-AIG-J-d-2019-12.xlsx,7-82,flow,yearly
236,Sri Lanka,11.0,8.0,6.0,0.0,5.0,0.0,0.0,3.0,0.0,0.0,0.0,0.0,0.0,0.0,25.0,13.0,10.0,2019-12-01,7-82-Bew-RU-AIG-J-d-2019-12.xlsx,7-82,flow,yearly
237,Syrien,3.0,1.0,0.0,0.0,0.0,0.0,0.0,0.0,0.0,0.0,0.0,0.0,0.0,0.0,7.0,6.0,1.0,2019-12-01,7-82-Bew-RU-AIG-J-d-2019-12.xlsx,7-82,flow,yearly
238,Tadschikistan,0.0,0.0,0.0,0.0,0.0,0.0,0.0,0.0,0.0,0.0,0.0,0.0,0.0,0.0,0.0,0.0,0.0,2019-12-01,7-82-Bew-RU-AIG-J-d-2019-12.xlsx,7-82,flow,yearly
239,Taiwan,0.0,0.0,0.0,0.0,0.0,0.0,0.0,0.0,0.0,0.0,0.0,0.0,0.0,0.0,0.0,0.0,0.0,2019-12-01,7-82-Bew-RU-AIG-J-d-2019-12.xlsx,7-82,flow,yearly
240,Thailand,1.0,1.0,0.0,0.0,1.0,0.0,0.0,1.0,0.0,0.0,1.0,1.0,0.0,0.0,10.0,9.0,1.0,2019-12-01,7-82-Bew-RU-AIG-J-d-2019-12.xlsx,7-82,flow,yearly
241,Usbekistan,0.0,0.0,0.0,0.0,0.0,0.0,0.0,0.0,0.0,0.0,0.0,0.0,0.0,0.0,2.0,2.0,0.0,2019-12-01,7-82-Bew-RU-AIG-J-d-2019-12.xlsx,7-82,flow,yearly
242,Vietnam,0.0,1.0,0.0,0.0,1.0,0.0,0.0,1.0,0.0,0.0,0.0,0.0,0.0,0.0,5.0,5.0,0.0,2019-12-01,7-82-Bew-RU-AIG-J-d-2019-12.xlsx,7-82,flow,yearly
243,Total Asien,57.0,34.0,23.0,2.0,40.0,17.0,0.0,20.0,0.0,1.0,8.0,4.0,4.0,0.0,293.0,236.0,54.0,2019-12-01,7-82-Bew-RU-AIG-J-d-2019-12.xlsx,7-82,flow,yearly
244,Albanien,20.0,10.0,0.0,0.0,14.0,0.0,0.0,14.0,0.0,0.0,0.0,0.0,0.0,0.0,634.0,584.0,51.0,2019-12-01,7-82-Bew-RU-AIG-J-d-2019-12.xlsx,7-82,flow,yearly
245,Belarus,2.0,1.0,0.0,0.0,3.0,1.0,0.0,2.0,0.0,0.0,0.0,0.0,0.0,0.0,12.0,8.0,4.0,2019-12-01,7-82-Bew-RU-AIG-J-d-2019-12.xlsx,7-82,flow,yearly
246,Belgien,0.0,0.0,0.0,0.0,1.0,0.0,0.0,0.0,0.0,0.0,0.0,0.0,0.0,0.0,5.0,4.0,1.0,2019-12-01,7-82-Bew-RU-AIG-J-d-2019-12.xlsx,7-82,flow,yearly
247,Bosnien u. Herzegowina,6.0,6.0,0.0,0.0,6.0,0.0,0.0,5.0,0.0,1.0,0.0,0.0,0.0,0.0,49.0,43.0,6.0,2019-12-01,7-82-Bew-RU-AIG-J-d-2019-12.xlsx,7-82,flow,yearly
248,Bulgarien,0.0,0.0,0.0,0.0,0.0,0.0,0.0,0.0,0.0,0.0,3.0,3.0,0.0,0.0,31.0,31.0,1.0,2019-12-01,7-82-Bew-RU-AIG-J-d-2019-12.xlsx,7-82,flow,yearly
249,Deutschland,0.0,0.0,0.0,0.0,0.0,0.0,0.0,0.0,0.0,0.0,0.0,0.0,0.0,0.0,8.0,7.0,1.0,2019-12-01,7-82-Bew-RU-AIG-J-d-2019-12.xlsx,7-82,flow,yearly
250,Estland,0.0,0.0,0.0,0.0,0.0,0.0,0.0,0.0,0.0,0.0,0.0,0.0,0.0,0.0,3.0,2.0,1.0,2019-12-01,7-82-Bew-RU-AIG-J-d-2019-12.xlsx,7-82,flow,yearly
251,Frankreich,1.0,0.0,1.0,0.0,0.0,0.0,0.0,0.0,0.0,0.0,0.0,0.0,0.0,0.0,8.0,8.0,0.0,2019-12-01,7-82-Bew-RU-AIG-J-d-2019-12.xlsx,7-82,flow,yearly
252,Griechenland,0.0,0.0,0.0,0.0,0.0,0.0,0.0,0.0,0.0,0.0,0.0,0.0,0.0,0.0,4.0,4.0,0.0,2019-12-01,7-82-Bew-RU-AIG-J-d-2019-12.xlsx,7-82,flow,yearly
253,Grossbritannien,0.0,0.0,0.0,0.0,0.0,0.0,0.0,0.0,0.0,0.0,0.0,0.0,0.0,0.0,8.0,7.0,2.0,2019-12-01,7-82-Bew-RU-AIG-J-d-2019-12.xlsx,7-82,flow,yearly
254,Italien,1.0,0.0,0.0,0.0,0.0,0.0,0.0,0.0,0.0,0.0,0.0,0.0,0.0,0.0,32.0,27.0,4.0,2019-12-01,7-82-Bew-RU-AIG-J-d-2019-12.xlsx,7-82,flow,yearly
255,Kosovo,55.0,55.0,0.0,0.0,66.0,2.0,0.0,63.0,0.0,0.0,1.0,1.0,0.0,0.0,280.0,247.0,43.0,2019-12-01,7-82-Bew-RU-AIG-J-d-2019-12.xlsx,7-82,flow,yearly
256,Kroatien,0.0,0.0,0.0,0.0,0.0,0.0,0.0,0.0,0.0,0.0,0.0,0.0,0.0,0.0,26.0,22.0,3.0,2019-12-01,7-82-Bew-RU-AIG-J-d-2019-12.xlsx,7-82,flow,yearly
257,Lettland,0.0,0.0,0.0,0.0,0.0,0.0,0.0,0.0,0.0,0.0,0.0,0.0,0.0,0.0,5.0,6.0,0.0,2019-12-01,7-82-Bew-RU-AIG-J-d-2019-12.xlsx,7-82,flow,yearly
258,Litauen,1.0,1.0,0.0,0.0,1.0,0.0,0.0,1.0,0.0,0.0,0.0,0.0,0.0,0.0,32.0,25.0,8.0,2019-12-01,7-82-Bew-RU-AIG-J-d-2019-12.xlsx,7-82,flow,yearly
259,Nordmazedonien,26.0,30.0,2.0,0.0,27.0,0.0,0.0,26.0,0.0,0.0,0.0,0.0,0.0,0.0,136.0,114.0,23.0,2019-12-01,7-82-Bew-RU-AIG-J-d-2019-12.xlsx,7-82,flow,yearly
260,Moldova,1.0,3.0,0.0,0.0,7.0,1.0,0.0,5.0,0.0,1.0,0.0,0.0,0.0,0.0,27.0,24.0,3.0,2019-12-01,7-82-Bew-RU-AIG-J-d-2019-12.xlsx,7-82,flow,yearly
261,Montenegro,1.0,1.0,1.0,0.0,1.0,0.0,0.0,1.0,0.0,0.0,0.0,0.0,0.0,0.0,13.0,13.0,0.0,2019-12-01,7-82-Bew-RU-AIG-J-d-2019-12.xlsx,7-82,flow,yearly
262,Niederlande,0.0,0.0,0.0,0.0,0.0,0.0,0.0,0.0,0.0,0.0,0.0,0.0,0.0,0.0,19.0,15.0,4.0,2019-12-01,7-82-Bew-RU-AIG-J-d-2019-12.xlsx,7-82,flow,yearly
263,Österreich,0.0,0.0,0.0,0.0,0.0,0.0,0.0,0.0,0.0,0.0,0.0,0.0,0.0,0.0,4.0,3.0,1.0,2019-12-01,7-82-Bew-RU-AIG-J-d-2019-12.xlsx,7-82,flow,yearly
264,Polen,0.0,0.0,0.0,0.0,0.0,0.0,0.0,0.0,0.0,0.0,0.0,0.0,0.0,0.0,48.0,39.0,8.0,2019-12-01,7-82-Bew-RU-AIG-J-d-2019-12.xlsx,7-82,flow,yearly
265,Portugal,0.0,0.0,0.0,0.0,0.0,0.0,0.0,0.0,0.0,0.0,0.0,0.0,0.0,0.0,111.0,94.0,24.0,2019-12-01,7-82-Bew-RU-AIG-J-d-2019-12.xlsx,7-82,flow,yearly
266,Rumänien,0.0,0.0,0.0,0.0,0.0,0.0,0.0,0.0,0.0,0.0,8.0,8.0,0.0,0.0,369.0,307.0,61.0,2019-12-01,7-82-Bew-RU-AIG-J-d-2019-12.xlsx,7-82,flow,yearly
267,Russland,1.0,1.0,0.0,0.0,1.0,0.0,0.0,1.0,0.0,0.0,0.0,0.0,0.0,0.0,20.0,16.0,3.0,2019-12-01,7-82-Bew-RU-AIG-J-d-2019-12.xlsx,7-82,flow,yearly
268,Schweden,0.0,0.0,0.0,0.0,0.0,0.0,0.0,0.0,0.0,0.0,0.0,0.0,0.0,0.0,1.0,1.0,0.0,2019-12-01,7-82-Bew-RU-AIG-J-d-2019-12.xlsx,7-82,flow,yearly
269,Serbien,35.0,32.0,0.0,0.0,35.0,2.0,1.0,30.0,0.0,2.0,1.0,1.0,0.0,0.0,313.0,275.0,20.0,2019-12-01,7-82-Bew-RU-AIG-J-d-2019-12.xlsx,7-82,flow,yearly
270,Slowakische Republik,0.0,0.0,0.0,0.0,2.0,2.0,0.0,0.0,0.0,0.0,0.0,0.0,0.0,0.0,9.0,9.0,0.0,2019-12-01,7-82-Bew-RU-AIG-J-d-2019-12.xlsx,7-82,flow,yearly
271,Slowenien,0.0,0.0,0.0,0.0,0.0,0.0,0.0,0.0,0.0,0.0,0.0,0.0,0.0,0.0,3.0,3.0,0.0,2019-12-01,7-82-Bew-RU-AIG-J-d-2019-12.xlsx,7-82,flow,yearly
272,Spanien,0.0,0.0,0.0,0.0,0.0,0.0,0.0,0.0,0.0,0.0,1.0,1.0,0.0,0.0,68.0,61.0,6.0,2019-12-01,7-82-Bew-RU-AIG-J-d-2019-12.xlsx,7-82,flow,yearly
273,Tschechische Republik,0.0,0.0,0.0,0.0,0.0,0.0,0.0,0.0,0.0,0.0,0.0,0.0,0.0,0.0,7.0,5.0,2.0,2019-12-01,7-82-Bew-RU-AIG-J-d-2019-12.xlsx,7-82,flow,yearly
274,Tschechoslowakei,0.0,0.0,0.0,0.0,0.0,0.0,0.0,0.0,0.0,0.0,0.0,0.0,0.0,0.0,1.0,1.0,0.0,2019-12-01,7-82-Bew-RU-AIG-J-d-2019-12.xlsx,7-82,flow,yearly
275,Türkei,12.0,4.0,2.0,1.0,5.0,0.0,0.0,4.0,0.0,0.0,0.0,0.0,0.0,0.0,56.0,44.0,13.0,2019-12-01,7-82-Bew-RU-AIG-J-d-2019-12.xlsx,7-82,flow,yearly
276,Ukraine,2.0,3.0,0.0,0.0,3.0,0.0,0.0,3.0,0.0,0.0,0.0,0.0,0.0,0.0,23.0,19.0,4.0,2019-12-01,7-82-Bew-RU-AIG-J-d-2019-12.xlsx,7-82,flow,yearly
277,Ungarn,0.0,0.0,0.0,0.0,0.0,0.0,0.0,0.0,0.0,0.0,5.0,5.0,0.0,0.0,25.0,21.0,4.0,2019-12-01,7-82-Bew-RU-AIG-J-d-2019-12.xlsx,7-82,flow,yearly
278,Total Europa,164.0,147.0,6.0,1.0,172.0,8.0,1.0,155.0,0.0,4.0,19.0,19.0,0.0,0.0,2390.0,2089.0,301.0,2019-12-01,7-82-Bew-RU-AIG-J-d-2019-12.xlsx,7-82,flow,yearly
279,Australien,0.0,0.0,0.0,0.0,0.0,0.0,0.0,0.0,0.0,0.0,0.0,0.0,0.0,0.0,3.0,1.0,2.0,2019-12-01,7-82-Bew-RU-AIG-J-d-2019-12.xlsx,7-82,flow,yearly
280,Neuseeland,0.0,0.0,0.0,0.0,0.0,0.0,0.0,0.0,0.0,0.0,0.0,0.0,0.0,0.0,0.0,0.0,0.0,2019-12-01,7-82-Bew-RU-AIG-J-d-2019-12.xlsx,7-82,flow,yearly
281,Total Ozeanien,0.0,0.0,0.0,0.0,0.0,0.0,0.0,0.0,0.0,0.0,0.0,0.0,0.0,0.0,3.0,1.0,2.0,2019-12-01,7-82-Bew-RU-AIG-J-d-2019-12.xlsx,7-82,flow,yearly
282,Staatenlos,0.0,0.0,0.0,0.0,0.0,0.0,0.0,0.0,0.0,0.0,0.0,0.0,0.0,0.0,2.0,0.0,1.0,2019-12-01,7-82-Bew-RU-AIG-J-d-2019-12.xlsx,7-82,flow,yearly
283,Ohne Nationalität,4.0,0.0,6.0,0.0,0.0,0.0,0.0,0.0,0.0,0.0,0.0,0.0,0.0,0.0,5.0,4.0,1.0,2019-12-01,7-82-Bew-RU-AIG-J-d-2019-12.xlsx,7-82,flow,yearly
284,Staat unbekannt,8.0,0.0,5.0,0.0,0.0,0.0,0.0,0.0,0.0,0.0,0.0,0.0,0.0,0.0,20.0,19.0,2.0,2019-12-01,7-82-Bew-RU-AIG-J-d-2019-12.xlsx,7-82,flow,yearly
285,Total Herkunft unbek.,12.0,0.0,11.0,0.0,0.0,0.0,0.0,0.0,0.0,0.0,0.0,0.0,0.0,0.0,27.0,23.0,4.0,2019-12-01,7-82-Bew-RU-AIG-J-d-2019-12.xlsx,7-82,flow,yearly
