,index,Äquatorialguinea,nation,0.1,0.2,0.3,0.4,0.5,0.6,0.7,0.8,0.9,0.10,0.11,0.12,0.13,1,1.1,0.14,Unnamed: 18,Unnamed: 19,Unnamed: 20,Unnamed: 21,datum,2,3,4,5,6,7,8,9,10,11,12,13,14,15,16,17,18,19,20,21
0,1,,Ägypten,,,,,,,,,,,,,,0.0,,,,,,,2019-12-01,1.0,1.0,0.0,1.0,0.0,0.0,1.0,0.0,0.0,0.0,0.0,0.0,0.0,5.0,4.0,1.0,,,,
1,2,,Algerien,,,,,,,,,,,,,,83.0,,,,,,,2019-12-01,43.0,27.0,2.0,62.0,0.0,0.0,43.0,4.0,7.0,0.0,0.0,0.0,0.0,151.0,82.0,71.0,,,,
2,3,,Angola,,,,,,,,,,,,,,2.0,,,,,,,2019-12-01,2.0,0.0,0.0,1.0,0.0,0.0,1.0,0.0,0.0,0.0,0.0,0.0,0.0,3.0,3.0,2.0,,,,
3,4,,Äquatorialguinea,,,,,,,,,,,,,,0.0,,,,,,,2019-12-01,0.0,1.0,0.0,0.0,0.0,0.0,0.0,0.0,0.0,0.0,0.0,0.0,0.0,1.0,0.0,1.0,,,,
4,5,,Äthiopien,,,,,,,,,,,,,,0.0,,,,,,,2019-12-01,0.0,0.0,0.0,0.0,0.0,0.0,0.0,0.0,0.0,0.0,0.0,0.0,0.0,15.0,7.0,8.0,,,,
5,6,,Benin,,,,,,,,,,,,,,2.0,,,,,,,2019-12-01,1.0,0.0,0.0,1.0,0.0,0.0,1.0,0.0,0.0,0.0,0.0,0.0,0.0,3.0,0.0,2.0,,,,
6,7,,Burkina Faso,,,,,,,,,,,,,,0.0,,,,,,,2019-12-01,0.0,0.0,0.0,0.0,0.0,0.0,0.0,0.0,0.0,0.0,0.0,0.0,0.0,2.0,1.0,0.0,,,,
7,8,,Burundi,,,,,,,,,,,,,,1.0,,,,,,,2019-12-01,0.0,0.0,0.0,0.0,0.0,0.0,0.0,0.0,0.0,0.0,0.0,0.0,0.0,0.0,0.0,0.0,,,,
8,9,,Côte d'Ivoire,,,,,,,,,,,,,,2.0,,,,,,,2019-12-01,0.0,3.0,0.0,0.0,0.0,0.0,0.0,0.0,0.0,0.0,0.0,0.0,0.0,7.0,6.0,1.0,,,,
9,10,,Dschibuti,,,,,,,,,,,,,,1.0,,,,,,,2019-12-01,0.0,0.0,0.0,0.0,0.0,0.0,0.0,0.0,0.0,0.0,0.0,0.0,0.0,0.0,0.0,0.0,,,,
10,11,,Eritrea,,,,,,,,,,,,,,1.0,,,,,,,2019-12-01,0.0,0.0,0.0,2.0,1.0,0.0,0.0,0.0,0.0,0.0,0.0,0.0,0.0,5.0,4.0,0.0,,,,
11,12,,Gabun,,,,,,,,,,,,,,1.0,,,,,,,2019-12-01,0.0,0.0,0.0,0.0,0.0,0.0,0.0,0.0,0.0,0.0,0.0,0.0,0.0,4.0,1.0,1.0,,,,
12,13,,Gambia,,,,,,,,,,,,,,4.0,,,,,,,2019-12-01,3.0,2.0,0.0,4.0,0.0,0.0,3.0,1.0,0.0,0.0,0.0,0.0,0.0,91.0,72.0,16.0,,,,
13,14,,Ghana,,,,,,,,,,,,,,1.0,,,,,,,2019-12-01,0.0,0.0,0.0,1.0,1.0,0.0,0.0,0.0,0.0,0.0,0.0,0.0,0.0,9.0,8.0,1.0,,,,
14,15,,Guinea,,,,,,,,,,,,,,16.0,,,,,,,2019-12-01,11.0,9.0,0.0,13.0,0.0,0.0,10.0,0.0,0.0,0.0,0.0,0.0,0.0,99.0,73.0,20.0,,,,
15,16,,Guinea-Bissau,,,,,,,,,,,,,,2.0,,,,,,,2019-12-01,2.0,0.0,0.0,1.0,0.0,1.0,0.0,0.0,0.0,0.0,0.0,0.0,0.0,25.0,18.0,5.0,,,,
16,17,,Kamerun,,,,,,,,,,,,,,5.0,,,,,,,2019-12-01,8.0,2.0,0.0,13.0,0.0,0.0,13.0,0.0,0.0,0.0,0.0,0.0,0.0,17.0,10.0,7.0,,,,
17,18,,Kapverden,,,,,,,,,,,,,,2.0,,,,,,,2019-12-01,3.0,0.0,0.0,3.0,0.0,2.0,1.0,0.0,0.0,0.0,0.0,0.0,0.0,2.0,1.0,2.0,,,,
18,19,,Kenia,,,,,,,,,,,,,,0.0,,,,,,,2019-12-01,1.0,1.0,0.0,1.0,0.0,0.0,0.0,0.0,0.0,0.0,0.0,0.0,0.0,4.0,2.0,2.0,,,,
19,20,,Kongo,,,,,,,,,,,,,,0.0,,,,,,,2019-12-01,0.0,0.0,0.0,0.0,0.0,0.0,0.0,0.0,0.0,0.0,0.0,0.0,0.0,0.0,0.0,0.0,,,,
20,21,,Kongo DR,,,,,,,,,,,,,,3.0,,,,,,,2019-12-01,1.0,4.0,1.0,1.0,0.0,0.0,1.0,0.0,0.0,0.0,0.0,0.0,0.0,2.0,1.0,1.0,,,,
21,22,,Liberia,,,,,,,,,,,,,,0.0,,,,,,,2019-12-01,0.0,1.0,0.0,1.0,0.0,0.0,0.0,0.0,0.0,0.0,0.0,0.0,0.0,0.0,0.0,0.0,,,,
22,23,,Libyen,,,,,,,,,,,,,,7.0,,,,,,,2019-12-01,2.0,3.0,0.0,1.0,0.0,0.0,1.0,0.0,2.0,0.0,0.0,0.0,0.0,12.0,9.0,2.0,,,,
23,24,,Malawi,,,,,,,,,,,,,,0.0,,,,,,,2019-12-01,0.0,0.0,0.0,0.0,0.0,0.0,0.0,0.0,0.0,0.0,0.0,0.0,0.0,0.0,0.0,0.0,,,,
24,25,,Mali,,,,,,,,,,,,,,0.0,,,,,,,2019-12-01,0.0,0.0,0.0,0.0,0.0,0.0,0.0,0.0,0.0,0.0,0.0,0.0,0.0,20.0,19.0,2.0,,,,
25,26,,Marokko,,,,,,,,,,,,,,37.0,,,,,,,2019-12-01,14.0,22.0,1.0,11.0,1.0,0.0,8.0,1.0,1.0,0.0,0.0,0.0,0.0,71.0,53.0,20.0,,,,
26,27,,Mauretanien,,,,,,,,,,,,,,0.0,,,,,,,2019-12-01,0.0,0.0,0.0,0.0,0.0,0.0,0.0,0.0,0.0,0.0,0.0,0.0,0.0,3.0,3.0,0.0,,,,
27,28,,Mauritius,,,,,,,,,,,,,,2.0,,,,,,,2019-12-01,2.0,1.0,0.0,2.0,1.0,0.0,1.0,0.0,0.0,0.0,0.0,0.0,0.0,3.0,4.0,0.0,,,,
28,29,,Niger,,,,,,,,,,,,,,0.0,,,,,,,2019-12-01,0.0,0.0,0.0,0.0,0.0,0.0,0.0,0.0,0.0,0.0,0.0,0.0,0.0,1.0,1.0,0.0,,,,
29,30,,Nigeria,,,,,,,,,,,,,,34.0,,,,,,,2019-12-01,33.0,6.0,0.0,36.0,3.0,0.0,26.0,0.0,0.0,0.0,0.0,0.0,0.0,255.0,226.0,38.0,,,,
30,31,,Ruanda,,,,,,,,,,,,,,0.0,,,,,,,2019-12-01,0.0,0.0,0.0,0.0,0.0,0.0,0.0,0.0,0.0,0.0,0.0,0.0,0.0,0.0,0.0,0.0,,,,
31,32,,Sambia,,,,,,,,,,,,,,0.0,,,,,,,2019-12-01,0.0,0.0,0.0,0.0,0.0,0.0,0.0,0.0,0.0,0.0,0.0,0.0,0.0,0.0,0.0,0.0,,,,
32,33,,Senegal,,,,,,,,,,,,,,9.0,,,,,,,2019-12-01,9.0,1.0,0.0,6.0,0.0,0.0,6.0,0.0,0.0,0.0,0.0,0.0,0.0,33.0,24.0,9.0,,,,
33,34,,Sierra Leone,,,,,,,,,,,,,,3.0,,,,,,,2019-12-01,0.0,1.0,0.0,1.0,0.0,0.0,0.0,0.0,0.0,0.0,0.0,0.0,0.0,2.0,2.0,0.0,,,,
34,35,,Somalia,,,,,,,,,,,,,,4.0,,,,,,,2019-12-01,0.0,3.0,0.0,0.0,0.0,0.0,0.0,0.0,0.0,0.0,0.0,0.0,0.0,16.0,13.0,4.0,,,,
35,36,,Südafrika,,,,,,,,,,,,,,0.0,,,,,,,2019-12-01,0.0,0.0,0.0,0.0,0.0,0.0,0.0,0.0,0.0,0.0,0.0,0.0,0.0,4.0,4.0,0.0,,,,
36,37,,Sudan,,,,,,,,,,,,,,2.0,,,,,,,2019-12-01,3.0,1.0,0.0,3.0,0.0,0.0,2.0,0.0,0.0,0.0,0.0,0.0,0.0,7.0,6.0,2.0,,,,
37,38,,Südsudan,,,,,,,,,,,,,,1.0,,,,,,,2019-12-01,1.0,0.0,0.0,0.0,0.0,0.0,0.0,0.0,0.0,0.0,0.0,0.0,0.0,0.0,0.0,1.0,,,,
38,39,,Tansania,,,,,,,,,,,,,,0.0,,,,,,,2019-12-01,0.0,0.0,0.0,0.0,0.0,0.0,1.0,0.0,0.0,4.0,0.0,0.0,0.0,2.0,2.0,0.0,,,,
39,40,,Togo,,,,,,,,,,,,,,0.0,,,,,,,2019-12-01,0.0,0.0,0.0,0.0,0.0,0.0,0.0,0.0,0.0,0.0,0.0,0.0,0.0,1.0,1.0,0.0,,,,
40,41,,Tschad,,,,,,,,,,,,,,1.0,,,,,,,2019-12-01,0.0,1.0,0.0,0.0,0.0,0.0,0.0,0.0,0.0,0.0,0.0,0.0,0.0,1.0,0.0,0.0,,,,
41,42,,Tunesien,,,,,,,,,,,,,,31.0,,,,,,,2019-12-01,33.0,8.0,0.0,25.0,1.0,0.0,21.0,0.0,0.0,0.0,0.0,0.0,0.0,78.0,40.0,34.0,,,,
42,43,,Uganda,,,,,,,,,,,,,,1.0,,,,,,,2019-12-01,0.0,0.0,0.0,0.0,0.0,0.0,0.0,0.0,0.0,0.0,0.0,0.0,0.0,0.0,0.0,0.0,,,,
43,44,,Westsahara,,,,,,,,,,,,,,1.0,,,,,,,2019-12-01,0.0,0.0,0.0,0.0,0.0,0.0,0.0,0.0,0.0,0.0,0.0,0.0,0.0,0.0,0.0,0.0,,,,
44,45,,Zentralafr. Republik,,,,,,,,,,,,,,0.0,,,,,,,2019-12-01,0.0,0.0,0.0,0.0,0.0,0.0,0.0,0.0,0.0,0.0,0.0,0.0,0.0,0.0,0.0,0.0,,,,
45,46,,Zimbabwe,,,,,,,,,,,,,,1.0,,,,,,,2019-12-01,0.0,0.0,0.0,0.0,0.0,0.0,0.0,0.0,0.0,0.0,0.0,0.0,0.0,1.0,0.0,0.0,,,,
46,49,,Argentinien,,,,,,,,,,,,,,0.0,,,,,,,2019-12-01,0.0,0.0,0.0,0.0,0.0,0.0,0.0,0.0,0.0,1.0,1.0,0.0,0.0,8.0,6.0,2.0,,,,
47,50,,Bolivien,,,,,,,,,,,,,,0.0,,,,,,,2019-12-01,0.0,0.0,0.0,0.0,0.0,0.0,0.0,0.0,0.0,0.0,0.0,0.0,0.0,8.0,5.0,2.0,,,,
48,51,,Brasilien,,,,,,,,,,,,,,8.0,,,,,,,2019-12-01,3.0,2.0,0.0,3.0,1.0,0.0,1.0,0.0,0.0,3.0,3.0,0.0,0.0,110.0,95.0,17.0,,,,
49,52,,Chile,,,,,,,,,,,,,,1.0,,,,,,,2019-12-01,1.0,0.0,0.0,0.0,0.0,0.0,0.0,0.0,0.0,0.0,0.0,0.0,0.0,14.0,13.0,0.0,,,,
50,53,,Costa Rica,,,,,,,,,,,,,,0.0,,,,,,,2019-12-01,0.0,0.0,0.0,0.0,0.0,0.0,0.0,0.0,0.0,0.0,0.0,0.0,0.0,1.0,1.0,0.0,,,,
51,54,,Dominikanische Republik,,,,,,,,,,,,,,5.0,,,,,,,2019-12-01,4.0,2.0,0.0,6.0,0.0,0.0,6.0,0.0,0.0,1.0,1.0,0.0,0.0,48.0,39.0,11.0,,,,
52,55,,Ecuador,,,,,,,,,,,,,,0.0,,,,,,,2019-12-01,0.0,0.0,0.0,0.0,0.0,0.0,0.0,0.0,0.0,1.0,1.0,0.0,0.0,4.0,4.0,0.0,,,,
53,56,,El Salvador,,,,,,,,,,,,,,0.0,,,,,,,2019-12-01,0.0,0.0,0.0,0.0,0.0,0.0,0.0,0.0,0.0,0.0,0.0,0.0,0.0,1.0,1.0,0.0,,,,
54,57,,Guatemala,,,,,,,,,,,,,,0.0,,,,,,,2019-12-01,0.0,0.0,0.0,0.0,0.0,0.0,0.0,0.0,0.0,0.0,0.0,0.0,0.0,0.0,0.0,0.0,,,,
55,58,,Haiti,,,,,,,,,,,,,,0.0,,,,,,,2019-12-01,0.0,0.0,0.0,0.0,0.0,0.0,0.0,0.0,0.0,0.0,0.0,0.0,0.0,3.0,2.0,1.0,,,,
56,59,,Honduras,,,,,,,,,,,,,,0.0,,,,,,,2019-12-01,0.0,0.0,0.0,0.0,0.0,0.0,0.0,0.0,0.0,0.0,0.0,0.0,0.0,7.0,3.0,3.0,,,,
57,60,,Jamaika,,,,,,,,,,,,,,3.0,,,,,,,2019-12-01,0.0,2.0,0.0,0.0,0.0,0.0,0.0,0.0,0.0,0.0,0.0,0.0,0.0,3.0,0.0,1.0,,,,
58,61,,Kanada,,,,,,,,,,,,,,0.0,,,,,,,2019-12-01,0.0,0.0,0.0,0.0,0.0,0.0,0.0,0.0,0.0,0.0,0.0,0.0,0.0,1.0,1.0,0.0,,,,
59,62,,Kolumbien,,,,,,,,,,,,,,3.0,,,,,,,2019-12-01,3.0,0.0,0.0,4.0,0.0,0.0,4.0,0.0,0.0,0.0,0.0,0.0,0.0,53.0,42.0,12.0,,,,
60,63,,Kuba,,,,,,,,,,,,,,3.0,,,,,,,2019-12-01,2.0,2.0,0.0,1.0,1.0,0.0,0.0,0.0,0.0,0.0,0.0,0.0,0.0,2.0,3.0,0.0,,,,
61,64,,Mexiko,,,,,,,,,,,,,,1.0,,,,,,,2019-12-01,0.0,0.0,0.0,0.0,0.0,0.0,0.0,0.0,0.0,0.0,0.0,0.0,0.0,8.0,7.0,1.0,,,,
62,65,,Nicaragua,,,,,,,,,,,,,,0.0,,,,,,,2019-12-01,0.0,0.0,0.0,0.0,0.0,0.0,0.0,0.0,0.0,0.0,0.0,0.0,0.0,3.0,2.0,1.0,,,,
63,66,,Paraguay,,,,,,,,,,,,,,0.0,,,,,,,2019-12-01,0.0,0.0,0.0,0.0,0.0,0.0,0.0,0.0,0.0,0.0,0.0,0.0,0.0,7.0,7.0,0.0,,,,
64,67,,Peru,,,,,,,,,,,,,,0.0,,,,,,,2019-12-01,1.0,0.0,0.0,1.0,0.0,0.0,1.0,0.0,0.0,2.0,2.0,0.0,0.0,19.0,16.0,2.0,,,,
65,68,,Uruguay,,,,,,,,,,,,,,1.0,,,,,,,2019-12-01,1.0,0.0,0.0,1.0,0.0,0.0,0.0,0.0,1.0,0.0,0.0,0.0,0.0,3.0,2.0,0.0,,,,
66,69,,USA,,,,,,,,,,,,,,1.0,,,,,,,2019-12-01,1.0,0.0,0.0,1.0,0.0,0.0,1.0,0.0,0.0,0.0,0.0,0.0,0.0,12.0,8.0,4.0,,,,
67,70,,Venezuela,,,,,,,,,,,,,,1.0,,,,,,,2019-12-01,1.0,0.0,0.0,1.0,0.0,0.0,1.0,0.0,0.0,0.0,0.0,0.0,0.0,10.0,4.0,4.0,,,,
68,73,,Afghanistan,,,,,,,,,,,,,,0.0,,,,,,,2019-12-01,1.0,0.0,0.0,0.0,0.0,0.0,0.0,0.0,1.0,0.0,0.0,0.0,0.0,15.0,13.0,4.0,,,,
69,74,,Armenien,,,,,,,,,,,,,,0.0,,,,,,,2019-12-01,0.0,0.0,0.0,0.0,0.0,0.0,0.0,0.0,0.0,0.0,0.0,0.0,0.0,3.0,3.0,0.0,,,,
70,75,,Aserbaidschan,,,,,,,,,,,,,,0.0,,,,,,,2019-12-01,0.0,0.0,0.0,0.0,0.0,0.0,0.0,0.0,0.0,0.0,0.0,0.0,0.0,1.0,0.0,1.0,,,,
71,76,,Bangladesh,,,,,,,,,,,,,,0.0,,,,,,,2019-12-01,0.0,0.0,0.0,1.0,1.0,0.0,0.0,0.0,0.0,0.0,0.0,0.0,0.0,6.0,3.0,3.0,,,,
72,77,,Bhutan,,,,,,,,,,,,,,0.0,,,,,,,2019-12-01,0.0,0.0,0.0,0.0,0.0,0.0,0.0,0.0,0.0,0.0,0.0,0.0,0.0,0.0,0.0,0.0,,,,
73,78,,China (Volksrepublik),,,,,,,,,,,,,,4.0,,,,,,,2019-12-01,0.0,2.0,0.0,0.0,0.0,0.0,0.0,0.0,0.0,0.0,0.0,0.0,0.0,16.0,10.0,3.0,,,,
74,79,,Georgien,,,,,,,,,,,,,,11.0,,,,,,,2019-12-01,13.0,0.0,0.0,20.0,10.0,0.0,10.0,0.0,0.0,0.0,0.0,0.0,0.0,103.0,89.0,17.0,,,,
75,80,,Indien,,,,,,,,,,,,,,1.0,,,,,,,2019-12-01,1.0,0.0,0.0,2.0,0.0,0.0,1.0,0.0,0.0,0.0,0.0,0.0,0.0,10.0,10.0,1.0,,,,
76,81,,Irak,,,,,,,,,,,,,,18.0,,,,,,,2019-12-01,3.0,12.0,1.0,5.0,5.0,0.0,0.0,0.0,0.0,5.0,1.0,4.0,0.0,20.0,16.0,2.0,,,,
77,82,,Iran,,,,,,,,,,,,,,1.0,,,,,,,2019-12-01,0.0,0.0,0.0,0.0,0.0,0.0,0.0,0.0,0.0,0.0,0.0,0.0,0.0,12.0,8.0,3.0,,,,
78,83,,Israel,,,,,,,,,,,,,,2.0,,,,,,,2019-12-01,1.0,0.0,0.0,1.0,0.0,0.0,1.0,0.0,0.0,0.0,0.0,0.0,0.0,7.0,7.0,0.0,,,,
79,84,,Japan,,,,,,,,,,,,,,0.0,,,,,,,2019-12-01,0.0,0.0,0.0,0.0,0.0,0.0,0.0,0.0,0.0,0.0,0.0,0.0,0.0,0.0,0.0,0.0,,,,
80,85,,Jemen,,,,,,,,,,,,,,0.0,,,,,,,2019-12-01,0.0,0.0,0.0,0.0,0.0,0.0,0.0,0.0,0.0,0.0,0.0,0.0,0.0,0.0,0.0,0.0,,,,
81,86,,Jordanien,,,,,,,,,,,,,,1.0,,,,,,,2019-12-01,1.0,1.0,0.0,1.0,0.0,0.0,1.0,0.0,0.0,0.0,0.0,0.0,0.0,5.0,4.0,1.0,,,,
82,87,,Kambodscha,,,,,,,,,,,,,,1.0,,,,,,,2019-12-01,0.0,0.0,1.0,0.0,0.0,0.0,0.0,0.0,0.0,0.0,0.0,0.0,0.0,0.0,0.0,0.0,,,,
83,88,,Kasachstan,,,,,,,,,,,,,,0.0,,,,,,,2019-12-01,0.0,0.0,0.0,0.0,0.0,0.0,0.0,0.0,0.0,0.0,0.0,0.0,0.0,2.0,2.0,0.0,,,,
84,89,,Kirgisistan,,,,,,,,,,,,,,0.0,,,,,,,2019-12-01,0.0,0.0,0.0,0.0,0.0,0.0,0.0,0.0,0.0,0.0,0.0,0.0,0.0,0.0,0.0,0.0,,,,
85,90,,Korea (Süd),,,,,,,,,,,,,,0.0,,,,,,,2019-12-01,0.0,0.0,0.0,0.0,0.0,0.0,0.0,0.0,0.0,0.0,0.0,0.0,0.0,2.0,2.0,0.0,,,,
86,91,,Libanon,,,,,,,,,,,,,,1.0,,,,,,,2019-12-01,1.0,2.0,0.0,1.0,0.0,0.0,1.0,0.0,0.0,0.0,0.0,0.0,0.0,10.0,7.0,3.0,,,,
87,92,,Malaysia,,,,,,,,,,,,,,0.0,,,,,,,2019-12-01,0.0,0.0,0.0,0.0,0.0,0.0,0.0,0.0,0.0,0.0,0.0,0.0,0.0,1.0,1.0,0.0,,,,
88,93,,Mongolei,,,,,,,,,,,,,,0.0,,,,,,,2019-12-01,0.0,0.0,0.0,1.0,1.0,0.0,0.0,0.0,0.0,0.0,0.0,0.0,0.0,8.0,8.0,0.0,,,,
89,94,,Myanmar,,,,,,,,,,,,,,0.0,,,,,,,2019-12-01,0.0,0.0,0.0,0.0,0.0,0.0,0.0,0.0,0.0,0.0,0.0,0.0,0.0,0.0,0.0,0.0,,,,
90,95,,Nepal,,,,,,,,,,,,,,1.0,,,,,,,2019-12-01,1.0,0.0,0.0,0.0,0.0,0.0,0.0,0.0,0.0,0.0,0.0,0.0,0.0,0.0,0.0,0.0,,,,
91,96,,Pakistan,,,,,,,,,,,,,,1.0,,,,,,,2019-12-01,1.0,0.0,0.0,1.0,0.0,0.0,1.0,0.0,0.0,0.0,0.0,0.0,0.0,13.0,8.0,4.0,,,,
92,97,,Philippinen,,,,,,,,,,,,,,0.0,,,,,,,2019-12-01,0.0,0.0,0.0,0.0,0.0,0.0,0.0,0.0,0.0,2.0,2.0,0.0,0.0,10.0,10.0,0.0,,,,
93,98,,Saudi-Arabien,,,,,,,,,,,,,,0.0,,,,,,,2019-12-01,0.0,0.0,0.0,0.0,0.0,0.0,0.0,0.0,0.0,0.0,0.0,0.0,0.0,0.0,0.0,0.0,,,,
94,99,,Sri Lanka,,,,,,,,,,,,,,11.0,,,,,,,2019-12-01,8.0,6.0,0.0,5.0,0.0,0.0,3.0,0.0,0.0,0.0,0.0,0.0,0.0,25.0,13.0,10.0,,,,
95,100,,Syrien,,,,,,,,,,,,,,3.0,,,,,,,2019-12-01,1.0,0.0,0.0,0.0,0.0,0.0,0.0,0.0,0.0,0.0,0.0,0.0,0.0,7.0,6.0,1.0,,,,
96,101,,Tadschikistan,,,,,,,,,,,,,,0.0,,,,,,,2019-12-01,0.0,0.0,0.0,0.0,0.0,0.0,0.0,0.0,0.0,0.0,0.0,0.0,0.0,0.0,0.0,0.0,,,,
97,102,,Taiwan,,,,,,,,,,,,,,0.0,,,,,,,2019-12-01,0.0,0.0,0.0,0.0,0.0,0.0,0.0,0.0,0.0,0.0,0.0,0.0,0.0,0.0,0.0,0.0,,,,
98,103,,Thailand,,,,,,,,,,,,,,1.0,,,,,,,2019-12-01,1.0,0.0,0.0,1.0,0.0,0.0,1.0,0.0,0.0,1.0,1.0,0.0,0.0,10.0,9.0,1.0,,,,
99,104,,Usbekistan,,,,,,,,,,,,,,0.0,,,,,,,2019-12-01,0.0,0.0,0.0,0.0,0.0,0.0,0.0,0.0,0.0,0.0,0.0,0.0,0.0,2.0,2.0,0.0,,,,
100,105,,Vietnam,,,,,,,,,,,,,,0.0,,,,,,,2019-12-01,1.0,0.0,0.0,1.0,0.0,0.0,1.0,0.0,0.0,0.0,0.0,0.0,0.0,5.0,5.0,0.0,,,,
101,108,,Albanien,,,,,,,,,,,,,,20.0,,,,,,,2019-12-01,10.0,0.0,0.0,14.0,0.0,0.0,14.0,0.0,0.0,0.0,0.0,0.0,0.0,634.0,584.0,51.0,,,,
102,109,,Belarus,,,,,,,,,,,,,,2.0,,,,,,,2019-12-01,1.0,0.0,0.0,3.0,1.0,0.0,2.0,0.0,0.0,0.0,0.0,0.0,0.0,12.0,8.0,4.0,,,,
103,110,,Belgien,,,,,,,,,,,,,,0.0,,,,,,,2019-12-01,0.0,0.0,0.0,1.0,0.0,0.0,0.0,0.0,0.0,0.0,0.0,0.0,0.0,5.0,4.0,1.0,,,,
104,111,,Bosnien u. Herzegowina,,,,,,,,,,,,,,6.0,,,,,,,2019-12-01,6.0,0.0,0.0,6.0,0.0,0.0,5.0,0.0,1.0,0.0,0.0,0.0,0.0,49.0,43.0,6.0,,,,
105,112,,Bulgarien,,,,,,,,,,,,,,0.0,,,,,,,2019-12-01,0.0,0.0,0.0,0.0,0.0,0.0,0.0,0.0,0.0,3.0,3.0,0.0,0.0,31.0,31.0,1.0,,,,
106,113,,Deutschland,,,,,,,,,,,,,,0.0,,,,,,,2019-12-01,0.0,0.0,0.0,0.0,0.0,0.0,0.0,0.0,0.0,0.0,0.0,0.0,0.0,8.0,7.0,1.0,,,,
107,114,,Estland,,,,,,,,,,,,,,0.0,,,,,,,2019-12-01,0.0,0.0,0.0,0.0,0.0,0.0,0.0,0.0,0.0,0.0,0.0,0.0,0.0,3.0,2.0,1.0,,,,
108,115,,Frankreich,,,,,,,,,,,,,,1.0,,,,,,,2019-12-01,0.0,1.0,0.0,0.0,0.0,0.0,0.0,0.0,0.0,0.0,0.0,0.0,0.0,8.0,8.0,0.0,,,,
109,116,,Griechenland,,,,,,,,,,,,,,0.0,,,,,,,2019-12-01,0.0,0.0,0.0,0.0,0.0,0.0,0.0,0.0,0.0,0.0,0.0,0.0,0.0,4.0,4.0,0.0,,,,
110,117,,Grossbritannien,,,,,,,,,,,,,,0.0,,,,,,,2019-12-01,0.0,0.0,0.0,0.0,0.0,0.0,0.0,0.0,0.0,0.0,0.0,0.0,0.0,8.0,7.0,2.0,,,,
111,118,,Italien,,,,,,,,,,,,,,1.0,,,,,,,2019-12-01,0.0,0.0,0.0,0.0,0.0,0.0,0.0,0.0,0.0,0.0,0.0,0.0,0.0,32.0,27.0,4.0,,,,
112,119,,Kosovo,,,,,,,,,,,,,,55.0,,,,,,,2019-12-01,55.0,0.0,0.0,66.0,2.0,0.0,63.0,0.0,0.0,1.0,1.0,0.0,0.0,280.0,247.0,43.0,,,,
113,120,,Kroatien,,,,,,,,,,,,,,0.0,,,,,,,2019-12-01,0.0,0.0,0.0,0.0,0.0,0.0,0.0,0.0,0.0,0.0,0.0,0.0,0.0,26.0,22.0,3.0,,,,
114,121,,Lettland,,,,,,,,,,,,,,0.0,,,,,,,2019-12-01,0.0,0.0,0.0,0.0,0.0,0.0,0.0,0.0,0.0,0.0,0.0,0.0,0.0,5.0,6.0,0.0,,,,
115,122,,Litauen,,,,,,,,,,,,,,1.0,,,,,,,2019-12-01,1.0,0.0,0.0,1.0,0.0,0.0,1.0,0.0,0.0,0.0,0.0,0.0,0.0,32.0,25.0,8.0,,,,
116,123,,Nordmazedonien,,,,,,,,,,,,,,26.0,,,,,,,2019-12-01,30.0,2.0,0.0,27.0,0.0,0.0,26.0,0.0,0.0,0.0,0.0,0.0,0.0,136.0,114.0,23.0,,,,
117,124,,Moldova,,,,,,,,,,,,,,1.0,,,,,,,2019-12-01,3.0,0.0,0.0,7.0,1.0,0.0,5.0,0.0,1.0,0.0,0.0,0.0,0.0,27.0,24.0,3.0,,,,
118,125,,Montenegro,,,,,,,,,,,,,,1.0,,,,,,,2019-12-01,1.0,1.0,0.0,1.0,0.0,0.0,1.0,0.0,0.0,0.0,0.0,0.0,0.0,13.0,13.0,0.0,,,,
119,126,,Niederlande,,,,,,,,,,,,,,0.0,,,,,,,2019-12-01,0.0,0.0,0.0,0.0,0.0,0.0,0.0,0.0,0.0,0.0,0.0,0.0,0.0,19.0,15.0,4.0,,,,
120,127,,Österreich,,,,,,,,,,,,,,0.0,,,,,,,2019-12-01,0.0,0.0,0.0,0.0,0.0,0.0,0.0,0.0,0.0,0.0,0.0,0.0,0.0,4.0,3.0,1.0,,,,
121,128,,Polen,,,,,,,,,,,,,,0.0,,,,,,,2019-12-01,0.0,0.0,0.0,0.0,0.0,0.0,0.0,0.0,0.0,0.0,0.0,0.0,0.0,48.0,39.0,8.0,,,,
122,129,,Portugal,,,,,,,,,,,,,,0.0,,,,,,,2019-12-01,0.0,0.0,0.0,0.0,0.0,0.0,0.0,0.0,0.0,0.0,0.0,0.0,0.0,111.0,94.0,24.0,,,,
123,130,,Rumänien,,,,,,,,,,,,,,0.0,,,,,,,2019-12-01,0.0,0.0,0.0,0.0,0.0,0.0,0.0,0.0,0.0,8.0,8.0,0.0,0.0,369.0,307.0,61.0,,,,
124,131,,Russland,,,,,,,,,,,,,,1.0,,,,,,,2019-12-01,1.0,0.0,0.0,1.0,0.0,0.0,1.0,0.0,0.0,0.0,0.0,0.0,0.0,20.0,16.0,3.0,,,,
125,132,,Schweden,,,,,,,,,,,,,,0.0,,,,,,,2019-12-01,0.0,0.0,0.0,0.0,0.0,0.0,0.0,0.0,0.0,0.0,0.0,0.0,0.0,1.0,1.0,0.0,,,,
126,133,,Serbien,,,,,,,,,,,,,,35.0,,,,,,,2019-12-01,32.0,0.0,0.0,35.0,2.0,1.0,30.0,0.0,2.0,1.0,1.0,0.0,0.0,313.0,275.0,20.0,,,,
127,134,,Slowakische Republik,,,,,,,,,,,,,,0.0,,,,,,,2019-12-01,0.0,0.0,0.0,2.0,2.0,0.0,0.0,0.0,0.0,0.0,0.0,0.0,0.0,9.0,9.0,0.0,,,,
128,135,,Slowenien,,,,,,,,,,,,,,0.0,,,,,,,2019-12-01,0.0,0.0,0.0,0.0,0.0,0.0,0.0,0.0,0.0,0.0,0.0,0.0,0.0,3.0,3.0,0.0,,,,
129,136,,Spanien,,,,,,,,,,,,,,0.0,,,,,,,2019-12-01,0.0,0.0,0.0,0.0,0.0,0.0,0.0,0.0,0.0,1.0,1.0,0.0,0.0,68.0,61.0,6.0,,,,
130,137,,Tschechische Republik,,,,,,,,,,,,,,0.0,,,,,,,2019-12-01,0.0,0.0,0.0,0.0,0.0,0.0,0.0,0.0,0.0,0.0,0.0,0.0,0.0,7.0,5.0,2.0,,,,
131,138,,Tschechoslowakei,,,,,,,,,,,,,,0.0,,,,,,,2019-12-01,0.0,0.0,0.0,0.0,0.0,0.0,0.0,0.0,0.0,0.0,0.0,0.0,0.0,1.0,1.0,0.0,,,,
132,139,,Türkei,,,,,,,,,,,,,,12.0,,,,,,,2019-12-01,4.0,2.0,1.0,5.0,0.0,0.0,4.0,0.0,0.0,0.0,0.0,0.0,0.0,56.0,44.0,13.0,,,,
133,140,,Ukraine,,,,,,,,,,,,,,2.0,,,,,,,2019-12-01,3.0,0.0,0.0,3.0,0.0,0.0,3.0,0.0,0.0,0.0,0.0,0.0,0.0,23.0,19.0,4.0,,,,
134,141,,Ungarn,,,,,,,,,,,,,,0.0,,,,,,,2019-12-01,0.0,0.0,0.0,0.0,0.0,0.0,0.0,0.0,0.0,5.0,5.0,0.0,0.0,25.0,21.0,4.0,,,,
135,144,,Australien,,,,,,,,,,,,,,0.0,,,,,,,2019-12-01,0.0,0.0,0.0,0.0,0.0,0.0,0.0,0.0,0.0,0.0,0.0,0.0,0.0,3.0,1.0,2.0,,,,
136,145,,Neuseeland,,,,,,,,,,,,,,0.0,,,,,,,2019-12-01,0.0,0.0,0.0,0.0,0.0,0.0,0.0,0.0,0.0,0.0,0.0,0.0,0.0,0.0,0.0,0.0,,,,
137,148,,Staatenlos,,,,,,,,,,,,,,0.0,,,,,,,2019-12-01,0.0,0.0,0.0,0.0,0.0,0.0,0.0,0.0,0.0,0.0,0.0,0.0,0.0,2.0,0.0,1.0,,,,
138,149,,Ohne Nationalität,,,,,,,,,,,,,,4.0,,,,,,,2019-12-01,0.0,6.0,0.0,0.0,0.0,0.0,0.0,0.0,0.0,0.0,0.0,0.0,0.0,5.0,4.0,1.0,,,,
139,150,,Staat unbekannt,,,,,,,,,,,,,,8.0,,,,,,,2019-12-01,0.0,5.0,0.0,0.0,0.0,0.0,0.0,0.0,0.0,0.0,0.0,0.0,0.0,20.0,19.0,2.0,,,,
