,index,Nation,BeginnIdentitätsabklärung,Identitätsabklärungpositiv,Identitätsabklärungnegativ,AbschreibungIdentitätsabklärung,BeginnPapierbeschaffung,Papierevorhanden,Papiereselbstbeschafft,Papierebeschafft,Papierenichtbeschafft,Abschreibung Papierbeschaffung,GesucheRückkehrhilfe,Rückkehrhilfebewilligt(inkl. teilweise),Rückkehrhilfe abgelehnt,Abschreibung Gesuch,BeginnAusreiseorganisation,AbschlussAusreiseorganisation,AbschreibungAusreiseorganisation,,.1,.2,.3,Datum,file_name
0,1,Ägypten,1.0,0.0,0.0,2.0,0.0,0.0,0.0,0.0,0.0,0.0,0.0,0.0,0.0,0.0,6.0,3.0,2.0,,,,,2020-12-01,7-82-Bew-RU-AIG-J-d-2019-12.xlsx
1,2,Algerien,66.0,40.0,0.0,73.0,23.0,3.0,1.0,15.0,2.0,8.0,0.0,0.0,0.0,0.0,90.0,40.0,64.0,,,,,2020-12-01,7-82-Bew-RU-AIG-J-d-2019-12.xlsx
2,3,Angola,3.0,0.0,0.0,1.0,0.0,0.0,0.0,0.0,0.0,0.0,0.0,0.0,0.0,0.0,4.0,3.0,1.0,,,,,2020-12-01,7-82-Bew-RU-AIG-J-d-2019-12.xlsx
3,4,Äquatorialguinea,0.0,0.0,0.0,0.0,0.0,0.0,0.0,0.0,0.0,0.0,0.0,0.0,0.0,0.0,1.0,1.0,0.0,,,,,2020-12-01,7-82-Bew-RU-AIG-J-d-2019-12.xlsx
4,5,Äthiopien,3.0,0.0,0.0,2.0,1.0,0.0,0.0,1.0,0.0,0.0,0.0,0.0,0.0,0.0,7.0,1.0,6.0,,,,,2020-12-01,7-82-Bew-RU-AIG-J-d-2019-12.xlsx
5,6,Benin,1.0,1.0,0.0,1.0,1.0,0.0,0.0,0.0,0.0,0.0,0.0,0.0,0.0,0.0,0.0,0.0,0.0,,,,,2020-12-01,7-82-Bew-RU-AIG-J-d-2019-12.xlsx
6,7,Burkina Faso,0.0,0.0,0.0,0.0,0.0,0.0,0.0,0.0,0.0,0.0,0.0,0.0,0.0,0.0,5.0,3.0,2.0,,,,,2020-12-01,7-82-Bew-RU-AIG-J-d-2019-12.xlsx
7,8,Burundi,0.0,0.0,0.0,1.0,0.0,0.0,0.0,0.0,0.0,0.0,0.0,0.0,0.0,0.0,0.0,0.0,0.0,,,,,2020-12-01,7-82-Bew-RU-AIG-J-d-2019-12.xlsx
8,9,Côte d'Ivoire,3.0,1.0,0.0,2.0,1.0,0.0,0.0,0.0,0.0,0.0,2.0,2.0,0.0,0.0,13.0,9.0,5.0,,,,,2020-12-01,7-82-Bew-RU-AIG-J-d-2019-12.xlsx
9,10,Dschibuti,0.0,0.0,0.0,0.0,0.0,0.0,0.0,0.0,0.0,0.0,0.0,0.0,0.0,0.0,0.0,0.0,0.0,,,,,2020-12-01,7-82-Bew-RU-AIG-J-d-2019-12.xlsx
10,11,Eritrea,1.0,1.0,0.0,1.0,1.0,1.0,0.0,0.0,0.0,0.0,0.0,0.0,0.0,0.0,4.0,4.0,1.0,,,,,2020-12-01,7-82-Bew-RU-AIG-J-d-2019-12.xlsx
11,12,Gabun,0.0,0.0,0.0,0.0,0.0,0.0,0.0,0.0,0.0,0.0,0.0,0.0,0.0,0.0,0.0,1.0,0.0,,,,,2020-12-01,7-82-Bew-RU-AIG-J-d-2019-12.xlsx
12,13,Gambia,5.0,2.0,0.0,1.0,3.0,0.0,0.0,3.0,0.0,0.0,0.0,0.0,0.0,0.0,63.0,37.0,32.0,,,,,2020-12-01,7-82-Bew-RU-AIG-J-d-2019-12.xlsx
13,14,Ghana,0.0,0.0,0.0,0.0,0.0,0.0,0.0,0.0,0.0,0.0,0.0,0.0,0.0,0.0,4.0,4.0,1.0,,,,,2020-12-01,7-82-Bew-RU-AIG-J-d-2019-12.xlsx
14,15,Guinea,14.0,3.0,0.0,7.0,3.0,0.0,0.0,5.0,0.0,0.0,0.0,0.0,0.0,0.0,43.0,31.0,16.0,,,,,2020-12-01,7-82-Bew-RU-AIG-J-d-2019-12.xlsx
15,16,Guinea-Bissau,1.0,0.0,0.0,1.0,0.0,0.0,0.0,0.0,0.0,0.0,0.0,0.0,0.0,0.0,13.0,11.0,2.0,,,,,2020-12-01,7-82-Bew-RU-AIG-J-d-2019-12.xlsx
16,17,Kamerun,3.0,1.0,0.0,2.0,3.0,0.0,0.0,1.0,0.0,1.0,0.0,0.0,0.0,0.0,8.0,5.0,2.0,,,,,2020-12-01,7-82-Bew-RU-AIG-J-d-2019-12.xlsx
17,18,Kapverden,0.0,0.0,0.0,2.0,0.0,0.0,0.0,0.0,0.0,0.0,0.0,0.0,0.0,0.0,0.0,0.0,0.0,,,,,2020-12-01,7-82-Bew-RU-AIG-J-d-2019-12.xlsx
18,19,Kenia,0.0,0.0,0.0,0.0,1.0,0.0,0.0,0.0,0.0,0.0,0.0,0.0,0.0,0.0,4.0,3.0,1.0,,,,,2020-12-01,7-82-Bew-RU-AIG-J-d-2019-12.xlsx
19,20,Kongo,1.0,0.0,0.0,0.0,0.0,0.0,0.0,0.0,0.0,0.0,0.0,0.0,0.0,0.0,0.0,0.0,0.0,,,,,2020-12-01,7-82-Bew-RU-AIG-J-d-2019-12.xlsx
20,21,Kongo DR,5.0,0.0,0.0,3.0,0.0,0.0,0.0,0.0,0.0,0.0,0.0,0.0,0.0,0.0,3.0,2.0,1.0,,,,,2020-12-01,7-82-Bew-RU-AIG-J-d-2019-12.xlsx
21,22,Liberia,1.0,0.0,0.0,1.0,0.0,0.0,0.0,0.0,0.0,0.0,0.0,0.0,0.0,0.0,2.0,1.0,0.0,,,,,2020-12-01,7-82-Bew-RU-AIG-J-d-2019-12.xlsx
22,23,Libyen,15.0,1.0,0.0,6.0,0.0,0.0,0.0,0.0,0.0,0.0,0.0,0.0,0.0,0.0,17.0,5.0,7.0,,,,,2020-12-01,7-82-Bew-RU-AIG-J-d-2019-12.xlsx
23,24,Malawi,0.0,0.0,0.0,0.0,0.0,0.0,0.0,0.0,0.0,0.0,0.0,0.0,0.0,0.0,1.0,0.0,0.0,,,,,2020-12-01,7-82-Bew-RU-AIG-J-d-2019-12.xlsx
24,25,Mali,1.0,0.0,0.0,1.0,2.0,0.0,0.0,1.0,0.0,1.0,0.0,0.0,0.0,0.0,12.0,3.0,7.0,,,,,2020-12-01,7-82-Bew-RU-AIG-J-d-2019-12.xlsx
25,26,Marokko,30.0,11.0,0.0,21.0,5.0,1.0,0.0,2.0,0.0,1.0,0.0,0.0,0.0,0.0,66.0,34.0,26.0,,,,,2020-12-01,7-82-Bew-RU-AIG-J-d-2019-12.xlsx
26,27,Mauretanien,1.0,0.0,0.0,0.0,0.0,0.0,0.0,0.0,0.0,0.0,0.0,0.0,0.0,0.0,2.0,1.0,1.0,,,,,2020-12-01,7-82-Bew-RU-AIG-J-d-2019-12.xlsx
27,28,Mauritius,0.0,0.0,0.0,0.0,1.0,0.0,0.0,0.0,0.0,0.0,0.0,0.0,0.0,0.0,3.0,2.0,1.0,,,,,2020-12-01,7-82-Bew-RU-AIG-J-d-2019-12.xlsx
28,29,Mosambik,0.0,0.0,0.0,0.0,0.0,0.0,0.0,0.0,0.0,0.0,1.0,1.0,0.0,0.0,1.0,0.0,1.0,,,,,2020-12-01,7-82-Bew-RU-AIG-J-d-2019-12.xlsx
29,30,Niger,1.0,0.0,0.0,0.0,0.0,0.0,0.0,0.0,0.0,0.0,0.0,0.0,0.0,0.0,3.0,2.0,1.0,,,,,2020-12-01,7-82-Bew-RU-AIG-J-d-2019-12.xlsx
30,31,Nigeria,17.0,13.0,0.0,5.0,21.0,3.0,0.0,17.0,0.0,1.0,0.0,0.0,0.0,0.0,174.0,78.0,95.0,,,,,2020-12-01,7-82-Bew-RU-AIG-J-d-2019-12.xlsx
31,32,Ruanda,0.0,0.0,0.0,0.0,0.0,0.0,0.0,0.0,0.0,0.0,0.0,0.0,0.0,0.0,1.0,1.0,0.0,,,,,2020-12-01,7-82-Bew-RU-AIG-J-d-2019-12.xlsx
32,33,Sambia,0.0,0.0,0.0,0.0,0.0,0.0,0.0,0.0,0.0,0.0,0.0,0.0,0.0,0.0,0.0,0.0,1.0,,,,,2020-12-01,7-82-Bew-RU-AIG-J-d-2019-12.xlsx
33,34,Senegal,6.0,3.0,0.0,1.0,3.0,0.0,0.0,1.0,0.0,0.0,0.0,0.0,0.0,0.0,23.0,10.0,16.0,,,,,2020-12-01,7-82-Bew-RU-AIG-J-d-2019-12.xlsx
34,35,Sierra Leone,0.0,1.0,0.0,3.0,1.0,0.0,0.0,0.0,0.0,0.0,0.0,0.0,0.0,0.0,3.0,2.0,0.0,,,,,2020-12-01,7-82-Bew-RU-AIG-J-d-2019-12.xlsx
35,36,Somalia,4.0,1.0,1.0,0.0,1.0,0.0,0.0,1.0,0.0,0.0,1.0,0.0,0.0,0.0,15.0,12.0,3.0,,,,,2020-12-01,7-82-Bew-RU-AIG-J-d-2019-12.xlsx
36,37,Sudan,1.0,1.0,0.0,0.0,1.0,0.0,0.0,0.0,0.0,0.0,0.0,0.0,0.0,0.0,7.0,2.0,5.0,,,,,2020-12-01,7-82-Bew-RU-AIG-J-d-2019-12.xlsx
37,38,Südsudan,1.0,0.0,0.0,0.0,0.0,0.0,0.0,0.0,0.0,0.0,0.0,0.0,0.0,0.0,1.0,0.0,0.0,,,,,2020-12-01,7-82-Bew-RU-AIG-J-d-2019-12.xlsx
38,39,Tansania,0.0,0.0,0.0,0.0,0.0,0.0,0.0,0.0,0.0,0.0,0.0,0.0,0.0,0.0,0.0,0.0,0.0,,,,,2020-12-01,7-82-Bew-RU-AIG-J-d-2019-12.xlsx
39,40,Togo,1.0,0.0,0.0,0.0,0.0,0.0,0.0,0.0,0.0,0.0,0.0,0.0,0.0,0.0,2.0,2.0,0.0,,,,,2020-12-01,7-82-Bew-RU-AIG-J-d-2019-12.xlsx
40,41,Tschad,0.0,0.0,0.0,0.0,0.0,0.0,0.0,0.0,0.0,0.0,0.0,0.0,0.0,0.0,5.0,1.0,3.0,,,,,2020-12-01,7-82-Bew-RU-AIG-J-d-2019-12.xlsx
41,42,Tunesien,28.0,18.0,1.0,9.0,32.0,2.0,0.0,28.0,1.0,5.0,0.0,0.0,0.0,0.0,78.0,29.0,49.0,,,,,2020-12-01,7-82-Bew-RU-AIG-J-d-2019-12.xlsx
42,43,Uganda,1.0,0.0,0.0,0.0,0.0,0.0,0.0,0.0,0.0,0.0,0.0,0.0,0.0,0.0,1.0,1.0,0.0,,,,,2020-12-01,7-82-Bew-RU-AIG-J-d-2019-12.xlsx
43,44,Westsahara,0.0,0.0,0.0,0.0,0.0,0.0,0.0,0.0,0.0,0.0,0.0,0.0,0.0,0.0,0.0,0.0,0.0,,,,,2020-12-01,7-82-Bew-RU-AIG-J-d-2019-12.xlsx
44,45,Zentralafr. Republik,0.0,0.0,0.0,0.0,0.0,0.0,0.0,0.0,0.0,0.0,0.0,0.0,0.0,0.0,0.0,0.0,0.0,,,,,2020-12-01,7-82-Bew-RU-AIG-J-d-2019-12.xlsx
45,46,Zimbabwe,1.0,1.0,0.0,0.0,1.0,0.0,0.0,0.0,0.0,0.0,0.0,0.0,0.0,0.0,2.0,0.0,1.0,,,,,2020-12-01,7-82-Bew-RU-AIG-J-d-2019-12.xlsx
46,49,Argentinien,0.0,0.0,0.0,0.0,0.0,0.0,0.0,0.0,0.0,0.0,0.0,0.0,0.0,0.0,5.0,3.0,2.0,,,,,2020-12-01,7-82-Bew-RU-AIG-J-d-2019-12.xlsx
47,50,Bolivien,0.0,0.0,0.0,0.0,0.0,0.0,0.0,0.0,0.0,0.0,0.0,0.0,0.0,0.0,7.0,3.0,6.0,,,,,2020-12-01,7-82-Bew-RU-AIG-J-d-2019-12.xlsx
48,51,Brasilien,4.0,3.0,0.0,0.0,2.0,1.0,0.0,2.0,0.0,0.0,1.0,1.0,0.0,0.0,93.0,69.0,21.0,,,,,2020-12-01,7-82-Bew-RU-AIG-J-d-2019-12.xlsx
49,52,Chile,2.0,2.0,0.0,1.0,2.0,0.0,0.0,2.0,0.0,0.0,0.0,0.0,0.0,0.0,18.0,13.0,5.0,,,,,2020-12-01,7-82-Bew-RU-AIG-J-d-2019-12.xlsx
50,53,Dominikanische Republik,3.0,2.0,0.0,1.0,3.0,0.0,0.0,3.0,0.0,0.0,0.0,0.0,0.0,0.0,32.0,17.0,12.0,,,,,2020-12-01,7-82-Bew-RU-AIG-J-d-2019-12.xlsx
51,54,Ecuador,1.0,2.0,0.0,0.0,0.0,0.0,0.0,0.0,0.0,0.0,0.0,0.0,0.0,0.0,7.0,4.0,3.0,,,,,2020-12-01,7-82-Bew-RU-AIG-J-d-2019-12.xlsx
52,55,El Salvador,0.0,0.0,0.0,0.0,0.0,0.0,0.0,0.0,0.0,0.0,0.0,0.0,0.0,0.0,0.0,0.0,0.0,,,,,2020-12-01,7-82-Bew-RU-AIG-J-d-2019-12.xlsx
53,56,Haiti,0.0,0.0,0.0,0.0,0.0,0.0,0.0,0.0,0.0,0.0,0.0,0.0,0.0,0.0,0.0,0.0,0.0,,,,,2020-12-01,7-82-Bew-RU-AIG-J-d-2019-12.xlsx
54,57,Honduras,1.0,1.0,0.0,0.0,1.0,0.0,0.0,0.0,0.0,1.0,0.0,0.0,0.0,0.0,1.0,1.0,1.0,,,,,2020-12-01,7-82-Bew-RU-AIG-J-d-2019-12.xlsx
55,58,Jamaika,0.0,1.0,0.0,2.0,0.0,0.0,0.0,0.0,0.0,0.0,0.0,0.0,0.0,0.0,1.0,2.0,1.0,,,,,2020-12-01,7-82-Bew-RU-AIG-J-d-2019-12.xlsx
56,59,Kanada,0.0,0.0,0.0,0.0,0.0,0.0,0.0,0.0,0.0,0.0,0.0,0.0,0.0,0.0,3.0,2.0,1.0,,,,,2020-12-01,7-82-Bew-RU-AIG-J-d-2019-12.xlsx
57,60,Kolumbien,2.0,1.0,0.0,0.0,1.0,0.0,0.0,0.0,0.0,1.0,1.0,1.0,0.0,0.0,39.0,30.0,8.0,,,,,2020-12-01,7-82-Bew-RU-AIG-J-d-2019-12.xlsx
58,61,Kuba,0.0,1.0,0.0,0.0,1.0,0.0,0.0,0.0,0.0,0.0,0.0,0.0,0.0,0.0,0.0,0.0,0.0,,,,,2020-12-01,7-82-Bew-RU-AIG-J-d-2019-12.xlsx
59,62,Mexiko,0.0,0.0,0.0,0.0,0.0,0.0,0.0,0.0,0.0,0.0,0.0,0.0,0.0,0.0,5.0,2.0,3.0,,,,,2020-12-01,7-82-Bew-RU-AIG-J-d-2019-12.xlsx
60,63,Nicaragua,0.0,0.0,0.0,0.0,0.0,0.0,0.0,0.0,0.0,0.0,0.0,0.0,0.0,0.0,0.0,0.0,0.0,,,,,2020-12-01,7-82-Bew-RU-AIG-J-d-2019-12.xlsx
61,64,Paraguay,0.0,0.0,0.0,0.0,0.0,0.0,0.0,0.0,0.0,0.0,0.0,0.0,0.0,0.0,4.0,4.0,0.0,,,,,2020-12-01,7-82-Bew-RU-AIG-J-d-2019-12.xlsx
62,65,Peru,1.0,0.0,0.0,0.0,0.0,0.0,0.0,0.0,0.0,0.0,0.0,0.0,0.0,0.0,7.0,5.0,1.0,,,,,2020-12-01,7-82-Bew-RU-AIG-J-d-2019-12.xlsx
63,66,Uruguay,0.0,0.0,0.0,0.0,1.0,0.0,0.0,1.0,0.0,0.0,0.0,0.0,0.0,0.0,0.0,1.0,0.0,,,,,2020-12-01,7-82-Bew-RU-AIG-J-d-2019-12.xlsx
64,67,USA,1.0,1.0,0.0,0.0,1.0,1.0,0.0,0.0,0.0,0.0,0.0,0.0,0.0,0.0,9.0,7.0,2.0,,,,,2020-12-01,7-82-Bew-RU-AIG-J-d-2019-12.xlsx
65,68,Venezuela,3.0,2.0,0.0,0.0,1.0,0.0,0.0,0.0,0.0,0.0,1.0,1.0,0.0,0.0,11.0,5.0,7.0,,,,,2020-12-01,7-82-Bew-RU-AIG-J-d-2019-12.xlsx
66,71,Afghanistan,1.0,1.0,0.0,0.0,1.0,0.0,0.0,1.0,0.0,0.0,0.0,0.0,0.0,0.0,13.0,9.0,2.0,,,,,2020-12-01,7-82-Bew-RU-AIG-J-d-2019-12.xlsx
67,72,Armenien,0.0,0.0,0.0,0.0,0.0,0.0,0.0,0.0,0.0,0.0,0.0,0.0,0.0,0.0,1.0,0.0,1.0,,,,,2020-12-01,7-82-Bew-RU-AIG-J-d-2019-12.xlsx
68,73,Aserbaidschan,0.0,0.0,0.0,0.0,0.0,0.0,0.0,0.0,0.0,0.0,0.0,0.0,0.0,0.0,1.0,1.0,0.0,,,,,2020-12-01,7-82-Bew-RU-AIG-J-d-2019-12.xlsx
69,74,Bangladesh,1.0,0.0,0.0,0.0,0.0,0.0,0.0,0.0,0.0,0.0,0.0,0.0,0.0,0.0,3.0,3.0,0.0,,,,,2020-12-01,7-82-Bew-RU-AIG-J-d-2019-12.xlsx
70,75,Bhutan,0.0,0.0,0.0,0.0,0.0,0.0,0.0,0.0,0.0,0.0,0.0,0.0,0.0,0.0,0.0,0.0,0.0,,,,,2020-12-01,7-82-Bew-RU-AIG-J-d-2019-12.xlsx
71,76,China (Volksrepublik),0.0,1.0,0.0,2.0,1.0,0.0,0.0,1.0,0.0,0.0,0.0,0.0,0.0,0.0,21.0,12.0,11.0,,,,,2020-12-01,7-82-Bew-RU-AIG-J-d-2019-12.xlsx
72,77,Georgien,9.0,7.0,0.0,0.0,18.0,7.0,0.0,12.0,0.0,0.0,0.0,0.0,0.0,0.0,65.0,31.0,28.0,,,,,2020-12-01,7-82-Bew-RU-AIG-J-d-2019-12.xlsx
73,78,Indien,1.0,1.0,0.0,0.0,0.0,0.0,0.0,0.0,0.0,0.0,0.0,0.0,0.0,0.0,14.0,8.0,5.0,,,,,2020-12-01,7-82-Bew-RU-AIG-J-d-2019-12.xlsx
74,79,Irak,5.0,2.0,0.0,7.0,4.0,0.0,1.0,1.0,0.0,0.0,2.0,2.0,0.0,0.0,38.0,19.0,21.0,,,,,2020-12-01,7-82-Bew-RU-AIG-J-d-2019-12.xlsx
75,80,Iran,0.0,0.0,0.0,1.0,0.0,0.0,0.0,0.0,0.0,0.0,0.0,0.0,0.0,0.0,1.0,0.0,1.0,,,,,2020-12-01,7-82-Bew-RU-AIG-J-d-2019-12.xlsx
76,81,Israel,0.0,0.0,0.0,0.0,0.0,0.0,0.0,0.0,0.0,0.0,0.0,0.0,0.0,0.0,4.0,3.0,1.0,,,,,2020-12-01,7-82-Bew-RU-AIG-J-d-2019-12.xlsx
77,82,Japan,0.0,0.0,0.0,0.0,0.0,0.0,0.0,0.0,0.0,0.0,0.0,0.0,0.0,0.0,0.0,0.0,0.0,,,,,2020-12-01,7-82-Bew-RU-AIG-J-d-2019-12.xlsx
78,83,Jemen,0.0,0.0,0.0,0.0,0.0,0.0,0.0,0.0,0.0,0.0,1.0,1.0,0.0,0.0,0.0,0.0,0.0,,,,,2020-12-01,7-82-Bew-RU-AIG-J-d-2019-12.xlsx
79,84,Jordanien,0.0,1.0,0.0,0.0,0.0,0.0,0.0,0.0,0.0,0.0,0.0,0.0,0.0,0.0,2.0,2.0,0.0,,,,,2020-12-01,7-82-Bew-RU-AIG-J-d-2019-12.xlsx
80,85,Kambodscha,1.0,0.0,0.0,0.0,0.0,0.0,0.0,0.0,0.0,0.0,0.0,0.0,0.0,0.0,0.0,0.0,0.0,,,,,2020-12-01,7-82-Bew-RU-AIG-J-d-2019-12.xlsx
81,86,Kasachstan,0.0,0.0,0.0,0.0,0.0,0.0,0.0,0.0,0.0,0.0,0.0,0.0,0.0,0.0,2.0,1.0,1.0,,,,,2020-12-01,7-82-Bew-RU-AIG-J-d-2019-12.xlsx
82,87,Korea (Süd),0.0,0.0,0.0,0.0,0.0,0.0,0.0,0.0,0.0,0.0,0.0,0.0,0.0,0.0,0.0,0.0,0.0,,,,,2020-12-01,7-82-Bew-RU-AIG-J-d-2019-12.xlsx
83,88,Libanon,0.0,0.0,0.0,0.0,0.0,0.0,0.0,0.0,0.0,0.0,0.0,0.0,0.0,0.0,0.0,0.0,0.0,,,,,2020-12-01,7-82-Bew-RU-AIG-J-d-2019-12.xlsx
84,89,Malaysia,0.0,0.0,0.0,0.0,0.0,0.0,0.0,0.0,0.0,0.0,1.0,1.0,0.0,0.0,1.0,1.0,0.0,,,,,2020-12-01,7-82-Bew-RU-AIG-J-d-2019-12.xlsx
85,90,Mongolei,1.0,0.0,0.0,1.0,0.0,0.0,0.0,0.0,0.0,0.0,0.0,0.0,0.0,0.0,8.0,5.0,3.0,,,,,2020-12-01,7-82-Bew-RU-AIG-J-d-2019-12.xlsx
86,91,Myanmar,0.0,0.0,0.0,0.0,0.0,0.0,0.0,0.0,0.0,0.0,0.0,0.0,0.0,0.0,0.0,0.0,0.0,,,,,2020-12-01,7-82-Bew-RU-AIG-J-d-2019-12.xlsx
87,92,Nepal,0.0,0.0,0.0,0.0,1.0,0.0,0.0,1.0,0.0,0.0,0.0,0.0,0.0,0.0,1.0,1.0,0.0,,,,,2020-12-01,7-82-Bew-RU-AIG-J-d-2019-12.xlsx
88,93,Oman,0.0,0.0,0.0,0.0,0.0,0.0,0.0,0.0,0.0,0.0,0.0,0.0,0.0,0.0,1.0,1.0,0.0,,,,,2020-12-01,7-82-Bew-RU-AIG-J-d-2019-12.xlsx
89,94,Pakistan,2.0,2.0,0.0,1.0,3.0,0.0,0.0,3.0,0.0,0.0,0.0,0.0,0.0,0.0,9.0,5.0,4.0,,,,,2020-12-01,7-82-Bew-RU-AIG-J-d-2019-12.xlsx
90,95,Philippinen,0.0,0.0,0.0,0.0,0.0,0.0,0.0,0.0,0.0,0.0,0.0,0.0,0.0,0.0,8.0,6.0,2.0,,,,,2020-12-01,7-82-Bew-RU-AIG-J-d-2019-12.xlsx
91,96,Saudi-Arabien,0.0,0.0,0.0,0.0,0.0,0.0,0.0,0.0,0.0,0.0,0.0,0.0,0.0,0.0,0.0,0.0,0.0,,,,,2020-12-01,7-82-Bew-RU-AIG-J-d-2019-12.xlsx
92,97,Sri Lanka,7.0,4.0,0.0,3.0,2.0,0.0,0.0,3.0,0.0,0.0,0.0,0.0,0.0,0.0,10.0,2.0,9.0,,,,,2020-12-01,7-82-Bew-RU-AIG-J-d-2019-12.xlsx
93,98,Syrien,1.0,0.0,0.0,2.0,0.0,0.0,0.0,0.0,0.0,0.0,0.0,0.0,0.0,0.0,5.0,0.0,4.0,,,,,2020-12-01,7-82-Bew-RU-AIG-J-d-2019-12.xlsx
94,99,Thailand,1.0,1.0,0.0,0.0,2.0,1.0,0.0,1.0,0.0,1.0,0.0,0.0,0.0,0.0,10.0,5.0,4.0,,,,,2020-12-01,7-82-Bew-RU-AIG-J-d-2019-12.xlsx
95,100,Usbekistan,0.0,0.0,0.0,0.0,0.0,0.0,0.0,0.0,0.0,0.0,0.0,0.0,0.0,0.0,0.0,0.0,0.0,,,,,2020-12-01,7-82-Bew-RU-AIG-J-d-2019-12.xlsx
96,101,Vietnam,0.0,0.0,0.0,0.0,0.0,0.0,0.0,0.0,0.0,0.0,0.0,0.0,0.0,0.0,1.0,1.0,0.0,,,,,2020-12-01,7-82-Bew-RU-AIG-J-d-2019-12.xlsx
97,104,Albanien,29.0,31.0,0.0,1.0,30.0,1.0,0.0,27.0,0.0,1.0,2.0,2.0,0.0,0.0,483.0,389.0,102.0,,,,,2020-12-01,7-82-Bew-RU-AIG-J-d-2019-12.xlsx
98,105,Belarus,1.0,2.0,0.0,0.0,3.0,1.0,0.0,2.0,0.0,0.0,0.0,0.0,0.0,0.0,9.0,6.0,3.0,,,,,2020-12-01,7-82-Bew-RU-AIG-J-d-2019-12.xlsx
99,106,Belgien,0.0,0.0,0.0,0.0,0.0,0.0,0.0,0.0,0.0,0.0,0.0,0.0,0.0,0.0,7.0,5.0,2.0,,,,,2020-12-01,7-82-Bew-RU-AIG-J-d-2019-12.xlsx
100,107,Bosnien u. Herzegowina,9.0,8.0,0.0,0.0,5.0,0.0,0.0,5.0,1.0,1.0,0.0,0.0,0.0,0.0,28.0,23.0,7.0,,,,,2020-12-01,7-82-Bew-RU-AIG-J-d-2019-12.xlsx
101,108,Bulgarien,1.0,1.0,0.0,0.0,1.0,0.0,0.0,1.0,0.0,0.0,1.0,1.0,0.0,0.0,25.0,14.0,8.0,,,,,2020-12-01,7-82-Bew-RU-AIG-J-d-2019-12.xlsx
102,109,Deutschland,0.0,0.0,0.0,0.0,0.0,0.0,0.0,0.0,0.0,0.0,0.0,0.0,0.0,0.0,2.0,1.0,0.0,,,,,2020-12-01,7-82-Bew-RU-AIG-J-d-2019-12.xlsx
103,110,Estland,0.0,0.0,0.0,0.0,0.0,0.0,0.0,0.0,0.0,0.0,0.0,0.0,0.0,0.0,2.0,1.0,1.0,,,,,2020-12-01,7-82-Bew-RU-AIG-J-d-2019-12.xlsx
104,111,Frankreich,2.0,0.0,0.0,0.0,0.0,0.0,0.0,0.0,0.0,0.0,0.0,0.0,0.0,0.0,11.0,6.0,5.0,,,,,2020-12-01,7-82-Bew-RU-AIG-J-d-2019-12.xlsx
105,112,Griechenland,0.0,0.0,0.0,0.0,0.0,0.0,0.0,0.0,0.0,0.0,0.0,0.0,0.0,0.0,7.0,4.0,3.0,,,,,2020-12-01,7-82-Bew-RU-AIG-J-d-2019-12.xlsx
106,113,Grossbritannien,1.0,1.0,0.0,0.0,0.0,0.0,0.0,0.0,0.0,0.0,0.0,0.0,0.0,0.0,5.0,5.0,0.0,,,,,2020-12-01,7-82-Bew-RU-AIG-J-d-2019-12.xlsx
107,114,Irland,0.0,0.0,0.0,0.0,0.0,0.0,0.0,0.0,0.0,0.0,0.0,0.0,0.0,0.0,1.0,1.0,0.0,,,,,2020-12-01,7-82-Bew-RU-AIG-J-d-2019-12.xlsx
108,115,Italien,0.0,0.0,0.0,1.0,1.0,0.0,0.0,1.0,0.0,0.0,0.0,0.0,0.0,0.0,34.0,20.0,15.0,,,,,2020-12-01,7-82-Bew-RU-AIG-J-d-2019-12.xlsx
109,116,Kosovo,38.0,37.0,0.0,2.0,44.0,3.0,0.0,42.0,0.0,0.0,0.0,0.0,0.0,0.0,201.0,146.0,69.0,,,,,2020-12-01,7-82-Bew-RU-AIG-J-d-2019-12.xlsx
110,117,Kroatien,0.0,0.0,0.0,1.0,0.0,0.0,0.0,0.0,0.0,0.0,0.0,0.0,0.0,0.0,17.0,13.0,5.0,,,,,2020-12-01,7-82-Bew-RU-AIG-J-d-2019-12.xlsx
111,118,Lettland,0.0,0.0,0.0,0.0,0.0,0.0,0.0,0.0,0.0,0.0,0.0,0.0,0.0,0.0,4.0,2.0,2.0,,,,,2020-12-01,7-82-Bew-RU-AIG-J-d-2019-12.xlsx
112,119,Litauen,0.0,0.0,0.0,0.0,0.0,0.0,0.0,0.0,0.0,0.0,0.0,0.0,0.0,0.0,17.0,14.0,4.0,,,,,2020-12-01,7-82-Bew-RU-AIG-J-d-2019-12.xlsx
113,120,Nordmazedonien,16.0,16.0,1.0,1.0,16.0,1.0,1.0,12.0,0.0,1.0,0.0,0.0,0.0,0.0,85.0,63.0,18.0,,,,,2020-12-01,7-82-Bew-RU-AIG-J-d-2019-12.xlsx
114,121,Moldova,4.0,4.0,0.0,0.0,4.0,2.0,0.0,2.0,0.0,0.0,0.0,0.0,0.0,0.0,19.0,12.0,7.0,,,,,2020-12-01,7-82-Bew-RU-AIG-J-d-2019-12.xlsx
115,122,Montenegro,0.0,0.0,0.0,0.0,0.0,0.0,0.0,0.0,0.0,0.0,0.0,0.0,0.0,0.0,3.0,2.0,1.0,,,,,2020-12-01,7-82-Bew-RU-AIG-J-d-2019-12.xlsx
116,123,Niederlande,0.0,0.0,0.0,0.0,0.0,0.0,0.0,0.0,0.0,0.0,0.0,0.0,0.0,0.0,7.0,7.0,1.0,,,,,2020-12-01,7-82-Bew-RU-AIG-J-d-2019-12.xlsx
117,124,Österreich,0.0,0.0,0.0,0.0,0.0,0.0,0.0,0.0,0.0,0.0,0.0,0.0,0.0,0.0,1.0,1.0,0.0,,,,,2020-12-01,7-82-Bew-RU-AIG-J-d-2019-12.xlsx
118,125,Polen,0.0,0.0,0.0,0.0,0.0,0.0,0.0,0.0,0.0,0.0,0.0,0.0,0.0,0.0,34.0,21.0,13.0,,,,,2020-12-01,7-82-Bew-RU-AIG-J-d-2019-12.xlsx
119,126,Portugal,1.0,1.0,0.0,0.0,0.0,0.0,0.0,0.0,0.0,0.0,0.0,0.0,0.0,0.0,84.0,66.0,20.0,,,,,2020-12-01,7-82-Bew-RU-AIG-J-d-2019-12.xlsx
120,127,Rumänien,0.0,0.0,0.0,0.0,0.0,0.0,0.0,0.0,0.0,0.0,9.0,9.0,0.0,0.0,320.0,234.0,92.0,,,,,2020-12-01,7-82-Bew-RU-AIG-J-d-2019-12.xlsx
121,128,Russland,1.0,1.0,1.0,0.0,1.0,0.0,0.0,0.0,0.0,0.0,0.0,0.0,0.0,0.0,6.0,5.0,1.0,,,,,2020-12-01,7-82-Bew-RU-AIG-J-d-2019-12.xlsx
122,129,Serbien,35.0,28.0,1.0,2.0,26.0,0.0,1.0,25.0,0.0,1.0,0.0,0.0,0.0,0.0,201.0,148.0,52.0,,,,,2020-12-01,7-82-Bew-RU-AIG-J-d-2019-12.xlsx
123,130,Slowakische Republik,0.0,0.0,0.0,0.0,0.0,0.0,0.0,0.0,0.0,0.0,0.0,0.0,0.0,0.0,18.0,7.0,10.0,,,,,2020-12-01,7-82-Bew-RU-AIG-J-d-2019-12.xlsx
124,131,Slowenien,0.0,0.0,0.0,0.0,0.0,0.0,0.0,0.0,0.0,0.0,0.0,0.0,0.0,0.0,2.0,1.0,1.0,,,,,2020-12-01,7-82-Bew-RU-AIG-J-d-2019-12.xlsx
125,132,Spanien,2.0,0.0,0.0,0.0,0.0,0.0,0.0,0.0,0.0,0.0,2.0,2.0,0.0,0.0,23.0,26.0,1.0,,,,,2020-12-01,7-82-Bew-RU-AIG-J-d-2019-12.xlsx
126,133,Tschechische Republik,0.0,0.0,0.0,0.0,0.0,0.0,0.0,0.0,0.0,0.0,0.0,0.0,0.0,0.0,6.0,6.0,0.0,,,,,2020-12-01,7-82-Bew-RU-AIG-J-d-2019-12.xlsx
127,134,Türkei,12.0,11.0,0.0,4.0,14.0,5.0,1.0,8.0,0.0,1.0,0.0,0.0,0.0,0.0,50.0,34.0,18.0,,,,,2020-12-01,7-82-Bew-RU-AIG-J-d-2019-12.xlsx
128,135,Ukraine,0.0,0.0,0.0,0.0,0.0,0.0,0.0,0.0,0.0,0.0,0.0,0.0,0.0,0.0,12.0,10.0,1.0,,,,,2020-12-01,7-82-Bew-RU-AIG-J-d-2019-12.xlsx
129,136,Ungarn,0.0,0.0,0.0,0.0,0.0,0.0,0.0,0.0,0.0,0.0,1.0,1.0,0.0,0.0,15.0,9.0,6.0,,,,,2020-12-01,7-82-Bew-RU-AIG-J-d-2019-12.xlsx
130,139,Australien,1.0,1.0,0.0,0.0,1.0,0.0,0.0,1.0,0.0,0.0,0.0,0.0,0.0,0.0,1.0,1.0,0.0,,,,,2020-12-01,7-82-Bew-RU-AIG-J-d-2019-12.xlsx
131,142,Staatenlos,0.0,0.0,0.0,0.0,0.0,0.0,0.0,0.0,0.0,0.0,0.0,0.0,0.0,0.0,1.0,1.0,0.0,,,,,2020-12-01,7-82-Bew-RU-AIG-J-d-2019-12.xlsx
132,143,Ohne Nationalität,3.0,0.0,0.0,5.0,0.0,0.0,0.0,0.0,0.0,0.0,0.0,0.0,0.0,0.0,5.0,2.0,2.0,,,,,2020-12-01,7-82-Bew-RU-AIG-J-d-2019-12.xlsx
133,144,Staat unbekannt,2.0,0.0,0.0,5.0,0.0,0.0,0.0,0.0,0.0,0.0,1.0,1.0,0.0,0.0,11.0,7.0,3.0,,,,,2020-12-01,7-82-Bew-RU-AIG-J-d-2019-12.xlsx
134,1,Ägypten,0.0,1.0,1.0,0.0,1.0,0.0,0.0,1.0,0.0,0.0,0.0,0.0,0.0,0.0,5.0,4.0,1.0,,,,,2019-12-01,7-82-Bew-RU-AIG-J-d-2019-12.xlsx
135,2,Algerien,83.0,43.0,27.0,2.0,62.0,0.0,0.0,43.0,4.0,7.0,0.0,0.0,0.0,0.0,151.0,82.0,71.0,,,,,2019-12-01,7-82-Bew-RU-AIG-J-d-2019-12.xlsx
136,3,Angola,2.0,2.0,0.0,0.0,1.0,0.0,0.0,1.0,0.0,0.0,0.0,0.0,0.0,0.0,3.0,3.0,2.0,,,,,2019-12-01,7-82-Bew-RU-AIG-J-d-2019-12.xlsx
137,4,Äquatorialguinea,0.0,0.0,1.0,0.0,0.0,0.0,0.0,0.0,0.0,0.0,0.0,0.0,0.0,0.0,1.0,0.0,1.0,,,,,2019-12-01,7-82-Bew-RU-AIG-J-d-2019-12.xlsx
138,5,Äthiopien,0.0,0.0,0.0,0.0,0.0,0.0,0.0,0.0,0.0,0.0,0.0,0.0,0.0,0.0,15.0,7.0,8.0,,,,,2019-12-01,7-82-Bew-RU-AIG-J-d-2019-12.xlsx
139,6,Benin,2.0,1.0,0.0,0.0,1.0,0.0,0.0,1.0,0.0,0.0,0.0,0.0,0.0,0.0,3.0,0.0,2.0,,,,,2019-12-01,7-82-Bew-RU-AIG-J-d-2019-12.xlsx
140,7,Burkina Faso,0.0,0.0,0.0,0.0,0.0,0.0,0.0,0.0,0.0,0.0,0.0,0.0,0.0,0.0,2.0,1.0,0.0,,,,,2019-12-01,7-82-Bew-RU-AIG-J-d-2019-12.xlsx
141,8,Burundi,1.0,0.0,0.0,0.0,0.0,0.0,0.0,0.0,0.0,0.0,0.0,0.0,0.0,0.0,0.0,0.0,0.0,,,,,2019-12-01,7-82-Bew-RU-AIG-J-d-2019-12.xlsx
142,9,Côte d'Ivoire,2.0,0.0,3.0,0.0,0.0,0.0,0.0,0.0,0.0,0.0,0.0,0.0,0.0,0.0,7.0,6.0,1.0,,,,,2019-12-01,7-82-Bew-RU-AIG-J-d-2019-12.xlsx
143,10,Dschibuti,1.0,0.0,0.0,0.0,0.0,0.0,0.0,0.0,0.0,0.0,0.0,0.0,0.0,0.0,0.0,0.0,0.0,,,,,2019-12-01,7-82-Bew-RU-AIG-J-d-2019-12.xlsx
144,11,Eritrea,1.0,0.0,0.0,0.0,2.0,1.0,0.0,0.0,0.0,0.0,0.0,0.0,0.0,0.0,5.0,4.0,0.0,,,,,2019-12-01,7-82-Bew-RU-AIG-J-d-2019-12.xlsx
145,12,Gabun,1.0,0.0,0.0,0.0,0.0,0.0,0.0,0.0,0.0,0.0,0.0,0.0,0.0,0.0,4.0,1.0,1.0,,,,,2019-12-01,7-82-Bew-RU-AIG-J-d-2019-12.xlsx
146,13,Gambia,4.0,3.0,2.0,0.0,4.0,0.0,0.0,3.0,1.0,0.0,0.0,0.0,0.0,0.0,91.0,72.0,16.0,,,,,2019-12-01,7-82-Bew-RU-AIG-J-d-2019-12.xlsx
147,14,Ghana,1.0,0.0,0.0,0.0,1.0,1.0,0.0,0.0,0.0,0.0,0.0,0.0,0.0,0.0,9.0,8.0,1.0,,,,,2019-12-01,7-82-Bew-RU-AIG-J-d-2019-12.xlsx
148,15,Guinea,16.0,11.0,9.0,0.0,13.0,0.0,0.0,10.0,0.0,0.0,0.0,0.0,0.0,0.0,99.0,73.0,20.0,,,,,2019-12-01,7-82-Bew-RU-AIG-J-d-2019-12.xlsx
149,16,Guinea-Bissau,2.0,2.0,0.0,0.0,1.0,0.0,1.0,0.0,0.0,0.0,0.0,0.0,0.0,0.0,25.0,18.0,5.0,,,,,2019-12-01,7-82-Bew-RU-AIG-J-d-2019-12.xlsx
150,17,Kamerun,5.0,8.0,2.0,0.0,13.0,0.0,0.0,13.0,0.0,0.0,0.0,0.0,0.0,0.0,17.0,10.0,7.0,,,,,2019-12-01,7-82-Bew-RU-AIG-J-d-2019-12.xlsx
151,18,Kapverden,2.0,3.0,0.0,0.0,3.0,0.0,2.0,1.0,0.0,0.0,0.0,0.0,0.0,0.0,2.0,1.0,2.0,,,,,2019-12-01,7-82-Bew-RU-AIG-J-d-2019-12.xlsx
152,19,Kenia,0.0,1.0,1.0,0.0,1.0,0.0,0.0,0.0,0.0,0.0,0.0,0.0,0.0,0.0,4.0,2.0,2.0,,,,,2019-12-01,7-82-Bew-RU-AIG-J-d-2019-12.xlsx
153,20,Kongo,0.0,0.0,0.0,0.0,0.0,0.0,0.0,0.0,0.0,0.0,0.0,0.0,0.0,0.0,0.0,0.0,0.0,,,,,2019-12-01,7-82-Bew-RU-AIG-J-d-2019-12.xlsx
154,21,Kongo DR,3.0,1.0,4.0,1.0,1.0,0.0,0.0,1.0,0.0,0.0,0.0,0.0,0.0,0.0,2.0,1.0,1.0,,,,,2019-12-01,7-82-Bew-RU-AIG-J-d-2019-12.xlsx
155,22,Liberia,0.0,0.0,1.0,0.0,1.0,0.0,0.0,0.0,0.0,0.0,0.0,0.0,0.0,0.0,0.0,0.0,0.0,,,,,2019-12-01,7-82-Bew-RU-AIG-J-d-2019-12.xlsx
156,23,Libyen,7.0,2.0,3.0,0.0,1.0,0.0,0.0,1.0,0.0,2.0,0.0,0.0,0.0,0.0,12.0,9.0,2.0,,,,,2019-12-01,7-82-Bew-RU-AIG-J-d-2019-12.xlsx
157,24,Malawi,0.0,0.0,0.0,0.0,0.0,0.0,0.0,0.0,0.0,0.0,0.0,0.0,0.0,0.0,0.0,0.0,0.0,,,,,2019-12-01,7-82-Bew-RU-AIG-J-d-2019-12.xlsx
158,25,Mali,0.0,0.0,0.0,0.0,0.0,0.0,0.0,0.0,0.0,0.0,0.0,0.0,0.0,0.0,20.0,19.0,2.0,,,,,2019-12-01,7-82-Bew-RU-AIG-J-d-2019-12.xlsx
159,26,Marokko,37.0,14.0,22.0,1.0,11.0,1.0,0.0,8.0,1.0,1.0,0.0,0.0,0.0,0.0,71.0,53.0,20.0,,,,,2019-12-01,7-82-Bew-RU-AIG-J-d-2019-12.xlsx
160,27,Mauretanien,0.0,0.0,0.0,0.0,0.0,0.0,0.0,0.0,0.0,0.0,0.0,0.0,0.0,0.0,3.0,3.0,0.0,,,,,2019-12-01,7-82-Bew-RU-AIG-J-d-2019-12.xlsx
161,28,Mauritius,2.0,2.0,1.0,0.0,2.0,1.0,0.0,1.0,0.0,0.0,0.0,0.0,0.0,0.0,3.0,4.0,0.0,,,,,2019-12-01,7-82-Bew-RU-AIG-J-d-2019-12.xlsx
162,29,Niger,0.0,0.0,0.0,0.0,0.0,0.0,0.0,0.0,0.0,0.0,0.0,0.0,0.0,0.0,1.0,1.0,0.0,,,,,2019-12-01,7-82-Bew-RU-AIG-J-d-2019-12.xlsx
163,30,Nigeria,34.0,33.0,6.0,0.0,36.0,3.0,0.0,26.0,0.0,0.0,0.0,0.0,0.0,0.0,255.0,226.0,38.0,,,,,2019-12-01,7-82-Bew-RU-AIG-J-d-2019-12.xlsx
164,31,Ruanda,0.0,0.0,0.0,0.0,0.0,0.0,0.0,0.0,0.0,0.0,0.0,0.0,0.0,0.0,0.0,0.0,0.0,,,,,2019-12-01,7-82-Bew-RU-AIG-J-d-2019-12.xlsx
165,32,Sambia,0.0,0.0,0.0,0.0,0.0,0.0,0.0,0.0,0.0,0.0,0.0,0.0,0.0,0.0,0.0,0.0,0.0,,,,,2019-12-01,7-82-Bew-RU-AIG-J-d-2019-12.xlsx
166,33,Senegal,9.0,9.0,1.0,0.0,6.0,0.0,0.0,6.0,0.0,0.0,0.0,0.0,0.0,0.0,33.0,24.0,9.0,,,,,2019-12-01,7-82-Bew-RU-AIG-J-d-2019-12.xlsx
167,34,Sierra Leone,3.0,0.0,1.0,0.0,1.0,0.0,0.0,0.0,0.0,0.0,0.0,0.0,0.0,0.0,2.0,2.0,0.0,,,,,2019-12-01,7-82-Bew-RU-AIG-J-d-2019-12.xlsx
168,35,Somalia,4.0,0.0,3.0,0.0,0.0,0.0,0.0,0.0,0.0,0.0,0.0,0.0,0.0,0.0,16.0,13.0,4.0,,,,,2019-12-01,7-82-Bew-RU-AIG-J-d-2019-12.xlsx
169,36,Südafrika,0.0,0.0,0.0,0.0,0.0,0.0,0.0,0.0,0.0,0.0,0.0,0.0,0.0,0.0,4.0,4.0,0.0,,,,,2019-12-01,7-82-Bew-RU-AIG-J-d-2019-12.xlsx
170,37,Sudan,2.0,3.0,1.0,0.0,3.0,0.0,0.0,2.0,0.0,0.0,0.0,0.0,0.0,0.0,7.0,6.0,2.0,,,,,2019-12-01,7-82-Bew-RU-AIG-J-d-2019-12.xlsx
171,38,Südsudan,1.0,1.0,0.0,0.0,0.0,0.0,0.0,0.0,0.0,0.0,0.0,0.0,0.0,0.0,0.0,0.0,1.0,,,,,2019-12-01,7-82-Bew-RU-AIG-J-d-2019-12.xlsx
172,39,Tansania,0.0,0.0,0.0,0.0,0.0,0.0,0.0,1.0,0.0,0.0,4.0,0.0,0.0,0.0,2.0,2.0,0.0,,,,,2019-12-01,7-82-Bew-RU-AIG-J-d-2019-12.xlsx
173,40,Togo,0.0,0.0,0.0,0.0,0.0,0.0,0.0,0.0,0.0,0.0,0.0,0.0,0.0,0.0,1.0,1.0,0.0,,,,,2019-12-01,7-82-Bew-RU-AIG-J-d-2019-12.xlsx
174,41,Tschad,1.0,0.0,1.0,0.0,0.0,0.0,0.0,0.0,0.0,0.0,0.0,0.0,0.0,0.0,1.0,0.0,0.0,,,,,2019-12-01,7-82-Bew-RU-AIG-J-d-2019-12.xlsx
175,42,Tunesien,31.0,33.0,8.0,0.0,25.0,1.0,0.0,21.0,0.0,0.0,0.0,0.0,0.0,0.0,78.0,40.0,34.0,,,,,2019-12-01,7-82-Bew-RU-AIG-J-d-2019-12.xlsx
176,43,Uganda,1.0,0.0,0.0,0.0,0.0,0.0,0.0,0.0,0.0,0.0,0.0,0.0,0.0,0.0,0.0,0.0,0.0,,,,,2019-12-01,7-82-Bew-RU-AIG-J-d-2019-12.xlsx
177,44,Westsahara,1.0,0.0,0.0,0.0,0.0,0.0,0.0,0.0,0.0,0.0,0.0,0.0,0.0,0.0,0.0,0.0,0.0,,,,,2019-12-01,7-82-Bew-RU-AIG-J-d-2019-12.xlsx
178,45,Zentralafr. Republik,0.0,0.0,0.0,0.0,0.0,0.0,0.0,0.0,0.0,0.0,0.0,0.0,0.0,0.0,0.0,0.0,0.0,,,,,2019-12-01,7-82-Bew-RU-AIG-J-d-2019-12.xlsx
179,46,Zimbabwe,1.0,0.0,0.0,0.0,0.0,0.0,0.0,0.0,0.0,0.0,0.0,0.0,0.0,0.0,1.0,0.0,0.0,,,,,2019-12-01,7-82-Bew-RU-AIG-J-d-2019-12.xlsx
180,49,Argentinien,0.0,0.0,0.0,0.0,0.0,0.0,0.0,0.0,0.0,0.0,1.0,1.0,0.0,0.0,8.0,6.0,2.0,,,,,2019-12-01,7-82-Bew-RU-AIG-J-d-2019-12.xlsx
181,50,Bolivien,0.0,0.0,0.0,0.0,0.0,0.0,0.0,0.0,0.0,0.0,0.0,0.0,0.0,0.0,8.0,5.0,2.0,,,,,2019-12-01,7-82-Bew-RU-AIG-J-d-2019-12.xlsx
182,51,Brasilien,8.0,3.0,2.0,0.0,3.0,1.0,0.0,1.0,0.0,0.0,3.0,3.0,0.0,0.0,110.0,95.0,17.0,,,,,2019-12-01,7-82-Bew-RU-AIG-J-d-2019-12.xlsx
183,52,Chile,1.0,1.0,0.0,0.0,0.0,0.0,0.0,0.0,0.0,0.0,0.0,0.0,0.0,0.0,14.0,13.0,0.0,,,,,2019-12-01,7-82-Bew-RU-AIG-J-d-2019-12.xlsx
184,53,Costa Rica,0.0,0.0,0.0,0.0,0.0,0.0,0.0,0.0,0.0,0.0,0.0,0.0,0.0,0.0,1.0,1.0,0.0,,,,,2019-12-01,7-82-Bew-RU-AIG-J-d-2019-12.xlsx
185,54,Dominikanische Republik,5.0,4.0,2.0,0.0,6.0,0.0,0.0,6.0,0.0,0.0,1.0,1.0,0.0,0.0,48.0,39.0,11.0,,,,,2019-12-01,7-82-Bew-RU-AIG-J-d-2019-12.xlsx
186,55,Ecuador,0.0,0.0,0.0,0.0,0.0,0.0,0.0,0.0,0.0,0.0,1.0,1.0,0.0,0.0,4.0,4.0,0.0,,,,,2019-12-01,7-82-Bew-RU-AIG-J-d-2019-12.xlsx
187,56,El Salvador,0.0,0.0,0.0,0.0,0.0,0.0,0.0,0.0,0.0,0.0,0.0,0.0,0.0,0.0,1.0,1.0,0.0,,,,,2019-12-01,7-82-Bew-RU-AIG-J-d-2019-12.xlsx
188,57,Guatemala,0.0,0.0,0.0,0.0,0.0,0.0,0.0,0.0,0.0,0.0,0.0,0.0,0.0,0.0,0.0,0.0,0.0,,,,,2019-12-01,7-82-Bew-RU-AIG-J-d-2019-12.xlsx
189,58,Haiti,0.0,0.0,0.0,0.0,0.0,0.0,0.0,0.0,0.0,0.0,0.0,0.0,0.0,0.0,3.0,2.0,1.0,,,,,2019-12-01,7-82-Bew-RU-AIG-J-d-2019-12.xlsx
190,59,Honduras,0.0,0.0,0.0,0.0,0.0,0.0,0.0,0.0,0.0,0.0,0.0,0.0,0.0,0.0,7.0,3.0,3.0,,,,,2019-12-01,7-82-Bew-RU-AIG-J-d-2019-12.xlsx
191,60,Jamaika,3.0,0.0,2.0,0.0,0.0,0.0,0.0,0.0,0.0,0.0,0.0,0.0,0.0,0.0,3.0,0.0,1.0,,,,,2019-12-01,7-82-Bew-RU-AIG-J-d-2019-12.xlsx
192,61,Kanada,0.0,0.0,0.0,0.0,0.0,0.0,0.0,0.0,0.0,0.0,0.0,0.0,0.0,0.0,1.0,1.0,0.0,,,,,2019-12-01,7-82-Bew-RU-AIG-J-d-2019-12.xlsx
193,62,Kolumbien,3.0,3.0,0.0,0.0,4.0,0.0,0.0,4.0,0.0,0.0,0.0,0.0,0.0,0.0,53.0,42.0,12.0,,,,,2019-12-01,7-82-Bew-RU-AIG-J-d-2019-12.xlsx
194,63,Kuba,3.0,2.0,2.0,0.0,1.0,1.0,0.0,0.0,0.0,0.0,0.0,0.0,0.0,0.0,2.0,3.0,0.0,,,,,2019-12-01,7-82-Bew-RU-AIG-J-d-2019-12.xlsx
195,64,Mexiko,1.0,0.0,0.0,0.0,0.0,0.0,0.0,0.0,0.0,0.0,0.0,0.0,0.0,0.0,8.0,7.0,1.0,,,,,2019-12-01,7-82-Bew-RU-AIG-J-d-2019-12.xlsx
196,65,Nicaragua,0.0,0.0,0.0,0.0,0.0,0.0,0.0,0.0,0.0,0.0,0.0,0.0,0.0,0.0,3.0,2.0,1.0,,,,,2019-12-01,7-82-Bew-RU-AIG-J-d-2019-12.xlsx
197,66,Paraguay,0.0,0.0,0.0,0.0,0.0,0.0,0.0,0.0,0.0,0.0,0.0,0.0,0.0,0.0,7.0,7.0,0.0,,,,,2019-12-01,7-82-Bew-RU-AIG-J-d-2019-12.xlsx
198,67,Peru,0.0,1.0,0.0,0.0,1.0,0.0,0.0,1.0,0.0,0.0,2.0,2.0,0.0,0.0,19.0,16.0,2.0,,,,,2019-12-01,7-82-Bew-RU-AIG-J-d-2019-12.xlsx
199,68,Uruguay,1.0,1.0,0.0,0.0,1.0,0.0,0.0,0.0,0.0,1.0,0.0,0.0,0.0,0.0,3.0,2.0,0.0,,,,,2019-12-01,7-82-Bew-RU-AIG-J-d-2019-12.xlsx
200,69,USA,1.0,1.0,0.0,0.0,1.0,0.0,0.0,1.0,0.0,0.0,0.0,0.0,0.0,0.0,12.0,8.0,4.0,,,,,2019-12-01,7-82-Bew-RU-AIG-J-d-2019-12.xlsx
201,70,Venezuela,1.0,1.0,0.0,0.0,1.0,0.0,0.0,1.0,0.0,0.0,0.0,0.0,0.0,0.0,10.0,4.0,4.0,,,,,2019-12-01,7-82-Bew-RU-AIG-J-d-2019-12.xlsx
202,73,Afghanistan,0.0,1.0,0.0,0.0,0.0,0.0,0.0,0.0,0.0,1.0,0.0,0.0,0.0,0.0,15.0,13.0,4.0,,,,,2019-12-01,7-82-Bew-RU-AIG-J-d-2019-12.xlsx
203,74,Armenien,0.0,0.0,0.0,0.0,0.0,0.0,0.0,0.0,0.0,0.0,0.0,0.0,0.0,0.0,3.0,3.0,0.0,,,,,2019-12-01,7-82-Bew-RU-AIG-J-d-2019-12.xlsx
204,75,Aserbaidschan,0.0,0.0,0.0,0.0,0.0,0.0,0.0,0.0,0.0,0.0,0.0,0.0,0.0,0.0,1.0,0.0,1.0,,,,,2019-12-01,7-82-Bew-RU-AIG-J-d-2019-12.xlsx
205,76,Bangladesh,0.0,0.0,0.0,0.0,1.0,1.0,0.0,0.0,0.0,0.0,0.0,0.0,0.0,0.0,6.0,3.0,3.0,,,,,2019-12-01,7-82-Bew-RU-AIG-J-d-2019-12.xlsx
206,77,Bhutan,0.0,0.0,0.0,0.0,0.0,0.0,0.0,0.0,0.0,0.0,0.0,0.0,0.0,0.0,0.0,0.0,0.0,,,,,2019-12-01,7-82-Bew-RU-AIG-J-d-2019-12.xlsx
207,78,China (Volksrepublik),4.0,0.0,2.0,0.0,0.0,0.0,0.0,0.0,0.0,0.0,0.0,0.0,0.0,0.0,16.0,10.0,3.0,,,,,2019-12-01,7-82-Bew-RU-AIG-J-d-2019-12.xlsx
208,79,Georgien,11.0,13.0,0.0,0.0,20.0,10.0,0.0,10.0,0.0,0.0,0.0,0.0,0.0,0.0,103.0,89.0,17.0,,,,,2019-12-01,7-82-Bew-RU-AIG-J-d-2019-12.xlsx
209,80,Indien,1.0,1.0,0.0,0.0,2.0,0.0,0.0,1.0,0.0,0.0,0.0,0.0,0.0,0.0,10.0,10.0,1.0,,,,,2019-12-01,7-82-Bew-RU-AIG-J-d-2019-12.xlsx
210,81,Irak,18.0,3.0,12.0,1.0,5.0,5.0,0.0,0.0,0.0,0.0,5.0,1.0,4.0,0.0,20.0,16.0,2.0,,,,,2019-12-01,7-82-Bew-RU-AIG-J-d-2019-12.xlsx
211,82,Iran,1.0,0.0,0.0,0.0,0.0,0.0,0.0,0.0,0.0,0.0,0.0,0.0,0.0,0.0,12.0,8.0,3.0,,,,,2019-12-01,7-82-Bew-RU-AIG-J-d-2019-12.xlsx
212,83,Israel,2.0,1.0,0.0,0.0,1.0,0.0,0.0,1.0,0.0,0.0,0.0,0.0,0.0,0.0,7.0,7.0,0.0,,,,,2019-12-01,7-82-Bew-RU-AIG-J-d-2019-12.xlsx
213,84,Japan,0.0,0.0,0.0,0.0,0.0,0.0,0.0,0.0,0.0,0.0,0.0,0.0,0.0,0.0,0.0,0.0,0.0,,,,,2019-12-01,7-82-Bew-RU-AIG-J-d-2019-12.xlsx
214,85,Jemen,0.0,0.0,0.0,0.0,0.0,0.0,0.0,0.0,0.0,0.0,0.0,0.0,0.0,0.0,0.0,0.0,0.0,,,,,2019-12-01,7-82-Bew-RU-AIG-J-d-2019-12.xlsx
215,86,Jordanien,1.0,1.0,1.0,0.0,1.0,0.0,0.0,1.0,0.0,0.0,0.0,0.0,0.0,0.0,5.0,4.0,1.0,,,,,2019-12-01,7-82-Bew-RU-AIG-J-d-2019-12.xlsx
216,87,Kambodscha,1.0,0.0,0.0,1.0,0.0,0.0,0.0,0.0,0.0,0.0,0.0,0.0,0.0,0.0,0.0,0.0,0.0,,,,,2019-12-01,7-82-Bew-RU-AIG-J-d-2019-12.xlsx
217,88,Kasachstan,0.0,0.0,0.0,0.0,0.0,0.0,0.0,0.0,0.0,0.0,0.0,0.0,0.0,0.0,2.0,2.0,0.0,,,,,2019-12-01,7-82-Bew-RU-AIG-J-d-2019-12.xlsx
218,89,Kirgisistan,0.0,0.0,0.0,0.0,0.0,0.0,0.0,0.0,0.0,0.0,0.0,0.0,0.0,0.0,0.0,0.0,0.0,,,,,2019-12-01,7-82-Bew-RU-AIG-J-d-2019-12.xlsx
219,90,Korea (Süd),0.0,0.0,0.0,0.0,0.0,0.0,0.0,0.0,0.0,0.0,0.0,0.0,0.0,0.0,2.0,2.0,0.0,,,,,2019-12-01,7-82-Bew-RU-AIG-J-d-2019-12.xlsx
220,91,Libanon,1.0,1.0,2.0,0.0,1.0,0.0,0.0,1.0,0.0,0.0,0.0,0.0,0.0,0.0,10.0,7.0,3.0,,,,,2019-12-01,7-82-Bew-RU-AIG-J-d-2019-12.xlsx
221,92,Malaysia,0.0,0.0,0.0,0.0,0.0,0.0,0.0,0.0,0.0,0.0,0.0,0.0,0.0,0.0,1.0,1.0,0.0,,,,,2019-12-01,7-82-Bew-RU-AIG-J-d-2019-12.xlsx
222,93,Mongolei,0.0,0.0,0.0,0.0,1.0,1.0,0.0,0.0,0.0,0.0,0.0,0.0,0.0,0.0,8.0,8.0,0.0,,,,,2019-12-01,7-82-Bew-RU-AIG-J-d-2019-12.xlsx
223,94,Myanmar,0.0,0.0,0.0,0.0,0.0,0.0,0.0,0.0,0.0,0.0,0.0,0.0,0.0,0.0,0.0,0.0,0.0,,,,,2019-12-01,7-82-Bew-RU-AIG-J-d-2019-12.xlsx
224,95,Nepal,1.0,1.0,0.0,0.0,0.0,0.0,0.0,0.0,0.0,0.0,0.0,0.0,0.0,0.0,0.0,0.0,0.0,,,,,2019-12-01,7-82-Bew-RU-AIG-J-d-2019-12.xlsx
225,96,Pakistan,1.0,1.0,0.0,0.0,1.0,0.0,0.0,1.0,0.0,0.0,0.0,0.0,0.0,0.0,13.0,8.0,4.0,,,,,2019-12-01,7-82-Bew-RU-AIG-J-d-2019-12.xlsx
226,97,Philippinen,0.0,0.0,0.0,0.0,0.0,0.0,0.0,0.0,0.0,0.0,2.0,2.0,0.0,0.0,10.0,10.0,0.0,,,,,2019-12-01,7-82-Bew-RU-AIG-J-d-2019-12.xlsx
227,98,Saudi-Arabien,0.0,0.0,0.0,0.0,0.0,0.0,0.0,0.0,0.0,0.0,0.0,0.0,0.0,0.0,0.0,0.0,0.0,,,,,2019-12-01,7-82-Bew-RU-AIG-J-d-2019-12.xlsx
228,99,Sri Lanka,11.0,8.0,6.0,0.0,5.0,0.0,0.0,3.0,0.0,0.0,0.0,0.0,0.0,0.0,25.0,13.0,10.0,,,,,2019-12-01,7-82-Bew-RU-AIG-J-d-2019-12.xlsx
229,100,Syrien,3.0,1.0,0.0,0.0,0.0,0.0,0.0,0.0,0.0,0.0,0.0,0.0,0.0,0.0,7.0,6.0,1.0,,,,,2019-12-01,7-82-Bew-RU-AIG-J-d-2019-12.xlsx
230,101,Tadschikistan,0.0,0.0,0.0,0.0,0.0,0.0,0.0,0.0,0.0,0.0,0.0,0.0,0.0,0.0,0.0,0.0,0.0,,,,,2019-12-01,7-82-Bew-RU-AIG-J-d-2019-12.xlsx
231,102,Taiwan,0.0,0.0,0.0,0.0,0.0,0.0,0.0,0.0,0.0,0.0,0.0,0.0,0.0,0.0,0.0,0.0,0.0,,,,,2019-12-01,7-82-Bew-RU-AIG-J-d-2019-12.xlsx
232,103,Thailand,1.0,1.0,0.0,0.0,1.0,0.0,0.0,1.0,0.0,0.0,1.0,1.0,0.0,0.0,10.0,9.0,1.0,,,,,2019-12-01,7-82-Bew-RU-AIG-J-d-2019-12.xlsx
233,104,Usbekistan,0.0,0.0,0.0,0.0,0.0,0.0,0.0,0.0,0.0,0.0,0.0,0.0,0.0,0.0,2.0,2.0,0.0,,,,,2019-12-01,7-82-Bew-RU-AIG-J-d-2019-12.xlsx
234,105,Vietnam,0.0,1.0,0.0,0.0,1.0,0.0,0.0,1.0,0.0,0.0,0.0,0.0,0.0,0.0,5.0,5.0,0.0,,,,,2019-12-01,7-82-Bew-RU-AIG-J-d-2019-12.xlsx
235,108,Albanien,20.0,10.0,0.0,0.0,14.0,0.0,0.0,14.0,0.0,0.0,0.0,0.0,0.0,0.0,634.0,584.0,51.0,,,,,2019-12-01,7-82-Bew-RU-AIG-J-d-2019-12.xlsx
236,109,Belarus,2.0,1.0,0.0,0.0,3.0,1.0,0.0,2.0,0.0,0.0,0.0,0.0,0.0,0.0,12.0,8.0,4.0,,,,,2019-12-01,7-82-Bew-RU-AIG-J-d-2019-12.xlsx
237,110,Belgien,0.0,0.0,0.0,0.0,1.0,0.0,0.0,0.0,0.0,0.0,0.0,0.0,0.0,0.0,5.0,4.0,1.0,,,,,2019-12-01,7-82-Bew-RU-AIG-J-d-2019-12.xlsx
238,111,Bosnien u. Herzegowina,6.0,6.0,0.0,0.0,6.0,0.0,0.0,5.0,0.0,1.0,0.0,0.0,0.0,0.0,49.0,43.0,6.0,,,,,2019-12-01,7-82-Bew-RU-AIG-J-d-2019-12.xlsx
239,112,Bulgarien,0.0,0.0,0.0,0.0,0.0,0.0,0.0,0.0,0.0,0.0,3.0,3.0,0.0,0.0,31.0,31.0,1.0,,,,,2019-12-01,7-82-Bew-RU-AIG-J-d-2019-12.xlsx
240,113,Deutschland,0.0,0.0,0.0,0.0,0.0,0.0,0.0,0.0,0.0,0.0,0.0,0.0,0.0,0.0,8.0,7.0,1.0,,,,,2019-12-01,7-82-Bew-RU-AIG-J-d-2019-12.xlsx
241,114,Estland,0.0,0.0,0.0,0.0,0.0,0.0,0.0,0.0,0.0,0.0,0.0,0.0,0.0,0.0,3.0,2.0,1.0,,,,,2019-12-01,7-82-Bew-RU-AIG-J-d-2019-12.xlsx
242,115,Frankreich,1.0,0.0,1.0,0.0,0.0,0.0,0.0,0.0,0.0,0.0,0.0,0.0,0.0,0.0,8.0,8.0,0.0,,,,,2019-12-01,7-82-Bew-RU-AIG-J-d-2019-12.xlsx
243,116,Griechenland,0.0,0.0,0.0,0.0,0.0,0.0,0.0,0.0,0.0,0.0,0.0,0.0,0.0,0.0,4.0,4.0,0.0,,,,,2019-12-01,7-82-Bew-RU-AIG-J-d-2019-12.xlsx
244,117,Grossbritannien,0.0,0.0,0.0,0.0,0.0,0.0,0.0,0.0,0.0,0.0,0.0,0.0,0.0,0.0,8.0,7.0,2.0,,,,,2019-12-01,7-82-Bew-RU-AIG-J-d-2019-12.xlsx
245,118,Italien,1.0,0.0,0.0,0.0,0.0,0.0,0.0,0.0,0.0,0.0,0.0,0.0,0.0,0.0,32.0,27.0,4.0,,,,,2019-12-01,7-82-Bew-RU-AIG-J-d-2019-12.xlsx
246,119,Kosovo,55.0,55.0,0.0,0.0,66.0,2.0,0.0,63.0,0.0,0.0,1.0,1.0,0.0,0.0,280.0,247.0,43.0,,,,,2019-12-01,7-82-Bew-RU-AIG-J-d-2019-12.xlsx
247,120,Kroatien,0.0,0.0,0.0,0.0,0.0,0.0,0.0,0.0,0.0,0.0,0.0,0.0,0.0,0.0,26.0,22.0,3.0,,,,,2019-12-01,7-82-Bew-RU-AIG-J-d-2019-12.xlsx
248,121,Lettland,0.0,0.0,0.0,0.0,0.0,0.0,0.0,0.0,0.0,0.0,0.0,0.0,0.0,0.0,5.0,6.0,0.0,,,,,2019-12-01,7-82-Bew-RU-AIG-J-d-2019-12.xlsx
249,122,Litauen,1.0,1.0,0.0,0.0,1.0,0.0,0.0,1.0,0.0,0.0,0.0,0.0,0.0,0.0,32.0,25.0,8.0,,,,,2019-12-01,7-82-Bew-RU-AIG-J-d-2019-12.xlsx
250,123,Nordmazedonien,26.0,30.0,2.0,0.0,27.0,0.0,0.0,26.0,0.0,0.0,0.0,0.0,0.0,0.0,136.0,114.0,23.0,,,,,2019-12-01,7-82-Bew-RU-AIG-J-d-2019-12.xlsx
251,124,Moldova,1.0,3.0,0.0,0.0,7.0,1.0,0.0,5.0,0.0,1.0,0.0,0.0,0.0,0.0,27.0,24.0,3.0,,,,,2019-12-01,7-82-Bew-RU-AIG-J-d-2019-12.xlsx
252,125,Montenegro,1.0,1.0,1.0,0.0,1.0,0.0,0.0,1.0,0.0,0.0,0.0,0.0,0.0,0.0,13.0,13.0,0.0,,,,,2019-12-01,7-82-Bew-RU-AIG-J-d-2019-12.xlsx
253,126,Niederlande,0.0,0.0,0.0,0.0,0.0,0.0,0.0,0.0,0.0,0.0,0.0,0.0,0.0,0.0,19.0,15.0,4.0,,,,,2019-12-01,7-82-Bew-RU-AIG-J-d-2019-12.xlsx
254,127,Österreich,0.0,0.0,0.0,0.0,0.0,0.0,0.0,0.0,0.0,0.0,0.0,0.0,0.0,0.0,4.0,3.0,1.0,,,,,2019-12-01,7-82-Bew-RU-AIG-J-d-2019-12.xlsx
255,128,Polen,0.0,0.0,0.0,0.0,0.0,0.0,0.0,0.0,0.0,0.0,0.0,0.0,0.0,0.0,48.0,39.0,8.0,,,,,2019-12-01,7-82-Bew-RU-AIG-J-d-2019-12.xlsx
256,129,Portugal,0.0,0.0,0.0,0.0,0.0,0.0,0.0,0.0,0.0,0.0,0.0,0.0,0.0,0.0,111.0,94.0,24.0,,,,,2019-12-01,7-82-Bew-RU-AIG-J-d-2019-12.xlsx
257,130,Rumänien,0.0,0.0,0.0,0.0,0.0,0.0,0.0,0.0,0.0,0.0,8.0,8.0,0.0,0.0,369.0,307.0,61.0,,,,,2019-12-01,7-82-Bew-RU-AIG-J-d-2019-12.xlsx
258,131,Russland,1.0,1.0,0.0,0.0,1.0,0.0,0.0,1.0,0.0,0.0,0.0,0.0,0.0,0.0,20.0,16.0,3.0,,,,,2019-12-01,7-82-Bew-RU-AIG-J-d-2019-12.xlsx
259,132,Schweden,0.0,0.0,0.0,0.0,0.0,0.0,0.0,0.0,0.0,0.0,0.0,0.0,0.0,0.0,1.0,1.0,0.0,,,,,2019-12-01,7-82-Bew-RU-AIG-J-d-2019-12.xlsx
260,133,Serbien,35.0,32.0,0.0,0.0,35.0,2.0,1.0,30.0,0.0,2.0,1.0,1.0,0.0,0.0,313.0,275.0,20.0,,,,,2019-12-01,7-82-Bew-RU-AIG-J-d-2019-12.xlsx
261,134,Slowakische Republik,0.0,0.0,0.0,0.0,2.0,2.0,0.0,0.0,0.0,0.0,0.0,0.0,0.0,0.0,9.0,9.0,0.0,,,,,2019-12-01,7-82-Bew-RU-AIG-J-d-2019-12.xlsx
262,135,Slowenien,0.0,0.0,0.0,0.0,0.0,0.0,0.0,0.0,0.0,0.0,0.0,0.0,0.0,0.0,3.0,3.0,0.0,,,,,2019-12-01,7-82-Bew-RU-AIG-J-d-2019-12.xlsx
263,136,Spanien,0.0,0.0,0.0,0.0,0.0,0.0,0.0,0.0,0.0,0.0,1.0,1.0,0.0,0.0,68.0,61.0,6.0,,,,,2019-12-01,7-82-Bew-RU-AIG-J-d-2019-12.xlsx
264,137,Tschechische Republik,0.0,0.0,0.0,0.0,0.0,0.0,0.0,0.0,0.0,0.0,0.0,0.0,0.0,0.0,7.0,5.0,2.0,,,,,2019-12-01,7-82-Bew-RU-AIG-J-d-2019-12.xlsx
265,138,Tschechoslowakei,0.0,0.0,0.0,0.0,0.0,0.0,0.0,0.0,0.0,0.0,0.0,0.0,0.0,0.0,1.0,1.0,0.0,,,,,2019-12-01,7-82-Bew-RU-AIG-J-d-2019-12.xlsx
266,139,Türkei,12.0,4.0,2.0,1.0,5.0,0.0,0.0,4.0,0.0,0.0,0.0,0.0,0.0,0.0,56.0,44.0,13.0,,,,,2019-12-01,7-82-Bew-RU-AIG-J-d-2019-12.xlsx
267,140,Ukraine,2.0,3.0,0.0,0.0,3.0,0.0,0.0,3.0,0.0,0.0,0.0,0.0,0.0,0.0,23.0,19.0,4.0,,,,,2019-12-01,7-82-Bew-RU-AIG-J-d-2019-12.xlsx
268,141,Ungarn,0.0,0.0,0.0,0.0,0.0,0.0,0.0,0.0,0.0,0.0,5.0,5.0,0.0,0.0,25.0,21.0,4.0,,,,,2019-12-01,7-82-Bew-RU-AIG-J-d-2019-12.xlsx
269,144,Australien,0.0,0.0,0.0,0.0,0.0,0.0,0.0,0.0,0.0,0.0,0.0,0.0,0.0,0.0,3.0,1.0,2.0,,,,,2019-12-01,7-82-Bew-RU-AIG-J-d-2019-12.xlsx
270,145,Neuseeland,0.0,0.0,0.0,0.0,0.0,0.0,0.0,0.0,0.0,0.0,0.0,0.0,0.0,0.0,0.0,0.0,0.0,,,,,2019-12-01,7-82-Bew-RU-AIG-J-d-2019-12.xlsx
271,148,Staatenlos,0.0,0.0,0.0,0.0,0.0,0.0,0.0,0.0,0.0,0.0,0.0,0.0,0.0,0.0,2.0,0.0,1.0,,,,,2019-12-01,7-82-Bew-RU-AIG-J-d-2019-12.xlsx
272,149,Ohne Nationalität,4.0,0.0,6.0,0.0,0.0,0.0,0.0,0.0,0.0,0.0,0.0,0.0,0.0,0.0,5.0,4.0,1.0,,,,,2019-12-01,7-82-Bew-RU-AIG-J-d-2019-12.xlsx
273,150,Staat unbekannt,8.0,0.0,5.0,0.0,0.0,0.0,0.0,0.0,0.0,0.0,0.0,0.0,0.0,0.0,20.0,19.0,2.0,,,,,2019-12-01,7-82-Bew-RU-AIG-J-d-2019-12.xlsx
