,Nation,TotalRückübernahmeverfahren,OutVerfahren,InVerfahren,Total Erledigungen (inkl. Abschreibungen),Erledigungen,,NichteintretensentscheideRüA,ÜberstellungenOutVerfahren,Total Erledigungen (inkl. Abschreibungen).1,Erledigungen.1,.1,ÜberstellungenInVerfahren,Datum,file_name,name_of_sem_statistics,name_of_sem_code,flow_or_stock,yearly_or_monthly
0,Herkunft unbekannt,17.0,16.0,1.0,16.0,10.0,5.0,0.0,14.0,1.0,1.0,0.0,1.0,2017-12-01,7-55-Bew-RueA-J-d-2020-12.xlsx,7-55-Bew-RueA-J,7-55,flow,yearly
2,Ägypten,0.0,0.0,0.0,0.0,0.0,0.0,1.0,0.0,0.0,0.0,0.0,0.0,2017-12-01,7-55-Bew-RueA-J-d-2020-12.xlsx,7-55-Bew-RueA-J,7-55,flow,yearly
3,Algerien,12.0,12.0,0.0,12.0,9.0,3.0,2.0,6.0,0.0,0.0,0.0,0.0,2017-12-01,7-55-Bew-RueA-J-d-2020-12.xlsx,7-55-Bew-RueA-J,7-55,flow,yearly
4,Angola,1.0,1.0,0.0,1.0,1.0,0.0,0.0,0.0,0.0,0.0,0.0,0.0,2017-12-01,7-55-Bew-RueA-J-d-2020-12.xlsx,7-55-Bew-RueA-J,7-55,flow,yearly
5,Äquatorialguinea,1.0,1.0,0.0,1.0,1.0,0.0,0.0,1.0,0.0,0.0,0.0,0.0,2017-12-01,7-55-Bew-RueA-J-d-2020-12.xlsx,7-55-Bew-RueA-J,7-55,flow,yearly
6,Äthiopien,12.0,12.0,0.0,10.0,10.0,0.0,11.0,1.0,0.0,0.0,0.0,0.0,2017-12-01,7-55-Bew-RueA-J-d-2020-12.xlsx,7-55-Bew-RueA-J,7-55,flow,yearly
7,Burkina Faso,4.0,4.0,0.0,4.0,1.0,2.0,0.0,1.0,0.0,0.0,0.0,0.0,2017-12-01,7-55-Bew-RueA-J-d-2020-12.xlsx,7-55-Bew-RueA-J,7-55,flow,yearly
8,Côte d'Ivoire,2.0,2.0,0.0,2.0,2.0,0.0,0.0,1.0,0.0,0.0,0.0,0.0,2017-12-01,7-55-Bew-RueA-J-d-2020-12.xlsx,7-55-Bew-RueA-J,7-55,flow,yearly
9,Eritrea,70.0,63.0,7.0,55.0,53.0,0.0,40.0,17.0,7.0,7.0,0.0,2.0,2017-12-01,7-55-Bew-RueA-J-d-2020-12.xlsx,7-55-Bew-RueA-J,7-55,flow,yearly
10,Gambia,12.0,12.0,0.0,12.0,10.0,2.0,3.0,9.0,0.0,0.0,0.0,0.0,2017-12-01,7-55-Bew-RueA-J-d-2020-12.xlsx,7-55-Bew-RueA-J,7-55,flow,yearly
11,Ghana,4.0,4.0,0.0,3.0,3.0,0.0,0.0,3.0,0.0,0.0,0.0,0.0,2017-12-01,7-55-Bew-RueA-J-d-2020-12.xlsx,7-55-Bew-RueA-J,7-55,flow,yearly
12,Guinea,15.0,15.0,0.0,18.0,14.0,2.0,0.0,9.0,0.0,0.0,0.0,0.0,2017-12-01,7-55-Bew-RueA-J-d-2020-12.xlsx,7-55-Bew-RueA-J,7-55,flow,yearly
13,Guinea-Bissau,6.0,6.0,0.0,4.0,4.0,0.0,0.0,2.0,0.0,0.0,0.0,0.0,2017-12-01,7-55-Bew-RueA-J-d-2020-12.xlsx,7-55-Bew-RueA-J,7-55,flow,yearly
14,Kamerun,1.0,1.0,0.0,1.0,1.0,0.0,0.0,0.0,0.0,0.0,0.0,0.0,2017-12-01,7-55-Bew-RueA-J-d-2020-12.xlsx,7-55-Bew-RueA-J,7-55,flow,yearly
15,Kongo DR,10.0,10.0,0.0,10.0,9.0,1.0,14.0,0.0,0.0,0.0,0.0,0.0,2017-12-01,7-55-Bew-RueA-J-d-2020-12.xlsx,7-55-Bew-RueA-J,7-55,flow,yearly
16,Liberia,4.0,4.0,0.0,3.0,2.0,0.0,0.0,1.0,0.0,0.0,0.0,0.0,2017-12-01,7-55-Bew-RueA-J-d-2020-12.xlsx,7-55-Bew-RueA-J,7-55,flow,yearly
17,Libyen,2.0,2.0,0.0,0.0,0.0,0.0,1.0,0.0,0.0,0.0,0.0,0.0,2017-12-01,7-55-Bew-RueA-J-d-2020-12.xlsx,7-55-Bew-RueA-J,7-55,flow,yearly
18,Mali,6.0,6.0,0.0,4.0,4.0,0.0,2.0,3.0,0.0,0.0,0.0,0.0,2017-12-01,7-55-Bew-RueA-J-d-2020-12.xlsx,7-55-Bew-RueA-J,7-55,flow,yearly
19,Marokko,14.0,14.0,0.0,14.0,11.0,2.0,2.0,9.0,0.0,0.0,0.0,0.0,2017-12-01,7-55-Bew-RueA-J-d-2020-12.xlsx,7-55-Bew-RueA-J,7-55,flow,yearly
20,Mauretanien,1.0,1.0,0.0,1.0,1.0,0.0,1.0,1.0,0.0,0.0,0.0,0.0,2017-12-01,7-55-Bew-RueA-J-d-2020-12.xlsx,7-55-Bew-RueA-J,7-55,flow,yearly
21,Mosambik,1.0,1.0,0.0,1.0,1.0,0.0,0.0,1.0,0.0,0.0,0.0,0.0,2017-12-01,7-55-Bew-RueA-J-d-2020-12.xlsx,7-55-Bew-RueA-J,7-55,flow,yearly
22,Nigeria,119.0,119.0,0.0,110.0,96.0,10.0,11.0,87.0,0.0,0.0,0.0,0.0,2017-12-01,7-55-Bew-RueA-J-d-2020-12.xlsx,7-55-Bew-RueA-J,7-55,flow,yearly
23,Senegal,9.0,9.0,0.0,9.0,8.0,1.0,1.0,4.0,0.0,0.0,0.0,0.0,2017-12-01,7-55-Bew-RueA-J-d-2020-12.xlsx,7-55-Bew-RueA-J,7-55,flow,yearly
24,Sierra Leone,3.0,3.0,0.0,3.0,3.0,0.0,0.0,3.0,0.0,0.0,0.0,0.0,2017-12-01,7-55-Bew-RueA-J-d-2020-12.xlsx,7-55-Bew-RueA-J,7-55,flow,yearly
25,Somalia,37.0,36.0,1.0,29.0,27.0,1.0,18.0,8.0,1.0,1.0,0.0,1.0,2017-12-01,7-55-Bew-RueA-J-d-2020-12.xlsx,7-55-Bew-RueA-J,7-55,flow,yearly
26,Sudan,3.0,3.0,0.0,3.0,3.0,0.0,0.0,2.0,0.0,0.0,0.0,0.0,2017-12-01,7-55-Bew-RueA-J-d-2020-12.xlsx,7-55-Bew-RueA-J,7-55,flow,yearly
27,Togo,1.0,1.0,0.0,1.0,1.0,0.0,0.0,1.0,0.0,0.0,0.0,0.0,2017-12-01,7-55-Bew-RueA-J-d-2020-12.xlsx,7-55-Bew-RueA-J,7-55,flow,yearly
28,Tschad,1.0,1.0,0.0,1.0,0.0,1.0,0.0,0.0,0.0,0.0,0.0,0.0,2017-12-01,7-55-Bew-RueA-J-d-2020-12.xlsx,7-55-Bew-RueA-J,7-55,flow,yearly
29,Tunesien,1.0,1.0,0.0,0.0,0.0,0.0,0.0,0.0,0.0,0.0,0.0,0.0,2017-12-01,7-55-Bew-RueA-J-d-2020-12.xlsx,7-55-Bew-RueA-J,7-55,flow,yearly
30,Total Afrika,352.0,344.0,8.0,312.0,275.0,25.0,107.0,170.0,8.0,8.0,0.0,3.0,2017-12-01,7-55-Bew-RueA-J-d-2020-12.xlsx,7-55-Bew-RueA-J,7-55,flow,yearly
32,Bolivien,1.0,1.0,0.0,1.0,0.0,1.0,0.0,0.0,0.0,0.0,0.0,0.0,2017-12-01,7-55-Bew-RueA-J-d-2020-12.xlsx,7-55-Bew-RueA-J,7-55,flow,yearly
33,Brasilien,1.0,1.0,0.0,0.0,0.0,0.0,0.0,1.0,0.0,0.0,0.0,0.0,2017-12-01,7-55-Bew-RueA-J-d-2020-12.xlsx,7-55-Bew-RueA-J,7-55,flow,yearly
34,Chile,1.0,1.0,0.0,1.0,1.0,0.0,0.0,1.0,0.0,0.0,0.0,0.0,2017-12-01,7-55-Bew-RueA-J-d-2020-12.xlsx,7-55-Bew-RueA-J,7-55,flow,yearly
35,Dominikanische Republik,29.0,29.0,0.0,26.0,16.0,8.0,0.0,7.0,0.0,0.0,0.0,0.0,2017-12-01,7-55-Bew-RueA-J-d-2020-12.xlsx,7-55-Bew-RueA-J,7-55,flow,yearly
36,Ecuador,1.0,1.0,0.0,2.0,2.0,0.0,0.0,1.0,0.0,0.0,0.0,0.0,2017-12-01,7-55-Bew-RueA-J-d-2020-12.xlsx,7-55-Bew-RueA-J,7-55,flow,yearly
37,Haiti,0.0,0.0,0.0,4.0,4.0,0.0,0.0,0.0,0.0,0.0,0.0,0.0,2017-12-01,7-55-Bew-RueA-J-d-2020-12.xlsx,7-55-Bew-RueA-J,7-55,flow,yearly
38,Honduras,1.0,1.0,0.0,1.0,0.0,1.0,0.0,0.0,0.0,0.0,0.0,0.0,2017-12-01,7-55-Bew-RueA-J-d-2020-12.xlsx,7-55-Bew-RueA-J,7-55,flow,yearly
39,Kolumbien,2.0,2.0,0.0,2.0,1.0,1.0,0.0,0.0,0.0,0.0,0.0,0.0,2017-12-01,7-55-Bew-RueA-J-d-2020-12.xlsx,7-55-Bew-RueA-J,7-55,flow,yearly
40,Kuba,1.0,1.0,0.0,1.0,0.0,1.0,0.0,0.0,0.0,0.0,0.0,0.0,2017-12-01,7-55-Bew-RueA-J-d-2020-12.xlsx,7-55-Bew-RueA-J,7-55,flow,yearly
41,Total Amerika,37.0,37.0,0.0,38.0,24.0,12.0,0.0,10.0,0.0,0.0,0.0,0.0,2017-12-01,7-55-Bew-RueA-J-d-2020-12.xlsx,7-55-Bew-RueA-J,7-55,flow,yearly
43,Afghanistan,18.0,18.0,0.0,17.0,16.0,0.0,10.0,9.0,0.0,0.0,0.0,0.0,2017-12-01,7-55-Bew-RueA-J-d-2020-12.xlsx,7-55-Bew-RueA-J,7-55,flow,yearly
44,Armenien,1.0,1.0,0.0,1.0,1.0,0.0,0.0,0.0,0.0,0.0,0.0,0.0,2017-12-01,7-55-Bew-RueA-J-d-2020-12.xlsx,7-55-Bew-RueA-J,7-55,flow,yearly
45,China (Volksrepublik),1.0,1.0,0.0,1.0,1.0,0.0,0.0,0.0,0.0,0.0,0.0,0.0,2017-12-01,7-55-Bew-RueA-J-d-2020-12.xlsx,7-55-Bew-RueA-J,7-55,flow,yearly
46,Georgien,4.0,4.0,0.0,4.0,2.0,1.0,2.0,2.0,0.0,0.0,0.0,0.0,2017-12-01,7-55-Bew-RueA-J-d-2020-12.xlsx,7-55-Bew-RueA-J,7-55,flow,yearly
47,Irak,16.0,16.0,0.0,11.0,10.0,0.0,6.0,4.0,0.0,0.0,0.0,0.0,2017-12-01,7-55-Bew-RueA-J-d-2020-12.xlsx,7-55-Bew-RueA-J,7-55,flow,yearly
48,Iran,19.0,15.0,4.0,12.0,12.0,0.0,4.0,4.0,4.0,4.0,0.0,1.0,2017-12-01,7-55-Bew-RueA-J-d-2020-12.xlsx,7-55-Bew-RueA-J,7-55,flow,yearly
49,Jordanien,0.0,0.0,0.0,0.0,0.0,0.0,0.0,0.0,0.0,0.0,0.0,0.0,2017-12-01,7-55-Bew-RueA-J-d-2020-12.xlsx,7-55-Bew-RueA-J,7-55,flow,yearly
50,Laos,0.0,0.0,0.0,1.0,1.0,0.0,1.0,1.0,0.0,0.0,0.0,0.0,2017-12-01,7-55-Bew-RueA-J-d-2020-12.xlsx,7-55-Bew-RueA-J,7-55,flow,yearly
51,Mongolei,1.0,1.0,0.0,1.0,1.0,0.0,0.0,1.0,0.0,0.0,0.0,0.0,2017-12-01,7-55-Bew-RueA-J-d-2020-12.xlsx,7-55-Bew-RueA-J,7-55,flow,yearly
52,Pakistan,14.0,14.0,0.0,10.0,10.0,0.0,8.0,8.0,0.0,0.0,0.0,0.0,2017-12-01,7-55-Bew-RueA-J-d-2020-12.xlsx,7-55-Bew-RueA-J,7-55,flow,yearly
53,Philippinen,1.0,1.0,0.0,1.0,0.0,1.0,0.0,0.0,0.0,0.0,0.0,0.0,2017-12-01,7-55-Bew-RueA-J-d-2020-12.xlsx,7-55-Bew-RueA-J,7-55,flow,yearly
54,Sri Lanka,4.0,2.0,2.0,3.0,3.0,0.0,2.0,2.0,2.0,2.0,0.0,0.0,2017-12-01,7-55-Bew-RueA-J-d-2020-12.xlsx,7-55-Bew-RueA-J,7-55,flow,yearly
55,Syrien,47.0,40.0,7.0,37.0,36.0,1.0,36.0,13.0,7.0,7.0,0.0,0.0,2017-12-01,7-55-Bew-RueA-J-d-2020-12.xlsx,7-55-Bew-RueA-J,7-55,flow,yearly
56,Total Asien,126.0,113.0,13.0,99.0,93.0,3.0,69.0,44.0,13.0,13.0,0.0,1.0,2017-12-01,7-55-Bew-RueA-J-d-2020-12.xlsx,7-55-Bew-RueA-J,7-55,flow,yearly
58,Belarus,0.0,0.0,0.0,0.0,0.0,0.0,0.0,1.0,0.0,0.0,0.0,0.0,2017-12-01,7-55-Bew-RueA-J-d-2020-12.xlsx,7-55-Bew-RueA-J,7-55,flow,yearly
59,Belgien,2.0,2.0,0.0,2.0,2.0,0.0,0.0,1.0,0.0,0.0,0.0,0.0,2017-12-01,7-55-Bew-RueA-J-d-2020-12.xlsx,7-55-Bew-RueA-J,7-55,flow,yearly
60,Bosnien u. Herzegowina,2.0,2.0,0.0,5.0,5.0,0.0,3.0,1.0,0.0,0.0,0.0,0.0,2017-12-01,7-55-Bew-RueA-J-d-2020-12.xlsx,7-55-Bew-RueA-J,7-55,flow,yearly
61,Bulgarien,3.0,3.0,0.0,3.0,3.0,0.0,0.0,3.0,0.0,0.0,0.0,0.0,2017-12-01,7-55-Bew-RueA-J-d-2020-12.xlsx,7-55-Bew-RueA-J,7-55,flow,yearly
62,Dänemark,0.0,0.0,0.0,0.0,0.0,0.0,1.0,0.0,0.0,0.0,0.0,0.0,2017-12-01,7-55-Bew-RueA-J-d-2020-12.xlsx,7-55-Bew-RueA-J,7-55,flow,yearly
63,Deutschland,1.0,1.0,0.0,1.0,1.0,0.0,0.0,1.0,0.0,0.0,0.0,0.0,2017-12-01,7-55-Bew-RueA-J-d-2020-12.xlsx,7-55-Bew-RueA-J,7-55,flow,yearly
64,Griechenland,1.0,1.0,0.0,1.0,0.0,0.0,0.0,0.0,0.0,0.0,0.0,0.0,2017-12-01,7-55-Bew-RueA-J-d-2020-12.xlsx,7-55-Bew-RueA-J,7-55,flow,yearly
65,Grossbritannien,1.0,1.0,0.0,1.0,1.0,0.0,0.0,0.0,0.0,0.0,0.0,0.0,2017-12-01,7-55-Bew-RueA-J-d-2020-12.xlsx,7-55-Bew-RueA-J,7-55,flow,yearly
66,Kosovo,3.0,3.0,0.0,3.0,3.0,0.0,1.0,3.0,0.0,0.0,0.0,0.0,2017-12-01,7-55-Bew-RueA-J-d-2020-12.xlsx,7-55-Bew-RueA-J,7-55,flow,yearly
67,Kroatien,13.0,13.0,0.0,13.0,4.0,8.0,0.0,2.0,0.0,0.0,0.0,0.0,2017-12-01,7-55-Bew-RueA-J-d-2020-12.xlsx,7-55-Bew-RueA-J,7-55,flow,yearly
68,Litauen,4.0,4.0,0.0,4.0,4.0,0.0,0.0,4.0,0.0,0.0,0.0,0.0,2017-12-01,7-55-Bew-RueA-J-d-2020-12.xlsx,7-55-Bew-RueA-J,7-55,flow,yearly
69,Moldova,0.0,0.0,0.0,0.0,0.0,0.0,0.0,0.0,0.0,0.0,0.0,0.0,2017-12-01,7-55-Bew-RueA-J-d-2020-12.xlsx,7-55-Bew-RueA-J,7-55,flow,yearly
70,Niederlande,2.0,2.0,0.0,1.0,1.0,0.0,0.0,1.0,0.0,0.0,0.0,0.0,2017-12-01,7-55-Bew-RueA-J-d-2020-12.xlsx,7-55-Bew-RueA-J,7-55,flow,yearly
71,Polen,13.0,13.0,0.0,13.0,13.0,0.0,0.0,9.0,0.0,0.0,0.0,0.0,2017-12-01,7-55-Bew-RueA-J-d-2020-12.xlsx,7-55-Bew-RueA-J,7-55,flow,yearly
72,Portugal,1.0,1.0,0.0,1.0,1.0,0.0,0.0,0.0,0.0,0.0,0.0,0.0,2017-12-01,7-55-Bew-RueA-J-d-2020-12.xlsx,7-55-Bew-RueA-J,7-55,flow,yearly
73,Rumänien,61.0,61.0,0.0,61.0,60.0,1.0,0.0,51.0,0.0,0.0,0.0,0.0,2017-12-01,7-55-Bew-RueA-J-d-2020-12.xlsx,7-55-Bew-RueA-J,7-55,flow,yearly
74,Russland,4.0,3.0,1.0,3.0,3.0,0.0,3.0,0.0,1.0,1.0,0.0,0.0,2017-12-01,7-55-Bew-RueA-J-d-2020-12.xlsx,7-55-Bew-RueA-J,7-55,flow,yearly
75,Serbien,3.0,2.0,1.0,2.0,1.0,0.0,0.0,0.0,1.0,0.0,1.0,0.0,2017-12-01,7-55-Bew-RueA-J-d-2020-12.xlsx,7-55-Bew-RueA-J,7-55,flow,yearly
76,Slowakische Republik,9.0,9.0,0.0,8.0,8.0,0.0,0.0,6.0,0.0,0.0,0.0,0.0,2017-12-01,7-55-Bew-RueA-J-d-2020-12.xlsx,7-55-Bew-RueA-J,7-55,flow,yearly
77,Slowenien,1.0,1.0,0.0,1.0,1.0,0.0,0.0,0.0,0.0,0.0,0.0,0.0,2017-12-01,7-55-Bew-RueA-J-d-2020-12.xlsx,7-55-Bew-RueA-J,7-55,flow,yearly
78,Spanien,6.0,6.0,0.0,6.0,4.0,0.0,0.0,2.0,0.0,0.0,0.0,0.0,2017-12-01,7-55-Bew-RueA-J-d-2020-12.xlsx,7-55-Bew-RueA-J,7-55,flow,yearly
79,Tschechische Republik,1.0,1.0,0.0,1.0,1.0,0.0,0.0,0.0,0.0,0.0,0.0,0.0,2017-12-01,7-55-Bew-RueA-J-d-2020-12.xlsx,7-55-Bew-RueA-J,7-55,flow,yearly
80,Türkei,3.0,3.0,0.0,3.0,1.0,1.0,0.0,1.0,0.0,0.0,0.0,0.0,2017-12-01,7-55-Bew-RueA-J-d-2020-12.xlsx,7-55-Bew-RueA-J,7-55,flow,yearly
81,Ukraine,1.0,1.0,0.0,1.0,1.0,0.0,0.0,0.0,0.0,0.0,0.0,0.0,2017-12-01,7-55-Bew-RueA-J-d-2020-12.xlsx,7-55-Bew-RueA-J,7-55,flow,yearly
82,Ungarn,12.0,12.0,0.0,12.0,10.0,2.0,0.0,9.0,0.0,0.0,0.0,0.0,2017-12-01,7-55-Bew-RueA-J-d-2020-12.xlsx,7-55-Bew-RueA-J,7-55,flow,yearly
83,Total Europa,147.0,145.0,2.0,146.0,128.0,12.0,8.0,95.0,2.0,1.0,1.0,0.0,2017-12-01,7-55-Bew-RueA-J-d-2020-12.xlsx,7-55-Bew-RueA-J,7-55,flow,yearly
85,Ohne Nationalität,0.0,0.0,0.0,0.0,0.0,0.0,0.0,0.0,0.0,0.0,0.0,0.0,2017-12-01,7-55-Bew-RueA-J-d-2020-12.xlsx,7-55-Bew-RueA-J,7-55,flow,yearly
86,Staat unbekannt,17.0,16.0,1.0,16.0,10.0,5.0,0.0,14.0,1.0,1.0,0.0,1.0,2017-12-01,7-55-Bew-RueA-J-d-2020-12.xlsx,7-55-Bew-RueA-J,7-55,flow,yearly
87,Total Herkunft unbek.,17.0,16.0,1.0,16.0,10.0,5.0,0.0,14.0,1.0,1.0,0.0,1.0,2017-12-01,7-55-Bew-RueA-J-d-2020-12.xlsx,7-55-Bew-RueA-J,7-55,flow,yearly
0,Herkunft unbekannt,35.0,35.0,0.0,34.0,26.0,7.0,9.0,11.0,0.0,0.0,0.0,0.0,2016-12-01,7-55-Bew-RueA-J-d-2020-12.xlsx,7-55-Bew-RueA-J,7-55,flow,yearly
2,Ägypten,1.0,1.0,0.0,1.0,1.0,0.0,1.0,1.0,0.0,0.0,0.0,0.0,2016-12-01,7-55-Bew-RueA-J-d-2020-12.xlsx,7-55-Bew-RueA-J,7-55,flow,yearly
3,Algerien,5.0,5.0,0.0,4.0,4.0,0.0,3.0,2.0,0.0,0.0,0.0,0.0,2016-12-01,7-55-Bew-RueA-J-d-2020-12.xlsx,7-55-Bew-RueA-J,7-55,flow,yearly
4,Äthiopien,7.0,6.0,1.0,4.0,4.0,0.0,7.0,0.0,1.0,1.0,0.0,0.0,2016-12-01,7-55-Bew-RueA-J-d-2020-12.xlsx,7-55-Bew-RueA-J,7-55,flow,yearly
5,Benin,1.0,1.0,0.0,1.0,1.0,0.0,0.0,1.0,0.0,0.0,0.0,0.0,2016-12-01,7-55-Bew-RueA-J-d-2020-12.xlsx,7-55-Bew-RueA-J,7-55,flow,yearly
6,Burundi,0.0,0.0,0.0,0.0,0.0,0.0,1.0,0.0,0.0,0.0,0.0,0.0,2016-12-01,7-55-Bew-RueA-J-d-2020-12.xlsx,7-55-Bew-RueA-J,7-55,flow,yearly
7,Côte d'Ivoire,4.0,4.0,0.0,4.0,3.0,1.0,1.0,2.0,0.0,0.0,0.0,0.0,2016-12-01,7-55-Bew-RueA-J-d-2020-12.xlsx,7-55-Bew-RueA-J,7-55,flow,yearly
8,Eritrea,73.0,68.0,5.0,91.0,86.0,2.0,59.0,28.0,5.0,5.0,0.0,1.0,2016-12-01,7-55-Bew-RueA-J-d-2020-12.xlsx,7-55-Bew-RueA-J,7-55,flow,yearly
9,Gambia,25.0,25.0,0.0,26.0,25.0,1.0,13.0,14.0,0.0,0.0,0.0,0.0,2016-12-01,7-55-Bew-RueA-J-d-2020-12.xlsx,7-55-Bew-RueA-J,7-55,flow,yearly
10,Ghana,5.0,5.0,0.0,5.0,4.0,0.0,1.0,3.0,0.0,0.0,0.0,0.0,2016-12-01,7-55-Bew-RueA-J-d-2020-12.xlsx,7-55-Bew-RueA-J,7-55,flow,yearly
11,Guinea,17.0,17.0,0.0,14.0,13.0,1.0,3.0,9.0,0.0,0.0,0.0,0.0,2016-12-01,7-55-Bew-RueA-J-d-2020-12.xlsx,7-55-Bew-RueA-J,7-55,flow,yearly
12,Guinea-Bissau,3.0,3.0,0.0,3.0,3.0,0.0,0.0,3.0,0.0,0.0,0.0,0.0,2016-12-01,7-55-Bew-RueA-J-d-2020-12.xlsx,7-55-Bew-RueA-J,7-55,flow,yearly
13,Kamerun,4.0,4.0,0.0,4.0,3.0,1.0,0.0,2.0,0.0,0.0,0.0,0.0,2016-12-01,7-55-Bew-RueA-J-d-2020-12.xlsx,7-55-Bew-RueA-J,7-55,flow,yearly
14,Kongo DR,0.0,0.0,0.0,0.0,0.0,0.0,1.0,1.0,0.0,0.0,0.0,0.0,2016-12-01,7-55-Bew-RueA-J-d-2020-12.xlsx,7-55-Bew-RueA-J,7-55,flow,yearly
15,Liberia,2.0,2.0,0.0,2.0,2.0,0.0,1.0,1.0,0.0,0.0,0.0,0.0,2016-12-01,7-55-Bew-RueA-J-d-2020-12.xlsx,7-55-Bew-RueA-J,7-55,flow,yearly
16,Libyen,1.0,1.0,0.0,1.0,1.0,0.0,1.0,0.0,0.0,0.0,0.0,0.0,2016-12-01,7-55-Bew-RueA-J-d-2020-12.xlsx,7-55-Bew-RueA-J,7-55,flow,yearly
17,Mali,12.0,12.0,0.0,11.0,10.0,1.0,2.0,9.0,0.0,0.0,0.0,0.0,2016-12-01,7-55-Bew-RueA-J-d-2020-12.xlsx,7-55-Bew-RueA-J,7-55,flow,yearly
18,Marokko,4.0,4.0,0.0,4.0,2.0,2.0,0.0,0.0,0.0,0.0,0.0,0.0,2016-12-01,7-55-Bew-RueA-J-d-2020-12.xlsx,7-55-Bew-RueA-J,7-55,flow,yearly
19,Niger,2.0,2.0,0.0,2.0,2.0,0.0,0.0,2.0,0.0,0.0,0.0,0.0,2016-12-01,7-55-Bew-RueA-J-d-2020-12.xlsx,7-55-Bew-RueA-J,7-55,flow,yearly
20,Nigeria,151.0,151.0,0.0,141.0,123.0,14.0,21.0,81.0,0.0,0.0,0.0,0.0,2016-12-01,7-55-Bew-RueA-J-d-2020-12.xlsx,7-55-Bew-RueA-J,7-55,flow,yearly
21,Senegal,10.0,10.0,0.0,11.0,11.0,0.0,0.0,6.0,0.0,0.0,0.0,0.0,2016-12-01,7-55-Bew-RueA-J-d-2020-12.xlsx,7-55-Bew-RueA-J,7-55,flow,yearly
22,Sierra Leone,3.0,3.0,0.0,3.0,3.0,0.0,0.0,3.0,0.0,0.0,0.0,0.0,2016-12-01,7-55-Bew-RueA-J-d-2020-12.xlsx,7-55-Bew-RueA-J,7-55,flow,yearly
23,Somalia,40.0,38.0,2.0,43.0,39.0,1.0,24.0,13.0,2.0,0.0,2.0,1.0,2016-12-01,7-55-Bew-RueA-J-d-2020-12.xlsx,7-55-Bew-RueA-J,7-55,flow,yearly
24,Sudan,3.0,3.0,0.0,6.0,4.0,2.0,2.0,3.0,0.0,0.0,0.0,0.0,2016-12-01,7-55-Bew-RueA-J-d-2020-12.xlsx,7-55-Bew-RueA-J,7-55,flow,yearly
25,Südsudan,1.0,1.0,0.0,1.0,0.0,1.0,0.0,0.0,0.0,0.0,0.0,0.0,2016-12-01,7-55-Bew-RueA-J-d-2020-12.xlsx,7-55-Bew-RueA-J,7-55,flow,yearly
26,Togo,1.0,1.0,0.0,2.0,2.0,0.0,0.0,2.0,0.0,0.0,0.0,0.0,2016-12-01,7-55-Bew-RueA-J-d-2020-12.xlsx,7-55-Bew-RueA-J,7-55,flow,yearly
27,Tschad,0.0,0.0,0.0,0.0,0.0,0.0,0.0,0.0,0.0,0.0,0.0,0.0,2016-12-01,7-55-Bew-RueA-J-d-2020-12.xlsx,7-55-Bew-RueA-J,7-55,flow,yearly
28,Uganda,1.0,1.0,0.0,1.0,1.0,0.0,0.0,1.0,0.0,0.0,0.0,0.0,2016-12-01,7-55-Bew-RueA-J-d-2020-12.xlsx,7-55-Bew-RueA-J,7-55,flow,yearly
29,Total Afrika,376.0,368.0,8.0,385.0,347.0,27.0,141.0,187.0,8.0,6.0,2.0,2.0,2016-12-01,7-55-Bew-RueA-J-d-2020-12.xlsx,7-55-Bew-RueA-J,7-55,flow,yearly
31,Dominikanische Republik,10.0,10.0,0.0,10.0,8.0,2.0,0.0,8.0,0.0,0.0,0.0,0.0,2016-12-01,7-55-Bew-RueA-J-d-2020-12.xlsx,7-55-Bew-RueA-J,7-55,flow,yearly
32,Ecuador,2.0,2.0,0.0,1.0,1.0,0.0,0.0,1.0,0.0,0.0,0.0,0.0,2016-12-01,7-55-Bew-RueA-J-d-2020-12.xlsx,7-55-Bew-RueA-J,7-55,flow,yearly
33,Kolumbien,1.0,1.0,0.0,2.0,0.0,1.0,0.0,0.0,0.0,0.0,0.0,0.0,2016-12-01,7-55-Bew-RueA-J-d-2020-12.xlsx,7-55-Bew-RueA-J,7-55,flow,yearly
34,Kuba,1.0,1.0,0.0,1.0,1.0,0.0,0.0,2.0,0.0,0.0,0.0,0.0,2016-12-01,7-55-Bew-RueA-J-d-2020-12.xlsx,7-55-Bew-RueA-J,7-55,flow,yearly
35,Peru,1.0,1.0,0.0,1.0,1.0,0.0,0.0,1.0,0.0,0.0,0.0,0.0,2016-12-01,7-55-Bew-RueA-J-d-2020-12.xlsx,7-55-Bew-RueA-J,7-55,flow,yearly
36,Trinidad u. Tobago,1.0,1.0,0.0,1.0,1.0,0.0,0.0,1.0,0.0,0.0,0.0,0.0,2016-12-01,7-55-Bew-RueA-J-d-2020-12.xlsx,7-55-Bew-RueA-J,7-55,flow,yearly
37,USA,1.0,1.0,0.0,1.0,1.0,0.0,0.0,1.0,0.0,0.0,0.0,0.0,2016-12-01,7-55-Bew-RueA-J-d-2020-12.xlsx,7-55-Bew-RueA-J,7-55,flow,yearly
38,Venezuela,1.0,1.0,0.0,1.0,1.0,0.0,0.0,1.0,0.0,0.0,0.0,0.0,2016-12-01,7-55-Bew-RueA-J-d-2020-12.xlsx,7-55-Bew-RueA-J,7-55,flow,yearly
39,Total Amerika,18.0,18.0,0.0,18.0,14.0,3.0,0.0,15.0,0.0,0.0,0.0,0.0,2016-12-01,7-55-Bew-RueA-J-d-2020-12.xlsx,7-55-Bew-RueA-J,7-55,flow,yearly
41,Afghanistan,20.0,20.0,0.0,20.0,20.0,0.0,22.0,10.0,0.0,0.0,0.0,0.0,2016-12-01,7-55-Bew-RueA-J-d-2020-12.xlsx,7-55-Bew-RueA-J,7-55,flow,yearly
42,Bangladesh,0.0,0.0,0.0,0.0,0.0,0.0,0.0,0.0,0.0,0.0,0.0,0.0,2016-12-01,7-55-Bew-RueA-J-d-2020-12.xlsx,7-55-Bew-RueA-J,7-55,flow,yearly
43,China (Volksrepublik),3.0,3.0,0.0,3.0,3.0,0.0,3.0,1.0,0.0,0.0,0.0,0.0,2016-12-01,7-55-Bew-RueA-J-d-2020-12.xlsx,7-55-Bew-RueA-J,7-55,flow,yearly
44,Georgien,1.0,1.0,0.0,1.0,1.0,0.0,1.0,1.0,0.0,0.0,0.0,0.0,2016-12-01,7-55-Bew-RueA-J-d-2020-12.xlsx,7-55-Bew-RueA-J,7-55,flow,yearly
45,Indien,1.0,1.0,0.0,1.0,0.0,1.0,0.0,0.0,0.0,0.0,0.0,0.0,2016-12-01,7-55-Bew-RueA-J-d-2020-12.xlsx,7-55-Bew-RueA-J,7-55,flow,yearly
46,Irak,12.0,12.0,0.0,14.0,13.0,0.0,7.0,3.0,0.0,0.0,0.0,0.0,2016-12-01,7-55-Bew-RueA-J-d-2020-12.xlsx,7-55-Bew-RueA-J,7-55,flow,yearly
47,Iran,8.0,8.0,0.0,9.0,9.0,0.0,6.0,1.0,0.0,0.0,0.0,0.0,2016-12-01,7-55-Bew-RueA-J-d-2020-12.xlsx,7-55-Bew-RueA-J,7-55,flow,yearly
48,Jemen,4.0,4.0,0.0,4.0,4.0,0.0,4.0,4.0,0.0,0.0,0.0,0.0,2016-12-01,7-55-Bew-RueA-J-d-2020-12.xlsx,7-55-Bew-RueA-J,7-55,flow,yearly
49,Jordanien,2.0,2.0,0.0,2.0,2.0,0.0,2.0,1.0,0.0,0.0,0.0,0.0,2016-12-01,7-55-Bew-RueA-J-d-2020-12.xlsx,7-55-Bew-RueA-J,7-55,flow,yearly
50,Laos,1.0,1.0,0.0,0.0,0.0,0.0,0.0,0.0,0.0,0.0,0.0,0.0,2016-12-01,7-55-Bew-RueA-J-d-2020-12.xlsx,7-55-Bew-RueA-J,7-55,flow,yearly
51,Libanon,1.0,1.0,0.0,1.0,1.0,0.0,0.0,0.0,0.0,0.0,0.0,0.0,2016-12-01,7-55-Bew-RueA-J-d-2020-12.xlsx,7-55-Bew-RueA-J,7-55,flow,yearly
52,Nepal,1.0,1.0,0.0,1.0,1.0,0.0,0.0,1.0,0.0,0.0,0.0,0.0,2016-12-01,7-55-Bew-RueA-J-d-2020-12.xlsx,7-55-Bew-RueA-J,7-55,flow,yearly
53,Pakistan,2.0,2.0,0.0,2.0,2.0,0.0,4.0,4.0,0.0,0.0,0.0,0.0,2016-12-01,7-55-Bew-RueA-J-d-2020-12.xlsx,7-55-Bew-RueA-J,7-55,flow,yearly
54,Sri Lanka,4.0,4.0,0.0,3.0,3.0,0.0,1.0,0.0,0.0,0.0,0.0,0.0,2016-12-01,7-55-Bew-RueA-J-d-2020-12.xlsx,7-55-Bew-RueA-J,7-55,flow,yearly
55,Syrien,42.0,35.0,7.0,37.0,37.0,0.0,49.0,8.0,7.0,7.0,0.0,0.0,2016-12-01,7-55-Bew-RueA-J-d-2020-12.xlsx,7-55-Bew-RueA-J,7-55,flow,yearly
56,Total Asien,102.0,95.0,7.0,98.0,96.0,1.0,99.0,34.0,7.0,7.0,0.0,0.0,2016-12-01,7-55-Bew-RueA-J-d-2020-12.xlsx,7-55-Bew-RueA-J,7-55,flow,yearly
58,Albanien,2.0,2.0,0.0,2.0,2.0,0.0,1.0,2.0,0.0,0.0,0.0,0.0,2016-12-01,7-55-Bew-RueA-J-d-2020-12.xlsx,7-55-Bew-RueA-J,7-55,flow,yearly
59,Belarus,1.0,1.0,0.0,1.0,1.0,0.0,0.0,0.0,0.0,0.0,0.0,0.0,2016-12-01,7-55-Bew-RueA-J-d-2020-12.xlsx,7-55-Bew-RueA-J,7-55,flow,yearly
60,Bosnien u. Herzegowina,4.0,4.0,0.0,1.0,1.0,0.0,0.0,1.0,0.0,0.0,0.0,0.0,2016-12-01,7-55-Bew-RueA-J-d-2020-12.xlsx,7-55-Bew-RueA-J,7-55,flow,yearly
61,Bulgarien,5.0,5.0,0.0,5.0,5.0,0.0,0.0,4.0,0.0,0.0,0.0,0.0,2016-12-01,7-55-Bew-RueA-J-d-2020-12.xlsx,7-55-Bew-RueA-J,7-55,flow,yearly
62,Dänemark,1.0,1.0,0.0,1.0,1.0,0.0,0.0,0.0,0.0,0.0,0.0,0.0,2016-12-01,7-55-Bew-RueA-J-d-2020-12.xlsx,7-55-Bew-RueA-J,7-55,flow,yearly
63,Estland,2.0,2.0,0.0,2.0,1.0,0.0,0.0,2.0,0.0,0.0,0.0,0.0,2016-12-01,7-55-Bew-RueA-J-d-2020-12.xlsx,7-55-Bew-RueA-J,7-55,flow,yearly
64,Frankreich,1.0,1.0,0.0,1.0,0.0,1.0,0.0,0.0,0.0,0.0,0.0,0.0,2016-12-01,7-55-Bew-RueA-J-d-2020-12.xlsx,7-55-Bew-RueA-J,7-55,flow,yearly
65,Grossbritannien,5.0,4.0,1.0,4.0,4.0,0.0,0.0,5.0,1.0,1.0,0.0,0.0,2016-12-01,7-55-Bew-RueA-J-d-2020-12.xlsx,7-55-Bew-RueA-J,7-55,flow,yearly
66,Kosovo,2.0,2.0,0.0,2.0,2.0,0.0,0.0,2.0,0.0,0.0,0.0,0.0,2016-12-01,7-55-Bew-RueA-J-d-2020-12.xlsx,7-55-Bew-RueA-J,7-55,flow,yearly
67,Kroatien,3.0,3.0,0.0,5.0,4.0,0.0,0.0,2.0,0.0,0.0,0.0,0.0,2016-12-01,7-55-Bew-RueA-J-d-2020-12.xlsx,7-55-Bew-RueA-J,7-55,flow,yearly
68,Lettland,2.0,2.0,0.0,2.0,2.0,0.0,0.0,1.0,0.0,0.0,0.0,0.0,2016-12-01,7-55-Bew-RueA-J-d-2020-12.xlsx,7-55-Bew-RueA-J,7-55,flow,yearly
69,Litauen,4.0,4.0,0.0,4.0,4.0,0.0,0.0,4.0,0.0,0.0,0.0,0.0,2016-12-01,7-55-Bew-RueA-J-d-2020-12.xlsx,7-55-Bew-RueA-J,7-55,flow,yearly
70,Moldova,1.0,1.0,0.0,1.0,0.0,1.0,0.0,0.0,0.0,0.0,0.0,0.0,2016-12-01,7-55-Bew-RueA-J-d-2020-12.xlsx,7-55-Bew-RueA-J,7-55,flow,yearly
71,Montenegro,0.0,0.0,0.0,0.0,0.0,0.0,0.0,0.0,0.0,0.0,0.0,0.0,2016-12-01,7-55-Bew-RueA-J-d-2020-12.xlsx,7-55-Bew-RueA-J,7-55,flow,yearly
72,Niederlande,5.0,5.0,0.0,6.0,4.0,1.0,0.0,4.0,0.0,0.0,0.0,0.0,2016-12-01,7-55-Bew-RueA-J-d-2020-12.xlsx,7-55-Bew-RueA-J,7-55,flow,yearly
73,Polen,11.0,11.0,0.0,11.0,11.0,0.0,1.0,9.0,0.0,0.0,0.0,0.0,2016-12-01,7-55-Bew-RueA-J-d-2020-12.xlsx,7-55-Bew-RueA-J,7-55,flow,yearly
74,Rumänien,57.0,57.0,0.0,56.0,52.0,4.0,0.0,45.0,0.0,0.0,0.0,0.0,2016-12-01,7-55-Bew-RueA-J-d-2020-12.xlsx,7-55-Bew-RueA-J,7-55,flow,yearly
75,Russland,5.0,5.0,0.0,10.0,10.0,0.0,9.0,1.0,0.0,0.0,0.0,0.0,2016-12-01,7-55-Bew-RueA-J-d-2020-12.xlsx,7-55-Bew-RueA-J,7-55,flow,yearly
76,Serbien,5.0,3.0,2.0,3.0,2.0,0.0,0.0,1.0,2.0,2.0,0.0,2.0,2016-12-01,7-55-Bew-RueA-J-d-2020-12.xlsx,7-55-Bew-RueA-J,7-55,flow,yearly
77,Slowakische Republik,1.0,1.0,0.0,1.0,1.0,0.0,0.0,2.0,0.0,0.0,0.0,0.0,2016-12-01,7-55-Bew-RueA-J-d-2020-12.xlsx,7-55-Bew-RueA-J,7-55,flow,yearly
78,Spanien,4.0,4.0,0.0,4.0,4.0,0.0,0.0,4.0,0.0,0.0,0.0,0.0,2016-12-01,7-55-Bew-RueA-J-d-2020-12.xlsx,7-55-Bew-RueA-J,7-55,flow,yearly
79,Tschechische Republik,1.0,1.0,0.0,1.0,1.0,0.0,0.0,1.0,0.0,0.0,0.0,0.0,2016-12-01,7-55-Bew-RueA-J-d-2020-12.xlsx,7-55-Bew-RueA-J,7-55,flow,yearly
80,Türkei,5.0,5.0,0.0,5.0,5.0,0.0,2.0,2.0,0.0,0.0,0.0,0.0,2016-12-01,7-55-Bew-RueA-J-d-2020-12.xlsx,7-55-Bew-RueA-J,7-55,flow,yearly
81,Ukraine,0.0,0.0,0.0,0.0,0.0,0.0,0.0,0.0,0.0,0.0,0.0,0.0,2016-12-01,7-55-Bew-RueA-J-d-2020-12.xlsx,7-55-Bew-RueA-J,7-55,flow,yearly
82,Ungarn,9.0,9.0,0.0,8.0,8.0,0.0,0.0,7.0,0.0,0.0,0.0,0.0,2016-12-01,7-55-Bew-RueA-J-d-2020-12.xlsx,7-55-Bew-RueA-J,7-55,flow,yearly
83,Total Europa,136.0,133.0,3.0,136.0,125.0,7.0,13.0,99.0,3.0,3.0,0.0,2.0,2016-12-01,7-55-Bew-RueA-J-d-2020-12.xlsx,7-55-Bew-RueA-J,7-55,flow,yearly
85,Staatenlos,1.0,1.0,0.0,1.0,1.0,0.0,0.0,1.0,0.0,0.0,0.0,0.0,2016-12-01,7-55-Bew-RueA-J-d-2020-12.xlsx,7-55-Bew-RueA-J,7-55,flow,yearly
86,Ohne Nationalität,6.0,6.0,0.0,6.0,6.0,0.0,6.0,0.0,0.0,0.0,0.0,0.0,2016-12-01,7-55-Bew-RueA-J-d-2020-12.xlsx,7-55-Bew-RueA-J,7-55,flow,yearly
87,Staat unbekannt,28.0,28.0,0.0,27.0,19.0,7.0,3.0,10.0,0.0,0.0,0.0,0.0,2016-12-01,7-55-Bew-RueA-J-d-2020-12.xlsx,7-55-Bew-RueA-J,7-55,flow,yearly
88,Total Herkunft unbek.,35.0,35.0,0.0,34.0,26.0,7.0,9.0,11.0,0.0,0.0,0.0,0.0,2016-12-01,7-55-Bew-RueA-J-d-2020-12.xlsx,7-55-Bew-RueA-J,7-55,flow,yearly
0,Herkunft unbekannt,15.0,14.0,1.0,15.0,13.0,2.0,9.0,4.0,1.0,1.0,0.0,1.0,2020-12-01,7-55-Bew-RueA-J-d-2020-12.xlsx,7-55-Bew-RueA-J,7-55,flow,yearly
2,Ägypten,1.0,1.0,0.0,1.0,1.0,0.0,0.0,0.0,0.0,0.0,0.0,0.0,2020-12-01,7-55-Bew-RueA-J-d-2020-12.xlsx,7-55-Bew-RueA-J,7-55,flow,yearly
3,Algerien,2.0,2.0,0.0,2.0,1.0,1.0,1.0,0.0,0.0,0.0,0.0,0.0,2020-12-01,7-55-Bew-RueA-J-d-2020-12.xlsx,7-55-Bew-RueA-J,7-55,flow,yearly
4,Angola,0.0,0.0,0.0,0.0,0.0,0.0,0.0,0.0,0.0,0.0,0.0,0.0,2020-12-01,7-55-Bew-RueA-J-d-2020-12.xlsx,7-55-Bew-RueA-J,7-55,flow,yearly
5,Äquatorialguinea,1.0,1.0,0.0,1.0,1.0,0.0,0.0,1.0,0.0,0.0,0.0,0.0,2020-12-01,7-55-Bew-RueA-J-d-2020-12.xlsx,7-55-Bew-RueA-J,7-55,flow,yearly
6,Äthiopien,4.0,3.0,1.0,3.0,3.0,0.0,1.0,3.0,1.0,1.0,0.0,0.0,2020-12-01,7-55-Bew-RueA-J-d-2020-12.xlsx,7-55-Bew-RueA-J,7-55,flow,yearly
7,Côte d'Ivoire,2.0,2.0,0.0,2.0,2.0,0.0,1.0,0.0,0.0,0.0,0.0,0.0,2020-12-01,7-55-Bew-RueA-J-d-2020-12.xlsx,7-55-Bew-RueA-J,7-55,flow,yearly
8,Eritrea,60.0,38.0,22.0,33.0,23.0,6.0,19.0,12.0,22.0,21.0,0.0,9.0,2020-12-01,7-55-Bew-RueA-J-d-2020-12.xlsx,7-55-Bew-RueA-J,7-55,flow,yearly
9,Gabun,1.0,1.0,0.0,0.0,0.0,0.0,0.0,0.0,0.0,0.0,0.0,0.0,2020-12-01,7-55-Bew-RueA-J-d-2020-12.xlsx,7-55-Bew-RueA-J,7-55,flow,yearly
10,Gambia,13.0,13.0,0.0,13.0,12.0,1.0,1.0,9.0,0.0,0.0,0.0,0.0,2020-12-01,7-55-Bew-RueA-J-d-2020-12.xlsx,7-55-Bew-RueA-J,7-55,flow,yearly
11,Ghana,0.0,0.0,0.0,0.0,0.0,0.0,0.0,2.0,0.0,0.0,0.0,0.0,2020-12-01,7-55-Bew-RueA-J-d-2020-12.xlsx,7-55-Bew-RueA-J,7-55,flow,yearly
12,Guinea,10.0,10.0,0.0,10.0,9.0,1.0,1.0,7.0,0.0,0.0,0.0,0.0,2020-12-01,7-55-Bew-RueA-J-d-2020-12.xlsx,7-55-Bew-RueA-J,7-55,flow,yearly
13,Guinea-Bissau,1.0,1.0,0.0,1.0,0.0,1.0,1.0,0.0,0.0,0.0,0.0,0.0,2020-12-01,7-55-Bew-RueA-J-d-2020-12.xlsx,7-55-Bew-RueA-J,7-55,flow,yearly
14,Kamerun,1.0,1.0,0.0,3.0,2.0,0.0,0.0,0.0,0.0,0.0,0.0,0.0,2020-12-01,7-55-Bew-RueA-J-d-2020-12.xlsx,7-55-Bew-RueA-J,7-55,flow,yearly
15,Kongo,1.0,0.0,1.0,0.0,0.0,0.0,0.0,0.0,1.0,1.0,0.0,1.0,2020-12-01,7-55-Bew-RueA-J-d-2020-12.xlsx,7-55-Bew-RueA-J,7-55,flow,yearly
16,Kongo DR,2.0,2.0,0.0,2.0,2.0,0.0,1.0,0.0,0.0,0.0,0.0,0.0,2020-12-01,7-55-Bew-RueA-J-d-2020-12.xlsx,7-55-Bew-RueA-J,7-55,flow,yearly
17,Liberia,3.0,3.0,0.0,3.0,2.0,1.0,0.0,0.0,0.0,0.0,0.0,0.0,2020-12-01,7-55-Bew-RueA-J-d-2020-12.xlsx,7-55-Bew-RueA-J,7-55,flow,yearly
18,Libyen,2.0,2.0,0.0,2.0,2.0,0.0,1.0,2.0,0.0,0.0,0.0,0.0,2020-12-01,7-55-Bew-RueA-J-d-2020-12.xlsx,7-55-Bew-RueA-J,7-55,flow,yearly
19,Malawi,1.0,1.0,0.0,1.0,1.0,0.0,0.0,0.0,0.0,0.0,0.0,0.0,2020-12-01,7-55-Bew-RueA-J-d-2020-12.xlsx,7-55-Bew-RueA-J,7-55,flow,yearly
20,Mali,1.0,1.0,0.0,1.0,1.0,0.0,0.0,2.0,0.0,0.0,0.0,0.0,2020-12-01,7-55-Bew-RueA-J-d-2020-12.xlsx,7-55-Bew-RueA-J,7-55,flow,yearly
21,Marokko,5.0,5.0,0.0,5.0,4.0,1.0,1.0,3.0,0.0,0.0,0.0,0.0,2020-12-01,7-55-Bew-RueA-J-d-2020-12.xlsx,7-55-Bew-RueA-J,7-55,flow,yearly
22,Mauretanien,1.0,1.0,0.0,1.0,1.0,0.0,0.0,0.0,0.0,0.0,0.0,0.0,2020-12-01,7-55-Bew-RueA-J-d-2020-12.xlsx,7-55-Bew-RueA-J,7-55,flow,yearly
23,Niger,1.0,1.0,0.0,1.0,1.0,0.0,0.0,0.0,0.0,0.0,0.0,0.0,2020-12-01,7-55-Bew-RueA-J-d-2020-12.xlsx,7-55-Bew-RueA-J,7-55,flow,yearly
24,Nigeria,89.0,89.0,0.0,75.0,68.0,5.0,4.0,48.0,0.0,0.0,0.0,0.0,2020-12-01,7-55-Bew-RueA-J-d-2020-12.xlsx,7-55-Bew-RueA-J,7-55,flow,yearly
25,Senegal,8.0,8.0,0.0,7.0,5.0,2.0,0.0,4.0,0.0,0.0,0.0,0.0,2020-12-01,7-55-Bew-RueA-J-d-2020-12.xlsx,7-55-Bew-RueA-J,7-55,flow,yearly
26,Sierra Leone,3.0,2.0,1.0,3.0,3.0,0.0,1.0,1.0,1.0,1.0,0.0,0.0,2020-12-01,7-55-Bew-RueA-J-d-2020-12.xlsx,7-55-Bew-RueA-J,7-55,flow,yearly
27,Somalia,65.0,49.0,16.0,46.0,42.0,2.0,26.0,10.0,16.0,15.0,1.0,9.0,2020-12-01,7-55-Bew-RueA-J-d-2020-12.xlsx,7-55-Bew-RueA-J,7-55,flow,yearly
28,Sudan,3.0,3.0,0.0,2.0,2.0,0.0,1.0,1.0,0.0,0.0,0.0,0.0,2020-12-01,7-55-Bew-RueA-J-d-2020-12.xlsx,7-55-Bew-RueA-J,7-55,flow,yearly
29,Südsudan,1.0,1.0,0.0,1.0,1.0,0.0,0.0,0.0,0.0,0.0,0.0,0.0,2020-12-01,7-55-Bew-RueA-J-d-2020-12.xlsx,7-55-Bew-RueA-J,7-55,flow,yearly
30,Togo,0.0,0.0,0.0,0.0,0.0,0.0,0.0,0.0,0.0,0.0,0.0,0.0,2020-12-01,7-55-Bew-RueA-J-d-2020-12.xlsx,7-55-Bew-RueA-J,7-55,flow,yearly
31,Tschad,2.0,2.0,0.0,2.0,1.0,0.0,0.0,1.0,0.0,0.0,0.0,0.0,2020-12-01,7-55-Bew-RueA-J-d-2020-12.xlsx,7-55-Bew-RueA-J,7-55,flow,yearly
32,Tunesien,2.0,2.0,0.0,2.0,1.0,1.0,0.0,0.0,0.0,0.0,0.0,0.0,2020-12-01,7-55-Bew-RueA-J-d-2020-12.xlsx,7-55-Bew-RueA-J,7-55,flow,yearly
33,Zentralafr. Republik,1.0,1.0,0.0,1.0,1.0,0.0,1.0,0.0,0.0,0.0,0.0,0.0,2020-12-01,7-55-Bew-RueA-J-d-2020-12.xlsx,7-55-Bew-RueA-J,7-55,flow,yearly
34,Total Afrika,287.0,246.0,41.0,224.0,192.0,22.0,61.0,106.0,41.0,39.0,1.0,19.0,2020-12-01,7-55-Bew-RueA-J-d-2020-12.xlsx,7-55-Bew-RueA-J,7-55,flow,yearly
36,Bolivien,1.0,1.0,0.0,1.0,0.0,1.0,0.0,0.0,0.0,0.0,0.0,0.0,2020-12-01,7-55-Bew-RueA-J-d-2020-12.xlsx,7-55-Bew-RueA-J,7-55,flow,yearly
37,Dominikanische Republik,9.0,9.0,0.0,11.0,7.0,4.0,0.0,6.0,0.0,0.0,0.0,0.0,2020-12-01,7-55-Bew-RueA-J-d-2020-12.xlsx,7-55-Bew-RueA-J,7-55,flow,yearly
38,Ecuador,1.0,1.0,0.0,1.0,1.0,0.0,0.0,1.0,0.0,0.0,0.0,0.0,2020-12-01,7-55-Bew-RueA-J-d-2020-12.xlsx,7-55-Bew-RueA-J,7-55,flow,yearly
39,Haiti,0.0,0.0,0.0,0.0,0.0,0.0,0.0,0.0,0.0,0.0,0.0,0.0,2020-12-01,7-55-Bew-RueA-J-d-2020-12.xlsx,7-55-Bew-RueA-J,7-55,flow,yearly
40,Jamaika,1.0,1.0,0.0,1.0,1.0,0.0,1.0,1.0,0.0,0.0,0.0,0.0,2020-12-01,7-55-Bew-RueA-J-d-2020-12.xlsx,7-55-Bew-RueA-J,7-55,flow,yearly
41,Kolumbien,6.0,4.0,2.0,4.0,2.0,2.0,0.0,4.0,2.0,2.0,0.0,0.0,2020-12-01,7-55-Bew-RueA-J-d-2020-12.xlsx,7-55-Bew-RueA-J,7-55,flow,yearly
42,Kuba,1.0,1.0,0.0,1.0,0.0,1.0,0.0,0.0,0.0,0.0,0.0,0.0,2020-12-01,7-55-Bew-RueA-J-d-2020-12.xlsx,7-55-Bew-RueA-J,7-55,flow,yearly
43,Peru,2.0,2.0,0.0,2.0,2.0,0.0,0.0,1.0,0.0,0.0,0.0,0.0,2020-12-01,7-55-Bew-RueA-J-d-2020-12.xlsx,7-55-Bew-RueA-J,7-55,flow,yearly
44,Venezuela,1.0,1.0,0.0,1.0,0.0,1.0,0.0,0.0,0.0,0.0,0.0,0.0,2020-12-01,7-55-Bew-RueA-J-d-2020-12.xlsx,7-55-Bew-RueA-J,7-55,flow,yearly
45,Total Amerika,22.0,20.0,2.0,22.0,13.0,9.0,1.0,13.0,2.0,2.0,0.0,0.0,2020-12-01,7-55-Bew-RueA-J-d-2020-12.xlsx,7-55-Bew-RueA-J,7-55,flow,yearly
47,Afghanistan,72.0,70.0,2.0,69.0,68.0,1.0,55.0,18.0,2.0,2.0,0.0,1.0,2020-12-01,7-55-Bew-RueA-J-d-2020-12.xlsx,7-55-Bew-RueA-J,7-55,flow,yearly
48,Armenien,1.0,1.0,0.0,1.0,1.0,0.0,0.0,0.0,0.0,0.0,0.0,0.0,2020-12-01,7-55-Bew-RueA-J-d-2020-12.xlsx,7-55-Bew-RueA-J,7-55,flow,yearly
49,Bangladesh,0.0,0.0,0.0,0.0,0.0,0.0,0.0,0.0,0.0,0.0,0.0,0.0,2020-12-01,7-55-Bew-RueA-J-d-2020-12.xlsx,7-55-Bew-RueA-J,7-55,flow,yearly
50,China (Volksrepublik),0.0,0.0,0.0,1.0,1.0,0.0,0.0,2.0,0.0,0.0,0.0,0.0,2020-12-01,7-55-Bew-RueA-J-d-2020-12.xlsx,7-55-Bew-RueA-J,7-55,flow,yearly
51,Georgien,1.0,1.0,0.0,1.0,1.0,0.0,0.0,1.0,0.0,0.0,0.0,0.0,2020-12-01,7-55-Bew-RueA-J-d-2020-12.xlsx,7-55-Bew-RueA-J,7-55,flow,yearly
52,Irak,41.0,39.0,2.0,33.0,33.0,0.0,32.0,5.0,2.0,2.0,0.0,2.0,2020-12-01,7-55-Bew-RueA-J-d-2020-12.xlsx,7-55-Bew-RueA-J,7-55,flow,yearly
53,Iran,17.0,17.0,0.0,17.0,17.0,0.0,10.0,5.0,0.0,0.0,0.0,0.0,2020-12-01,7-55-Bew-RueA-J-d-2020-12.xlsx,7-55-Bew-RueA-J,7-55,flow,yearly
54,Israel,2.0,2.0,0.0,2.0,2.0,0.0,2.0,0.0,0.0,0.0,0.0,0.0,2020-12-01,7-55-Bew-RueA-J-d-2020-12.xlsx,7-55-Bew-RueA-J,7-55,flow,yearly
55,Jemen,0.0,0.0,0.0,0.0,0.0,0.0,0.0,0.0,0.0,0.0,0.0,0.0,2020-12-01,7-55-Bew-RueA-J-d-2020-12.xlsx,7-55-Bew-RueA-J,7-55,flow,yearly
56,Libanon,0.0,0.0,0.0,0.0,0.0,0.0,0.0,0.0,0.0,0.0,0.0,0.0,2020-12-01,7-55-Bew-RueA-J-d-2020-12.xlsx,7-55-Bew-RueA-J,7-55,flow,yearly
57,Malediven,1.0,0.0,1.0,0.0,0.0,0.0,0.0,0.0,1.0,1.0,0.0,0.0,2020-12-01,7-55-Bew-RueA-J-d-2020-12.xlsx,7-55-Bew-RueA-J,7-55,flow,yearly
58,Mongolei,0.0,0.0,0.0,0.0,0.0,0.0,0.0,0.0,0.0,0.0,0.0,0.0,2020-12-01,7-55-Bew-RueA-J-d-2020-12.xlsx,7-55-Bew-RueA-J,7-55,flow,yearly
59,Pakistan,2.0,2.0,0.0,3.0,3.0,0.0,0.0,1.0,0.0,0.0,0.0,0.0,2020-12-01,7-55-Bew-RueA-J-d-2020-12.xlsx,7-55-Bew-RueA-J,7-55,flow,yearly
60,Sri Lanka,2.0,1.0,1.0,0.0,0.0,0.0,1.0,0.0,1.0,1.0,0.0,0.0,2020-12-01,7-55-Bew-RueA-J-d-2020-12.xlsx,7-55-Bew-RueA-J,7-55,flow,yearly
61,Syrien,40.0,36.0,4.0,38.0,35.0,2.0,50.0,6.0,4.0,4.0,0.0,0.0,2020-12-01,7-55-Bew-RueA-J-d-2020-12.xlsx,7-55-Bew-RueA-J,7-55,flow,yearly
62,Vietnam,1.0,1.0,0.0,1.0,0.0,1.0,0.0,0.0,0.0,0.0,0.0,0.0,2020-12-01,7-55-Bew-RueA-J-d-2020-12.xlsx,7-55-Bew-RueA-J,7-55,flow,yearly
63,Total Asien,180.0,170.0,10.0,166.0,161.0,4.0,150.0,38.0,10.0,10.0,0.0,3.0,2020-12-01,7-55-Bew-RueA-J-d-2020-12.xlsx,7-55-Bew-RueA-J,7-55,flow,yearly
65,Albanien,5.0,5.0,0.0,5.0,4.0,1.0,0.0,4.0,0.0,0.0,0.0,0.0,2020-12-01,7-55-Bew-RueA-J-d-2020-12.xlsx,7-55-Bew-RueA-J,7-55,flow,yearly
66,Belarus,1.0,1.0,0.0,1.0,1.0,0.0,1.0,0.0,0.0,0.0,0.0,0.0,2020-12-01,7-55-Bew-RueA-J-d-2020-12.xlsx,7-55-Bew-RueA-J,7-55,flow,yearly
67,Belgien,5.0,5.0,0.0,5.0,4.0,1.0,0.0,2.0,0.0,0.0,0.0,0.0,2020-12-01,7-55-Bew-RueA-J-d-2020-12.xlsx,7-55-Bew-RueA-J,7-55,flow,yearly
68,Bosnien u. Herzegowina,0.0,0.0,0.0,0.0,0.0,0.0,0.0,0.0,0.0,0.0,0.0,0.0,2020-12-01,7-55-Bew-RueA-J-d-2020-12.xlsx,7-55-Bew-RueA-J,7-55,flow,yearly
69,Bulgarien,1.0,1.0,0.0,1.0,1.0,0.0,0.0,1.0,0.0,0.0,0.0,0.0,2020-12-01,7-55-Bew-RueA-J-d-2020-12.xlsx,7-55-Bew-RueA-J,7-55,flow,yearly
70,Deutschland,0.0,0.0,0.0,0.0,0.0,0.0,1.0,0.0,0.0,0.0,0.0,0.0,2020-12-01,7-55-Bew-RueA-J-d-2020-12.xlsx,7-55-Bew-RueA-J,7-55,flow,yearly
71,Estland,2.0,2.0,0.0,2.0,2.0,0.0,0.0,0.0,0.0,0.0,0.0,0.0,2020-12-01,7-55-Bew-RueA-J-d-2020-12.xlsx,7-55-Bew-RueA-J,7-55,flow,yearly
72,Grossbritannien,3.0,3.0,0.0,4.0,3.0,1.0,0.0,3.0,0.0,0.0,0.0,0.0,2020-12-01,7-55-Bew-RueA-J-d-2020-12.xlsx,7-55-Bew-RueA-J,7-55,flow,yearly
73,Kosovo,1.0,0.0,1.0,0.0,0.0,0.0,0.0,1.0,1.0,1.0,0.0,1.0,2020-12-01,7-55-Bew-RueA-J-d-2020-12.xlsx,7-55-Bew-RueA-J,7-55,flow,yearly
74,Kroatien,4.0,4.0,0.0,4.0,4.0,0.0,0.0,3.0,0.0,0.0,0.0,0.0,2020-12-01,7-55-Bew-RueA-J-d-2020-12.xlsx,7-55-Bew-RueA-J,7-55,flow,yearly
75,Lettland,0.0,0.0,0.0,0.0,0.0,0.0,0.0,0.0,0.0,0.0,0.0,0.0,2020-12-01,7-55-Bew-RueA-J-d-2020-12.xlsx,7-55-Bew-RueA-J,7-55,flow,yearly
76,Litauen,6.0,6.0,0.0,6.0,6.0,0.0,0.0,4.0,0.0,0.0,0.0,0.0,2020-12-01,7-55-Bew-RueA-J-d-2020-12.xlsx,7-55-Bew-RueA-J,7-55,flow,yearly
77,Nordmazedonien,1.0,1.0,0.0,1.0,1.0,0.0,0.0,2.0,0.0,0.0,0.0,0.0,2020-12-01,7-55-Bew-RueA-J-d-2020-12.xlsx,7-55-Bew-RueA-J,7-55,flow,yearly
78,Moldova,0.0,0.0,0.0,0.0,0.0,0.0,0.0,0.0,0.0,0.0,0.0,0.0,2020-12-01,7-55-Bew-RueA-J-d-2020-12.xlsx,7-55-Bew-RueA-J,7-55,flow,yearly
79,Niederlande,3.0,3.0,0.0,3.0,3.0,0.0,0.0,1.0,0.0,0.0,0.0,0.0,2020-12-01,7-55-Bew-RueA-J-d-2020-12.xlsx,7-55-Bew-RueA-J,7-55,flow,yearly
80,Polen,9.0,9.0,0.0,9.0,9.0,0.0,0.0,9.0,0.0,0.0,0.0,0.0,2020-12-01,7-55-Bew-RueA-J-d-2020-12.xlsx,7-55-Bew-RueA-J,7-55,flow,yearly
81,Portugal,0.0,0.0,0.0,0.0,0.0,0.0,0.0,0.0,0.0,0.0,0.0,0.0,2020-12-01,7-55-Bew-RueA-J-d-2020-12.xlsx,7-55-Bew-RueA-J,7-55,flow,yearly
82,Rumänien,29.0,29.0,0.0,29.0,26.0,3.0,0.0,19.0,0.0,0.0,0.0,0.0,2020-12-01,7-55-Bew-RueA-J-d-2020-12.xlsx,7-55-Bew-RueA-J,7-55,flow,yearly
83,Russland,11.0,11.0,0.0,11.0,11.0,0.0,11.0,9.0,0.0,0.0,0.0,0.0,2020-12-01,7-55-Bew-RueA-J-d-2020-12.xlsx,7-55-Bew-RueA-J,7-55,flow,yearly
84,Schweden,1.0,1.0,0.0,1.0,0.0,0.0,0.0,0.0,0.0,0.0,0.0,0.0,2020-12-01,7-55-Bew-RueA-J-d-2020-12.xlsx,7-55-Bew-RueA-J,7-55,flow,yearly
85,Serbien,3.0,3.0,0.0,3.0,2.0,1.0,1.0,1.0,0.0,0.0,0.0,0.0,2020-12-01,7-55-Bew-RueA-J-d-2020-12.xlsx,7-55-Bew-RueA-J,7-55,flow,yearly
86,Slowakische Republik,7.0,7.0,0.0,7.0,6.0,1.0,0.0,3.0,0.0,0.0,0.0,0.0,2020-12-01,7-55-Bew-RueA-J-d-2020-12.xlsx,7-55-Bew-RueA-J,7-55,flow,yearly
87,Slowenien,1.0,1.0,0.0,1.0,1.0,0.0,0.0,1.0,0.0,0.0,0.0,0.0,2020-12-01,7-55-Bew-RueA-J-d-2020-12.xlsx,7-55-Bew-RueA-J,7-55,flow,yearly
88,Spanien,5.0,5.0,0.0,5.0,3.0,1.0,0.0,3.0,0.0,0.0,0.0,0.0,2020-12-01,7-55-Bew-RueA-J-d-2020-12.xlsx,7-55-Bew-RueA-J,7-55,flow,yearly
89,Tschechische Republik,3.0,3.0,0.0,3.0,3.0,0.0,0.0,2.0,0.0,0.0,0.0,0.0,2020-12-01,7-55-Bew-RueA-J-d-2020-12.xlsx,7-55-Bew-RueA-J,7-55,flow,yearly
90,Türkei,13.0,8.0,5.0,8.0,8.0,0.0,13.0,1.0,5.0,5.0,0.0,1.0,2020-12-01,7-55-Bew-RueA-J-d-2020-12.xlsx,7-55-Bew-RueA-J,7-55,flow,yearly
91,Ukraine,2.0,2.0,0.0,2.0,2.0,0.0,0.0,5.0,0.0,0.0,0.0,0.0,2020-12-01,7-55-Bew-RueA-J-d-2020-12.xlsx,7-55-Bew-RueA-J,7-55,flow,yearly
92,Ungarn,3.0,3.0,0.0,3.0,3.0,0.0,0.0,3.0,0.0,0.0,0.0,0.0,2020-12-01,7-55-Bew-RueA-J-d-2020-12.xlsx,7-55-Bew-RueA-J,7-55,flow,yearly
93,Total Europa,119.0,113.0,6.0,114.0,103.0,9.0,27.0,77.0,6.0,6.0,0.0,2.0,2020-12-01,7-55-Bew-RueA-J-d-2020-12.xlsx,7-55-Bew-RueA-J,7-55,flow,yearly
95,Ohne Nationalität,6.0,6.0,0.0,6.0,5.0,1.0,5.0,0.0,0.0,0.0,0.0,0.0,2020-12-01,7-55-Bew-RueA-J-d-2020-12.xlsx,7-55-Bew-RueA-J,7-55,flow,yearly
96,Staat unbekannt,9.0,8.0,1.0,9.0,8.0,1.0,4.0,4.0,1.0,1.0,0.0,1.0,2020-12-01,7-55-Bew-RueA-J-d-2020-12.xlsx,7-55-Bew-RueA-J,7-55,flow,yearly
97,Total Herkunft unbek.,15.0,14.0,1.0,15.0,13.0,2.0,9.0,4.0,1.0,1.0,0.0,1.0,2020-12-01,7-55-Bew-RueA-J-d-2020-12.xlsx,7-55-Bew-RueA-J,7-55,flow,yearly
0,Herkunft unbekannt,27.0,25.0,2.0,24.0,21.0,3.0,14.0,10.0,2.0,2.0,0.0,1.0,2014-12-01,7-55-Bew-RueA-J-d-2020-12.xlsx,7-55-Bew-RueA-J,7-55,flow,yearly
2,Ägypten,9.0,9.0,0.0,7.0,7.0,0.0,7.0,3.0,0.0,0.0,0.0,0.0,2014-12-01,7-55-Bew-RueA-J-d-2020-12.xlsx,7-55-Bew-RueA-J,7-55,flow,yearly
3,Algerien,13.0,13.0,0.0,12.0,6.0,6.0,0.0,5.0,0.0,0.0,0.0,0.0,2014-12-01,7-55-Bew-RueA-J-d-2020-12.xlsx,7-55-Bew-RueA-J,7-55,flow,yearly
4,Angola,1.0,1.0,0.0,1.0,1.0,0.0,0.0,0.0,0.0,0.0,0.0,0.0,2014-12-01,7-55-Bew-RueA-J-d-2020-12.xlsx,7-55-Bew-RueA-J,7-55,flow,yearly
5,Äquatorialguinea,1.0,1.0,0.0,1.0,1.0,0.0,0.0,1.0,0.0,0.0,0.0,0.0,2014-12-01,7-55-Bew-RueA-J-d-2020-12.xlsx,7-55-Bew-RueA-J,7-55,flow,yearly
6,Äthiopien,9.0,9.0,0.0,9.0,9.0,0.0,9.0,2.0,0.0,0.0,0.0,0.0,2014-12-01,7-55-Bew-RueA-J-d-2020-12.xlsx,7-55-Bew-RueA-J,7-55,flow,yearly
7,Burkina Faso,2.0,2.0,0.0,1.0,1.0,0.0,0.0,1.0,0.0,0.0,0.0,0.0,2014-12-01,7-55-Bew-RueA-J-d-2020-12.xlsx,7-55-Bew-RueA-J,7-55,flow,yearly
8,Côte d'Ivoire,6.0,6.0,0.0,4.0,4.0,0.0,1.0,5.0,0.0,0.0,0.0,0.0,2014-12-01,7-55-Bew-RueA-J-d-2020-12.xlsx,7-55-Bew-RueA-J,7-55,flow,yearly
9,Eritrea,137.0,131.0,6.0,90.0,90.0,0.0,57.0,14.0,6.0,6.0,0.0,3.0,2014-12-01,7-55-Bew-RueA-J-d-2020-12.xlsx,7-55-Bew-RueA-J,7-55,flow,yearly
10,Gambia,14.0,14.0,0.0,13.0,11.0,2.0,2.0,8.0,0.0,0.0,0.0,0.0,2014-12-01,7-55-Bew-RueA-J-d-2020-12.xlsx,7-55-Bew-RueA-J,7-55,flow,yearly
11,Ghana,1.0,1.0,0.0,0.0,0.0,0.0,0.0,0.0,0.0,0.0,0.0,0.0,2014-12-01,7-55-Bew-RueA-J-d-2020-12.xlsx,7-55-Bew-RueA-J,7-55,flow,yearly
12,Guinea,14.0,14.0,0.0,11.0,11.0,0.0,0.0,8.0,0.0,0.0,0.0,0.0,2014-12-01,7-55-Bew-RueA-J-d-2020-12.xlsx,7-55-Bew-RueA-J,7-55,flow,yearly
13,Guinea-Bissau,4.0,4.0,0.0,4.0,4.0,0.0,2.0,3.0,0.0,0.0,0.0,0.0,2014-12-01,7-55-Bew-RueA-J-d-2020-12.xlsx,7-55-Bew-RueA-J,7-55,flow,yearly
14,Kamerun,2.0,2.0,0.0,2.0,2.0,0.0,0.0,1.0,0.0,0.0,0.0,0.0,2014-12-01,7-55-Bew-RueA-J-d-2020-12.xlsx,7-55-Bew-RueA-J,7-55,flow,yearly
15,Kongo DR,3.0,1.0,2.0,1.0,0.0,0.0,7.0,0.0,2.0,2.0,0.0,1.0,2014-12-01,7-55-Bew-RueA-J-d-2020-12.xlsx,7-55-Bew-RueA-J,7-55,flow,yearly
16,Liberia,10.0,10.0,0.0,9.0,6.0,3.0,4.0,4.0,0.0,0.0,0.0,0.0,2014-12-01,7-55-Bew-RueA-J-d-2020-12.xlsx,7-55-Bew-RueA-J,7-55,flow,yearly
17,Libyen,3.0,3.0,0.0,3.0,3.0,0.0,2.0,0.0,0.0,0.0,0.0,0.0,2014-12-01,7-55-Bew-RueA-J-d-2020-12.xlsx,7-55-Bew-RueA-J,7-55,flow,yearly
18,Mali,21.0,21.0,0.0,18.0,17.0,1.0,13.0,8.0,0.0,0.0,0.0,0.0,2014-12-01,7-55-Bew-RueA-J-d-2020-12.xlsx,7-55-Bew-RueA-J,7-55,flow,yearly
19,Marokko,7.0,7.0,0.0,7.0,6.0,1.0,5.0,4.0,0.0,0.0,0.0,0.0,2014-12-01,7-55-Bew-RueA-J-d-2020-12.xlsx,7-55-Bew-RueA-J,7-55,flow,yearly
20,Mauretanien,5.0,5.0,0.0,5.0,5.0,0.0,1.0,5.0,0.0,0.0,0.0,0.0,2014-12-01,7-55-Bew-RueA-J-d-2020-12.xlsx,7-55-Bew-RueA-J,7-55,flow,yearly
21,Niger,3.0,3.0,0.0,3.0,3.0,0.0,2.0,1.0,0.0,0.0,0.0,0.0,2014-12-01,7-55-Bew-RueA-J-d-2020-12.xlsx,7-55-Bew-RueA-J,7-55,flow,yearly
22,Nigeria,130.0,130.0,0.0,113.0,95.0,18.0,26.0,52.0,0.0,0.0,0.0,0.0,2014-12-01,7-55-Bew-RueA-J-d-2020-12.xlsx,7-55-Bew-RueA-J,7-55,flow,yearly
23,Senegal,6.0,6.0,0.0,5.0,5.0,0.0,1.0,2.0,0.0,0.0,0.0,0.0,2014-12-01,7-55-Bew-RueA-J-d-2020-12.xlsx,7-55-Bew-RueA-J,7-55,flow,yearly
24,Sierra Leone,4.0,4.0,0.0,4.0,3.0,1.0,0.0,3.0,0.0,0.0,0.0,0.0,2014-12-01,7-55-Bew-RueA-J-d-2020-12.xlsx,7-55-Bew-RueA-J,7-55,flow,yearly
25,Somalia,49.0,45.0,4.0,36.0,30.0,6.0,27.0,3.0,4.0,4.0,0.0,0.0,2014-12-01,7-55-Bew-RueA-J-d-2020-12.xlsx,7-55-Bew-RueA-J,7-55,flow,yearly
26,Sudan,7.0,7.0,0.0,4.0,4.0,0.0,7.0,0.0,0.0,0.0,0.0,0.0,2014-12-01,7-55-Bew-RueA-J-d-2020-12.xlsx,7-55-Bew-RueA-J,7-55,flow,yearly
27,Südsudan,1.0,1.0,0.0,0.0,0.0,0.0,0.0,0.0,0.0,0.0,0.0,0.0,2014-12-01,7-55-Bew-RueA-J-d-2020-12.xlsx,7-55-Bew-RueA-J,7-55,flow,yearly
28,Tansania,1.0,1.0,0.0,1.0,1.0,0.0,0.0,1.0,0.0,0.0,0.0,0.0,2014-12-01,7-55-Bew-RueA-J-d-2020-12.xlsx,7-55-Bew-RueA-J,7-55,flow,yearly
29,Togo,1.0,1.0,0.0,1.0,1.0,0.0,1.0,1.0,0.0,0.0,0.0,0.0,2014-12-01,7-55-Bew-RueA-J-d-2020-12.xlsx,7-55-Bew-RueA-J,7-55,flow,yearly
30,Tschad,1.0,1.0,0.0,1.0,1.0,0.0,0.0,0.0,0.0,0.0,0.0,0.0,2014-12-01,7-55-Bew-RueA-J-d-2020-12.xlsx,7-55-Bew-RueA-J,7-55,flow,yearly
31,Tunesien,0.0,0.0,0.0,0.0,0.0,0.0,1.0,0.0,0.0,0.0,0.0,0.0,2014-12-01,7-55-Bew-RueA-J-d-2020-12.xlsx,7-55-Bew-RueA-J,7-55,flow,yearly
32,Uganda,2.0,2.0,0.0,2.0,1.0,1.0,1.0,1.0,0.0,0.0,0.0,0.0,2014-12-01,7-55-Bew-RueA-J-d-2020-12.xlsx,7-55-Bew-RueA-J,7-55,flow,yearly
33,Zimbabwe,2.0,2.0,0.0,2.0,1.0,1.0,0.0,1.0,0.0,0.0,0.0,0.0,2014-12-01,7-55-Bew-RueA-J-d-2020-12.xlsx,7-55-Bew-RueA-J,7-55,flow,yearly
34,Total Afrika,469.0,457.0,12.0,370.0,329.0,40.0,176.0,137.0,12.0,12.0,0.0,4.0,2014-12-01,7-55-Bew-RueA-J-d-2020-12.xlsx,7-55-Bew-RueA-J,7-55,flow,yearly
36,Brasilien,1.0,1.0,0.0,1.0,0.0,1.0,0.0,0.0,0.0,0.0,0.0,0.0,2014-12-01,7-55-Bew-RueA-J-d-2020-12.xlsx,7-55-Bew-RueA-J,7-55,flow,yearly
37,Dominikanische Republik,25.0,25.0,0.0,25.0,20.0,5.0,0.0,16.0,0.0,0.0,0.0,0.0,2014-12-01,7-55-Bew-RueA-J-d-2020-12.xlsx,7-55-Bew-RueA-J,7-55,flow,yearly
38,Ecuador,3.0,3.0,0.0,3.0,2.0,1.0,0.0,0.0,0.0,0.0,0.0,0.0,2014-12-01,7-55-Bew-RueA-J-d-2020-12.xlsx,7-55-Bew-RueA-J,7-55,flow,yearly
39,Kolumbien,3.0,3.0,0.0,3.0,3.0,0.0,0.0,2.0,0.0,0.0,0.0,0.0,2014-12-01,7-55-Bew-RueA-J-d-2020-12.xlsx,7-55-Bew-RueA-J,7-55,flow,yearly
40,Kuba,1.0,1.0,0.0,1.0,1.0,0.0,0.0,1.0,0.0,0.0,0.0,0.0,2014-12-01,7-55-Bew-RueA-J-d-2020-12.xlsx,7-55-Bew-RueA-J,7-55,flow,yearly
41,Suriname,1.0,1.0,0.0,1.0,1.0,0.0,0.0,1.0,0.0,0.0,0.0,0.0,2014-12-01,7-55-Bew-RueA-J-d-2020-12.xlsx,7-55-Bew-RueA-J,7-55,flow,yearly
42,USA,2.0,2.0,0.0,2.0,2.0,0.0,1.0,2.0,0.0,0.0,0.0,0.0,2014-12-01,7-55-Bew-RueA-J-d-2020-12.xlsx,7-55-Bew-RueA-J,7-55,flow,yearly
43,Total Amerika,36.0,36.0,0.0,36.0,29.0,7.0,1.0,22.0,0.0,0.0,0.0,0.0,2014-12-01,7-55-Bew-RueA-J-d-2020-12.xlsx,7-55-Bew-RueA-J,7-55,flow,yearly
45,Afghanistan,28.0,23.0,5.0,22.0,22.0,0.0,27.0,5.0,5.0,5.0,0.0,1.0,2014-12-01,7-55-Bew-RueA-J-d-2020-12.xlsx,7-55-Bew-RueA-J,7-55,flow,yearly
46,Bangladesh,1.0,1.0,0.0,1.0,1.0,0.0,0.0,0.0,0.0,0.0,0.0,0.0,2014-12-01,7-55-Bew-RueA-J-d-2020-12.xlsx,7-55-Bew-RueA-J,7-55,flow,yearly
47,China (Volksrepublik),1.0,1.0,0.0,1.0,1.0,0.0,4.0,1.0,0.0,0.0,0.0,0.0,2014-12-01,7-55-Bew-RueA-J-d-2020-12.xlsx,7-55-Bew-RueA-J,7-55,flow,yearly
48,Georgien,1.0,1.0,0.0,1.0,1.0,0.0,0.0,2.0,0.0,0.0,0.0,0.0,2014-12-01,7-55-Bew-RueA-J-d-2020-12.xlsx,7-55-Bew-RueA-J,7-55,flow,yearly
49,Irak,17.0,16.0,1.0,12.0,12.0,0.0,4.0,8.0,1.0,1.0,0.0,1.0,2014-12-01,7-55-Bew-RueA-J-d-2020-12.xlsx,7-55-Bew-RueA-J,7-55,flow,yearly
50,Iran,16.0,16.0,0.0,16.0,16.0,0.0,18.0,0.0,0.0,0.0,0.0,0.0,2014-12-01,7-55-Bew-RueA-J-d-2020-12.xlsx,7-55-Bew-RueA-J,7-55,flow,yearly
51,Libanon,1.0,1.0,0.0,1.0,1.0,0.0,0.0,1.0,0.0,0.0,0.0,0.0,2014-12-01,7-55-Bew-RueA-J-d-2020-12.xlsx,7-55-Bew-RueA-J,7-55,flow,yearly
52,Mongolei,2.0,2.0,0.0,2.0,2.0,0.0,0.0,0.0,0.0,0.0,0.0,0.0,2014-12-01,7-55-Bew-RueA-J-d-2020-12.xlsx,7-55-Bew-RueA-J,7-55,flow,yearly
53,Pakistan,4.0,4.0,0.0,4.0,4.0,0.0,0.0,1.0,0.0,0.0,0.0,0.0,2014-12-01,7-55-Bew-RueA-J-d-2020-12.xlsx,7-55-Bew-RueA-J,7-55,flow,yearly
54,Sri Lanka,8.0,8.0,0.0,8.0,7.0,1.0,6.0,4.0,0.0,0.0,0.0,0.0,2014-12-01,7-55-Bew-RueA-J-d-2020-12.xlsx,7-55-Bew-RueA-J,7-55,flow,yearly
55,Syrien,41.0,40.0,1.0,36.0,35.0,1.0,32.0,5.0,1.0,1.0,0.0,0.0,2014-12-01,7-55-Bew-RueA-J-d-2020-12.xlsx,7-55-Bew-RueA-J,7-55,flow,yearly
56,Total Asien,120.0,113.0,7.0,104.0,102.0,2.0,91.0,27.0,7.0,7.0,0.0,2.0,2014-12-01,7-55-Bew-RueA-J-d-2020-12.xlsx,7-55-Bew-RueA-J,7-55,flow,yearly
58,Belarus,1.0,1.0,0.0,1.0,1.0,0.0,0.0,1.0,0.0,0.0,0.0,0.0,2014-12-01,7-55-Bew-RueA-J-d-2020-12.xlsx,7-55-Bew-RueA-J,7-55,flow,yearly
59,Belgien,2.0,2.0,0.0,2.0,1.0,1.0,0.0,0.0,0.0,0.0,0.0,0.0,2014-12-01,7-55-Bew-RueA-J-d-2020-12.xlsx,7-55-Bew-RueA-J,7-55,flow,yearly
60,Bosnien u. Herzegowina,1.0,1.0,0.0,1.0,0.0,1.0,0.0,0.0,0.0,0.0,0.0,0.0,2014-12-01,7-55-Bew-RueA-J-d-2020-12.xlsx,7-55-Bew-RueA-J,7-55,flow,yearly
61,Bulgarien,3.0,3.0,0.0,3.0,3.0,0.0,0.0,0.0,0.0,0.0,0.0,0.0,2014-12-01,7-55-Bew-RueA-J-d-2020-12.xlsx,7-55-Bew-RueA-J,7-55,flow,yearly
62,Griechenland,1.0,1.0,0.0,1.0,0.0,1.0,0.0,0.0,0.0,0.0,0.0,0.0,2014-12-01,7-55-Bew-RueA-J-d-2020-12.xlsx,7-55-Bew-RueA-J,7-55,flow,yearly
63,Grossbritannien,1.0,1.0,0.0,1.0,1.0,0.0,0.0,1.0,0.0,0.0,0.0,0.0,2014-12-01,7-55-Bew-RueA-J-d-2020-12.xlsx,7-55-Bew-RueA-J,7-55,flow,yearly
64,Italien,0.0,0.0,0.0,0.0,0.0,0.0,2.0,0.0,0.0,0.0,0.0,0.0,2014-12-01,7-55-Bew-RueA-J-d-2020-12.xlsx,7-55-Bew-RueA-J,7-55,flow,yearly
65,Kosovo,2.0,2.0,0.0,2.0,0.0,0.0,0.0,0.0,0.0,0.0,0.0,0.0,2014-12-01,7-55-Bew-RueA-J-d-2020-12.xlsx,7-55-Bew-RueA-J,7-55,flow,yearly
66,Kroatien,5.0,5.0,0.0,2.0,1.0,0.0,0.0,2.0,0.0,0.0,0.0,0.0,2014-12-01,7-55-Bew-RueA-J-d-2020-12.xlsx,7-55-Bew-RueA-J,7-55,flow,yearly
67,Lettland,2.0,2.0,0.0,2.0,2.0,0.0,0.0,2.0,0.0,0.0,0.0,0.0,2014-12-01,7-55-Bew-RueA-J-d-2020-12.xlsx,7-55-Bew-RueA-J,7-55,flow,yearly
68,Litauen,6.0,6.0,0.0,5.0,4.0,1.0,0.0,3.0,0.0,0.0,0.0,0.0,2014-12-01,7-55-Bew-RueA-J-d-2020-12.xlsx,7-55-Bew-RueA-J,7-55,flow,yearly
69,Mazedonien eh.Jug.Rep.,2.0,2.0,0.0,2.0,2.0,0.0,0.0,1.0,0.0,0.0,0.0,0.0,2014-12-01,7-55-Bew-RueA-J-d-2020-12.xlsx,7-55-Bew-RueA-J,7-55,flow,yearly
70,Moldova,2.0,2.0,0.0,2.0,2.0,0.0,0.0,0.0,0.0,0.0,0.0,0.0,2014-12-01,7-55-Bew-RueA-J-d-2020-12.xlsx,7-55-Bew-RueA-J,7-55,flow,yearly
71,Montenegro,1.0,1.0,0.0,1.0,1.0,0.0,0.0,0.0,0.0,0.0,0.0,0.0,2014-12-01,7-55-Bew-RueA-J-d-2020-12.xlsx,7-55-Bew-RueA-J,7-55,flow,yearly
72,Niederlande,1.0,1.0,0.0,1.0,1.0,0.0,0.0,1.0,0.0,0.0,0.0,0.0,2014-12-01,7-55-Bew-RueA-J-d-2020-12.xlsx,7-55-Bew-RueA-J,7-55,flow,yearly
73,Polen,4.0,4.0,0.0,4.0,4.0,0.0,0.0,4.0,0.0,0.0,0.0,0.0,2014-12-01,7-55-Bew-RueA-J-d-2020-12.xlsx,7-55-Bew-RueA-J,7-55,flow,yearly
74,Portugal,1.0,1.0,0.0,1.0,1.0,0.0,0.0,0.0,0.0,0.0,0.0,0.0,2014-12-01,7-55-Bew-RueA-J-d-2020-12.xlsx,7-55-Bew-RueA-J,7-55,flow,yearly
75,Rumänien,38.0,38.0,0.0,31.0,31.0,0.0,1.0,31.0,0.0,0.0,0.0,0.0,2014-12-01,7-55-Bew-RueA-J-d-2020-12.xlsx,7-55-Bew-RueA-J,7-55,flow,yearly
76,Russland,5.0,5.0,0.0,5.0,5.0,0.0,4.0,1.0,0.0,0.0,0.0,0.0,2014-12-01,7-55-Bew-RueA-J-d-2020-12.xlsx,7-55-Bew-RueA-J,7-55,flow,yearly
77,Serbien,2.0,2.0,0.0,2.0,2.0,0.0,0.0,1.0,0.0,0.0,0.0,0.0,2014-12-01,7-55-Bew-RueA-J-d-2020-12.xlsx,7-55-Bew-RueA-J,7-55,flow,yearly
78,Slowakische Republik,9.0,9.0,0.0,9.0,9.0,0.0,0.0,1.0,0.0,0.0,0.0,0.0,2014-12-01,7-55-Bew-RueA-J-d-2020-12.xlsx,7-55-Bew-RueA-J,7-55,flow,yearly
79,Spanien,4.0,4.0,0.0,3.0,3.0,0.0,1.0,3.0,0.0,0.0,0.0,0.0,2014-12-01,7-55-Bew-RueA-J-d-2020-12.xlsx,7-55-Bew-RueA-J,7-55,flow,yearly
80,Tschechische Republik,1.0,1.0,0.0,1.0,1.0,0.0,0.0,1.0,0.0,0.0,0.0,0.0,2014-12-01,7-55-Bew-RueA-J-d-2020-12.xlsx,7-55-Bew-RueA-J,7-55,flow,yearly
81,Türkei,3.0,3.0,0.0,3.0,2.0,1.0,1.0,1.0,0.0,0.0,0.0,0.0,2014-12-01,7-55-Bew-RueA-J-d-2020-12.xlsx,7-55-Bew-RueA-J,7-55,flow,yearly
82,Ukraine,5.0,5.0,0.0,5.0,5.0,0.0,1.0,3.0,0.0,0.0,0.0,0.0,2014-12-01,7-55-Bew-RueA-J-d-2020-12.xlsx,7-55-Bew-RueA-J,7-55,flow,yearly
83,Ungarn,7.0,7.0,0.0,7.0,7.0,0.0,0.0,7.0,0.0,0.0,0.0,0.0,2014-12-01,7-55-Bew-RueA-J-d-2020-12.xlsx,7-55-Bew-RueA-J,7-55,flow,yearly
84,Total Europa,109.0,109.0,0.0,97.0,89.0,5.0,10.0,64.0,0.0,0.0,0.0,0.0,2014-12-01,7-55-Bew-RueA-J-d-2020-12.xlsx,7-55-Bew-RueA-J,7-55,flow,yearly
86,Staatenlos,1.0,1.0,0.0,1.0,1.0,0.0,0.0,1.0,0.0,0.0,0.0,0.0,2014-12-01,7-55-Bew-RueA-J-d-2020-12.xlsx,7-55-Bew-RueA-J,7-55,flow,yearly
87,Ohne Nationalität,3.0,2.0,1.0,2.0,2.0,0.0,7.0,2.0,1.0,1.0,0.0,0.0,2014-12-01,7-55-Bew-RueA-J-d-2020-12.xlsx,7-55-Bew-RueA-J,7-55,flow,yearly
88,Staat unbekannt,23.0,22.0,1.0,21.0,18.0,3.0,7.0,7.0,1.0,1.0,0.0,1.0,2014-12-01,7-55-Bew-RueA-J-d-2020-12.xlsx,7-55-Bew-RueA-J,7-55,flow,yearly
89,Total Herkunft unbek.,27.0,25.0,2.0,24.0,21.0,3.0,14.0,10.0,2.0,2.0,0.0,1.0,2014-12-01,7-55-Bew-RueA-J-d-2020-12.xlsx,7-55-Bew-RueA-J,7-55,flow,yearly
0,Herkunft unbekannt,18.0,18.0,0.0,16.0,14.0,2.0,5.0,8.0,0.0,0.0,0.0,0.0,2015-12-01,7-55-Bew-RueA-J-d-2020-12.xlsx,7-55-Bew-RueA-J,7-55,flow,yearly
2,Ägypten,8.0,8.0,0.0,10.0,6.0,0.0,1.0,0.0,0.0,0.0,0.0,0.0,2015-12-01,7-55-Bew-RueA-J-d-2020-12.xlsx,7-55-Bew-RueA-J,7-55,flow,yearly
3,Algerien,7.0,7.0,0.0,8.0,7.0,1.0,0.0,6.0,0.0,0.0,0.0,0.0,2015-12-01,7-55-Bew-RueA-J-d-2020-12.xlsx,7-55-Bew-RueA-J,7-55,flow,yearly
4,Angola,1.0,0.0,1.0,0.0,0.0,0.0,0.0,0.0,1.0,0.0,1.0,0.0,2015-12-01,7-55-Bew-RueA-J-d-2020-12.xlsx,7-55-Bew-RueA-J,7-55,flow,yearly
5,Äthiopien,20.0,15.0,5.0,15.0,15.0,0.0,9.0,1.0,5.0,5.0,0.0,4.0,2015-12-01,7-55-Bew-RueA-J-d-2020-12.xlsx,7-55-Bew-RueA-J,7-55,flow,yearly
6,Burkina Faso,0.0,0.0,0.0,1.0,1.0,0.0,1.0,1.0,0.0,0.0,0.0,0.0,2015-12-01,7-55-Bew-RueA-J-d-2020-12.xlsx,7-55-Bew-RueA-J,7-55,flow,yearly
7,Côte d'Ivoire,3.0,3.0,0.0,3.0,3.0,0.0,1.0,2.0,0.0,0.0,0.0,0.0,2015-12-01,7-55-Bew-RueA-J-d-2020-12.xlsx,7-55-Bew-RueA-J,7-55,flow,yearly
8,Eritrea,88.0,87.0,1.0,84.0,80.0,4.0,69.0,15.0,1.0,1.0,0.0,1.0,2015-12-01,7-55-Bew-RueA-J-d-2020-12.xlsx,7-55-Bew-RueA-J,7-55,flow,yearly
9,Gambia,20.0,20.0,0.0,16.0,13.0,3.0,5.0,12.0,0.0,0.0,0.0,0.0,2015-12-01,7-55-Bew-RueA-J-d-2020-12.xlsx,7-55-Bew-RueA-J,7-55,flow,yearly
10,Ghana,4.0,4.0,0.0,4.0,2.0,2.0,0.0,1.0,0.0,0.0,0.0,0.0,2015-12-01,7-55-Bew-RueA-J-d-2020-12.xlsx,7-55-Bew-RueA-J,7-55,flow,yearly
11,Guinea,11.0,11.0,0.0,13.0,8.0,5.0,2.0,7.0,0.0,0.0,0.0,0.0,2015-12-01,7-55-Bew-RueA-J-d-2020-12.xlsx,7-55-Bew-RueA-J,7-55,flow,yearly
12,Guinea-Bissau,6.0,6.0,0.0,5.0,4.0,1.0,1.0,1.0,0.0,0.0,0.0,0.0,2015-12-01,7-55-Bew-RueA-J-d-2020-12.xlsx,7-55-Bew-RueA-J,7-55,flow,yearly
13,Kamerun,1.0,1.0,0.0,1.0,1.0,0.0,0.0,2.0,0.0,0.0,0.0,0.0,2015-12-01,7-55-Bew-RueA-J-d-2020-12.xlsx,7-55-Bew-RueA-J,7-55,flow,yearly
14,Kongo DR,1.0,1.0,0.0,1.0,1.0,0.0,1.0,0.0,0.0,0.0,0.0,0.0,2015-12-01,7-55-Bew-RueA-J-d-2020-12.xlsx,7-55-Bew-RueA-J,7-55,flow,yearly
15,Liberia,2.0,2.0,0.0,3.0,3.0,0.0,1.0,2.0,0.0,0.0,0.0,0.0,2015-12-01,7-55-Bew-RueA-J-d-2020-12.xlsx,7-55-Bew-RueA-J,7-55,flow,yearly
16,Libyen,2.0,1.0,1.0,1.0,1.0,0.0,0.0,0.0,1.0,1.0,0.0,0.0,2015-12-01,7-55-Bew-RueA-J-d-2020-12.xlsx,7-55-Bew-RueA-J,7-55,flow,yearly
17,Mali,12.0,12.0,0.0,14.0,12.0,1.0,6.0,7.0,0.0,0.0,0.0,0.0,2015-12-01,7-55-Bew-RueA-J-d-2020-12.xlsx,7-55-Bew-RueA-J,7-55,flow,yearly
18,Marokko,6.0,6.0,0.0,6.0,4.0,2.0,1.0,0.0,0.0,0.0,0.0,0.0,2015-12-01,7-55-Bew-RueA-J-d-2020-12.xlsx,7-55-Bew-RueA-J,7-55,flow,yearly
19,Niger,1.0,1.0,0.0,1.0,1.0,0.0,0.0,0.0,0.0,0.0,0.0,0.0,2015-12-01,7-55-Bew-RueA-J-d-2020-12.xlsx,7-55-Bew-RueA-J,7-55,flow,yearly
20,Nigeria,102.0,102.0,0.0,104.0,96.0,5.0,18.0,64.0,0.0,0.0,0.0,0.0,2015-12-01,7-55-Bew-RueA-J-d-2020-12.xlsx,7-55-Bew-RueA-J,7-55,flow,yearly
21,Senegal,11.0,11.0,0.0,11.0,9.0,2.0,3.0,7.0,0.0,0.0,0.0,0.0,2015-12-01,7-55-Bew-RueA-J-d-2020-12.xlsx,7-55-Bew-RueA-J,7-55,flow,yearly
22,Sierra Leone,2.0,2.0,0.0,2.0,2.0,0.0,0.0,1.0,0.0,0.0,0.0,0.0,2015-12-01,7-55-Bew-RueA-J-d-2020-12.xlsx,7-55-Bew-RueA-J,7-55,flow,yearly
23,Somalia,48.0,44.0,4.0,35.0,31.0,4.0,18.0,6.0,4.0,4.0,0.0,0.0,2015-12-01,7-55-Bew-RueA-J-d-2020-12.xlsx,7-55-Bew-RueA-J,7-55,flow,yearly
24,Sudan,5.0,5.0,0.0,4.0,4.0,0.0,5.0,3.0,0.0,0.0,0.0,0.0,2015-12-01,7-55-Bew-RueA-J-d-2020-12.xlsx,7-55-Bew-RueA-J,7-55,flow,yearly
25,Südsudan,0.0,0.0,0.0,1.0,1.0,0.0,1.0,0.0,0.0,0.0,0.0,0.0,2015-12-01,7-55-Bew-RueA-J-d-2020-12.xlsx,7-55-Bew-RueA-J,7-55,flow,yearly
26,Togo,3.0,3.0,0.0,2.0,2.0,0.0,1.0,1.0,0.0,0.0,0.0,0.0,2015-12-01,7-55-Bew-RueA-J-d-2020-12.xlsx,7-55-Bew-RueA-J,7-55,flow,yearly
27,Tschad,2.0,2.0,0.0,2.0,1.0,1.0,0.0,0.0,0.0,0.0,0.0,0.0,2015-12-01,7-55-Bew-RueA-J-d-2020-12.xlsx,7-55-Bew-RueA-J,7-55,flow,yearly
28,Tunesien,2.0,2.0,0.0,2.0,2.0,0.0,0.0,1.0,0.0,0.0,0.0,0.0,2015-12-01,7-55-Bew-RueA-J-d-2020-12.xlsx,7-55-Bew-RueA-J,7-55,flow,yearly
29,Total Afrika,368.0,356.0,12.0,349.0,310.0,31.0,144.0,140.0,12.0,11.0,1.0,5.0,2015-12-01,7-55-Bew-RueA-J-d-2020-12.xlsx,7-55-Bew-RueA-J,7-55,flow,yearly
31,Bolivien,2.0,2.0,0.0,2.0,2.0,0.0,0.0,2.0,0.0,0.0,0.0,0.0,2015-12-01,7-55-Bew-RueA-J-d-2020-12.xlsx,7-55-Bew-RueA-J,7-55,flow,yearly
32,Dominikanische Republik,15.0,15.0,0.0,15.0,14.0,1.0,0.0,13.0,0.0,0.0,0.0,0.0,2015-12-01,7-55-Bew-RueA-J-d-2020-12.xlsx,7-55-Bew-RueA-J,7-55,flow,yearly
33,Ecuador,2.0,2.0,0.0,2.0,2.0,0.0,0.0,1.0,0.0,0.0,0.0,0.0,2015-12-01,7-55-Bew-RueA-J-d-2020-12.xlsx,7-55-Bew-RueA-J,7-55,flow,yearly
34,Haiti,4.0,4.0,0.0,0.0,0.0,0.0,0.0,0.0,0.0,0.0,0.0,0.0,2015-12-01,7-55-Bew-RueA-J-d-2020-12.xlsx,7-55-Bew-RueA-J,7-55,flow,yearly
35,Kanada,1.0,1.0,0.0,1.0,1.0,0.0,0.0,1.0,0.0,0.0,0.0,0.0,2015-12-01,7-55-Bew-RueA-J-d-2020-12.xlsx,7-55-Bew-RueA-J,7-55,flow,yearly
36,Kolumbien,4.0,4.0,0.0,3.0,2.0,0.0,0.0,3.0,0.0,0.0,0.0,0.0,2015-12-01,7-55-Bew-RueA-J-d-2020-12.xlsx,7-55-Bew-RueA-J,7-55,flow,yearly
37,Kuba,1.0,1.0,0.0,1.0,1.0,0.0,0.0,0.0,0.0,0.0,0.0,0.0,2015-12-01,7-55-Bew-RueA-J-d-2020-12.xlsx,7-55-Bew-RueA-J,7-55,flow,yearly
38,Trinidad u. Tobago,1.0,1.0,0.0,1.0,1.0,0.0,0.0,0.0,0.0,0.0,0.0,0.0,2015-12-01,7-55-Bew-RueA-J-d-2020-12.xlsx,7-55-Bew-RueA-J,7-55,flow,yearly
39,Total Amerika,30.0,30.0,0.0,25.0,23.0,1.0,0.0,20.0,0.0,0.0,0.0,0.0,2015-12-01,7-55-Bew-RueA-J-d-2020-12.xlsx,7-55-Bew-RueA-J,7-55,flow,yearly
41,Afghanistan,24.0,24.0,0.0,25.0,25.0,0.0,13.0,3.0,0.0,0.0,0.0,0.0,2015-12-01,7-55-Bew-RueA-J-d-2020-12.xlsx,7-55-Bew-RueA-J,7-55,flow,yearly
42,Bangladesh,1.0,1.0,0.0,1.0,1.0,0.0,2.0,0.0,0.0,0.0,0.0,0.0,2015-12-01,7-55-Bew-RueA-J-d-2020-12.xlsx,7-55-Bew-RueA-J,7-55,flow,yearly
43,China (Volksrepublik),10.0,10.0,0.0,10.0,10.0,0.0,4.0,6.0,0.0,0.0,0.0,0.0,2015-12-01,7-55-Bew-RueA-J-d-2020-12.xlsx,7-55-Bew-RueA-J,7-55,flow,yearly
44,Georgien,3.0,3.0,0.0,3.0,2.0,1.0,0.0,2.0,0.0,0.0,0.0,0.0,2015-12-01,7-55-Bew-RueA-J-d-2020-12.xlsx,7-55-Bew-RueA-J,7-55,flow,yearly
45,Irak,7.0,6.0,1.0,7.0,6.0,1.0,1.0,1.0,1.0,1.0,0.0,1.0,2015-12-01,7-55-Bew-RueA-J-d-2020-12.xlsx,7-55-Bew-RueA-J,7-55,flow,yearly
46,Iran,3.0,3.0,0.0,2.0,2.0,0.0,4.0,1.0,0.0,0.0,0.0,0.0,2015-12-01,7-55-Bew-RueA-J-d-2020-12.xlsx,7-55-Bew-RueA-J,7-55,flow,yearly
47,Sri Lanka,4.0,4.0,0.0,4.0,3.0,1.0,2.0,1.0,0.0,0.0,0.0,0.0,2015-12-01,7-55-Bew-RueA-J-d-2020-12.xlsx,7-55-Bew-RueA-J,7-55,flow,yearly
48,Syrien,58.0,58.0,0.0,54.0,52.0,2.0,24.0,15.0,0.0,0.0,0.0,0.0,2015-12-01,7-55-Bew-RueA-J-d-2020-12.xlsx,7-55-Bew-RueA-J,7-55,flow,yearly
49,Total Asien,110.0,109.0,1.0,106.0,101.0,5.0,50.0,29.0,1.0,1.0,0.0,1.0,2015-12-01,7-55-Bew-RueA-J-d-2020-12.xlsx,7-55-Bew-RueA-J,7-55,flow,yearly
51,Belarus,1.0,1.0,0.0,1.0,1.0,0.0,0.0,1.0,0.0,0.0,0.0,0.0,2015-12-01,7-55-Bew-RueA-J-d-2020-12.xlsx,7-55-Bew-RueA-J,7-55,flow,yearly
52,Belgien,2.0,2.0,0.0,1.0,1.0,0.0,0.0,0.0,0.0,0.0,0.0,0.0,2015-12-01,7-55-Bew-RueA-J-d-2020-12.xlsx,7-55-Bew-RueA-J,7-55,flow,yearly
53,Bosnien u. Herzegowina,6.0,6.0,0.0,6.0,0.0,6.0,0.0,0.0,0.0,0.0,0.0,0.0,2015-12-01,7-55-Bew-RueA-J-d-2020-12.xlsx,7-55-Bew-RueA-J,7-55,flow,yearly
54,Grossbritannien,1.0,1.0,0.0,1.0,1.0,0.0,0.0,1.0,0.0,0.0,0.0,0.0,2015-12-01,7-55-Bew-RueA-J-d-2020-12.xlsx,7-55-Bew-RueA-J,7-55,flow,yearly
55,Kosovo,3.0,3.0,0.0,3.0,3.0,0.0,1.0,0.0,0.0,0.0,0.0,0.0,2015-12-01,7-55-Bew-RueA-J-d-2020-12.xlsx,7-55-Bew-RueA-J,7-55,flow,yearly
56,Kroatien,2.0,2.0,0.0,1.0,1.0,0.0,0.0,4.0,0.0,0.0,0.0,0.0,2015-12-01,7-55-Bew-RueA-J-d-2020-12.xlsx,7-55-Bew-RueA-J,7-55,flow,yearly
57,Litauen,1.0,1.0,0.0,1.0,1.0,0.0,0.0,0.0,0.0,0.0,0.0,0.0,2015-12-01,7-55-Bew-RueA-J-d-2020-12.xlsx,7-55-Bew-RueA-J,7-55,flow,yearly
58,Mazedonien eh.Jug.Rep.,1.0,1.0,0.0,1.0,1.0,0.0,0.0,1.0,0.0,0.0,0.0,0.0,2015-12-01,7-55-Bew-RueA-J-d-2020-12.xlsx,7-55-Bew-RueA-J,7-55,flow,yearly
59,Moldova,1.0,1.0,0.0,1.0,1.0,0.0,0.0,0.0,0.0,0.0,0.0,0.0,2015-12-01,7-55-Bew-RueA-J-d-2020-12.xlsx,7-55-Bew-RueA-J,7-55,flow,yearly
60,Montenegro,3.0,3.0,0.0,3.0,0.0,3.0,0.0,0.0,0.0,0.0,0.0,0.0,2015-12-01,7-55-Bew-RueA-J-d-2020-12.xlsx,7-55-Bew-RueA-J,7-55,flow,yearly
61,Niederlande,2.0,2.0,0.0,1.0,1.0,0.0,0.0,1.0,0.0,0.0,0.0,0.0,2015-12-01,7-55-Bew-RueA-J-d-2020-12.xlsx,7-55-Bew-RueA-J,7-55,flow,yearly
62,Polen,9.0,9.0,0.0,9.0,9.0,0.0,0.0,3.0,0.0,0.0,0.0,0.0,2015-12-01,7-55-Bew-RueA-J-d-2020-12.xlsx,7-55-Bew-RueA-J,7-55,flow,yearly
63,Rumänien,41.0,41.0,0.0,42.0,38.0,4.0,0.0,37.0,0.0,0.0,0.0,0.0,2015-12-01,7-55-Bew-RueA-J-d-2020-12.xlsx,7-55-Bew-RueA-J,7-55,flow,yearly
64,Russland,12.0,12.0,0.0,7.0,7.0,0.0,7.0,0.0,0.0,0.0,0.0,0.0,2015-12-01,7-55-Bew-RueA-J-d-2020-12.xlsx,7-55-Bew-RueA-J,7-55,flow,yearly
65,Serbien,3.0,3.0,0.0,3.0,2.0,1.0,0.0,1.0,0.0,0.0,0.0,0.0,2015-12-01,7-55-Bew-RueA-J-d-2020-12.xlsx,7-55-Bew-RueA-J,7-55,flow,yearly
66,Slowakische Republik,4.0,4.0,0.0,4.0,4.0,0.0,0.0,2.0,0.0,0.0,0.0,0.0,2015-12-01,7-55-Bew-RueA-J-d-2020-12.xlsx,7-55-Bew-RueA-J,7-55,flow,yearly
67,Slowenien,1.0,1.0,0.0,1.0,1.0,0.0,0.0,1.0,0.0,0.0,0.0,0.0,2015-12-01,7-55-Bew-RueA-J-d-2020-12.xlsx,7-55-Bew-RueA-J,7-55,flow,yearly
68,Spanien,4.0,4.0,0.0,4.0,4.0,0.0,0.0,3.0,0.0,0.0,0.0,0.0,2015-12-01,7-55-Bew-RueA-J-d-2020-12.xlsx,7-55-Bew-RueA-J,7-55,flow,yearly
69,Tschechische Republik,1.0,1.0,0.0,1.0,1.0,0.0,0.0,1.0,0.0,0.0,0.0,0.0,2015-12-01,7-55-Bew-RueA-J-d-2020-12.xlsx,7-55-Bew-RueA-J,7-55,flow,yearly
70,Türkei,3.0,3.0,0.0,3.0,3.0,0.0,1.0,1.0,0.0,0.0,0.0,0.0,2015-12-01,7-55-Bew-RueA-J-d-2020-12.xlsx,7-55-Bew-RueA-J,7-55,flow,yearly
71,Ungarn,1.0,1.0,0.0,1.0,1.0,0.0,0.0,1.0,0.0,0.0,0.0,0.0,2015-12-01,7-55-Bew-RueA-J-d-2020-12.xlsx,7-55-Bew-RueA-J,7-55,flow,yearly
72,Total Europa,102.0,102.0,0.0,95.0,81.0,14.0,9.0,58.0,0.0,0.0,0.0,0.0,2015-12-01,7-55-Bew-RueA-J-d-2020-12.xlsx,7-55-Bew-RueA-J,7-55,flow,yearly
74,Ohne Nationalität,5.0,5.0,0.0,5.0,5.0,0.0,4.0,2.0,0.0,0.0,0.0,0.0,2015-12-01,7-55-Bew-RueA-J-d-2020-12.xlsx,7-55-Bew-RueA-J,7-55,flow,yearly
75,Staat unbekannt,13.0,13.0,0.0,11.0,9.0,2.0,1.0,6.0,0.0,0.0,0.0,0.0,2015-12-01,7-55-Bew-RueA-J-d-2020-12.xlsx,7-55-Bew-RueA-J,7-55,flow,yearly
76,Total Herkunft unbek.,18.0,18.0,0.0,16.0,14.0,2.0,5.0,8.0,0.0,0.0,0.0,0.0,2015-12-01,7-55-Bew-RueA-J-d-2020-12.xlsx,7-55-Bew-RueA-J,7-55,flow,yearly
0,Herkunft unbekannt,27.0,27.0,0.0,27.0,25.0,2.0,7.0,20.0,0.0,0.0,0.0,0.0,2019-12-01,7-55-Bew-RueA-J-d-2020-12.xlsx,7-55-Bew-RueA-J,7-55,flow,yearly
2,Ägypten,1.0,1.0,0.0,1.0,1.0,0.0,1.0,0.0,0.0,0.0,0.0,0.0,2019-12-01,7-55-Bew-RueA-J-d-2020-12.xlsx,7-55-Bew-RueA-J,7-55,flow,yearly
3,Algerien,8.0,8.0,0.0,9.0,5.0,4.0,0.0,7.0,0.0,0.0,0.0,0.0,2019-12-01,7-55-Bew-RueA-J-d-2020-12.xlsx,7-55-Bew-RueA-J,7-55,flow,yearly
4,Angola,1.0,1.0,0.0,1.0,1.0,0.0,1.0,1.0,0.0,0.0,0.0,0.0,2019-12-01,7-55-Bew-RueA-J-d-2020-12.xlsx,7-55-Bew-RueA-J,7-55,flow,yearly
5,Äquatorialguinea,1.0,1.0,0.0,0.0,0.0,0.0,0.0,0.0,0.0,0.0,0.0,0.0,2019-12-01,7-55-Bew-RueA-J-d-2020-12.xlsx,7-55-Bew-RueA-J,7-55,flow,yearly
6,Äthiopien,2.0,2.0,0.0,2.0,2.0,0.0,5.0,0.0,0.0,0.0,0.0,0.0,2019-12-01,7-55-Bew-RueA-J-d-2020-12.xlsx,7-55-Bew-RueA-J,7-55,flow,yearly
7,Benin,1.0,1.0,0.0,1.0,0.0,1.0,0.0,0.0,0.0,0.0,0.0,0.0,2019-12-01,7-55-Bew-RueA-J-d-2020-12.xlsx,7-55-Bew-RueA-J,7-55,flow,yearly
8,Burundi,1.0,1.0,0.0,1.0,1.0,0.0,1.0,0.0,0.0,0.0,0.0,0.0,2019-12-01,7-55-Bew-RueA-J-d-2020-12.xlsx,7-55-Bew-RueA-J,7-55,flow,yearly
9,Côte d'Ivoire,4.0,4.0,0.0,3.0,3.0,0.0,0.0,3.0,0.0,0.0,0.0,0.0,2019-12-01,7-55-Bew-RueA-J-d-2020-12.xlsx,7-55-Bew-RueA-J,7-55,flow,yearly
10,Eritrea,58.0,33.0,25.0,29.0,28.0,0.0,21.0,11.0,25.0,25.0,0.0,11.0,2019-12-01,7-55-Bew-RueA-J-d-2020-12.xlsx,7-55-Bew-RueA-J,7-55,flow,yearly
11,Gabun,1.0,1.0,0.0,1.0,1.0,0.0,0.0,0.0,0.0,0.0,0.0,0.0,2019-12-01,7-55-Bew-RueA-J-d-2020-12.xlsx,7-55-Bew-RueA-J,7-55,flow,yearly
12,Gambia,20.0,20.0,0.0,15.0,14.0,0.0,2.0,12.0,0.0,0.0,0.0,0.0,2019-12-01,7-55-Bew-RueA-J-d-2020-12.xlsx,7-55-Bew-RueA-J,7-55,flow,yearly
13,Ghana,1.0,1.0,0.0,1.0,1.0,0.0,2.0,2.0,0.0,0.0,0.0,0.0,2019-12-01,7-55-Bew-RueA-J-d-2020-12.xlsx,7-55-Bew-RueA-J,7-55,flow,yearly
14,Guinea,14.0,14.0,0.0,12.0,9.0,2.0,1.0,10.0,0.0,0.0,0.0,0.0,2019-12-01,7-55-Bew-RueA-J-d-2020-12.xlsx,7-55-Bew-RueA-J,7-55,flow,yearly
15,Guinea-Bissau,3.0,3.0,0.0,3.0,2.0,1.0,0.0,2.0,0.0,0.0,0.0,0.0,2019-12-01,7-55-Bew-RueA-J-d-2020-12.xlsx,7-55-Bew-RueA-J,7-55,flow,yearly
16,Kamerun,5.0,4.0,1.0,2.0,2.0,0.0,2.0,0.0,1.0,1.0,0.0,0.0,2019-12-01,7-55-Bew-RueA-J-d-2020-12.xlsx,7-55-Bew-RueA-J,7-55,flow,yearly
17,Kenia,1.0,1.0,0.0,2.0,1.0,0.0,1.0,1.0,0.0,0.0,0.0,0.0,2019-12-01,7-55-Bew-RueA-J-d-2020-12.xlsx,7-55-Bew-RueA-J,7-55,flow,yearly
18,Kongo DR,2.0,2.0,0.0,3.0,2.0,0.0,0.0,0.0,0.0,0.0,0.0,0.0,2019-12-01,7-55-Bew-RueA-J-d-2020-12.xlsx,7-55-Bew-RueA-J,7-55,flow,yearly
19,Liberia,1.0,1.0,0.0,1.0,0.0,1.0,0.0,0.0,0.0,0.0,0.0,0.0,2019-12-01,7-55-Bew-RueA-J-d-2020-12.xlsx,7-55-Bew-RueA-J,7-55,flow,yearly
20,Mali,4.0,4.0,0.0,5.0,5.0,0.0,0.0,4.0,0.0,0.0,0.0,0.0,2019-12-01,7-55-Bew-RueA-J-d-2020-12.xlsx,7-55-Bew-RueA-J,7-55,flow,yearly
21,Marokko,10.0,8.0,2.0,8.0,7.0,1.0,6.0,3.0,2.0,1.0,1.0,1.0,2019-12-01,7-55-Bew-RueA-J-d-2020-12.xlsx,7-55-Bew-RueA-J,7-55,flow,yearly
22,Mauretanien,2.0,2.0,0.0,2.0,2.0,0.0,0.0,2.0,0.0,0.0,0.0,0.0,2019-12-01,7-55-Bew-RueA-J-d-2020-12.xlsx,7-55-Bew-RueA-J,7-55,flow,yearly
23,Nigeria,93.0,93.0,0.0,88.0,68.0,9.0,7.0,63.0,0.0,0.0,0.0,0.0,2019-12-01,7-55-Bew-RueA-J-d-2020-12.xlsx,7-55-Bew-RueA-J,7-55,flow,yearly
24,Senegal,6.0,6.0,0.0,6.0,5.0,1.0,0.0,3.0,0.0,0.0,0.0,0.0,2019-12-01,7-55-Bew-RueA-J-d-2020-12.xlsx,7-55-Bew-RueA-J,7-55,flow,yearly
25,Sierra Leone,1.0,1.0,0.0,0.0,0.0,0.0,0.0,0.0,0.0,0.0,0.0,0.0,2019-12-01,7-55-Bew-RueA-J-d-2020-12.xlsx,7-55-Bew-RueA-J,7-55,flow,yearly
26,Somalia,49.0,43.0,6.0,29.0,24.0,1.0,33.0,11.0,6.0,2.0,4.0,0.0,2019-12-01,7-55-Bew-RueA-J-d-2020-12.xlsx,7-55-Bew-RueA-J,7-55,flow,yearly
27,Sudan,5.0,5.0,0.0,5.0,4.0,1.0,3.0,2.0,0.0,0.0,0.0,0.0,2019-12-01,7-55-Bew-RueA-J-d-2020-12.xlsx,7-55-Bew-RueA-J,7-55,flow,yearly
28,Südsudan,1.0,1.0,0.0,1.0,1.0,0.0,1.0,0.0,0.0,0.0,0.0,0.0,2019-12-01,7-55-Bew-RueA-J-d-2020-12.xlsx,7-55-Bew-RueA-J,7-55,flow,yearly
29,Tansania,0.0,0.0,0.0,0.0,0.0,0.0,0.0,1.0,0.0,0.0,0.0,0.0,2019-12-01,7-55-Bew-RueA-J-d-2020-12.xlsx,7-55-Bew-RueA-J,7-55,flow,yearly
30,Togo,1.0,1.0,0.0,1.0,1.0,0.0,0.0,0.0,0.0,0.0,0.0,0.0,2019-12-01,7-55-Bew-RueA-J-d-2020-12.xlsx,7-55-Bew-RueA-J,7-55,flow,yearly
31,Tschad,5.0,5.0,0.0,0.0,0.0,0.0,0.0,0.0,0.0,0.0,0.0,0.0,2019-12-01,7-55-Bew-RueA-J-d-2020-12.xlsx,7-55-Bew-RueA-J,7-55,flow,yearly
32,Tunesien,2.0,2.0,0.0,2.0,2.0,0.0,0.0,1.0,0.0,0.0,0.0,0.0,2019-12-01,7-55-Bew-RueA-J-d-2020-12.xlsx,7-55-Bew-RueA-J,7-55,flow,yearly
33,Zentralafr. Republik,1.0,1.0,0.0,1.0,1.0,0.0,1.0,1.0,0.0,0.0,0.0,0.0,2019-12-01,7-55-Bew-RueA-J-d-2020-12.xlsx,7-55-Bew-RueA-J,7-55,flow,yearly
34,Zimbabwe,1.0,1.0,0.0,1.0,0.0,1.0,0.0,0.0,0.0,0.0,0.0,0.0,2019-12-01,7-55-Bew-RueA-J-d-2020-12.xlsx,7-55-Bew-RueA-J,7-55,flow,yearly
35,Total Afrika,306.0,272.0,34.0,236.0,193.0,23.0,88.0,140.0,34.0,29.0,5.0,12.0,2019-12-01,7-55-Bew-RueA-J-d-2020-12.xlsx,7-55-Bew-RueA-J,7-55,flow,yearly
37,Chile,1.0,1.0,0.0,1.0,1.0,0.0,0.0,1.0,0.0,0.0,0.0,0.0,2019-12-01,7-55-Bew-RueA-J-d-2020-12.xlsx,7-55-Bew-RueA-J,7-55,flow,yearly
38,Dominikanische Republik,24.0,24.0,0.0,22.0,16.0,5.0,0.0,14.0,0.0,0.0,0.0,0.0,2019-12-01,7-55-Bew-RueA-J-d-2020-12.xlsx,7-55-Bew-RueA-J,7-55,flow,yearly
39,Ecuador,2.0,2.0,0.0,2.0,1.0,1.0,0.0,1.0,0.0,0.0,0.0,0.0,2019-12-01,7-55-Bew-RueA-J-d-2020-12.xlsx,7-55-Bew-RueA-J,7-55,flow,yearly
40,Kolumbien,4.0,4.0,0.0,4.0,2.0,2.0,0.0,2.0,0.0,0.0,0.0,0.0,2019-12-01,7-55-Bew-RueA-J-d-2020-12.xlsx,7-55-Bew-RueA-J,7-55,flow,yearly
41,Kuba,1.0,1.0,0.0,1.0,1.0,0.0,0.0,1.0,0.0,0.0,0.0,0.0,2019-12-01,7-55-Bew-RueA-J-d-2020-12.xlsx,7-55-Bew-RueA-J,7-55,flow,yearly
42,Mexiko,1.0,1.0,0.0,1.0,1.0,0.0,0.0,0.0,0.0,0.0,0.0,0.0,2019-12-01,7-55-Bew-RueA-J-d-2020-12.xlsx,7-55-Bew-RueA-J,7-55,flow,yearly
43,Peru,0.0,0.0,0.0,0.0,0.0,0.0,0.0,1.0,0.0,0.0,0.0,0.0,2019-12-01,7-55-Bew-RueA-J-d-2020-12.xlsx,7-55-Bew-RueA-J,7-55,flow,yearly
44,Venezuela,2.0,2.0,0.0,2.0,1.0,1.0,0.0,1.0,0.0,0.0,0.0,0.0,2019-12-01,7-55-Bew-RueA-J-d-2020-12.xlsx,7-55-Bew-RueA-J,7-55,flow,yearly
45,Total Amerika,35.0,35.0,0.0,33.0,23.0,9.0,0.0,21.0,0.0,0.0,0.0,0.0,2019-12-01,7-55-Bew-RueA-J-d-2020-12.xlsx,7-55-Bew-RueA-J,7-55,flow,yearly
47,Afghanistan,93.0,90.0,3.0,97.0,87.0,8.0,72.0,10.0,3.0,3.0,0.0,1.0,2019-12-01,7-55-Bew-RueA-J-d-2020-12.xlsx,7-55-Bew-RueA-J,7-55,flow,yearly
48,China (Volksrepublik),9.0,9.0,0.0,9.0,7.0,2.0,1.0,5.0,0.0,0.0,0.0,0.0,2019-12-01,7-55-Bew-RueA-J-d-2020-12.xlsx,7-55-Bew-RueA-J,7-55,flow,yearly
49,Georgien,2.0,2.0,0.0,1.0,0.0,1.0,3.0,0.0,0.0,0.0,0.0,0.0,2019-12-01,7-55-Bew-RueA-J-d-2020-12.xlsx,7-55-Bew-RueA-J,7-55,flow,yearly
50,Irak,79.0,78.0,1.0,76.0,71.0,3.0,59.0,13.0,1.0,1.0,0.0,0.0,2019-12-01,7-55-Bew-RueA-J-d-2020-12.xlsx,7-55-Bew-RueA-J,7-55,flow,yearly
51,Iran,20.0,20.0,0.0,21.0,20.0,0.0,22.0,5.0,0.0,0.0,0.0,0.0,2019-12-01,7-55-Bew-RueA-J-d-2020-12.xlsx,7-55-Bew-RueA-J,7-55,flow,yearly
52,Jemen,1.0,1.0,0.0,1.0,1.0,0.0,0.0,0.0,0.0,0.0,0.0,0.0,2019-12-01,7-55-Bew-RueA-J-d-2020-12.xlsx,7-55-Bew-RueA-J,7-55,flow,yearly
53,Libanon,1.0,0.0,1.0,0.0,0.0,0.0,0.0,0.0,1.0,1.0,0.0,0.0,2019-12-01,7-55-Bew-RueA-J-d-2020-12.xlsx,7-55-Bew-RueA-J,7-55,flow,yearly
54,Nepal,1.0,1.0,0.0,1.0,0.0,1.0,0.0,0.0,0.0,0.0,0.0,0.0,2019-12-01,7-55-Bew-RueA-J-d-2020-12.xlsx,7-55-Bew-RueA-J,7-55,flow,yearly
55,Pakistan,7.0,7.0,0.0,11.0,9.0,1.0,5.0,6.0,0.0,0.0,0.0,0.0,2019-12-01,7-55-Bew-RueA-J-d-2020-12.xlsx,7-55-Bew-RueA-J,7-55,flow,yearly
56,Sri Lanka,2.0,2.0,0.0,1.0,1.0,0.0,1.0,0.0,0.0,0.0,0.0,0.0,2019-12-01,7-55-Bew-RueA-J-d-2020-12.xlsx,7-55-Bew-RueA-J,7-55,flow,yearly
57,Syrien,66.0,62.0,4.0,68.0,67.0,0.0,30.0,11.0,4.0,1.0,3.0,1.0,2019-12-01,7-55-Bew-RueA-J-d-2020-12.xlsx,7-55-Bew-RueA-J,7-55,flow,yearly
58,Thailand,1.0,0.0,1.0,0.0,0.0,0.0,0.0,0.0,1.0,1.0,0.0,0.0,2019-12-01,7-55-Bew-RueA-J-d-2020-12.xlsx,7-55-Bew-RueA-J,7-55,flow,yearly
59,Total Asien,282.0,272.0,10.0,286.0,263.0,16.0,193.0,50.0,10.0,7.0,3.0,2.0,2019-12-01,7-55-Bew-RueA-J-d-2020-12.xlsx,7-55-Bew-RueA-J,7-55,flow,yearly
61,Albanien,3.0,2.0,1.0,2.0,2.0,0.0,0.0,2.0,1.0,1.0,0.0,1.0,2019-12-01,7-55-Bew-RueA-J-d-2020-12.xlsx,7-55-Bew-RueA-J,7-55,flow,yearly
62,Bosnien u. Herzegowina,1.0,0.0,1.0,0.0,0.0,0.0,0.0,0.0,1.0,1.0,0.0,1.0,2019-12-01,7-55-Bew-RueA-J-d-2020-12.xlsx,7-55-Bew-RueA-J,7-55,flow,yearly
63,Bulgarien,1.0,1.0,0.0,1.0,1.0,0.0,0.0,0.0,0.0,0.0,0.0,0.0,2019-12-01,7-55-Bew-RueA-J-d-2020-12.xlsx,7-55-Bew-RueA-J,7-55,flow,yearly
64,Estland,1.0,1.0,0.0,1.0,0.0,1.0,0.0,0.0,0.0,0.0,0.0,0.0,2019-12-01,7-55-Bew-RueA-J-d-2020-12.xlsx,7-55-Bew-RueA-J,7-55,flow,yearly
65,Griechenland,2.0,2.0,0.0,2.0,2.0,0.0,0.0,1.0,0.0,0.0,0.0,0.0,2019-12-01,7-55-Bew-RueA-J-d-2020-12.xlsx,7-55-Bew-RueA-J,7-55,flow,yearly
66,Grossbritannien,4.0,4.0,0.0,3.0,1.0,2.0,0.0,0.0,0.0,0.0,0.0,0.0,2019-12-01,7-55-Bew-RueA-J-d-2020-12.xlsx,7-55-Bew-RueA-J,7-55,flow,yearly
67,Italien,2.0,2.0,0.0,2.0,2.0,0.0,0.0,1.0,0.0,0.0,0.0,0.0,2019-12-01,7-55-Bew-RueA-J-d-2020-12.xlsx,7-55-Bew-RueA-J,7-55,flow,yearly
68,Kosovo,2.0,2.0,0.0,3.0,3.0,0.0,1.0,2.0,0.0,0.0,0.0,0.0,2019-12-01,7-55-Bew-RueA-J-d-2020-12.xlsx,7-55-Bew-RueA-J,7-55,flow,yearly
69,Kroatien,7.0,7.0,0.0,7.0,7.0,0.0,0.0,5.0,0.0,0.0,0.0,0.0,2019-12-01,7-55-Bew-RueA-J-d-2020-12.xlsx,7-55-Bew-RueA-J,7-55,flow,yearly
70,Litauen,3.0,3.0,0.0,3.0,3.0,0.0,0.0,4.0,0.0,0.0,0.0,0.0,2019-12-01,7-55-Bew-RueA-J-d-2020-12.xlsx,7-55-Bew-RueA-J,7-55,flow,yearly
71,Nordmazedonien,0.0,0.0,0.0,0.0,0.0,0.0,1.0,0.0,0.0,0.0,0.0,0.0,2019-12-01,7-55-Bew-RueA-J-d-2020-12.xlsx,7-55-Bew-RueA-J,7-55,flow,yearly
72,Moldova,3.0,3.0,0.0,3.0,2.0,1.0,0.0,2.0,0.0,0.0,0.0,0.0,2019-12-01,7-55-Bew-RueA-J-d-2020-12.xlsx,7-55-Bew-RueA-J,7-55,flow,yearly
73,Montenegro,1.0,1.0,0.0,1.0,1.0,0.0,0.0,1.0,0.0,0.0,0.0,0.0,2019-12-01,7-55-Bew-RueA-J-d-2020-12.xlsx,7-55-Bew-RueA-J,7-55,flow,yearly
74,Niederlande,6.0,6.0,0.0,6.0,6.0,0.0,0.0,5.0,0.0,0.0,0.0,0.0,2019-12-01,7-55-Bew-RueA-J-d-2020-12.xlsx,7-55-Bew-RueA-J,7-55,flow,yearly
75,Polen,13.0,13.0,0.0,13.0,12.0,0.0,0.0,9.0,0.0,0.0,0.0,0.0,2019-12-01,7-55-Bew-RueA-J-d-2020-12.xlsx,7-55-Bew-RueA-J,7-55,flow,yearly
76,Rumänien,47.0,47.0,0.0,46.0,44.0,2.0,0.0,35.0,0.0,0.0,0.0,0.0,2019-12-01,7-55-Bew-RueA-J-d-2020-12.xlsx,7-55-Bew-RueA-J,7-55,flow,yearly
77,Russland,5.0,5.0,0.0,7.0,7.0,0.0,4.0,5.0,0.0,0.0,0.0,0.0,2019-12-01,7-55-Bew-RueA-J-d-2020-12.xlsx,7-55-Bew-RueA-J,7-55,flow,yearly
78,Schweden,1.0,1.0,0.0,1.0,0.0,1.0,0.0,0.0,0.0,0.0,0.0,0.0,2019-12-01,7-55-Bew-RueA-J-d-2020-12.xlsx,7-55-Bew-RueA-J,7-55,flow,yearly
79,Serbien,5.0,4.0,1.0,3.0,3.0,0.0,0.0,1.0,1.0,1.0,0.0,0.0,2019-12-01,7-55-Bew-RueA-J-d-2020-12.xlsx,7-55-Bew-RueA-J,7-55,flow,yearly
80,Slowakische Republik,8.0,8.0,0.0,8.0,8.0,0.0,0.0,4.0,0.0,0.0,0.0,0.0,2019-12-01,7-55-Bew-RueA-J-d-2020-12.xlsx,7-55-Bew-RueA-J,7-55,flow,yearly
81,Slowenien,1.0,1.0,0.0,1.0,1.0,0.0,0.0,1.0,0.0,0.0,0.0,0.0,2019-12-01,7-55-Bew-RueA-J-d-2020-12.xlsx,7-55-Bew-RueA-J,7-55,flow,yearly
82,Spanien,8.0,8.0,0.0,7.0,7.0,0.0,0.0,7.0,0.0,0.0,0.0,0.0,2019-12-01,7-55-Bew-RueA-J-d-2020-12.xlsx,7-55-Bew-RueA-J,7-55,flow,yearly
83,Tschechische Republik,2.0,2.0,0.0,2.0,2.0,0.0,0.0,2.0,0.0,0.0,0.0,0.0,2019-12-01,7-55-Bew-RueA-J-d-2020-12.xlsx,7-55-Bew-RueA-J,7-55,flow,yearly
84,Türkei,3.0,2.0,1.0,3.0,2.0,0.0,1.0,1.0,1.0,0.0,1.0,0.0,2019-12-01,7-55-Bew-RueA-J-d-2020-12.xlsx,7-55-Bew-RueA-J,7-55,flow,yearly
85,Ukraine,3.0,3.0,0.0,5.0,5.0,0.0,8.0,3.0,0.0,0.0,0.0,0.0,2019-12-01,7-55-Bew-RueA-J-d-2020-12.xlsx,7-55-Bew-RueA-J,7-55,flow,yearly
86,Ungarn,7.0,7.0,0.0,7.0,6.0,1.0,0.0,4.0,0.0,0.0,0.0,0.0,2019-12-01,7-55-Bew-RueA-J-d-2020-12.xlsx,7-55-Bew-RueA-J,7-55,flow,yearly
87,Total Europa,139.0,135.0,4.0,137.0,127.0,8.0,15.0,95.0,4.0,3.0,1.0,2.0,2019-12-01,7-55-Bew-RueA-J-d-2020-12.xlsx,7-55-Bew-RueA-J,7-55,flow,yearly
89,Staatenlos,4.0,4.0,0.0,4.0,4.0,0.0,2.0,1.0,0.0,0.0,0.0,0.0,2019-12-01,7-55-Bew-RueA-J-d-2020-12.xlsx,7-55-Bew-RueA-J,7-55,flow,yearly
90,Ohne Nationalität,9.0,9.0,0.0,10.0,9.0,1.0,4.0,6.0,0.0,0.0,0.0,0.0,2019-12-01,7-55-Bew-RueA-J-d-2020-12.xlsx,7-55-Bew-RueA-J,7-55,flow,yearly
91,Staat unbekannt,14.0,14.0,0.0,13.0,12.0,1.0,1.0,13.0,0.0,0.0,0.0,0.0,2019-12-01,7-55-Bew-RueA-J-d-2020-12.xlsx,7-55-Bew-RueA-J,7-55,flow,yearly
92,Total Herkunft unbek.,27.0,27.0,0.0,27.0,25.0,2.0,7.0,20.0,0.0,0.0,0.0,0.0,2019-12-01,7-55-Bew-RueA-J-d-2020-12.xlsx,7-55-Bew-RueA-J,7-55,flow,yearly
0,Herkunft unbekannt,20.0,18.0,2.0,18.0,15.0,1.0,4.0,6.0,2.0,2.0,0.0,0.0,2018-12-01,7-55-Bew-RueA-J-d-2020-12.xlsx,7-55-Bew-RueA-J,7-55,flow,yearly
2,Ägypten,4.0,3.0,1.0,3.0,0.0,0.0,0.0,0.0,1.0,1.0,0.0,1.0,2018-12-01,7-55-Bew-RueA-J-d-2020-12.xlsx,7-55-Bew-RueA-J,7-55,flow,yearly
3,Algerien,11.0,11.0,0.0,10.0,8.0,2.0,2.0,5.0,0.0,0.0,0.0,0.0,2018-12-01,7-55-Bew-RueA-J-d-2020-12.xlsx,7-55-Bew-RueA-J,7-55,flow,yearly
4,Äquatorialguinea,1.0,1.0,0.0,1.0,0.0,1.0,0.0,0.0,0.0,0.0,0.0,0.0,2018-12-01,7-55-Bew-RueA-J-d-2020-12.xlsx,7-55-Bew-RueA-J,7-55,flow,yearly
5,Äthiopien,11.0,11.0,0.0,14.0,10.0,2.0,10.0,1.0,0.0,0.0,0.0,0.0,2018-12-01,7-55-Bew-RueA-J-d-2020-12.xlsx,7-55-Bew-RueA-J,7-55,flow,yearly
6,Burundi,1.0,1.0,0.0,1.0,1.0,0.0,1.0,1.0,0.0,0.0,0.0,0.0,2018-12-01,7-55-Bew-RueA-J-d-2020-12.xlsx,7-55-Bew-RueA-J,7-55,flow,yearly
7,Côte d'Ivoire,1.0,1.0,0.0,1.0,1.0,0.0,0.0,1.0,0.0,0.0,0.0,0.0,2018-12-01,7-55-Bew-RueA-J-d-2020-12.xlsx,7-55-Bew-RueA-J,7-55,flow,yearly
8,Eritrea,66.0,48.0,18.0,56.0,43.0,3.0,30.0,16.0,18.0,17.0,0.0,5.0,2018-12-01,7-55-Bew-RueA-J-d-2020-12.xlsx,7-55-Bew-RueA-J,7-55,flow,yearly
9,Gambia,16.0,16.0,0.0,14.0,14.0,0.0,1.0,12.0,0.0,0.0,0.0,0.0,2018-12-01,7-55-Bew-RueA-J-d-2020-12.xlsx,7-55-Bew-RueA-J,7-55,flow,yearly
10,Ghana,3.0,3.0,0.0,5.0,5.0,0.0,2.0,3.0,0.0,0.0,0.0,0.0,2018-12-01,7-55-Bew-RueA-J-d-2020-12.xlsx,7-55-Bew-RueA-J,7-55,flow,yearly
11,Guinea,17.0,17.0,0.0,16.0,11.0,5.0,1.0,7.0,0.0,0.0,0.0,0.0,2018-12-01,7-55-Bew-RueA-J-d-2020-12.xlsx,7-55-Bew-RueA-J,7-55,flow,yearly
12,Guinea-Bissau,4.0,4.0,0.0,6.0,4.0,2.0,0.0,2.0,0.0,0.0,0.0,0.0,2018-12-01,7-55-Bew-RueA-J-d-2020-12.xlsx,7-55-Bew-RueA-J,7-55,flow,yearly
13,Kenia,1.0,1.0,0.0,0.0,0.0,0.0,0.0,0.0,0.0,0.0,0.0,0.0,2018-12-01,7-55-Bew-RueA-J-d-2020-12.xlsx,7-55-Bew-RueA-J,7-55,flow,yearly
14,Kongo DR,0.0,0.0,0.0,0.0,0.0,0.0,0.0,7.0,0.0,0.0,0.0,0.0,2018-12-01,7-55-Bew-RueA-J-d-2020-12.xlsx,7-55-Bew-RueA-J,7-55,flow,yearly
15,Liberia,0.0,0.0,0.0,1.0,1.0,0.0,3.0,0.0,0.0,0.0,0.0,0.0,2018-12-01,7-55-Bew-RueA-J-d-2020-12.xlsx,7-55-Bew-RueA-J,7-55,flow,yearly
16,Libyen,3.0,3.0,0.0,5.0,3.0,2.0,2.0,2.0,0.0,0.0,0.0,0.0,2018-12-01,7-55-Bew-RueA-J-d-2020-12.xlsx,7-55-Bew-RueA-J,7-55,flow,yearly
17,Mali,11.0,11.0,0.0,13.0,12.0,1.0,1.0,9.0,0.0,0.0,0.0,0.0,2018-12-01,7-55-Bew-RueA-J-d-2020-12.xlsx,7-55-Bew-RueA-J,7-55,flow,yearly
18,Marokko,8.0,8.0,0.0,8.0,6.0,1.0,1.0,4.0,0.0,0.0,0.0,0.0,2018-12-01,7-55-Bew-RueA-J-d-2020-12.xlsx,7-55-Bew-RueA-J,7-55,flow,yearly
19,Niger,7.0,7.0,0.0,6.0,5.0,1.0,0.0,5.0,0.0,0.0,0.0,0.0,2018-12-01,7-55-Bew-RueA-J-d-2020-12.xlsx,7-55-Bew-RueA-J,7-55,flow,yearly
20,Nigeria,115.0,115.0,0.0,114.0,99.0,10.0,8.0,79.0,0.0,0.0,0.0,0.0,2018-12-01,7-55-Bew-RueA-J-d-2020-12.xlsx,7-55-Bew-RueA-J,7-55,flow,yearly
21,Senegal,6.0,6.0,0.0,5.0,4.0,0.0,0.0,2.0,0.0,0.0,0.0,0.0,2018-12-01,7-55-Bew-RueA-J-d-2020-12.xlsx,7-55-Bew-RueA-J,7-55,flow,yearly
22,Sierra Leone,3.0,3.0,0.0,3.0,2.0,1.0,0.0,1.0,0.0,0.0,0.0,0.0,2018-12-01,7-55-Bew-RueA-J-d-2020-12.xlsx,7-55-Bew-RueA-J,7-55,flow,yearly
23,Somalia,46.0,41.0,5.0,47.0,28.0,17.0,23.0,6.0,5.0,2.0,3.0,3.0,2018-12-01,7-55-Bew-RueA-J-d-2020-12.xlsx,7-55-Bew-RueA-J,7-55,flow,yearly
24,Sudan,6.0,6.0,0.0,5.0,4.0,1.0,0.0,3.0,0.0,0.0,0.0,0.0,2018-12-01,7-55-Bew-RueA-J-d-2020-12.xlsx,7-55-Bew-RueA-J,7-55,flow,yearly
25,Südsudan,1.0,1.0,0.0,0.0,0.0,0.0,0.0,0.0,0.0,0.0,0.0,0.0,2018-12-01,7-55-Bew-RueA-J-d-2020-12.xlsx,7-55-Bew-RueA-J,7-55,flow,yearly
26,Tansania,1.0,1.0,0.0,1.0,1.0,0.0,0.0,0.0,0.0,0.0,0.0,0.0,2018-12-01,7-55-Bew-RueA-J-d-2020-12.xlsx,7-55-Bew-RueA-J,7-55,flow,yearly
27,Togo,1.0,1.0,0.0,1.0,1.0,0.0,0.0,0.0,0.0,0.0,0.0,0.0,2018-12-01,7-55-Bew-RueA-J-d-2020-12.xlsx,7-55-Bew-RueA-J,7-55,flow,yearly
28,Tunesien,2.0,2.0,0.0,1.0,0.0,1.0,0.0,0.0,0.0,0.0,0.0,0.0,2018-12-01,7-55-Bew-RueA-J-d-2020-12.xlsx,7-55-Bew-RueA-J,7-55,flow,yearly
29,Total Afrika,346.0,322.0,24.0,337.0,263.0,50.0,85.0,166.0,24.0,20.0,3.0,9.0,2018-12-01,7-55-Bew-RueA-J-d-2020-12.xlsx,7-55-Bew-RueA-J,7-55,flow,yearly
31,Bolivien,2.0,2.0,0.0,2.0,2.0,0.0,0.0,2.0,0.0,0.0,0.0,0.0,2018-12-01,7-55-Bew-RueA-J-d-2020-12.xlsx,7-55-Bew-RueA-J,7-55,flow,yearly
32,Brasilien,1.0,1.0,0.0,1.0,1.0,0.0,0.0,1.0,0.0,0.0,0.0,0.0,2018-12-01,7-55-Bew-RueA-J-d-2020-12.xlsx,7-55-Bew-RueA-J,7-55,flow,yearly
33,Chile,1.0,1.0,0.0,1.0,1.0,0.0,0.0,0.0,0.0,0.0,0.0,0.0,2018-12-01,7-55-Bew-RueA-J-d-2020-12.xlsx,7-55-Bew-RueA-J,7-55,flow,yearly
34,Dominikanische Republik,18.0,18.0,0.0,19.0,16.0,3.0,0.0,17.0,0.0,0.0,0.0,0.0,2018-12-01,7-55-Bew-RueA-J-d-2020-12.xlsx,7-55-Bew-RueA-J,7-55,flow,yearly
35,Ecuador,3.0,3.0,0.0,3.0,1.0,2.0,0.0,1.0,0.0,0.0,0.0,0.0,2018-12-01,7-55-Bew-RueA-J-d-2020-12.xlsx,7-55-Bew-RueA-J,7-55,flow,yearly
36,Kolumbien,4.0,4.0,0.0,4.0,4.0,0.0,0.0,4.0,0.0,0.0,0.0,0.0,2018-12-01,7-55-Bew-RueA-J-d-2020-12.xlsx,7-55-Bew-RueA-J,7-55,flow,yearly
37,Mexiko,0.0,0.0,0.0,0.0,0.0,0.0,1.0,0.0,0.0,0.0,0.0,0.0,2018-12-01,7-55-Bew-RueA-J-d-2020-12.xlsx,7-55-Bew-RueA-J,7-55,flow,yearly
38,Peru,1.0,1.0,0.0,1.0,1.0,0.0,0.0,0.0,0.0,0.0,0.0,0.0,2018-12-01,7-55-Bew-RueA-J-d-2020-12.xlsx,7-55-Bew-RueA-J,7-55,flow,yearly
39,Venezuela,1.0,1.0,0.0,1.0,1.0,0.0,0.0,1.0,0.0,0.0,0.0,0.0,2018-12-01,7-55-Bew-RueA-J-d-2020-12.xlsx,7-55-Bew-RueA-J,7-55,flow,yearly
40,Total Amerika,31.0,31.0,0.0,32.0,27.0,5.0,1.0,26.0,0.0,0.0,0.0,0.0,2018-12-01,7-55-Bew-RueA-J-d-2020-12.xlsx,7-55-Bew-RueA-J,7-55,flow,yearly
42,Afghanistan,107.0,103.0,4.0,86.0,82.0,3.0,78.0,20.0,4.0,4.0,0.0,1.0,2018-12-01,7-55-Bew-RueA-J-d-2020-12.xlsx,7-55-Bew-RueA-J,7-55,flow,yearly
43,Armenien,0.0,0.0,0.0,0.0,0.0,0.0,0.0,1.0,0.0,0.0,0.0,0.0,2018-12-01,7-55-Bew-RueA-J-d-2020-12.xlsx,7-55-Bew-RueA-J,7-55,flow,yearly
44,Bangladesh,1.0,1.0,0.0,1.0,1.0,0.0,0.0,1.0,0.0,0.0,0.0,0.0,2018-12-01,7-55-Bew-RueA-J-d-2020-12.xlsx,7-55-Bew-RueA-J,7-55,flow,yearly
45,China (Volksrepublik),8.0,8.0,0.0,7.0,7.0,0.0,1.0,8.0,0.0,0.0,0.0,0.0,2018-12-01,7-55-Bew-RueA-J-d-2020-12.xlsx,7-55-Bew-RueA-J,7-55,flow,yearly
46,Georgien,3.0,3.0,0.0,3.0,3.0,0.0,4.0,2.0,0.0,0.0,0.0,0.0,2018-12-01,7-55-Bew-RueA-J-d-2020-12.xlsx,7-55-Bew-RueA-J,7-55,flow,yearly
47,Irak,29.0,28.0,1.0,33.0,31.0,0.0,16.0,9.0,1.0,1.0,0.0,1.0,2018-12-01,7-55-Bew-RueA-J-d-2020-12.xlsx,7-55-Bew-RueA-J,7-55,flow,yearly
48,Iran,15.0,14.0,1.0,15.0,15.0,0.0,12.0,7.0,1.0,1.0,0.0,1.0,2018-12-01,7-55-Bew-RueA-J-d-2020-12.xlsx,7-55-Bew-RueA-J,7-55,flow,yearly
49,Jemen,1.0,1.0,0.0,1.0,1.0,0.0,1.0,0.0,0.0,0.0,0.0,0.0,2018-12-01,7-55-Bew-RueA-J-d-2020-12.xlsx,7-55-Bew-RueA-J,7-55,flow,yearly
50,Mongolei,1.0,1.0,0.0,1.0,1.0,0.0,0.0,1.0,0.0,0.0,0.0,0.0,2018-12-01,7-55-Bew-RueA-J-d-2020-12.xlsx,7-55-Bew-RueA-J,7-55,flow,yearly
51,Pakistan,3.0,3.0,0.0,3.0,3.0,0.0,6.0,2.0,0.0,0.0,0.0,0.0,2018-12-01,7-55-Bew-RueA-J-d-2020-12.xlsx,7-55-Bew-RueA-J,7-55,flow,yearly
52,Saudi-Arabien,1.0,1.0,0.0,1.0,1.0,0.0,1.0,1.0,0.0,0.0,0.0,0.0,2018-12-01,7-55-Bew-RueA-J-d-2020-12.xlsx,7-55-Bew-RueA-J,7-55,flow,yearly
53,Sri Lanka,2.0,2.0,0.0,2.0,2.0,0.0,3.0,0.0,0.0,0.0,0.0,0.0,2018-12-01,7-55-Bew-RueA-J-d-2020-12.xlsx,7-55-Bew-RueA-J,7-55,flow,yearly
54,Syrien,46.0,45.0,1.0,41.0,39.0,0.0,38.0,5.0,1.0,1.0,0.0,0.0,2018-12-01,7-55-Bew-RueA-J-d-2020-12.xlsx,7-55-Bew-RueA-J,7-55,flow,yearly
55,Vietnam,2.0,2.0,0.0,2.0,1.0,1.0,0.0,0.0,0.0,0.0,0.0,0.0,2018-12-01,7-55-Bew-RueA-J-d-2020-12.xlsx,7-55-Bew-RueA-J,7-55,flow,yearly
56,Total Asien,219.0,212.0,7.0,196.0,187.0,4.0,160.0,57.0,7.0,7.0,0.0,3.0,2018-12-01,7-55-Bew-RueA-J-d-2020-12.xlsx,7-55-Bew-RueA-J,7-55,flow,yearly
58,Albanien,2.0,2.0,0.0,2.0,2.0,0.0,0.0,1.0,0.0,0.0,0.0,0.0,2018-12-01,7-55-Bew-RueA-J-d-2020-12.xlsx,7-55-Bew-RueA-J,7-55,flow,yearly
59,Bosnien u. Herzegowina,2.0,2.0,0.0,2.0,0.0,2.0,0.0,0.0,0.0,0.0,0.0,0.0,2018-12-01,7-55-Bew-RueA-J-d-2020-12.xlsx,7-55-Bew-RueA-J,7-55,flow,yearly
60,Bulgarien,3.0,3.0,0.0,3.0,2.0,0.0,0.0,3.0,0.0,0.0,0.0,0.0,2018-12-01,7-55-Bew-RueA-J-d-2020-12.xlsx,7-55-Bew-RueA-J,7-55,flow,yearly
61,Frankreich,1.0,1.0,0.0,1.0,1.0,0.0,0.0,1.0,0.0,0.0,0.0,0.0,2018-12-01,7-55-Bew-RueA-J-d-2020-12.xlsx,7-55-Bew-RueA-J,7-55,flow,yearly
62,Grossbritannien,0.0,0.0,0.0,0.0,0.0,0.0,0.0,0.0,0.0,0.0,0.0,0.0,2018-12-01,7-55-Bew-RueA-J-d-2020-12.xlsx,7-55-Bew-RueA-J,7-55,flow,yearly
63,Irland,1.0,1.0,0.0,1.0,1.0,0.0,0.0,1.0,0.0,0.0,0.0,0.0,2018-12-01,7-55-Bew-RueA-J-d-2020-12.xlsx,7-55-Bew-RueA-J,7-55,flow,yearly
64,Italien,3.0,3.0,0.0,3.0,3.0,0.0,0.0,3.0,0.0,0.0,0.0,0.0,2018-12-01,7-55-Bew-RueA-J-d-2020-12.xlsx,7-55-Bew-RueA-J,7-55,flow,yearly
65,Kosovo,2.0,2.0,0.0,1.0,1.0,0.0,0.0,2.0,0.0,0.0,0.0,0.0,2018-12-01,7-55-Bew-RueA-J-d-2020-12.xlsx,7-55-Bew-RueA-J,7-55,flow,yearly
66,Kroatien,9.0,9.0,0.0,9.0,5.0,3.0,0.0,4.0,0.0,0.0,0.0,0.0,2018-12-01,7-55-Bew-RueA-J-d-2020-12.xlsx,7-55-Bew-RueA-J,7-55,flow,yearly
67,Lettland,1.0,1.0,0.0,1.0,1.0,0.0,0.0,0.0,0.0,0.0,0.0,0.0,2018-12-01,7-55-Bew-RueA-J-d-2020-12.xlsx,7-55-Bew-RueA-J,7-55,flow,yearly
68,Litauen,7.0,7.0,0.0,7.0,7.0,0.0,0.0,5.0,0.0,0.0,0.0,0.0,2018-12-01,7-55-Bew-RueA-J-d-2020-12.xlsx,7-55-Bew-RueA-J,7-55,flow,yearly
69,Mazedonien eh.Jug.Rep.,1.0,1.0,0.0,1.0,1.0,0.0,0.0,0.0,0.0,0.0,0.0,0.0,2018-12-01,7-55-Bew-RueA-J-d-2020-12.xlsx,7-55-Bew-RueA-J,7-55,flow,yearly
70,Moldova,1.0,1.0,0.0,1.0,1.0,0.0,0.0,1.0,0.0,0.0,0.0,0.0,2018-12-01,7-55-Bew-RueA-J-d-2020-12.xlsx,7-55-Bew-RueA-J,7-55,flow,yearly
71,Niederlande,4.0,4.0,0.0,5.0,4.0,1.0,0.0,4.0,0.0,0.0,0.0,0.0,2018-12-01,7-55-Bew-RueA-J-d-2020-12.xlsx,7-55-Bew-RueA-J,7-55,flow,yearly
72,Polen,13.0,13.0,0.0,13.0,13.0,0.0,0.0,10.0,0.0,0.0,0.0,0.0,2018-12-01,7-55-Bew-RueA-J-d-2020-12.xlsx,7-55-Bew-RueA-J,7-55,flow,yearly
73,Rumänien,51.0,51.0,0.0,50.0,46.0,4.0,0.0,44.0,0.0,0.0,0.0,0.0,2018-12-01,7-55-Bew-RueA-J-d-2020-12.xlsx,7-55-Bew-RueA-J,7-55,flow,yearly
74,Russland,7.0,7.0,0.0,5.0,5.0,0.0,3.0,6.0,0.0,0.0,0.0,0.0,2018-12-01,7-55-Bew-RueA-J-d-2020-12.xlsx,7-55-Bew-RueA-J,7-55,flow,yearly
75,Serbien,7.0,6.0,1.0,6.0,3.0,3.0,0.0,2.0,1.0,0.0,1.0,0.0,2018-12-01,7-55-Bew-RueA-J-d-2020-12.xlsx,7-55-Bew-RueA-J,7-55,flow,yearly
76,Slowakische Republik,3.0,3.0,0.0,4.0,4.0,0.0,0.0,4.0,0.0,0.0,0.0,0.0,2018-12-01,7-55-Bew-RueA-J-d-2020-12.xlsx,7-55-Bew-RueA-J,7-55,flow,yearly
77,Slowenien,1.0,1.0,0.0,1.0,0.0,1.0,0.0,1.0,0.0,0.0,0.0,0.0,2018-12-01,7-55-Bew-RueA-J-d-2020-12.xlsx,7-55-Bew-RueA-J,7-55,flow,yearly
78,Spanien,10.0,10.0,0.0,10.0,9.0,1.0,0.0,7.0,0.0,0.0,0.0,0.0,2018-12-01,7-55-Bew-RueA-J-d-2020-12.xlsx,7-55-Bew-RueA-J,7-55,flow,yearly
79,Tschechische Republik,2.0,2.0,0.0,2.0,2.0,0.0,0.0,2.0,0.0,0.0,0.0,0.0,2018-12-01,7-55-Bew-RueA-J-d-2020-12.xlsx,7-55-Bew-RueA-J,7-55,flow,yearly
80,Türkei,9.0,6.0,3.0,5.0,4.0,0.0,0.0,1.0,3.0,3.0,0.0,0.0,2018-12-01,7-55-Bew-RueA-J-d-2020-12.xlsx,7-55-Bew-RueA-J,7-55,flow,yearly
81,Ukraine,3.0,3.0,0.0,1.0,1.0,0.0,2.0,1.0,0.0,0.0,0.0,0.0,2018-12-01,7-55-Bew-RueA-J-d-2020-12.xlsx,7-55-Bew-RueA-J,7-55,flow,yearly
82,Ungarn,6.0,6.0,0.0,6.0,6.0,0.0,0.0,6.0,0.0,0.0,0.0,0.0,2018-12-01,7-55-Bew-RueA-J-d-2020-12.xlsx,7-55-Bew-RueA-J,7-55,flow,yearly
83,Total Europa,149.0,145.0,4.0,140.0,122.0,15.0,5.0,109.0,4.0,3.0,1.0,0.0,2018-12-01,7-55-Bew-RueA-J-d-2020-12.xlsx,7-55-Bew-RueA-J,7-55,flow,yearly
85,Staatenlos,1.0,1.0,0.0,1.0,1.0,0.0,1.0,0.0,0.0,0.0,0.0,0.0,2018-12-01,7-55-Bew-RueA-J-d-2020-12.xlsx,7-55-Bew-RueA-J,7-55,flow,yearly
86,Ohne Nationalität,8.0,7.0,1.0,6.0,6.0,0.0,2.0,2.0,1.0,1.0,0.0,0.0,2018-12-01,7-55-Bew-RueA-J-d-2020-12.xlsx,7-55-Bew-RueA-J,7-55,flow,yearly
87,Staat unbekannt,11.0,10.0,1.0,11.0,8.0,1.0,1.0,4.0,1.0,1.0,0.0,0.0,2018-12-01,7-55-Bew-RueA-J-d-2020-12.xlsx,7-55-Bew-RueA-J,7-55,flow,yearly
88,Total Herkunft unbek.,20.0,18.0,2.0,18.0,15.0,1.0,4.0,6.0,2.0,2.0,0.0,0.0,2018-12-01,7-55-Bew-RueA-J-d-2020-12.xlsx,7-55-Bew-RueA-J,7-55,flow,yearly
